{
    "doi": "http://dx.doi.org/10.1177/00221465211023424",
    "abstract": "Adults with disability have significantly lower rates of labor force participation relative to persons without disability, although it is unclear whether this disparity extends to subjective workplace experiences. Using data from the 2004 to 2006 wave of the National Survey of Midlife Development in the United States (n =2,030), we evaluate: (1) whether U.S. workers with physical disability report higher levels of perceived job discrimination and unequal workplace opportunities and lower levels of supervisor and coworker support and (2) whether these patterns differ by sex, age, and occupation group. We find that workers with physical disability fare significantly worse on all four outcomes net of covariates. Disability takes a particularly large toll on men\u2019s perceived workplace opportunities and white-collar employees\u2019 relationships with coworkers. Young adult workers (ages 30\u201339) with disability report significantly more support from their supervisor relative to their counterparts without disability. We discuss implications for research and policy.",
    "sections": [
        {
            "title": "Introduction",
            "subsections": [
                {
                    "title": null,
                    "paragraphs": [
                        "Physical disability refers to a physical condition that limits one's capacity to engage in activities in any domain of life, from work to recreation (Verbrugge and Jette 1994). More than 60 million working-age adults in the United States report at least some difficulty with physical functioning, such as walking or lifting (Centers for Disease Control and Prevention 2020). Rates of disability among working-age adults have increased in recent years, raising concerns about the short- and long-term consequences for their economic well-being (Joffe-Walt 2013; Shandra 2018). One-quarter of all U.S. nonworkers ages 20 to 64 cite disability as their main reason for not working (Dalirazar 2007). In 2018, just 21% of working-age persons with any type of disability were in the labor force, compared with 69% of those without disability (Bureau of Labor Statistics 2020).",
                        "The link between disability and labor force participation is well documented, but less is known about the everyday working lives of employed persons with physical disability. Employment is a potentially important source of purpose and social integration for adults with disability, who may be isolated from other forms of engagement due to physical or environmental barriers (Vornholt, Uitdewilligen, and Nijhuis 2013). Studies based on national survey data show that persons with functional limitations are at heightened risk of institutional discrimination, including being fired or not given a promotion (Namkung and Carr 2019). Focus group interviews find that workers with disability say they are treated like \"second-class citizens\" and that their intelligence and skills are underestimated (Keller and Galgay 2010:249-50). However, we know of no national population-based studies examining how physical disability affects everyday aspects of work, including relationships with coworkers and supervisor and perceptions of inequitable and discriminatory treatment, and whether these patterns are conditioned by other personal characteristics like one's gender, age, or occupation.",
                        "We use data from the 2004 to 2006 wave of the Midlife in the United States (MIDUS) survey (n = 2,030) to explore whether employed persons with (vs. without) physical disability differ regarding four conceptually and statistically distinct workplace experiences: perceived job discrimination, perceived unequal opportunities, support from coworkers, and support from supervisor. We further examine whether these associations differ on the basis of one's sex, age, and occupational group, recognizing that the expectations placed on workers and their susceptibility to stigmatization (or support) may reflect their other social locations (Dick-Mosher 2015). Understanding whether, how, and for whom disability undermines everyday work experiences is an important concern. Perceived workplace stigmatization, blocked opportunities, and inadequate coworker support may amplify the economic, physical, and emotional strains already experienced by persons with disability, contributing to cumulative disadvantage processes over the life course (Hatzenbuehler, Phelan, and Link 2013; Shandra 2018)."
                    ]
                }
            ]
        },
        {
            "title": "Background",
            "subsections": [
                {
                    "title": "Subgroup Differences in the Impact of Disability on Workplace Experiences",
                    "paragraphs": [
                        "Our second aim is to evaluate the extent to which the association between disability and stigmatizing workplace experiences varies based on one's gender, age, and occupational group. Disability diminishes individuals' \"abilities to act in necessary, usual, [and] expected . . . ways\" (Verbrugge and Jette 1994:3). The expectations placed on workers may vary based on their other social locations, which may either amplify or weaken the association between disability and stigmatizing workplace experiences. Research carried out in the intersectionality tradition documents that persons who belong to two or more subgroups that historically have been devalued--most notably black individuals and women--may experience multiplicative negative consequences of these overlapping identities, a process described as \"double jeopardy\" (Purdie-Vaughns and Eibach 2088:1). For example, women with disabilities have lower rates of labor force participation, lower income, higher poverty rates, and a lower likelihood of doing autonomous or self-directed work relative to their nondisabled female counterparts and men, regardless of disability status (R. L. Brown and Moloney 2019; Pettinicchio and Maroto 2017). These labor market penalties are even more pronounced for black women with disabilities relative to their white counterparts (Maroto, Pettinicchio, and Patterson 2019). This research powerfully reveals how sexism, ableism, and racism intersect to undermine objective conditions of disabled women's work.1",
                        "It is unclear whether comparable double jeopardy processes affect subjective aspects of employment, including structural and interpersonal stigmatization.2 We propose that the extent to which sex, age, and occupational group intensify (or mitigate) the effects of disability may vary across our four study outcomes. For example, a woman with disability may be perceived by colleagues as less competent at her job, given dominant cultural norms that devalue female and disabled workers (Hatzenbuehler 2016). This double jeopardy imposed by sexism and ableism, in turn, may erode her prospects for career advancement. Thus, we anticipate that women with disability will report more frequent discrimination and perceived inequality relative to their male counterparts and relative to women without disability. However, women with disability also may perceive high levels of emotional support from coworkers or supervisors; ironically, the lowered expectations that individuals hold for women with disability may be accompanied by an \"overprotectedness\" that is experienced as emotional support (Sanders 2006). We expect that women with physical disability may report more support from their coworkers and supervisors relative to their male counterparts because their overlapping identities associated with weakness or dependence may engender support and overprotectedness (Sanders 2006).",
                        "We further expect that physical disability will engender greater interpersonal stigmatization of younger rather than older workers because it violates expectations regarding active and independent \"able-bodied\" young adults (McPherson 1994). Because functional limitation is less common among young (ages 30-39) and early-midlife (ages 40-49) persons relative to late-midlife persons (ages 50-64), it may be a more salient personal characteristic that strains relationships with colleagues (Namkung and Carr 2020). However, given well-documented ageism against older workers, especially with respect to promotions, we expect that older workers with disability will report higher levels of perceived inequalities relative to their younger counterparts (Roscigno et al. 2007).",
                        "Finally, we expect that disability will be linked with higher levels of perceived discrimination and blocked opportunities among lower-white-collar and blue-collar workers relative to their upper-white-collar professional counterparts. The former two occupational groups are more likely to require physically demanding work and typically have shorter career ladders and thus fewer opportunities for advancement relative to professional occupations (Kalleberg 2011). As such, service and blue-collar workers with physical disability may be viewed as less capable of carrying out tasks associated with their position and may have especially low chances of advancement in a context where such opportunities are relatively few.",
                        "However, we expect that nonprofessional workers with disability may have more supportive relationships with their coworkers and supervisor relative to their counterparts in professional occupations. Disability is socially patterned such that rates are higher among persons with lower levels of education and lower-status occupations (Kaye 2010). Consequently, functional limitations are more common, expected, and accepted. Moreover, workers in nonprofessional jobs may have family and friends with disability because social relationships tend to be homogamous on the basis of social class (Wright and Cho 1992). Workers who are closely acquainted with persons possessing stigmatized attributes are described by Goffman (1963) as \"wise\" persons who may be either more accepting of those who are stigmatized or less accepting because they seek to distance themselves from the stigmatized person. Limited empirical assessments suggest that wise persons are less likely to demean and more likely to accept a person with the devalued attribute (Markowitz and Engelman 2017)."
                    ]
                },
                {
                    "title": "Subgroup Differences in the Impact of Disability on Workplace Experiences",
                    "paragraphs": [
                        "We adjust all multivariate analyses for demographic, health, and psychosocial factors that may confound associations between disability and perceived work experiences. Persons from socially and economically disadvantaged groups, including women, ethnic minorities, and persons of lower socioeconomic status (SES), are especially vulnerable to physical disability (R. T. Brown et al. 2017; Krahn, Walker, and Correa-De-Araujo 2015), interpersonal and institutional discrimination (Kessler, Mickelson, and Williams 1999), and constrained opportunities for career advancement (Hodson and Sullivan 2012). We control for body mass index (BMI) and chronic physical health conditions given that they are associated with elevated disability risk (Krahn et al. 2015), workplace discrimination (Carr and Friedman 2005; Kessler et al. 1999), and compromised interpersonal relationships (Carr and Friedman 2006). We also adjust for negative affect, which may render one especially vulnerable to and cognizant of unpleasant workplace conditions (Milam, Spitzmueller, and Penney 2009). Finally, we control for whether one has a mental health disorder (e.g., major depression) given high rates of comorbidity among mental and physical health conditions that underlie disability (Egede 2007) and the stigmatization of workers with mental illness (Brohan and Thornicroft 2010)."
                    ]
                }
            ]
        },
        {
            "title": "Data and Methods",
            "subsections": [
                {
                    "title": "Data",
                    "paragraphs": [
                        "Analyses were based on data from the second wave of the National Survey of Midlife in the United States (MIDUS II) conducted between 2004 and 2006. MIDUS is a national longitudinal study started in 1995 among more than 7,000 noninstitutionalized adults ages 25 to 74. Retention rates at the second wave were higher among women, whites, married people, and people with more education and better health, with a 75% overall participation rate adjusted for mortality (Radler and Ryff 2010). We used data from the second wave only. The first wave (MIDUS I) was collected 10 years earlier; thus, a prospective exploration of disability status at one wave and current workplace experience a decade later would raise significant concerns given the instability of functioning over such a long period (Lin and Kelley-Moore 2017). A third wave, collected in 2013 to 2015, was available and would have enabled us to explore more recent patterns; however, roughly 27% of the MIDUS II had attrited by MIDUS III, with this proportion significantly higher among those with versus without disability in Wave 2 (33% vs. 23%). Additionally, no MIDUS III participants were under age 40, weakening our capacity to secure a large enough analytic sample for working-age adults. A refresher cohort, comprising younger adults, is available, yet only a single wave of data has been collected thus far.",
                        "MIDUS II comprises 4,041 respondents who completed a telephone interview and self-administered questionnaire. Our analytic sample was limited to employed persons ages 30 to 64 (n = 2,775). Those who were not working for pay (n = 612), refused to report their working status (n = 53), worked less than four weeks in the 12 months prior to interview (n = 46), or refused to report their number of weeks worked for the past 12 months (n = 34) were excluded because of their lack of data on workplace experiences. Our final analytic sample included 2,030 adults who worked for pay (including self-employment and temporary leave) and had worked at least four weeks for the past 12 months. Compared to our analytic sample, working-age adults excluded from the sample were significantly older (mean age was 52 vs. 50) and more likely to have been female (66% vs. 51%). The proportion of working-age adults with physical disability was significantly higher among those excluded from our analytic sample (53% vs. 36%); thus, our sample was overrepresentative of persons whose disability still enables them to work for pay. To address concerns that persons in our analytic sample were positively selected on the basis of health, workplace experiences, or other potential sources of bias, we carried out supplemental analyses on all persons ages 30 to 64 (n = 2,775) to explore associations between physical disability and reports of institutional discrimination that prevented one from working for pay (see Appendix Table 6 in the online version of the article)."
                    ]
                },
                {
                    "title": "Data",
                    "paragraphs": [
                        "Perceived job discrimination (a = .71) referred to how often a respondent had experienced the following: (a) unfairly given jobs no one else wanted, (b) watched more closely at job than others, (c) ignored or not taken seriously by boss, and (d) coworker with less experience and qualifications promoted before them. Response options included never, less than once a year, a few times a year, a few times a month, and once a week or more. Responses were averaged; scores ranged from 1 to 5, where 5 reflected more frequent perceived job discrimination (Chou and Choi 2011). The original MIDUS scale included two additional items, how often a respondent's boss used ethnic/racial/sexual slurs and how often coworkers used ethnic/racial/sexual slurs (six-item scale, a = .74). However, we dropped these two items due to their weaker correlations with other items (r <= .30) and because the remaining four items were more conceptually relevant for our examination of disability-related discrimination. Supplemental bivariate and multivariate analyses yielded comparable results for the four- and six-item scales (results available from authors).",
                        "Perceived inequality at work (a = .77) referred to one's level of agreement with five statements about their current job: (a) \"I feel cheated about the chances I have had to work at good jobs\"; (b) \"When I think about the work I do on my job, I feel a good deal of pride\"; (c) \"I feel that others respect the work I do on my job\"; (d) \"Most people have more rewarding jobs than I do\" (reverse-coded); and (e) \"When it comes to my work life, I've had opportunities that are as good as most people's.\" Responses were measured from 1 (a lot) to 4 (not at all) and were averaged, with higher scores indicating higher levels of perceived inequality (Ryff et al. 2003).",
                        "Perceived support from coworkers (a = .66) comprised two items: how often a respondent felt that they (a) got help and support from coworkers and (b) were listened to by coworkers about work-related problems. Perceived support from supervisors (a = .86) comprised three items asking how often one (a) got information he or she needs from supervisors, (b) got help and support from immediate supervisors, and (c) was listened to by supervisors about work-related problems. Responses ranged from 1 (never) to 5 (all of the time) and were averaged; higher values indicated higher levels of perceived support (Taylor 2010). Zero-order correlations among the four outcomes ranged from -.28 (perceived discrimination and support from coworker) to .47 (perceived discrimination and inequality), suggesting that each represents a conceptually and statistically distinct aspect of one's work experiences. Finally, we conducted supplemental analyses on the full sample comprising both working and nonworking adults to address potential sources of bias in the analytic sample; we assessed whether a respondent had been: not hired for a job, not given a job promotion, or fired due to a personal characteristic (Kessler et al. 1999).",
                        "Physical disability was assessed in the self-administered questionnaire with items adapted from the 36-Item Short Form Health Survey capturing difficulty with nine activities of daily living (Ware and Sherbourne 1992). Participants were asked, \"How much does your health limit you in doing each of the following: lifting or carrying groceries; bathing or dressing yourself; climbing several flights of stairs; bending, kneeling, or stooping; walking more than a mile; walking several blocks; walking one block; vigorous activity (e.g., lifting heavy objects); and moderate activity (e.g., vacuuming)?\" Response categories were: not at all, a little, some, and a lot. We classified participants as having physical disability if they reported at least some difficulty on any of the nine items, consistent with previous MIDUS analyses (Friedman 2016; Namkung and Carr 2019). Slightly more than one-third of the sample (36%, n = 722) met this criterion. The most common limitation reported was vigorous activity (88%), followed by kneeling, bending, or stooping (38%) and walking a mile (35%).",
                        "We conducted sensitivity analyses using a more stringent criterion in which we classified working adults as having a disability if they indicated a lot of difficulty on any of the nine items, consistent with studies using surveys other than MIDUS (Wong et al. 2015). Under this definition, 16% of the sample (n = 330) were classified as having physical disability. The results based on this more restrictive measure were similar in magnitude and significance to the ones from the models using the broader measure of at least some difficulties. We focused on the broader measure because these models yielded a superior model fit and provided a larger subsample for testing whether effects of physical disability are moderated by sex, age, and occupational group (complete models available from authors).",
                        "We evaluated whether the effects of disability differ on the basis of gender, age, and occupational group. Gender referred to whether one identified as female or male. We recoded age into the categories of young adulthood (ages 30-39), early midlife (ages 40-49), and late midlife (ages 50-64), consistent with earlier studies of physical disability over the life course (Namkung and Carr 2019). For occupational group, we recoded one's three-digit census occupational code into three broad categories: upper white-collar (professional, executive, and managerial occupations), lower white-collar (sales and clerical occupations), and blue-collar (crafts, operatives, labor, farm, and military), consistent with prior studies of occupations and health in the United States (e.g., Fernandez et al. 2017).",
                        "All analyses were adjusted for three additional demographic and socioeconomic characteristics: race-ethnicity (1 = racial or ethnic minority; 0 = non-Hispanic white), current marital status (1 = currently married; 0 = unmarried), and education (less than high school, high school graduate [reference group], some college, college graduate or higher). We also included two dimensions of physical health. BMI was calculated from participants' self-reported height and weight and was classified into four categories (underweight/normal [reference], overweight, obese, refusal/don't know; National Heart, Lung, and Blood Institute 1998). Underweight status (i.e., BMI <18.5) was not associated with our study outcomes, so we combined this very small category with normal weight. Presence of a serious medical condition (1 = yes; 0 = no) referred to whether one had experienced or been treated for any of 27 medical conditions in the past 12 months (e.g., asthma, hypertension).",
                        "Finally, two dimensions of mental health were included. Presence of a clinically significant mental health disorder (1 = yes; 0 = no) referred to whether one was diagnosed with any of five conditions (major depression, generalized anxiety disorder, panic disorder, and alcohol and drug dependence) in the year prior to interview (Kessler et al. 1999). Major depression, anxiety, and panic disorders were assessed during the phone interview with items from the Composite International Diagnostic Interview Short Form, based on criteria specified in the American Psychiatric Association's (1987) Diagnostic and Statistical Manual of Mental Disorders, third edition-revised. Alcohol and drug dependence assessments were based on the fourth edition criteria of the Diagnostic and Statistical Manual of Mental Disorders (American Psychiatric Association 1994). Negative affect (a = .87) was measured with a subset of items from the Positive-Negative Affect Scale: \"During the past 30 days, how much of the time did you feel: (a) so sad nothing could cheer you up; (b) nervous; (c) restless or fidgety; (d) hopeless; (e) that everything was an effort; and (f) worthless.\" Responses ranged from 1 (none) to 5 (all the time) and were averaged such that higher scores reflect more frequent negative affect (Kessler et al. 1999). Item-specific missing data were less than 1% across all covariates, except body weight, which was 4.6%. We indicated these cases with a \"weight missing\" dichotomous variable because refusal to report one's weight is correlated with more frequent reports of perceived discrimination relative to normal weight persons (Carr and Friedman 2005)."
                    ]
                },
                {
                    "title": "Data",
                    "paragraphs": [
                        "We first conducted bivariate analyses comparing workplace experiences and all covariates by physical disability status; we conducted t tests for continuous measures and chi-square tests for categorical variables. Second, we estimated ordinary least squares (OLS) regression models to assess associations of physical disability with the four workplace outcomes. We estimated nested regression models to evaluate the extent to which an association with disability was accounted for by each block of covariates. Model 1 presents unadjusted associations between disability and workplace experiences. Model 2 incorporates demographic characteristics, Model 3 further includes socioeconomic characteristics, Model 4 adds in BMI and presence of a medical condition, and Model 5 incorporates the two mental health indicators. Third, we tested interaction effects to evaluate whether the associations between physical disability and workplace experiences were moderated by age, sex, and occupational group net of covariates. Finally, as a supplementary analysis, we focused on all persons ages 30 to 64 regardless of employment status and estimated the odds of work-related institutional discrimination to understand how discriminatory hiring or retention practices may impede employment among persons with disability. Analyses were conducted using STATA 16."
                    ]
                }
            ]
        },
        {
            "title": "Results",
            "subsections": [
                {
                    "title": "Bivariate Analysis",
                    "paragraphs": [
                        "Table 1 shows that 36% of the analytic sample reported at least some difficulty carrying out daily physical activities. Persons with disability are overrepresented among later-midlife adults (ages 50-64), women, and unmarried persons. A socioeconomic gradient is evident such that working adults with physical disability are less likely to have a college degree and more likely to hold a lower-white-collar job relative to those without disabilities. Physical disability is linked to body weight; 40% of persons with disabilities (vs. 20% of persons without) are classified as obese. They also are more likely to report a medical condition in the past 12 months (82% vs. 61%). Specifically, persons with disability are more likely to report 22 of the 27 health conditions included in the aggregated measure, except tuberculosis, bladder trouble, varicose veins, and AIDS/HIV infection, which are diagnosed for less than 1% of the total sample, as well as the more common condition of hay fever (not shown; full results available from authors). Persons with physical disability also are more likely to report a mental health disorder (21% vs. 14%) and higher levels of negative affect (1.62 vs. 1.32, p < .001).",
                        "Workers with physical disability report more frequent encounters of discriminatory treatment (M = 2.00 vs. 1.79, p < .001), higher levels of perceived inequality (M = 1.66 vs. 1.54, p < .001), and lower levels of support from their coworkers (M = 3.51 vs. 3.68, p < .001) and supervisors (M = 3.48 vs. 3.63, p < .001). Supplemental descriptive analyses find that women report more supportive workplace relationships than men and that late-midlife workers report less discrimination and perceived inequality relative to younger workers (see Appendix Table 1 in the online version of the article)."
                    ]
                },
                {
                    "title": "Bivariate Analysis",
                    "paragraphs": [
                        "OLS regression models predicting the four outcomes are summarized in Table 2. We present coefficients for the focal predictors only: physical disability status, age group, gender, and occupational type (complete models are presented in Appendix Tables 2-5 in the online version of the article). Each subsequent model incorporates an additional block of covariates as described previously.",
                        "Persons with physical disability report significantly higher levels of perceived job discrimination and inequality at work and lower levels of support from coworkers and supervisors relative to persons without disability. The unadjusted effects (Model 1) diminish by 31% to 54% across outcomes yet remain sizeable and statistically significant in the fully adjusted models (Model 5). Demographic characteristics slightly suppress these effects on perceived job discrimination and inequality; the unadjusted effects of disability on the outcomes increase in magnitude by 15% to 24% in Model 2. This suppression reflects the fact that workers ages 50 to 64 are overrepresented among those with disability yet report significantly less discrimination and inequality relative to the younger age groups (see Appendix Table 1 in the online version of the article).",
                        "The association between disability and the outcome measures weakens when SES indicators (Model 3) and body weight and physical health conditions (Model 4) are adjusted. The mental health measures account for considerable attenuation (30%-45%) of the association across all four workplace outcomes in Model 5. However, the effect of disability remains statistically significant and of modest magnitude in the fully adjusted model. Model 5 shows that workers with disability report significantly higher levels of perceived job discrimination (b = .13, p < .01) and inequality (b = .06, p < .05) and lower levels of support from their coworkers (b = -.11, p < .01) and supervisors (b = -.10, p < .05).",
                        "In a supplemental analysis focused on workers and nonworkers in the MIDUS, persons with disability had elevated odds of being passed over for a job promotion (odds ratio [OR] = 1.46, p < .01) and getting fired (OR = 1.83, p < .001) due to a personal characteristic. However, we did not find significant differences in whether one was hired (OR = 1.23, p > .10), perhaps revealing compliance with the ADA upon recruitment but weaker compliance regarding retention and promotion.",
                        "analyses: Do the effects of disability on workplace experiences vary by subgroup?",
                        "We next evaluate whether the effects of disability on the four outcomes differ significantly by age, gender, and occupational type. For ease of presentation, we plot statistically significant interaction terms in Figures 1 through 3 (full models available from authors). None of the two-way interaction terms were statistically significant for the outcome perceived job discrimination, suggesting that the demeaning or discriminatory treatment experienced by workers with physical disability does not differ systematically on the basis of age, gender, or occupation. However, we did find that the disability effect differs significantly by: (1) occupational group for coworker support, F(2, 1741) = 3.60, p < .05; (2) age for supervisor support, F(2, 1654) = 3.42, p < .05; and (3) gender for perceived workplace inequality, F(1, 1908) = 9.34, p < .01.",
                        "As shown in Figure 1, upper-white-collar workers with disability perceived significantly lower levels of support from their coworkers relative to their counterparts without functional limitation (predicted levels = 3.52 vs. 3.74, p < .001), whereas levels of coworker support are not statistically different among lower-white-collar or blue-collar/farm/military workers on the basis of disability. Among persons with disability, levels of perceived coworker support are significantly lower among upper-white-collar workers relative to lower-white-collar workers (3.52 vs. 3.64, p < .05); no significant difference between lower-white-collar and blue-collar-workers with disability is detected.",
                        "Results plotted in Figure 2 show that levels of support from a supervisor are similar for workers without physical disability across the three age groups, but younger workers with disability perceive significantly higher levels of support from supervisors relative to both their age peers without disability and their older counterparts with disability (3.90 vs. 3.55 and 3.56 respectively, p < .05). Finally, Figure 3 shows that predicted levels of perceived inequality are significantly higher for men with versus without physical disability (predicted level = 1.75 vs. 1.62, p < .001), although we do not detect comparable disparities among women. Among persons with disability, men report significantly higher levels of perceived workplace inequality relative to women (1.75 vs. 1.62, p < .01)."
                    ]
                }
            ]
        },
        {
            "title": "Discussion",
            "subsections": [
                {
                    "title": "Limitations and Future Directions",
                    "paragraphs": [
                        "Our results provide compelling evidence from a large national sample that the impact of physical disability on U.S. adults' work lives extends beyond objective indicators like employment status and income. However, the study has several limitations that warrant exploration in future research. First, we did not focus on racial differences in the impacts of disability. In preliminary analyses, we found no statistically significant race moderation effects. This may reflect statistical power, given the modest number of racial minorities with disability in the analytic sample (n = 54). Future analyses could incorporate data from the MIDUS Milwaukee study, which oversamples black individuals, to carry out adequately powered analyses of the intersectional effects of race and disability on workplace experiences.",
                        "Second, we could not ascertain whether participants attribute their stigmatizing workplace experiences to their own disability or to other external factors such as a toxic company culture or the idiosyncratic acts of a problematic colleague (e.g., Schur et al. 2009). However, one's perceptions of structural obstacles and lack of support--regardless of the cause--are important outcomes in their own right and may affect one's well-being. Unsupportive workplace relationships and perceived lack of opportunities rank among the top reasons why employees leave their job (Eisenberger et al. 2002). Securing a new position is particularly difficult for persons with disability, especially during economic downturns, potentially contributing to widening economic disparities on the basis of disability status (Kaye 2010; Shandra 2018).",
                        "Third, we used a broad self-reported measure of physical disability rather than a specific measure of the condition that limits one's daily functioning. MIDUS does not ask respondents to specify the condition(s) that limits functioning, weakening our capacity to explore how workplace experiences may vary based on particular health conditions. However, our multivariate results barely changed in magnitude or significance when the presence of 27 physical and two mental health conditions were adjusted. Thus, our results suggest that it is the manifestation of one's conditions, such as difficulty walking, rather than a particular health problem that elicits unfair or unsupportive behaviors from coworkers. We encourage future studies to distinguish \"visible\" versus \"invisible\" health conditions because each may elicit distinct coworker reactions (Sherbin et al. 2017). The former may lead to social rejection or questioning of one's competence, whereas the latter may lead to accusations of malingering or shirking one's duties (Olkin et al. 2019)."
                    ]
                }
            ]
        },
        {
            "title": "Conclusions",
            "subsections": [
                {
                    "title": null,
                    "paragraphs": [
                        "Our study revealed powerful effects of disability status on the daily experiences of workers even after their physical and mental health conditions are controlled. These results reveal the persistence and reach of ableism. Workers with physical disability are in a privileged position relative to their peers not in the labor force (Kaye 2010), yet they still evidence poorer quality relationships, daily discrimination, and perceived blocked opportunities. These processes may undermine the emotional well-being, social integration, and economic well-being of a population that already occupies a marginalized position relative to their peers without disability (R. L. Brown and Moloney 2019; Hatzenbuehler 2016; Shandra 2018). The association between physical disability and compromised work experiences are intensified for two subgroups that generally possess other structural advantages: men and professional workers. These results are provocative and warrant further exploration. At first blush, they suggest that disability is especially stigmatizing for subgroups traditionally upheld as the image of the ideal worker--male and professional--such that their functional limitations are more salient and judged more harshly because they signify a departure from \"usual, [and] expected\" behaviors (Verbrugge and Jette 1994:3). Alternatively, the elevated levels of discontent with one's work opportunities among men with disability and less coworker support among professional workers with disability may reflect their higher expectations for how they should be treated (Stamarski and Son Hing 2015). Disabled women and blue-collar and lower-white-collar workers may be resigned or inured to structural disadvantages on the basis of \"double jeopardy.\" As such, they may not register discontent, pursue informal or formal complaints, or feel empowered to advocate for change (e.g., Phelan 1994).",
                        "Our results suggest that employers should more fully consider the multiple identities of their workers with disability as they strive for a more inclusive culture. Employers must recognize that disability is neither a \"master status\" nor the \"exclusive status\" of persons with impairments (Asch and Fine 1988:3). Rather, it may intersect with other identities such as sex, age, or occupational status that may enhance or undermine one's power. Supporting, retaining, and promoting workers with disability is a timely and important goal. The number of working-age persons with disability has risen steeply over the past two decades, and these workers are diverse with respect to gender, age, occupations, race, and other identities (Joffe-Walt 2013). ADA policies prohibiting discrimination in hiring and firing are not enough; workplace inclusiveness programs that take into account the multiple sources of interpersonal and structural stigma facing those at risk of double jeopardy are necessary. Broader cultural shifts that challenge the pervasive \"deficit model\" narrative also are critical to eroding the structural and interpersonal stigmatization of persons with disability (Pfeiffer 2001)."
                    ]
                }
            ]
        }
    ],
    "references": [
        "Altman, Barbara M. 2014. \"Definitions, Concepts, and Measures of Disability.\" Annals of Epidemiology 24(1):2\u20137.",
        "American Psychiatric Association. 1987. Diagnostic and Statistical Manual of Mental Disorders. 3rd ed., revised. Washington, DC: American Psychiatric Publishing.",
        "American Psychiatric Association. 1994. Diagnostic and Statistical Manual of Mental Disorders. 4th ed. Washington, DC: American Psychiatric Publishing.",
        "Asch, Adrienne, Fine, Michelle M. 1988. \u201cIntroduction: Beyond Pedestals.\u201d Pp. 1\u201337 in Women with Disabilities: Essays in Psychology, Culture and Politics, edited by Fine, M., Asch, A. Philadelphia, PA: Temple University Press.",
        "Brohan, Elaine, Thornicroft, Graham. 2010. \u201cStigma and Discrimination of Mental Health Problems: Workplace Implications.\u201d Occupational Medicine 60(6):414\u201315. doi:10.1186/1472-6963-10-80.",
        "Brown, Rebecca T., Diaz-Ramirez, L. Grisell, Boscardin, W. John, Lee, Sei J., Steinman, Michael A. 2017. \u201cFunctional Impairment and Decline in Middle Age: A Cohort Study.\u201d Annals of Internal Medicine 167(11):761\u201368. doi:10.7326/M17-0496.",
        "Brown, Robyn Lewis, Moloney, Mairead Eastin. 2019. \u201cIntersectionality, Work, and Well-Being: The Effects of Gender and Disability.\u201d Gender & Society 33(1):94\u2013122. doi:10.1177/0891243218800636.",
        "Bureau of Labor Statistics. 2020. \u201cPersons with a Disability: Labor Force Characteristics Summary.\u201d https://www.bls.gov/news.release/disabl.nr0.htm.",
        "Carr, Deborah, Friedman, Michael A. 2005. \u201cIs Obesity Stigmatizing? Body Weight, Perceived Discrimination, and Psychological Well-Being in the United States.\u201d Journal of Health and Social Behavior 46(3):244\u201359. doi:10.1177/002214650504600303.",
        "Carr, Deborah, Friedman, Michael A. 2006. \u201cBody Weight and the Quality of Interpersonal Relationships.\u201d Social Psychology Quarterly 69(2):127\u201349. doi:10.1177/019027250606900202.",
        "Centers for Disease Control and Prevention. 2020. \u201cDisability and Functioning. Table A-10a.\u201d https://ftp.cdc.gov/pub/Health_Statistics/NCHS/NHIS/SHS/2018_SHS_Table_A-10.pdf.",
        "Chou, Rita J., Choi, Namkee G. 2011. \u201cPrevalence and Correlates of Perceived Workplace Discrimination among Older Workers in the United States of America.\u201d Ageing and Society 31(6):1051\u201370. doi:10.1017/S0144686X10001297.",
        "Cockburn, Cynthia. 1993. In the Way of Women: Men\u2019s Resistance to Sex Equality in Organizations. New York, NY: ILR Press.",
        "Dalirazar, Nasrin. 2007. Reasons People Do Not Work, 2004. Washington, DC: U.S. Department of Commerce, Economics, and Statistics Administration, U.S. Census Bureau.",
        "Dick-Mosher, Jenny. 2015. \u201cBodies in Contempt: Gender, Class and Disability Intersections in Workplace Discrimination Claims.\u201d Disability Studies Quarterly 35(3). https://dsq-sds.org/article/view/4928/4028.",
        "Draper, William R., Reid, Christine A., McMahon, Brian T. 2011. \u201cWorkplace Discrimination and the Perception of Disability.\u201d Rehabilitation Counseling Bulletin 55(1):29\u201337. doi:10.1177/0034355210392792.",
        "Egede, Leonard E. 2007. \u201cMajor Depression in Individuals with Chronic Medical Disorders: Prevalence, Correlates and Association with Health Resource Utilization, Lost Productivity and Functional Disability.\u201d General Hospital Psychiatry 29(5):409\u201316. doi:10.1016/j.genhosppsych.2007.06.002.",
        "Eisenberger, Robert, Stinglhamber, Florence, Vandenberghe, Christian, Sucharski, Ivan L., Rhoades, Linda. 2002. \u201cPerceived Supervisor Support: Contributions to Perceived Organizational Support and Employee Retention.\u201d Journal of Applied Psychology 87(3):565\u201373. doi:10.1037/0021-9010.87.3.565.",
        "Fernandez, Cristina A., Moore, Kevin, McClure, Laura A., Caban-Martinez, Alberto J., LeBlanc, William G., Fleming, Lora E., Cifuentes, Manuel, Lee, David J. 2017. \u201cOccupational Psychosocial Hazards among the Emerging U.S. Green Collar Workforce.\u201d Journal of Occupational and Environmental Medicine 59(1):1\u20135. doi:10.1097/jom.0000000000000903.",
        "Friedman, Elliott M. 2016. \u201cSelf-Reported Sleep Problems Prospectively Increase Risk of Disability: Findings from the Survey of Midlife Development in the United States.\u201d Journal of the American Geriatrics Society 64(11):2235\u201341. doi:10.1111/jgs.14347.",
        "Goffman, Erving. 1963. Stigma: Notes on the Management of Spoiled Identity. Englewood Cliffs, NJ: Prentice-Hall.",
        "Hatzenbuehler, Mark L. 2016. \u201cStructural Stigma: Research Evidence and Implications for Psychological Science.\u201d American Psychologist 71(8):742\u201351. doi:10.1037/amp0000068.",
        "Hatzenbuehler, Mark L., Phelan, Jo C., Link, Bruce G. 2013. \u201cStigma as a Fundamental Cause of Population Health Inequalities.\u201d American Journal of Public Health 103(5):813\u201321. doi:10.2105/AJPH.2012.301069.",
        "Hodson, Randy, Sullivan, Teresa A. 2012. The Social Organization of Work. New York, NY: Cengage.",
        "Jasper, Margaret C. 2008. Americans with Disabilities Act. New York, NY: Oxford University Press.",
        "Joffe-Walt, Chana. 2013. \u201cUnfit for Work: The Startling Rise of Disability in America.\u201d National Public Radio, March 22. http://apps.npr.org/unfit-for-work/.",
        "Kalleberg, Arne L. 2011. Good Jobs, Bad Jobs: The Rise of Polarized and Precarious Employment Systems in the United States, 1970s\u20132000s. New York, NY: Russell Sage.",
        "Kaye, H. Stephen. 2010. \u201cThe Impact of the 2007\u201309 Recession on Workers with Disabilities.\u201d Monthly Labor Review 133(10):19\u201330.",
        "Keller, Richard M., Galgay, Corinne E. 2010. \u201cMicroaggressive Experiences of People with Disabilities.\u201d Pp. 241\u201367 in Microaggressions and Marginality: Manifestation, Dynamics, and Impact, edited by Sue, D. W. Hoboken, NJ: John Wiley & Sons Inc.",
        "Kessler, Ronald C., Mickelson, Kristin D., Williams, David R. 1999. \u201cThe Prevalence, Distribution, and Mental Health Correlates of Perceived Discrimination in the United States.\u201d Journal of Health and Social Behavior 40(3):208\u201330. doi:10.2307/2676349.",
        "Krahn, Gloria L., Walker, Deborah K., Correa-De-Araujo, Rosaly. 2015. \u201cPersons with Disabilities as an Unrecognized Health Disparity Population.\u201d American Journal of Public Health 105(Suppl. 2):S198\u2013206. doi:10.2105/AJPH.2014.302182.",
        "Lin, Jielu, Kelley-Moore, Jessica. 2017. \u201cIntraindividual Variability in Late-Life Functional Limitations among White, Black, and Hispanic Older Adults: Implications for the Weathering Hypothesis.\u201d Research on Aging 39(4):549\u201372. doi:10.1177/0164027516655583.",
        "Lingsom, Susan. 2008. \u201cInvisible Impairments: Dilemmas of Concealment and Disclosure.\u201d Scandinavian Journal of Disability Research 10(1):2\u201316. doi:10.1080/15017410701391567.",
        "Markowitz, Fred E., Engelman, Douglas J. 2017. \u201cThe \u2018Own\u2019 and the \u2018Wise\u2019: Does Stigma Status Buffer or Exacerbate Social Rejection of College Students with a Mental Illness?\u201d Deviant Behavior 38(7):744\u201355. doi:10.1080/01639625.2016.1197673.",
        "Maroto, Michelle, Pettinicchio, David. 2014. \u201cDisability, Structural Inequality, and Work: The Influence of Occupational Segregation on Earnings for People with Different Disabilities.\u201d Research in Social Stratification and Mobility 38:76\u201392.",
        "Maroto, Michelle, Pettinicchio, David, Patterson, Andrew C. 2019. \u201cHierarchies of Categorical Disadvantage: Economic Insecurity at the Intersection of Disability, Gender, and Race.\u201d Gender & Society 33(1):64\u201393. doi:10.1177/0891243218794648.",
        "McMahon, Brian T., Shaw, Linda R. 2005. \u201cWorkplace Discrimination and Disability.\u201d Journal of Vocational Rehabilitation 23(3):137\u201343.",
        "McPherson, Barry D. 1994. \u201cSociocultural Perspectives on Aging and Physical Activity.\u201d Journal of Aging and Physical Activity 2(4):329\u201353. doi:10.1037/a0012683.",
        "Milam, Alex C., Spitzmueller, Christiane, Penney, Lisa M. 2009. \u201cInvestigating Individual Differences among Targets of Workplace Incivility.\u201d Journal of Occupational Health Psychology 14(1):58\u201369. doi:10.1037/a0012683.",
        "Namkung, Eun Ha, Carr, Deborah. 2019. \u201cPerceived Interpersonal and Institutional Discrimination among Persons with Disability in the US: Do Patterns Differ by Age?\u201d Social Science & Medicine 239:112521. doi:10.1016/j.socscimed.2019.112521.",
        "Namkung, Eun Ha, Carr, Deborah. 2020. \u201cThe Psychological Consequences of Disability over the Life Course: Assessing the Mediating Role of Perceived Interpersonal Discrimination.\u201d Journal of Health and Social Behavior 61(2):190\u2013207. doi:10.1177/0022146520921371.",
        "National Heart, Lung, and Blood Institute. 1998. Clinical Guidelines on the Identification, Evaluation, and Treatment of Overweight and Obesity in Adults: The Evidence Report (NIH Publication No. 98-4083). Washington, DC: U.S. Department of Health and Human Services.",
        "Neumark, David, Button, Patrick. 2014. \u201cDid Age Discrimination Protections Help Older Workers Weather the Great Recession?\u201d Journal of Policy Analysis and Management 33(3):566\u2013601.",
        "Olkin, Rhoda, Hayward, H\u2019Sien, Abbene, Melody S., VanHeel, Goldie. 2019. \u201cThe Experiences of Microaggressions against Women with Visible and Invisible Disabilities.\u201d Journal of Social Issues 75(3):757\u201385. doi:10.1111/josi.12342.",
        "Pettinicchio, David, Maroto, Michelle. 2017. \u201cEmployment Outcomes among Men and Women with Disabilities: How the Intersection of Gender and Disability Status Shapes Labor Market Inequality.\u201d Pp. 3\u201323 in Factors in Studying Employment for Persons with Disability, edited by Altman, B. M. Bingley, England: Emerald Publishing Limited.",
        "Pfeiffer, David. 2001. \u201cThe Conceptualization of Disability. Exploring Theories and Expanding Methodologies: Where We Are and Where We Need to Go.\u201d Pp. 29\u201352 in Research in Social Science and Disability. Vol. 2, edited by Barnartt, S. N., Altman, B. M. doi:10.1016/S1479-3547(01)80019-1.",
        "Phelan, Jo. 1994. \u201cThe Paradox of the Contented Female Worker: An Assessment of Alternative Explanations.\u201d Social Psychology Quarterly 57(2):95\u2013107. doi:10.2307/2786704.",
        "Purdie-Vaughns, Valerie, Eibach, Richard P. 2008. \u201cIntersectional Invisibility: The Distinctive Advantages and Disadvantages of Multiple Subordinate-Group Identities.\u201d Sex Roles 59(5\u20136):377\u201391. doi:10.1007/s11199-008-9424-4.",
        "Radler, Barry T., Ryff, Carol D. 2010. \u201cWho Participates? Accounting for Longitudinal Retention in the MIDUS National Study of Health and Well-Being.\u201d Journal of Aging and Health 22(3):307\u201331. doi:10.1177/0898264309358617.",
        "Roscigno, Vincent J., Mong, Sherry, Byron, Reginald, Tester, Griff. 2007. \u201cAge Discrimination, Social Closure and Employment.\u201d Social Forces 86(1):313\u201334. doi:10.1353/sof.2007.0109.",
        "Ryff, Carol D., Keyes, Corey L., Hughes, Dianne L. 2003. \u201cStatus Inequalities, Perceived Discrimination, and Eudaimonic Well-Being: Do the Challenges of Minority Life Hone Purpose and Growth?\u201d Journal of Health and Social Behavior 44(3):275\u201391. doi:10.2307/1519779.",
        "Sanders, Karen Y. 2006. \u201cOverprotection and Lowered Expectations of Persons with Disabilities: The Unforeseen Consequences.\u201d Work 27(2):181\u201388.",
        "Schur, Lisa, Kruse, Douglas, Blasi, Joseph, Blanck, Peter. 2009. \u201cIs Disability Disabling in All Workplaces? Workplace Disparities and Corporate Culture.\u201d Industrial Relations: A Journal of Economy and Society 48(3):381\u2013410. doi:10.1111/j.1468-232X.2009.00565.x.",
        "Shandra, Carrie L. 2018. \u201cDisability as Inequality: Social Disparities, Health Disparities, and Participation in Daily Activities.\u201d Social Forces 97(1):157\u201392. doi:10.1093/sf/soy031.",
        "Shandra, Carrie L., Hogan, Dennis P. 2008. \"School-to-Work Program Participation and the Post-High School Employment of Young Adults with Disabilities.\u201d Journal of Vocational Rehabilitation 29(2):117\u201330.",
        "Shaw, Linda R., Chan, Fong, McMahon, Brian T. 2012. \u201cIntersectionality and Disability Harassment: The Interactive Effects of Disability, Race, Age, and Gender.\u201d Rehabilitation Counseling Bulletin 55(2):82\u201391. doi:10.1177/0034355210392792.",
        "Sherbin, Laura, Kennedy, Julia Taylor, Jain-Link, Pooja, Ihezie, Kennedy.2017. Disabilities and Inclusion. New York, NY: Center for Talent Innovation. https://www.gvsu.edu/cms4/asset/84F0C257-C32C-FC93-486E49F37BF9A9E6/disabilitiesinclusion_keyfindings-cti.pdf.",
        "Stamarski, Cailin S., Son Hing, Leanne S. 2015. \u201cGender Inequalities in the Workplace: The Effects of Organizational Structures, Processes, Practices, and Decision Makers\u2019 Sexism.\u201d Frontiers in Psychology 6:1400. doi:10.3389/fpsyg.2015.01400.",
        "Sue, Derald Wing. 2010. Microaggressions in Everyday Life: Race, Gender, and Sexual Orientation. New York, NY: Wiley.",
        "Taylor, Catherine J. 2010. \u201cOccupational Sex Composition and the Gendered Availability of Workplace Support.\u201d Gender and Society 24(2):189\u2013212. doi:10.1177/0891243209359912.",
        "Verbrugge, Lois M., Jette, Alan M. 1994. \u201cThe Disablement Process.\u201d Social Science & Medicine 38(1):1\u201314. doi:10.1016/0277-9536(94)90294-1.",
        "Vornholt, Katharina, Uitdewilligen, Sijr, Nijhuis, Frans J. 2013. \u201cFactors Affecting the Acceptance of People with Disabilities at Work: A Literature Review.\u201d Journal of Occupational Rehabilitation 23(4):463\u201375. doi:10.1007/s10926-013-9426-0.",
        "Ware, John E., Sherbourne, Cathy D. 1992. \u201cThe MOS 36-Item Short-Form Health Survey (SF-36): I. Conceptual Framework and Item Selection.\u201d Medical Care 30(6):473\u201383.",
        "Wong, Evelyn, Stevenson, Christopher, Backholer, Kathryn, Woodward, Mark, Shaw, Jonathan E., Peeters, Anna. 2015. \u201cPredicting the Risk of Physical Disability in Old Age Using Modifiable Mid-life Risk Factors.\u201d Journal of Epidemiological Community Health 69(1):70\u201376. doi:10.1136/jech-2014-204456.",
        "Wright, Erik O., Cho, Donmoon. 1992. \u201cThe Relative Permeability of Class Boundaries to Cross-Class Friendships: A Comparative Study of the United States, Canada, Sweden, and Norway.\u201d American Sociological Review 57(1):85\u2013102. doi:10.2307/2096146."
    ],
    "title": "Physical Disability at Work: How Functional Limitation Affects Perceived Discrimination and Interpersonal Relationships in the Workplace",
    "issue": "4",
    "volume": "62",
    "year": 2021,
    "issn": "0022-1465",
    "journal": "Journal of Health and Social Behavior",
    "authors": [
        "Deborah Carr",
        " Eun Ha Namkung"
    ]
}