{
    "doi": "http://dx.doi.org/10.1177/0003122413511784",
    "abstract": "",
    "sections": [
        {
            "title": "Introduction",
            "subsections": [
                {
                    "title": null,
                    "paragraphs": [
                        "ASR is produced collectively by the sociological community. In selecting manuscripts for publication we rely heavily on the judgment of our referees. Many authors, whether or not ASR publishes their papers, express their gratitude for the help the referees provide. We thank the following scholars for their contributions to this process. Each of the referees listed below returned at least one review during the period beginning October 1, 2012 and ending September 30, 2013. We regret any omissions. If you notify us, we will make corrections in future issues. --Eds."
                    ]
                }
            ]
        }
    ],
    "references": [],
    "title": "Acknowledgment of Referees",
    "issue": "6",
    "volume": "78",
    "year": 2013,
    "issn": "0003-1224",
    "journal": "American Sociological Review",
    "authors": [
        ""
    ]
}