{
    "doi": "http://dx.doi.org/10.1177/0003122411420815",
    "abstract": "Social psychological research on gendered persistence in science, technology, engineering, and mathematics (STEM) professions is dominated by two explanations: women leave because they perceive their family plans to be at odds with demands of STEM careers, and women leave due to low self-assessment of their skills in STEM\u2019s intellectual tasks, net of their performance. This study uses original panel data to examine behavioral and intentional persistence among students who enter an engineering major in college. Surprisingly, family plans do not contribute to women\u2019s attrition during college but are negatively associated with men\u2019s intentions to pursue an engineering career. Additionally, math self-assessment does not predict behavioral or intentional persistence once students enroll in a STEM major. This study introduces professional role confidence\u2014individuals\u2019 confidence in their ability to successfully fulfill the roles, competencies, and identity features of a profession\u2014and argues that women\u2019s lack of this confidence, compared to men, reduces their likelihood of remaining in engineering majors and careers. We find that professional role confidence predicts behavioral and intentional persistence, and that women\u2019s relative lack of this confidence contributes to their attrition.",
    "sections": [
        {
            "title": "Introduction",
            "subsections": [
                {
                    "title": null,
                    "paragraphs": [
                        "In addition to discriminatory and cultural factors such as biased hiring (Reskin 2003) and chilly climates (Sandler, Silverberg, and Hall 1996), social psychological factors contribute to gender segregation in male-dominated professions. Such factors begin early in the professional education process and continue through one's career, and include individually held beliefs about one's abilities, competencies, anticipated roles, and personal fit (Cech 2007; Xie and Shauman 2003). Social psychological determinants of persistence are an important research focus because much of the difference in men's and women's persistence in male-dominated professions emerges out of seemingly voluntary individual decisions to stay or leave (Correll 2001).1",
                        "This study focuses on several factors influencing gendered persistence in professional careers during the process of credential acquisition. Credential acquisition refers to the education and training processes required to obtain the requisite certifications (e.g., MD, PhD, and BS) that allow prospective professionals to enter practice in the workforce.",
                        "We test two prominent social psychological explanations of persistence (family plans and self-assessment), and introduce a third, professional role confidence, likely to be salient during credential acquisition. We ask whether family plans and self-assessments, shown in other research to be important in individuals' decisions to take advanced math and science courses in high school and to select STEM majors in college, continue to affect persistence once students enroll in an engineering major. We then investigate the importance of professional role confidence on men's and women's persistence.",
                        "The family plans explanation suggests that women's expectations that they will assume primary responsibility for family care lead them to abandon their ambitions in male-typed professions for more family-friendly, female-typed ones (Eccles 1987; Fiorentine 1987, 1988; Frome et al. 2006). We find no evidence that women's family plans lead to their attrition from engineering once they enter engineering training. Family plans may have a later effect on women's career plans (as shown by copious literature on work-family balance) but do not deter women from earning their engineering degree. We do find, unexpectedly, that men with strong family plans seeking an engineering degree are less likely to pursue a career in engineering.",
                        "The self-assessment explanation argues that women's low self-assessment of the skills required for the core intellectual tasks of a profession (e.g., mathematics in the case of engineering), net of their actual performance, leaves them less likely to pursue and persist in male-dominated professions (Correll 2001, 2004). Although women in our sample succeeded in overcoming mathematics hurdles in high school and entering an undergraduate engineering program, women nonetheless assess their math skills more negatively than men assess their math skills. However, we find that math self-assessment does not significantly predict persistence in an engineering major or intent to be an engineer in the future. Once students matriculate into this math-intensive field, more complex, profession-specific self-assessments appear to replace math self-assessment as the driving social psychological reasons for attrition.",
                        "To explain gendered persistence in engineering education and gendered intentions to pursue a career in engineering, we introduce a third explanation: professional role confidence. Professional role confidence refers to individuals' confidence in their ability to fulfill the expected roles, competencies, and identity features of a successful member of their profession. Becoming a successful professional involves not just mastery of a profession's core intellectual skills (e.g., mathematics), but also the cultivation of confidence in, identification with, and commitment to the profession. We argue that women and men develop different levels of professional role confidence in heavily gender-typed professions and therefore are differentially likely to persist. We examine two dimensions of professional role confidence: expertise confidence, or confidence in one's ability to wield the competencies and skills required of practice in the profession, and career-fit confidence, or confidence that a profession's career path is consonant with one's individual interests and values. We find that professional role confidence is cultivated more successfully in men than in women engineering students, leaving women less likely to plan to complete an engineering major or pursue a career in engineering.",
                        "We test these three explanations of persistence with a longitudinal sample of engineering students. Engineering is an ideal laboratory to test these theories because it requires only a bachelor's degree, making the decision timeframe more condensed than for students interested in professions that require post-baccalaureate education. On the other hand, college is a time of great career decision-making flexibility, with little cost of time or training for switching career tracks, relative to the costs of making such changes once in the workforce. These truncated yet comparatively flexible decision-making conditions should sharply focus the effects of the factors we study. Additionally, engineering is the most sex-segregated nonmilitary profession in the United States (National Science Foundation 2009) and among industrialized societies more generally (Charles and Bradley 2009). Young men and women who initially select engineering majors have already weathered pervasive effects of gendered stereotyping of early adolescence (Leslie, McClure, and Oaxaca 1998; Xie and Shauman 2003), allowing us to focus our attention on issues of persistence rather than recruitment.",
                        "We use original panel data of engineering students from four schools (i.e., MIT, Franklin Olin College of Engineering, Smith College, and the University of Massachusetts-Amherst) at two time periods: Year 1 (freshman year) and Year 4 (senior year).2 These data are appropriate for our analysis because they trace students' commitment to engineering careers from the beginning to the end of their undergraduate years. Furthermore, our data come from institutions illustrative of the range of engineering programs in the United States: a land-grant college typical of the public institutions where 80 percent of U.S. engineers are educated (UMass); the highest-ranked engineering school in the nation (MIT); and two small innovative programs developed to challenge the standard engineering education offered at elite and conventional engineering schools (Olin College and Smith College)."
                    ]
                }
            ]
        },
        {
            "title": "Theoretical Framework",
            "subsections": [
                {
                    "title": "Persistence",
                    "paragraphs": [
                        "Persistence in a profession requires development of requisite skills, which are certified through credentials, and a commitment to stay the course. We conceptualize achievement of the requisite credential (in this case, an undergraduate engineering degree) as behavioral persistence. In contrast to studies that employ a dichotomous conceptualization of persistence (i.e., stay/leave), we conceptualize behavioral persistence as a trichotomous process by differentiating three paths: (1) leaving engineering majors for other STEM majors (i.e., biological and physical sciences, math, or other technology-related majors), (2) leaving engineering for non-STEM majors (i.e., arts, humanities, business, education, social sciences, or other non-STEM related professional degrees such as nursing), or (3) persisting in an engineering major and earning a degree. If students move from engineering into another STEM major, the switch could reflect features of the structure and culture of the engineering profession specifically, whereas the decision to leave STEM altogether suggests factors that perpetuate gender segregation across STEM professions.",
                        "Majoring in engineering is a necessary but not a sufficient condition to explain career choice and career plans. Once a college student declares an engineering major, she must think about whether she will leverage her degree to secure employment in the engineering workforce. We conceptualize development of a commitment to work as an engineer in the near future as intentional persistence. Whereas behavioral persistence captures the more objective prerequisites of persistence, intentional persistence taps into its subjective dimensions. We measure intentional persistence at the end of respondents' college years. It is, therefore, a projection of whether students will pursue an engineering career."
                    ]
                },
                {
                    "title": "Persistence",
                    "paragraphs": [
                        "Women and men make major life decisions in the context of multiple social forces, with pressures that pull them in directions tangential--or even opposite--to their career goals. Career goals may therefore depend on the extent to which students perceive professions as consistent with their anticipated future roles. The family plans explanation posits that women who strongly value their future parenting and spousal support roles are likely to resolve current or future work-family conflicts in favor of those roles (Eccles 1987; Eccles, Adler, and Meece 1984; Farmer 1997; Feather 1988).3 Researchers find, for instance, that women who place a high priority on their future families are less likely to enter science majors than are their female peers with weaker commitments to family roles (Burge 2006; Ware and Lee 1988). Women's desires for family-flexible professions are also negatively associated with their intentions to persist in male-dominated careers (Frome et al. 2006, 2008).",
                        "These analyses suggest that women's considerations of their future family roles could be causally related to their exit from STEM career paths (for counter-arguments, see Frehill 1997; Seymour and Hewitt 1997). Consistent with the family plans explanation, we expect that students' family plans at college entry will influence their behavioral and intentional persistence. We hypothesize these relationships separately for women and men, because the family plans literature largely ignores effects of men's family plans on their persistence in male-dominated professions.",
                        "Hypothesis 1a: The importance of women's family plans (i.e., having a long-term committed relationship and raising children) is negatively related to intentional persistence in engineering.",
                        "Hypothesis 1b: The importance of women's family plans is positively related to their attrition from engineering majors into non-STEM majors.",
                        "This literature is inconclusive as to how family plans are related to women's decisions to leave engineering for another STEM major. Because engineering has a reputation for creating even more work-family conflict than other STEM professions (Eccles 1987, 1994), we expect women with strong family plans will leave engineering for other STEM majors.",
                        "Hypothesis 1c: Importance of women's family plans is positively related to switching into another STEM major.",
                        "The relationship between family plans and persistence is unclear for men. Seymour and Hewitt (1997) suggest that family plans may have a positive effect on persistence for men, inducing them to intend to persist in highly paid STEM careers. It is an open question whether men with strong family plans are more likely to persist in engineering rather than switch to another STEM major.",
                        "Hypothesis 2a: The importance of men's family plans is positively related to their intentional persistence in engineering.",
                        "Hypothesis 2b: The importance of men's family plans is positively related to their behavioral persistence in engineering."
                    ]
                },
                {
                    "title": "Persistence",
                    "paragraphs": [
                        "Self-assessments are self-referenced evaluations that individuals develop about themselves. In this study, we are interested in assessments of one's professionally associated abilities rather than, for example, students' assessments of their basketball skills or physical attractiveness (Owens, Robinson, and Smith-Lovin 2010). Most research examining effects of self-assessments study the influence of gendered math self-assessment on persistence in male-dominated career paths (e.g., Correll 2001; Seegers and Boekaerts 1996). Although gender differences in math performance are nonexistent once math preparation is controlled (Hyde et al. 1990),4 research repeatedly finds differences in men's and women's self-assessment of their math abilities (Correll 2001, 2004). Whether due to young men's and women's internalization of gender stereotypic views of math or their belief that others may hold them accountable to such stereotypes, gender-typing of certain tasks means that men, ceteris paribus, assess their math skills more positively than women assess their own math skills (Correll 2001, 2004; Ma and Johnson 2008).5",
                        "Self-assessment differentials are produced by gendered experiences within the math discipline itself (Correll 2001; Ridgeway 1997) and can accumulate over time (Hyde et al. 1990), even controlling for comparable preparation and performance (Correll 2001; Seymour and Hewitt 1997). Furthermore, low math grades have a more negative effect on women's persistence than on men's at the point of transition from high school to college (Correll 2001).",
                        "Math self-assessments, furthermore, affect students' selection of college majors: \"maladaptive cognitions regarding math-related capabilities may be at least as important as math ability per se in influencing major choices\" (Betz and Hackett 1983:332). Correspondingly, Correll (2001) finds that math self-assessment is significantly associated with the likelihood of choosing a quantitative major after high school among men and women. The importance of math self-assessments, paired with documented gender differences in such self-assessments, contributes to gender disparities in the decision to choose a quantitative major (Correll 2001).",
                        "Scholars have studied self-assessment dynamics on and across the high school-college juncture. Students in our sample, however, entered college as high achievers in math and have higher-than-average math self-assessment.6 Whether math self-assessment remains a salient factor once students select math-intensive majors is an empirical question we seek to answer.",
                        "Hypothesis 3a: High math self-assessment at college entry is positively related to intentional persistence for men and women.",
                        "Hypothesis 3b: High math self-assessment at college entry is negatively related to switching out of engineering for a non-STEM major for men and women.",
                        "Consistent with theories of self-assessment, we hypothesize enduring gender differences in mathematical self-assessment during credential acquisition. Such differences may contribute to gender disparities in the decision to persist in an engineering major and intentions to enter an engineering career.",
                        "Hypothesis 3c: Even among mathematically high-achieving students, men assess their math abilities more positively than women assess their math abilities."
                    ]
                },
                {
                    "title": "Persistence",
                    "paragraphs": [
                        "Most research on social psychological impediments to women's persistence in male-dominated professions examines consequences of women's internalization of cultural beliefs about gendered skills and competencies. Such research pays insufficient attention to factors that emerge from men's and women's direct exposure to and immediate experiences with the profession itself. We argue that in addition to widespread normative gender beliefs influencing career choices (Eccles 1994), interactive, cognitive, and embodied experiences during professional training lead women and men to form different levels of confidence in their abilities to fulfill the role of a successful member of their profession.",
                        "We begin by asserting that becoming--and being--a successful professional is more than mastery of technical skills or expert knowledge (Becker et al. 1961; Schleef 2006). Professional socialization involves development of hands-on and tacit understandings of a diverse range of circumstances, especially where ambiguous or messy problems call for discretionary expert judgment (Hughes 1971). In addition, socialization promotes identification with and commitment to a profession's sentiments, values, and collectively espoused norms (Merton, Rosenblatt, and Gieryn 1982; Sullivan et al. 2007). To complete requisite training and pursue a professional career, prospective professionals must develop confidence in their ability to enact expected role performances of that profession.",
                        "We call this concept professional role confidence. It involves confidence in wielding practical competencies of day-to-day professional work, and identifying with the professional role and believing that one will enjoy this role, with all the complexity, uncertainty, and responsibility that accompany its fulfillment.",
                        "Students' development of professional role confidence is an important part of successful professional socialization and begins in earnest upon entry into a profession's credentialing process. During credentialing, men and women have their first experiences as profession members rather than aspirants. Through interaction with faculty, mentors, and peers inside and outside the classroom, students engage in anticipatory professional behavior as they begin to master technical knowledge and practical competencies, identify with valued symbols, espouse professional truisms, and learn to project a confident, capable image to others (Becker et al. 1961; Dryburgh 1999; Granfield 1992; Schleef 2006).",
                        "Professional role confidence is likely salient for persisting in credential acquisition because this is the first time young men and women are expected to perform actions that define them as professionals (Dryburgh 1999; Schleef 2006). Individuals who develop confidence in their ability to perform the professional role should be more likely to persist in their pursuit of that professional career; those who have little professional role confidence should be weeded out through self-selection or through various sorting processes of their credentialing programs.",
                        "We expect that men and women develop different levels of professional role confidence during the professional socialization process. This variation in confidence likely emerges from two sources: cultural beliefs about appropriate professions for men and women, and factors specific to the profession in question. First, women are less likely to develop professional role confidence in male-dominated occupations because such confidence has to overcome cultural biases that men are \"naturally\" fit for and better at male-typed professions (Charles and Bradley 2009; Ridgeway 2009).",
                        "Second, women are less likely to develop professional role confidence in professions where socialization processes and work cultures are historically gendered masculine. In male-typed professions, especially those where the professional role is nurtured primarily through group socialization rather than specific task instruction, women have a harder time than men internalizing and confidently performing the requisite professional role (Dryburgh 1999; see also Haas and Shaffir 1991; McIlwee and Robinson 1992). Furthermore, faculty and fellow students often deem individuals as unfit whom they see as deviating from the conventional embodiment or model of a professional--an experience more likely for women in male-typed professions than for men (McIlwee and Robinson 1992; Trice 1993). For these reasons, women likely express lower levels of professional role confidence than do men in male-typed professions such as engineering. In professions where the professional role aligns more with female-typed tasks and competencies (e.g., nursing), men may have less professional role confidence than women.",
                        "We conceptualize two dimensions of professional role confidence that are active during the credential acquisition process: (1) expertise confidence, or confidence in tasks and competencies required of this kind of professional and (2) career-fit confidence, or confidence that the professional role will suit a person's particular interests, needs, values, and sense of self.7",
                        "As professionals gain more experience in their field, their understanding of the professional role likely becomes more complex and nuanced. Thus, salience of these or other dimensions of professional confidence may vary as professionals progress through their careers. We return to this point in the Discussion section and suggest an additional dimension of professional role confidence that may be salient once men and women complete their credentials and enter the workforce. Here, we investigate the expertise and career-fit dimensions of professional role confidence as it develops during the credentialing process.",
                        "Expertise confidence refers to the confidence students have in the set of techniques, logics, and competencies required to successfully participate in their chosen profession. Expertise confidence is distinct from a single task-specific measure, such as math self-assessment, because it encompasses the broad range of cognitive orientations and problem-solving tasks associated with a profession. Expertise confidence should be particularly important to persistence during credential acquisition because this is when neophytes become aware of and begin to practice profession-specific competencies as they rehearse their future professional roles.",
                        "At least two factors challenge women's development of expertise confidence in male-dominated professions such as engineering. First, on top of navigating an often grueling and emotionally charged professional socialization process, women face the additional challenge of negotiating engineering's hegemonic culture, which often valorizes displays of masculinity (Dryburgh 1999). Most engineering role competencies are male-typed within this culture, and women bear the burden of proving to others that, despite gendered expectations, they are skilled engineers. By contrast, men's expertise confidence is consistent with cultural ideologies that stereotype technical engineering skills as masculine domains (Faulkner 2000).",
                        "Second, men are more likely than women to participate in informal tinkering and gaming activities as adolescents (McIlwee and Robinson 1992). These activities can serve as a form of anticipatory socialization (Merton 1968; Schleef 2006) to the competencies considered relevant in engineering. Women entering engineering with disproportionately less exposure to such anticipatory socialization may have a more difficult time developing or displaying levels of expertise confidence necessary for success.",
                        "Without adequate confidence that they have the appropriate level of expertise to be a successful professional, women will be less likely than men to persist in engineering majors and to see themselves as engineers in the future.",
                        "Hypothesis 4a: Expertise confidence is a significant and positive predictor of intentional and behavioral persistence in engineering.",
                        "Hypothesis 4b: Women have significantly less expertise confidence than do men.",
                        "The second component, career-fit confidence, captures students' confidence that their chosen profession is appropriate for them and will provide them with interesting and worthwhile employment over time. It encompasses students' beliefs that their chosen profession will lead to a fulfilling career, and their certainty that the professional identity involved in such a career is consonant with their self-perceptions. Career-fit confidence is less about students' assessments of their own abilities and competencies, which is captured by expertise confidence, than about students' assessments of their alignment with a profession's ethos and culture.8",
                        "Career-fit confidence is likely an important component of persistence. For most contemporary U.S. students, the purpose of higher education is to develop expertise through academic disciplines that align with an existing, distinct self in preparation for a career that, in turn, fosters self-expression and self-realization (Charles and Bradley 2009; Schoon 2001). Students with confidence in their career choice should be more likely to persist because they believe their selected profession fits their individual interests and values. Students who are unsure that their professional credential provides them with the opportunity for a satisfying career or if they question the organizational routines, professional relations, or professional they will be expected to become, may be more likely to leave.",
                        "Like expertise confidence, career-fit confidence is partly contingent on successful professional socialization processes. Professional training and education programs must convince students that the profession is deserving of their commitment and that it serves interests and goals with which they can identify. Faculty and administrators market the profession to prospective students and work to persuade current students of the profession's virtues and the desirable status accorded practitioners in that field (Lichtenstein et al. 2009). Students who develop confidence in their fit with the engineering profession will be more likely to persist in an engineering major and intend to persist in an engineering career.",
                        "Hypothesis 5a: Career-fit confidence is a significant and positive predictor of intentional and behavioral persistence in engineering.",
                        "Processes of professional socialization, especially developing a conventional engineering identity, may leave women in engineering with less career-fit confidence than men. As men and women proceed through credential acquisition, they try on \"provisional selves\" corresponding to their understandings of the professional role (Ibarra 1999). As students experiment with profession-specific provisional selves, they gradually internalize a corresponding professional identity. Provisional selves congruent with individuals' self-schemas (i.e., organized generalizations about one's self-defining and personal attributes) likely increase students' confidence that engineering fits them; provisional selves discordant with self-schemas likely undermine students' confidence that they made the correct career decision (Howard 2000; Rosenthal et al. forthcoming).",
                        "Self-schemas are, of course, deeply gendered (Markus et al. 1982). Women's self-schemas are likely less consistent with professional identities in engineering than are men's, increasing potential for discord between women's self-schemas and provisional selves they try on in the process of developing a professional identity. Furthermore, the perception of engineering as \"gender inauthentic\" for women (Faulkner 2009:169) may foster a feeling of incongruence between their gender and developing professional identities--an incongruence that likely reduces confidence in their fit with the profession.",
                        "Professional identity development, as with development of more general conceptions of identity, depends on verification from relevant others in one's social milieu (Burke 2004; Cooley 1902; Huntington 1957; Rosenthal et al. forthcoming). If others view the professional identities of male-typed fields as more appropriate for men than for women, then women will have fewer opportunities than men for this verification (Seron et al. 2011). We thus expect women and men to develop different levels of career confidence in engineering. Such differences may lead to gendered intentional and behavioral persistence.",
                        "Hypothesis 5b: In engineering, women have significantly less career-fit confidence than do men.",
                        "The gendered persistence literature does not lend itself to clear hypotheses about effects of expertise and career-fit confidence on switching into other STEM majors versus non-STEM majors."
                    ]
                }
            ]
        },
        {
            "title": "Data And Methods",
            "subsections": [
                {
                    "title": "Data",
                    "paragraphs": [
                        "We use original panel data to analyze gender differences in persistence in engineering. Our sample consists of 288 students who entered engineering programs in 2003 at four institutions of higher education: Massachusetts Institute of Technology (MIT), the University of Massachusetts at Amherst (UMass), the Franklin W. Olin College of Engineering (Olin)9 and Smith College (Smith). Our analysis draws from the 2003 and 2007 waves of our longitudinal survey data. We invited the entire freshman classes at MIT, Olin, and Smith, along with 332 randomly selected UMass freshman, to participate in the study (overall response rate was 35.8 percent).10 Response bias analyses run between the sample and the 2003 population data at each school show that the sample marginally overrepresents Asian students at MIT (p = .08) and marginally underrepresents African American students at UMass (p = .09). We found no other gender or race/ethnicity differences.",
                        "We collected data through online surveys sent to students via e-mail. Although the full sample includes students from many different majors, our analysis includes only students enrolled in--or intending to enroll in-- an engineering major in Year 1. We tracked students from freshman to senior year whether they remained in engineering, changed to another major, or left college altogether. The Year 1 to Year 4 retention rate of the subsample we use is 73 percent."
                    ]
                },
                {
                    "title": "Data",
                    "paragraphs": [
                        "We test two measures of persistence: behavioral persistence (i.e., students' completion of an engineering major, Year 1 to Year 4) and intentional persistence (i.e., students' Year 4 belief that they will be an engineer in five years). Behavioral persistence is a variable with three values corresponding to three theoretically important possible outcomes: (1) respondents remained in an engineering major, (2) respondents left engineering for another STEM major, or (3) respondents left engineering for a non-STEM major. Intentional persistence asks students to describe the likelihood they will \"be an engineer in five years\" (1 = very unlikely to 4 = very likely). Table 1 shows the operationalization of all variables."
                    ]
                },
                {
                    "title": "Data",
                    "paragraphs": [
                        "To measure family plans, we average the centered responses to the following two questions asked in Year 1: \"importance to me: building a family\" and \"importance to me: building a satisfying, long-term intimate relationship\" to create an importance of family plans variable (alpha = .721). We measure math self-assessment with a Year 1 variable asking respondents to rate their math ability compared to an average person their age: 1 = lowest 10 percent, 2 = below average, 3 = average, 4 = above average, 5 = highest 10 percent.",
                        "We capture professional role confidence with measures that ask about students' confidence as a result of their initial exposure to engineering (i.e., during the spring semester of their first year in college).11 All questions making up the professional role confidence scale measures began with, \"As a result of your engineering courses . .,\" prompting students to respond in the context of their initial experiences with the profession. The expertise confidence measure (alpha = .809) combines Likert-scale responses where students were asked to rate their confidence on the following three indicators as a result of their engineering courses: \"developing useful skills,\" \"advance to the next level in engineering,\" and \"my ability to be successful in my career.\"12 The career-fit confidence measure (alpha = .751) combines Likert-scale responses where students were asked to rate their confidence on the following four indicators as a result of their engineering courses: \"engineering is the right profession for me,\" \"selecting the right field of engineering for me,\" \"finding a satisfying job,\" and \"my commitment to engineering, compared to my engineering classmates.\"",
                        "The success of professional socialization in facilitating students' professional role confidence may depend on the institutional setting. Our sample represents diverse institutional arrangements. MIT, the gold standard of engineering education, has been committed to increasing the number of women engineers for four decades; Smith and Olin have made formal commitments to do a better job of improving the success rate of women engineering students. The University of Massachusetts is a large land-grant state university with significant resource constraints relative to the more resource-rich MIT. These and other factors may produce institutional effects on persistence behaviors, or even gendered persistence. On the other hand, much evidence suggests that pressures to conform to external standards and credentialing trump differences in educational missions and goals (DiMaggio and Powell 1983; Sauder and Espeland 2009; Seron and Silbey 2009).",
                        "To measure potential institutional and environmental differences at each school, we include dummy variables for Olin, Smith, and UMass where appropriate (MIT is the reference category). From supplemental analyses using interaction terms between gender and school (not shown here but available upon request), we found that none of the school influences on persistence were gendered. Table 1 lists the operationalization of the other individual-level controls in our model."
                    ]
                },
                {
                    "title": "Data",
                    "paragraphs": [
                        "We use separate modes of analysis for the two dependent variables: Multinomial Logistic Regression (MLR) for behavioral persistence and Ordinal Logistic Regression (ordered logit) for intentional persistence.13 Independent variables and controls are identical across the two types of regression models. Our first model includes only gender and relevant controls. Our second model adds family plans and self-assessment measures, and our third model adds professional role confidence variables. Our final model adds an interaction term between family plans and gender. Table A1 in the Appendix presents correlations among variables included in our analyses."
                    ]
                }
            ]
        },
        {
            "title": "Results",
            "subsections": [
                {
                    "title": null,
                    "paragraphs": [
                        "Table 2 summarizes the dependent and independent variables, for all respondents and separately for men and women. The final column indicates whether values are significantly different between men and women. Consistent with the persistence literature described earlier, men have higher levels of behavioral persistence than do women. Women are twice as likely as men to switch to other STEM majors. When men switch out of engineering, however, they are more likely than women to switch to non-STEM majors. Men report higher levels of intentional persistence; that is, they are more likely than women to intend to be an engineer in five years. This school-to-work juncture is critical and, according to some research (e.g., Xie and Shauman 2003), has the highest attrition rate of any point in a STEM career.",
                        "Men and women find raising a family and developing a long-term intimate relationship equally important. These similarities speak to the importance of considering women's and men's experiences as they try to reconcile their professional and personal goals.",
                        "Table 2 also presents descriptive statistics for respondents' math self-assessments, and their career and expertise confidence. As expected, men in our sample rate their math skills significantly more positively than women rate their own math skills (Hypothesis 3c). However, women and men do not earn significantly different grade point averages in college; their SAT math and verbal scores at the end of high school, although well above average, are also statistically similar.",
                        "Consistent with hypotheses about professional role confidence, men in our sample have significantly more expertise confidence (Hypothesis 4b) and career-fit confidence (Hypothesis 5b) than do women. If these measures of self-assessment and confidence are significantly related to persistence, then these differentials could explain gendered persistence.",
                        "We find few differences by race/ethnicity on our key variables. Hispanic and Latino students have stronger traditional family plans than do other students (2.65 versus 2.31, p < .05). White respondents also have significantly higher math self-assessments than do non-white respondents (4.21 versus 4.01, p < .05). However, there are no significant differences in expertise or career-fit confidence by race or ethnicity (results not shown; available upon request).",
                        "Turning to the multivariate results, columns I and II of each model in Table 3 represent the MLR behavioral persistence models (where column I represents likelihood of persisting in engineering versus switching to another STEM major and column II represents likelihood of persisting in engineering versus leaving STEM entirely). Each column in Table 4 presents results from the corresponding ordered logistic regression models for intentional persistence.14 Model 1 in Tables 3 and 4 includes the gender coefficient (female = 1) plus controls for parents' education, SAT math and verbal scores, GPA, and institution. Consistent with the bivariate statistics, women are more likely than men to leave engineering for another STEM major (Model 1I in Table 3: B = -1.46, p < .05) and less likely to intend to persist in engineering in five years (Model 1 in Table 4: B = -.878, p < .05).",
                        "We find no strong differences in schools' nurturance of intentional persistence.15 We also find no significant differences in mean expertise and career-fit confidence by school (analysis not shown but available upon request), suggesting that students develop professional role confidence similarly across the different institutional contexts in our sample. African Americans are significantly more likely than white respondents to intend to persist in engineering. This is an interesting finding that requires further research with larger samples.16",
                        "Model 2 adds family plans and self-assessment measures. Family plans are a marginal negative predictor of behavioral persistence, versus leaving STEM entirely (Model 2II of Table 3: B = -.701, p < .10). We return to family plans explanations below with Model 4, which includes an interaction term between family plans and female. Contrary to hypotheses based on the self-assessment literature (Hypotheses 3a and 3b), math self-assessment is not a significant predictor of behavioral or intentional persistence at the stage of credential acquisition. Interaction terms (estimated in separate analyses but available on request) between gender and self-assessment variables are also insignificant.",
                        "Inclusion of family plans and self-assessment measures in the model does not reduce gender's relation to a predictor of persistence: the gender coefficient remains significant in Model 2 for both categories of the dependent variable (see Table 3). Controlling for family plans actually makes the gender coefficient in 2II fully significant, suggesting that family plans may suppress the relationship between gender and behavioral persistence (versus leaving STEM entirely). Gender differences in persistence remain, net of respondents' family plans and gender differences in math self-assessment.",
                        "Model 3 adds professional role confidence effects along with family plans, self-assessments, and relevant controls. As Table 3 shows, expertise confidence is a significant and positive predictor of persisting in an engineering major, compared with switching to another STEM major (supporting Hypothesis 4a). The more confident students are in their professional expertise, the more likely they are to persist in an engineering major. However, women have significantly less of this expertise confidence than do men (see Table 2). Ceteris paribus, a woman with expertise confidence of 3.4 (the mean expertise confidence for men) rather than 3.1 (the mean expertise confidence for women) would be 9.3 percent more likely to persist in an engineering major rather than switching to another STEM major. Similarly, a man with expertise confidence of 3.1 instead of 3.4 would be 8.1 percent less likely to persist in an engineering major.",
                        "As Table 4 shows, career-fit confidence is also a significant and positive predictor of intentional persistence: the higher students' confidence that they will find engineering work personally satisfying and congruent with their interests and values, the greater their intentions to remain in engineering five years after graduation. As Table 2 shows, women's levels of career-fit confidence in their first year are significantly lower than men's confidence levels. Ceteris paribus, a woman with career-fit confidence of 3.0 (the mean career-fit confidence for men) rather than 2.7 (the mean career-fit confidence for women) would be 9.2 percent more likely to intend to persist in engineering. Similarly, a man with expertise confidence of 2.7 instead of 3.0 would be 8.6 percent less likely to intend to persist in engineering.",
                        "Gender is no longer a significant predictor of persistence once professional role confidence measures are included. Specifically, the gender coefficient is reduced by 31.8 percent (between 2I and 3I in Table 3) and 35.3 percent (between Models 2 and 3 in Table 4) and is no longer significant in either of these models. Gender remains significant for one persistence option in Model 3 of Table 3: men are more likely than women to leave STEM entirely.",
                        "Expertise and career-fit confidence work similarly for men and women (i.e., interaction terms with gender are insignificant), but we find interesting differences in the effectiveness of these types of confidence by race/ethnicity. Expertise and career-fit confidence are significant predictors of persistence for white students (the reference group). For Hispanic and Asian/Asian American students, effects of professional role confidence measures on persistence are significantly stronger. (Interactions between expertise confidence and the Hispanic identification measure in intentional persistence regressions, and interactions between career-fit confidence and the Asian/Asian American indicator in engineering major persistence, are significant and positive; results available on request.) Effects of expertise and career-fit confidence on persistence for other racial/ethnic groups do not differ significantly from the reference category. As noted earlier, there are no significant differences in expertise and career-fit confidence by race/ethnicity, so these interaction terms suggest different degrees of the importance of professional role confidence across racial/ethnic groups. Expertise confidence, for example, may be particularly important for Hispanic students, who may face additional stereotypes that they are less technically inclined than white or Asian students (Eglash 2002). We hope these racial/ethnic differences in effectiveness of professional role confidence will encourage future work with larger samples.",
                        "Model 4 adds an interaction between family plans and female. For both persistence measures, we see an opposite trend than that expected from Hypothesis 1a. For men (whom the family plans coefficient now represents), the importance of family plans has a negative impact on their persistence in an engineering major versus switching to another STEM major (4II in Table 3: B = -1.362, p < .05) and on their intentions to be an engineer in five years (Table 4: B = -1.167; p < .01). The significant family plans x female interaction (B = 1.554, p < .01) in Table 4 means that the effect for women's family plans is much closer to zero (B = .387, not significant) than that for men, and with the opposite sign.",
                        "To better understand the nature of this interaction effect, we plot predicted intentional persistence using Model 4 coefficients in Table 4 by gender and high or low levels of traditional family plans (determined by a median split). As Figure 2 illustrates, men with low levels of traditional family plans have higher levels of intentional persistence, and women with low levels of traditional family plans have lower levels of intentional persistence. Men and women with high levels of traditional family plans do not differ in their intentional persistence. For behavioral persistence, although no coefficients are significant, they follow the same pattern as that for intentional persistence. This pattern is the opposite of that predicted by Hypothesis 1b."
                    ]
                }
            ]
        },
        {
            "title": "Discussion",
            "subsections": [
                {
                    "title": "Family Plans",
                    "paragraphs": [
                        "Although family plans likely influence women's careers plans (as copious literature on work-family balance shows), we find no such effects during engineering credential acquisition. Conceivably, young women's early family plans may have already filtered them out of the pipeline before college entrance (Burge 2006). Our data call this explanation into question, however, as family plans at college entry are not significantly different for women who began college as engineering majors versus those who began college as non-engineering majors.18 It is possible, however, that effects of family plans for women emerge at a later career stage. Women in our sample have yet to face challenges of motherhood or professional work and thus may remain optimistic about their ability to effectively balance both.",
                        "By contrast, family plans appear salient for men at the stage of credential acquisition. We find that family plans are negatively associated with men's intentions to persist in engineering. Perhaps placing a lower importance on their long-term relationships and family concerns allows men to focus more fully on their engineering studies. It is also possible that men with traditional family plans expect to bear the financial burden of their households and intend to leave engineering for more lucrative professions (e.g., law or finance). This surprising finding requires more research.",
                        "Prior research suggests that the work-family balancing act weighs more heavily on women than on men (Epstein et al. 1999; Presser 1994). Our research suggests that the weight of this balancing act may hit at different career stages for men and women. More speculatively, our family plans findings may corroborate a historical shift in how men and women weigh the importance of work-family balance; compared with previous generations, men today may be thinking more seriously about work-family balance issues (Gerson 2010). We recommend that researchers examine how family plans affect men's--as well as women's--persistence in male-dominated professions."
                    ]
                },
                {
                    "title": "Family Plans",
                    "paragraphs": [
                        "Our findings challenge the math self-assessment explanation in important ways. Even after enrolling in an undergraduate engineering program, women in our sample have significantly lower math self-assessment than do men (see Table 1). Nonetheless, math self-assessment does not predict persistence in engineering at the credential acquisition stage. The lack of effect is not necessarily surprising, given the importance of math self-assessment for choosing STEM majors in the first place. Indeed, the finding that math self-assessment is significantly and positively related to whether students enter college as engineering majors (Correll 2001) is present in our data as well.19 However, once students matriculate into a math-intensive major, profession-specific assessments, such as expertise and career-fit confidence, seem to replace math self-assessment as predictors of persistence. Findings reported here may foreshadow students' evolving understanding of the demands of work in a professional field."
                    ]
                },
                {
                    "title": "Family Plans",
                    "paragraphs": [
                        "We identify professional role confidence, and its components of expertise and career-fit confidence, as important to students' behavioral and intentional persistence during credential acquisition. Confidence in their ability to successfully perform the professional role and to enjoy and find fulfillment in that role predicts students' behavioral and intentional persistence in engineering, respectively. We find that these dimensions of professional role confidence are cultivated more successfully among men than among women, leaving women less likely than men to continue in an engineering career. We find no difference in levels of expertise and career-fit confidence by race and ethnicity for either men or women (results not shown; available upon request). Expertise confidence, however, may be particularly important for Hispanic students' intentional persistence, and career-fit confidence may be important for Asian students' behavioral persistence.",
                        "The concept of professional role confidence has implications for explaining gendered persistence in engineering more generally. Research shows that once credentialed in engineering, women are significantly more likely to leave compared to their male counterparts (Jacobs 1989; Xie and Shauman 2003). As men and women with engineering credentials transition from school to work, our findings suggest that differential expertise and career-fit confidence, developed through formal education and training experiences, may help explain this pattern.",
                        "Although more research is required, we speculate that professional role confidence may be important for explaining gendered persistence in other male-dominated professions as well. For example, men and women have been entering medical school at relatively equal rates for some time (Institute of Education Sciences 2009); nonetheless, the distribution of men and women by medical specialty remains highly gendered. Women tend to cluster in what are seen as softer, more nurturing areas of practice (e.g., pediatrics and family care) and are underrepresented in other areas (e.g., surgery) (Boulis and Jacobs 2008). Similarly, women tend to cluster in certain basic science fields (e.g., biology and chemistry) and are underrepresented in other fields (e.g., physics) (Xie and Shauman 2003). Professional role confidence presents an opportunity to help explain these gendered patterns.",
                        "In addition to expertise and career-fit confidence, research on physicians' professional socialization suggests another potential dimension of professional role confidence that may be important as men and women begin work as practicing professionals. Fox (1957) and Light (1979) suggest that learning to cope with uncertainty is an important part of professional socialization. If we consider the ability to cope with uncertainty as a form of confidence, several types of uncertainties Light (1979) identifies among medical students map onto our expertise and career-fit confidence constructs.20 Notably, however, two types of uncertainty do not: uncertainties in interacting with instructors and patients.",
                        "Although professions vary in their degree and nature of interactions with clients, instructors, and other professionals, we suggest that relational confidence is likely an important additional dimension of professional role confidence. Relational confidence may have components depending on whether an interaction is with other members of the profession (e.g., in informal intraprofessional joking [Faulkner 2000] or formal patient hand-offs [Kellogg 2009]), with clients (e.g., a physician's bedside manner [Becker et al. 1961] or a lawyer's personal touch [Seron 1996]), or with the general public (see Cahill's [1999] discussion of morticians' emotional capital). Relational confidence may also include role-appropriate mannerisms, demeanor, and dress that are expected in professional settings (e.g., cursing and masculine norms of dress on oil rigs [Miller 2003]). A professional's confidence in navigating across these role interactions, and being able to present oneself in a role-appropriate manner, may be a critical confidence needed to continue and succeed in a career.",
                        "If a profession's norms of interaction are highly masculine or perhaps even antifeminine (as Turco [2010] documents among professionals in the leveraged buyout industry), it may be more difficult for women to gain this type of confidence. The finding that men engineering students can develop their engineering identity via interactions with a randomly selected same-gender engineering student, while women engineering students cannot (Rubineau 2007), could indicate that relational confidence contributes to gendered engineering persistence even during credential acquisition. Just as relational dimensions of professional role confidence may become more important at later stages of a career trajectory, expertise confidence and career-fit confidence may become less important. Future research should explore professional role confidence, its constituent dimensions, and whether, when, and how these dimensions develop and affect persistence."
                    ]
                },
                {
                    "title": "Family Plans",
                    "paragraphs": [
                        "A strength of this study's analytic approach is its multifaceted measurement of engineering persistence. By examining behavioral and intentional measures of persistence, we can be more certain of how theorized antecedents of persistence actually influence decisions to stay or leave. In addition, our use of a three-category measure of behavioral persistence presents a refinement for explaining gendering of STEM majors and shows that destinations of students exiting one major and transferring to another are important beyond students' decisions to leave. We find a gendered pattern in students' attrition from engineering majors. Women who leave engineering majors are more likely to end up in another STEM major rather than to leave STEM entirely. Men are less likely than women to leave engineering, but when they leave, they are more likely to leave STEM majors entirely than to switch over to another STEM major. These gendered patterns in exiting students' destinations present an important topic for future research."
                    ]
                }
            ]
        },
        {
            "title": "Conclusions",
            "subsections": [
                {
                    "title": null,
                    "paragraphs": [
                        "This study contributes to our understanding of gendered persistence in male-dominated, math- and science-intensive professions by introducing the concept of professional role confidence. Through professional education, students are expected to develop views of themselves as competent, skilled, successful professionals and to become committed to and enthusiastic about their future careers. Present findings show that early professional role confidence predicts persistence measured three years later. If women develop less confidence about their abilities to be successful professionals and express more ambiguity about their fit or comfort within the discipline, then women will remain in engineering at lower rates than men.21",
                        "Our approach shows that different social psychological factors matter for different measures of persistence; factors are not similarly salient for short-term decisions (i.e., persistence in a major) as they are for decisions about career launch (i.e., intent to persist in a profession in five years). Expertise confidence matters for persistence in an engineering major rather than leaving for another STEM major, but it has little impact on plans for a future career in engineering. By contrast, career-fit confidence is strongly and positively related to future career plans. It appears that concerns about how one expects to fit with conventional occupational norms is a strong determinant of career plans, more so than students' confidence in their engineering competencies.",
                        "Findings reported here have important policy implications. How might professional role confidence be fostered in young women (and men)? Professional socialization avail-able through class lectures, lab exercises, and group activities alone seems unlikely to help students develop adequate professional role confidence, and, as discussed previously, likely aggravates gender discrepancies in this confidence. Engineering programs may more effectively develop professional role confidence through direct discussion about professional roles, expertise, and career fit.",
                        "One approach might be to offer a directed internship seminar that places students with working engineers on a real-world engineering project. This experience would integrate explicit learning objectives related to advancement in an engineering career with a broad range of skills required for success as an engineer. This form of practical integrated learning, designed in part by educators familiar with gender biases in the profession, could help broaden students' often narrow conceptions of the engineering role to include a wider breadth of competencies (e.g., communication and teamwork) that are actually part of professional expertise. Such experiences could also increase students' awareness of the spectrum of careers available under the umbrella of engineering, allowing more students to find their fit within the profession.",
                        "In conclusion, we note important caveats: our results are based on a small, longitudinal sample of students at four U.S. institutions. Although our sample allows us to examine effects of family plans, math self-assessment, and professional role confidence on persistence with an appropriate time lag, there are several limitations to our study. First, our sample is not representative of all institutions of higher education in the United States. We hope questions capturing professional role confidence will be included in future nationally representative samples to ensure these trends are generalizable. Second, due to time constraints in survey administration, we were not able to ask respondents about their professional role confidence and family plans at multiple points, making it difficult to track whether and to what extent their views changed over time. Finally, we would have liked to have a multidimensional scale for math self-assessment to enhance construct validity (see, e.g., Correll 2004).",
                        "We hope others will continue this research with larger samples and extend it to other professions, taking seriously how the structure of normative career trajectories and institutionalized decision points influence the social psychological factors in play. Attention to stage-specific factors may not only help research more accurately capture determinants of persistence, but could be key to developing outreach and policy initiatives tailored to specific stages in professional careers."
                    ]
                }
            ]
        }
    ],
    "references": [
        "Becker, Gary S. 1964. Human Capital: A Theoretical and Empirical Analysis, 3rd ed. Chicago: University of Chicago Press.",
        "Becker, Howard, Strauss, Anselm, Hughes, Everett, Greer, Blanche. 1961. Boys in White: Student Culture in Medical School. Chicago: University of Chicago Press.",
        "Betz, Nancy E., Hackett, Gail. 1983. \u201cThe Relationship of Mathematics Self-Efficacy Expectations to the Selection of Science-Based College Majors.\u201d Journal of Vocational Behavior 23:329\u201345.",
        "Boulis, Ann K., Jacobs, Jerry A. 2008. The Changing Face of Medicine: Women Doctors and the Evolution of Health Care in America. Ithaca, NY: Cornell University Press.",
        "Burge, Stephanie Woodham. 2006. \u201cGendered Pathways in Higher Education: Change and Stability in the Pursuit of a Science Degree.\u201d PhD Dissertation, Department of Sociology, Florida State University, Tallahassee, FL.",
        "Burke, Peter J. 2004. \u201cIdentities and Social Structure: The 2003 Cooley-Mead Award Address.\u201d Social Psychology Quarterly 67:5\u201315.",
        "Cahill, Spencer E. 1999. \u201cEmotional Capital and Professional Socialization: The Case of Mortuary Science Students (and Me).\u201d Social Psychology Quarterly 62:101\u2013116.",
        "Cast, Alicia D., Burke, Peter J. 2002. \u201cA Theory of Self-Esteem.\u201d Social Forces 80:1041\u201368.",
        "Cech, Erin A. 2007. \u201cDilbert in Stilettos: The Character of Deterrents Facing Women in Engineering.\u201d Pp. 33\u201350 in Gender and Engineering: Strategies and Possibilities, edited by Welpe, I., Reschka, B., Larkin, J. Frankfurt, Germany: Peter Lang Press.",
        "Ceci, Stephen J., Williams, Wendy. 2011. \u201cUnderstanding Current Causes of Women\u2019s Underrepresentation in Science.\u201d Proceedings of the National Academy of Sciences. doi: 10.1073/pnas.1014871108.",
        "Cerulo, Karen A. 1997. \u201cIdentity Construction: New Issues, New Directions.\u201d Annual Review of Sociology 23:385\u2013409.",
        "Charles, Maria, Bradley, Karen. 2009. \u201cIndulging our Gendered Selves? Sex Segregation by Field of Study in 44 Countries.\u201d American Journal of Sociology 114:924\u201376.",
        "Cooley, Charles H. 1902. Human Nature and the Social Order. New York: Scribner.",
        "Correll, Shelley J. 2001. \u201cGender and the Career Choice Process: The Role of Biased Self-Assessment.\u201d American Journal of Sociology 106:1691\u20131730.",
        "Correll, Shelley J. 2004. \u201cConstraints into Preferences: Gender, Status, and Emerging Career Aspirations.\u201d American Sociological Review 69:93\u2013113.",
        "DiMaggio, Paul J., Powell, Walter W. 1983. \u201cThe Iron Cage Revisited: Institutional Isomorphism and Collective Rationality in Organizational Fields.\u201d American Sociological Review 48:148\u201360.",
        "Dryburgh, Heather. 1999. \u201cWork Hard, Play Hard: Women and Professionalization in Engineering: Adapting to the Culture.\u201d Gender & Society 13:664\u201382.",
        "Eccles, Jacquelynne S. 1987. \u201cGender Roles and Women\u2019s Achievement-Related Decisions.\u201d Psychology of Women Quarterly 11:135\u201372.",
        "Eccles, Jacquelynne S. 1994. \u201cUnderstanding Women\u2019s Educational and Occupational Choices: Applying the Eccles et al. Model of Achievement-Related Choices.\u201d Psychology of Women Quarterly 18:585\u2013609.",
        "Eccles, Jacquelynne S., Adler, Terry, Meece, Judith L. 1984. \u201cSex Differences in Achievement: A Test of Alternate Theories.\u201d Journal of Personality and Social Psychology 46:26\u201343.",
        "Eglash, Ron. 2002. \u201cRace, Sex, and Nerds: From Black Geeks to Asian American Hipsters.\u201d Social Text 20:49\u201364.",
        "England, Paula. 1984. \u201cWage Appreciation and Depreciation: A Test of Neoclassical Economic Explanations of Occupational Sex Segregation.\u201d Social Forces 62:726\u201349.",
        "Epstein, Cynthia F., Seron, Carroll, Oglensky, Bonnie, Saut\u00e9, Robert. 1999. The Part-Time Paradox. New York: Routledge.",
        "Farmer, Helen S. 1997. \u201cWomen\u2019s Motivation Related to Mastery, Career Salience and Career Aspiration: A Multivariate Model Focusing on the Effects of Sex Role Socialization.\u201d Journal of Career Assessment 5:355\u201381.",
        "Faulkner, Wendy. 2000. \u201cDualism, Hierarchies and Gender in Engineering.\u201d Social Studies of Science 30:759\u201379.",
        "Faulkner, Wendy. 2009. \u201cDoing Gender in Engineering Workplace Cultures. II. Gender In/authenticity and the In/visibility Paradox.\u201d Engineering Studies 1:169\u201390.",
        "Feather, N. T. 1988. \u201cValues, Valences and Course Enrollment: Testing the Role of Personal Values within an Expectancy-Valence Framework.\u201d Journal of Educational Psychology 80:381\u201391.",
        "Fiorentine, Robert. 1987. \u201cMen, Women, and the Premed Persistence Gap: A Normative Alternatives Approach.\u201d American Journal of Sociology 92:1118\u201339.",
        "Fiorentine, Robert. 1988. \u201cIncreasing Similarity in the Values and Life Plans of Male and Female College Students? Evidence and Implications.\u201d Sex Roles 18:143\u201358.",
        "Fox, Ren\u00e9e C. 1957. \u201cTraining for Uncertainty.\u201d Pp. 207\u2013241 in The Student-Physician, edited by Merton, R. K., Reader, G., Kendall, P. L. Cambridge, MA: Harvard University Press.",
        "Frehill, Lisa M. 1997. \u201cEducation and Occupational Sex Segregation: The Decision to Major in Engineering.\u201d Sociological Quarterly 38:225\u201349.",
        "Frome, Pamela M., Alfeld, Corinne J., Eccles, Jacquelynne S., Barber, Bonnie L. 2006. \u201cWhy Don\u2019t They Want a Male-Dominated Job? An Investigation of Young Women Who Changed Their Occupational Aspirations.\u201d Educational Research 12:359\u201372.",
        "Frome, Pamela M., Alfeld, Corinne J., Eccles, Jacquelynne S., Barber, Bonnie L. 2008. \u201cIs the Desire for a Family-Flexible Job Keeping Young Women Out of Male-Dominated Occupations?\u201d Pp. 195\u2013214 in Gender and Occupational Outcomes: Longitudinal Assessments of Individual, Social, and Cultural Influences, edited by Watt, H. M. G., Eccles, J. Washington, DC: American Psychological Association.",
        "Gerson, Kathleen. 2010. The Unfinished Revolution: How a New Generation Is Reshaping Family, Work and Gender in America. New York: Oxford University Press.",
        "Granfield, Robert. 1992. Making Elite Lawyers: Visions of Law at Harvard and Beyond. New York: Routledge.",
        "Haas, Jack, Shaffir, William. 1991. Becoming Doctors: The Adoption of a Cloak of Confidence. Greenwich, CT: JAI.",
        "Howard, Judith A. 2000. \u201cSocial Psychology of Identities.\u201d Annual Review of Sociology 26:367\u201393.",
        "Huntington, Mary Jean. 1957. \u201cThe Development of a Professional Self-Image.\u201d Pp. 179\u201394 in The Student-Physician, edited by Merton, R. K., Reader, G., Kendall, P. L. Cambridge, MA: Harvard University Press.",
        "Hughes, Everett C. 1971. The Sociological Eye: Selected Papers on Work, Self, and the Study of Society. Chicago: Aldine-Atherton.",
        "Hyde, Janet Shibley, Fennema, Elizabeth, Ryan, Marilyn, Frost, Laurie A., Hopp, Carolyn. 1990. \u201cGender Comparisons of Mathematics Attitudes and Affect: A Meta-Analysis.\u201d Psychology of Women Quarterly 14:299\u2013324.",
        "Ibarra, Herminia. 1999. \u201cProvisional Selves: Experimenting with Image and Identity in Professional Adaptation.\u201d Administrative Science Quarterly 44:764\u201391.",
        "Institute of Education Sciences. 2009. Digest of Education Statistics. U.S. Department of Education (http://nces.ed.gov/programs/digest/d09/tables/dt09_279.asp).",
        "Jacobs, Jerry. 1989. Revolving Doors: Sex Segregation and Women\u2019s Careers. Stanford, CA: Stanford University Press.",
        "Kellogg, Katherine C. 2009. \u201cOperating Room: Relational Spaces and Microinstitutional Change in Surgery.\u201d American Journal of Sociology 115:657\u2013711.",
        "Kilbourne, Barbara Stanek, England, Paula, Farkas, George, Beron, Kurt, Weir, Dorothea. 1994. \u201cReturns to Skill, Compensating Differentials, and Gender Bias: Effects of Occupational Characteristics on Wages of White Men and Women.\u201d American Journal of Sociology 100:689\u2013719.",
        "Leslie, Larry L., McClure, Gregory T., Oaxaca, Ronald L. 1998. \u201cWomen and Minorities in Science and Engineering: A Life-Sequence Analysis.\u201d Journal of Higher Education 69:239\u201376.",
        "Lichtenstein, Gary, Loshbaugh, Heidi G., Claar, Brittany, Chen, Helen L., Jackson, Kristyn, Sheppard, Sheri D. 2009. \u201cAn Engineering Major Does Not (Necessarily) an Engineer Make: Career Decision Making among Undergraduate Engineering Majors.\u201d Journal of Engineering Education 98:224\u201334.",
        "Light, Donald 1979. \u201cUncertainty and Control in Professional Training.\u201d Journal of Health and Social Behavior 20:310\u201322.",
        "Ma, Yingyi. 2009. \u201cFamily Socioeconomic Status, Parental Involvement, and College Major Choices: Gender, Race/Ethnic, and Nativity Patterns.\u201d Sociological Perspectives 52:211\u201334.",
        "Ma, Xin, Johnson, Willis. 2008. \u201cMathematics as the Critical Filter: Curricular Effects on Gendered Career Choices.\u201d Pp. 55\u201383 in Gender and Occupational Outcomes: Longitudinal Assessments of Individual, Social, and Cultural Influences, edited by Watt, H. M. G., Eccles, J. Washington, DC: American Psychological Association.",
        "Markus, Hazel, Crane, Marie, Bernstein, Stan, Siladi, Michael. 1982. \u201cSelf-Schemas and Gender.\u201d Journal of Personality and Social Psychology 42:38\u201350.",
        "McIlwee, Judith S., Robinson, J. Gregg 1992. Women in Engineering: Gender, Power, and Workplace Culture. Albany: State University of New York Press.",
        "Merton, Robert. 1968. Social Theory and Social Structure. New York: Free Press.",
        "Merton, Robert K., Rosenblatt, Aaron, Gieryn, Thomas F. 1982. Social Research and the Practicing Professions. Cambridge, MA: Abt Books.",
        "Miller, Gloria E. 2003. \u201cFrontier Masculinity in the Oil Industry: The Experience of Women Engineers.\u201d Gender, Work & Organization 11:47\u201373.",
        "National Science Foundation. 2009. Women, Minorities and Persons with Disabilities in Science and Engineering: 2009, NSF 09-305. Arlington, VA: National Science Foundation, Division of Science Resource Statistics.",
        "Owens, Timothy J., Robinson, Dawn T., Smith-Lovin, Lynn. 2010. \u201cThree Faces of Identity.\u201d Annual Review of Sociology 36:1\u201323.",
        "Presser, Harriet B. 1994. \u201cEmployment Schedules among Dual-Earner Spouses and the Division of Household Labor by Gender.\u201d American Sociological Review 59:348\u201364.",
        "Reskin, Barbara. 2003. \u201cIncluding Mechanisms in Our Models of Ascriptive Inequality.\u201d American Sociological Review 68:1\u201321.",
        "Ridgeway, Cecilia L. 1997. \u201cInteraction and the Conservation of Gender Inequality: Considering Employment.\u201d American Sociological Review 62:218\u201335.",
        "Ridgeway, Cecilia L. 2009. \u201cFramed Before We Know It: How Gender Shapes Social Relations.\u201d Gender and Society 23:145\u201360.",
        "Robinson, Cecil, Schumacker, Randall E. 2009. \u201cInteraction Effects: Centering, Variance Inflation Factor, and Interpretation Issues.\u201d Multiple Linear Regression Viewpoints 35:6\u201311.",
        "Rosenberg, Morris, Schooler, Carmi, Schoenbach, Carrie, Rosenberg, Florence. 1995. \u201cGlobal Self-Esteem and Specific Self-Esteem: Different Concepts, Different Outcomes.\u201d American Sociological Review 60:141\u201356.",
        "Rosenthal, Lisa, London, Bonita, Lery, Sheri Robin, Lobel, Marci. Forthcoming. \u201cThe Roles of Perceived Identity Compatibility and Social Support for Women in a Single-Sex STEM Program at a Co-educational University.\u201d Sex Roles.",
        "Rubineau, Brian. 2007. \u201cGendering Engineering: Professional Identity Formation and Peer Effects.\u201d Academy of Management Best Paper Proceedings, 2007.",
        "Rubineau, Brian, Cech, Erin, Seron, Carroll, Silbey, Susan. 2008. \u201cWhen Does Alma Mater Matter? The Contingency of Identity for Institutional Effects.\u201d Presented at the 2008 annual meeting of the American Sociological Association, Boston, MA.",
        "Sandler, Bernice Resnick, Silverberg, Lisa A., Hall, Roberta M. 1996. The Chilly Classroom Climate: A Guide to Improve the Education of Women. Washington, DC: The National Association for Women in Education.",
        "Sauder, Michael, Espeland, Wendy Nelson. 2009. \u201cThe Discipline of Rankings: Right Coupling and Organizational Change.\u201d American Sociological Review 74:63\u201382.",
        "Schleef, Debra J. 2006. Managing Elites: Professional Socialization in Law and Business Schools. Oxford, UK: Rowan and Littlefield Publishers.",
        "Schoon, Ingrid. 2001. \u201cTeenage Job Aspirations and Career Attainment in Adulthood: A 17-Year Follow-Up Study of Teenagers Who Aspire to Become Scientists, Health Professionals, or Engineers.\u201d International Journal of Behavioral Development 25:124\u201332.",
        "Seegers, Gerard, Boekaerts, Monique. 1996. \u201cGender-Related Differences in Self-Referenced Cognitions in Relation to Mathematics.\u201d Journal for Research in Mathematics Education 27:215\u201340.",
        "Seron, Carroll. 1996. The Business of Practicing Law: The Work Lives of Solo and Small-Firm Attorneys. Philadelphia: Temple University Press.",
        "Seron, Carroll, Cech, Erin, Silbey, Susan, Rubineau, Brian. 2011. \u201cThe Gendered Process of Professional Role Confidence Development.\u201d Working Paper, University of California, Irvine.",
        "Seron, Carroll, Silbey, Susan. 2009. \u201cThe Dialectic between Expertise Knowledge and Professional Discretion: Accreditation, Social Control and the Limits of Instrumental Logic.\u201d Engineering Studies 1:107\u2013127.",
        "Seymour, Elaine, Hewitt, Nancy M. 1997. Talking About Leaving: Why Undergraduates Leave the Sciences. Boulder, CO: Westview Press.",
        "Spencer, Steven J., Steele, Claude M., Quinn, Diane M. 1999. \u201cStereotype Threat and Women\u2019s Math Performance.\u201d Journal of Experimental Social Psychology 35:4\u201328.",
        "Steele, Claude M. 1997. \u201cA Threat in the Air: How Stereotypes Shape Intellectual Identity and Performance.\u201d American Psychologist 52:613\u201329.",
        "Sullivan, William, Colby, Anne, Wegner, Judith Welch, Bond, Lloyd, Schulman, Lee S. 2007. Educating Lawyers: Preparation for the Profession of Law. San Francisco, CA: John Wiley & Sons.",
        "Trice, Harrison Miller. 1993. Occupational Subcultures in the Workplace. Ithaca, NY: ILR Press.",
        "Turco, Catherine J. 2010. \u201cThe Cultural Foundations of Tokenism: Evidence from the Leveraged Buyout Industry.\u201d American Sociological Review 75:894\u2013913.",
        "Ware, Norma C., Lee, Valerie E. 1988. \u201cSex Differences in Choice of College Science Majors.\u201d American Educational Research Journal 25:593\u2013614.",
        "Watt, Helen M. G. 2008. \u201cWhat Motivates Females and Males to Pursue Sex-Stereotyped Careers?\u201d Pp. 87\u2013113 in Gender and Occupational Outcomes: Longitudinal Assessments of Individual, Social, and Cultural Influences, edited by Watt, H. M. G., Eccles, J. Washington, DC: American Psychological Association.",
        "Xie, Yu, Shauman, Kimberlee. 2003. Women in Science. Cambridge, MA: Harvard University Press."
    ],
    "title": "Professional Role Confidence and Gendered Persistence in Engineering",
    "issue": "5",
    "volume": "76",
    "year": 2011,
    "issn": "0003-1224",
    "journal": "American Sociological Review",
    "authors": [
        "Erin Cech",
        " Brian Rubineau",
        " Susan Silbey",
        " Caroll Seron"
    ]
}