{
    "doi": "http://dx.doi.org/10.1177/0022146517736291",
    "abstract": "Research on relationships and health often interprets culture as the passively transmitted \u201ccontent\u201d of social ties, an approach that overlooks the influence of cultural resources on relationships themselves. I propose that mental health patients seek social support partly based on cultural resources held by their network members, including members\u2019 medical knowledge and beliefs. I test hypotheses using data from the Indianapolis Network Mental Health Study, an egocentric network survey of new mental health patients (N = 152) and their personal relationships (N = 1,868). Results from random-intercept regressions show that patients obtain support from network members who trust doctors and who have experience with mental problems. In contrast, network members who distrust doctors disproportionately cause problems for patients. I discuss how cultural resources can categorize network members as supportive cultural guides or disruptive cultural critics. Reconsidering how culture shapes relationships clarifies the role of networks during illness management and illustrates their potentially harmful effects.",
    "sections": [
        {
            "title": "Introduction",
            "subsections": [
                {
                    "title": null,
                    "paragraphs": [
                        "Social relationships affect individuals facing health problems at every stage of illness from onset to recovery (Perry and Pescosolido 2015; Pescosolido 1991). Research in the social network and social capital traditions explains the link between relationships and health through conceptualizing relationships as a cultivated resource that individuals strategically leverage to cope with health problems (Kawachi, Subramanian, and Kim 2008; Lin 1999). Interpreting relationships as relatively stable assets for coping has contributed much toward explaining network effects on health. Even so, this approach tends to overlook both how social networks change and the potential negative effects of social ties (Umberson and Montez 2010). To address these limitations, I propose reconsidering the role of culture in theories linking relationships and health. Prior research in this area has interpreted culture either as an ambiguous macrosocial force or as relationship \"content\" that passively flows through a network, for example, in the diffusion of healthy lifestyles (Cockerham 2005; House, Umberson, and Landis 1988). In other areas of inquiry, the limitations of this interpretation of culture have prompted scholars to redefine culture as capital, or a valued resource deployed by individuals to solve problems and obtain advantages (Bourdieu 1984; Shim 2010). In this paper, I combine social network and cultural approaches to health disparities, two areas of the research literature that have generally remained distinct. I ask, how do health-related cultural resources in patients' personal networks relate to the availability of social support for patients entering mental health treatment?",
                        "I present a capital conversion model (Bourdieu 1986; Lizardo 2006) in which patients activate social support partly based on cultural resources held by their network members. Drawing from research on social mobility, I adopt the term cultural guide to refer to network members who provide support that is consistent with the institutionalized expectations that patients confront during treatment (Lareau 2015). For example, patients may seek help from network members who have prior experience with mental health treatment; such individuals are perhaps better equipped to offer informed advice and support. Conversely, network members who discount the validity of professional care may discourage help-seeking or disrupt patient adherence. I refer to these network members as cultural critics to recognize that the influence they have on patients is more likely to conflict with institutional expectations. After developing hypotheses, I present results from an illustrative test using data from the Indianapolis Network Mental Health Study (INMHS). The INMHS comprises a cohort of patients entering mental health treatment for the first time (N = 152) and their associated personal network members (N = 1,868). I use distrust of doctors as an informative case to show how cultural resources may shape new patients' access to support and exposure to difficulties. Results from random-intercept regressions show that patients seek health advice and emotional support from network members who have beliefs and experiences consistent with the institutional standards of the U.S. healthcare system. In contrast, network members who distrust doctors provide support to patients less frequently, and patients more often report those individuals as sources of problems.",
                        "This study makes two contributions. First, the results from an illustrative test indicate that social support may be culturally contingent and that future work on networks and health should reconsider the role of culture in network dynamics. In continuing to interpret culture as the content of relationships, research in this area has lagged behind the \"cultural turn\" in the social sciences more broadly. Examining the cultural bases of social support through the lens of cultural guides and cultural critics helps to clarify the relationship between social relationships and health disparities, and provides a rationale for expecting when lay relationships will have a supportive or disruptive influence on treatment. Consequently, these ideas provide insight into understanding the \"dark side\" of networks, or potentially harmful network effects (Umberson and Montez 2010). Second, I discuss how taking a network perspective strengthens existing theories about culture and health, which have previously emphasized dyadic patient-doctor relationships within clinical settings (Shim 2010). My results strongly suggest that not only an individual's own cultural resources but also the resources embedded in his or her personal network can affect treatment experiences. Expanding current theory to address lay networks is especially necessary to keep pace with changes in modern healthcare. Healthcare providers have had to adapt to growing emphasis on chronic illness management and outpatient services, wherein the vast majority of health maintenance takes place outside of the clinic. This study responds to the need for additional research on the role of informal support communities during long-term care (Weinberg et al. 2007)."
                    ]
                }
            ]
        },
        {
            "title": "Background",
            "subsections": [
                {
                    "title": "Social Support in Personal Networks",
                    "paragraphs": [
                        "Well-connected individuals enjoy better health outcomes than their more isolated peers (Berkman et al. 2000; House et al. 1988). One explanation for this association is that individuals draw social support from their relationships, which refers to the resources that enable individuals to avoid or address health problems. Thoits (2011) identifies two general types of supportive resources related to health: emotional sustenance and instrumental coping assistance. The former refers to the caring, sympathy, and comfort that sustain individuals in difficult times, whereas the latter refers to the information, advice, and services that help accomplish tasks. Although scholars disagree about the exact mechanisms through which social support affects health, much recent research shows that individuals \"activate\" or strategically draw upon relationships to secure needed resources during illness episodes (Perry and Pescosolido 2012, 2015). For example, McConnell and Perry (2016) found that mental health patients were especially likely to activate relationships for health discussion when those ties provided support consistent with patients' professed needs. Indeed, patients who activate their ties judiciously (for example, targeting ties who are more supportive or better informed) report improved health outcomes and treatment satisfaction relative to their peers (Perry and Pescosolido 2015). The language of activation calls to mind research on social capital, which conceptualizes relationships as cultivated investments that can be leveraged in exchange for other resources, including resources that help individuals cope with health problems (Bourdieu 1986; Kawachi et al. 2008; Lin 1999). Following this tradition, I define social support as a health-related manifestation of social capital. Taking this approach allows me to conceptualize social support from a social network perspective, specifically, as resources embedded in network relationships (Kawachi et al. 2008; Lin 1999).",
                        "Research on social capital and social support has contributed much to explaining the link between connectivity and health. That said, prior research on networks in general has been limited by its interpretation of culture, and the study of networks and health is no exception (Emirbayer and Goodwin 1994). Most prior research relies on an implicit or explicit metaphor of culture as \"content\" passively transmitted through relationships, for example, in the diffusion of health beliefs and lifestyles (Cockerham 2005; House et al. 1988; Pescosolido 1991). There is frequently a distinction made between the structure of relational interactions (e.g., density, triadic relationships, etc.) and the transmitted content (e.g., attitudes, beliefs, stress, etc.) (House et al. 1988; Jaeger and Selznick 1964:656). Within this framework, network structure and cultural content should have an interactive relationship; for example, dense networks of strong ties should intensify the content passed through them, whether that content is beneficial or detrimental (Pescosolido 1991).",
                        "The culture-as-content metaphor is limited in two ways. First, it underestimates the surprising volatility of network relationships (Lizardo 2006; Small, Pamphile, and McMahan 2015). Both peripheral and intimate ties are less stable than the metaphor suggests, with rapid turnover being the rule rather than the exception (Wellman et al. 1997). This is because social interactions and obligations rapidly transform within new environments and institutional contexts (Small 2013). While relationships sometimes serve as stable conduits for content, relationships themselves have many contingencies that require theoretical and empirical investigation. Second, the metaphor assigns culture an unacceptably limited role in relationship formation and change. Culture as content is assumed to be inert, passive, or the result of distant \"macro\" effects (Berkman et al. 2000; House et al. 1988). As a result, much research examines cultural diffusion within networks without considering how culture itself may underlie and transform relationships. I present a reinterpretation of the culture-as-content metaphor that addresses these limitations and, in turn, helps to illustrate how culture may underlie social support dynamics during chronic illness."
                    ]
                },
                {
                    "title": "Social Support in Personal Networks",
                    "paragraphs": [
                        "Recent work in cultural sociology demonstrates how culture can be granted more-even theoretical footing with network structure (Emirbayer and Goodwin 1994; Lizardo 2006; Pachucki and Breiger 2010). Broadly speaking, research in this area moves from the model of culture as content toward examining culture as both a basis for decision making and an exchangeable resource in its own right. The most well-known concept is Bourdieu's cultural capital, defined as the institutionally valued knowledge, skills, and interactional styles that can be leveraged in exchange for economic and social resources (Bourdieu 1984, 1986). Lareau (2015:2) describes cultural knowledge as familiarity with institutionalized \"rules of the game,\" a familiarity that allows individuals to more successfully navigate challenges and achieve social mobility. One can interpret cultural capital as simultaneously embodied and strategically deployable in social interactions. In the first sense, culture obtained unconsciously from one's social position serves to delimit the \"space of possible actions\" that constrains individuals (Emirbayer and Johnson 2008). Bourdieu (1986:243) refers to this embodied cultural capital as \"long-lasting dispositions of the mind and body.\" In the second sense, individuals rely on cognitive and affective \"scripts\" to strategically leverage their cultural skills and knowledge (Lareau 2015; see also Swidler 1986).",
                        "Redefining culture as capital allows for a revitalized interpretation of its relationship with social networks. Lizardo (2006) builds on DiMaggio's (1987:442) observation that people use culture to make connections. Adopting Bourdieu's (1986) language, Lizardo (2006) describes the dynamic between cultural resources and social relationships as capital conversion. Under a capital conversion model, cultural capital (embodied dispositions or cultural knowledge and skills) is convertible into social capital (resources in network relationships), and vice versa. As Pachucki and Breiger (2010:215) write, \"culturally meaningful individual action can result in drastic changes in the dynamics of social networks in which individuals are embedded.\" Several studies address how cultural capital may create, shape, and support social relationships (Emirbayer and Johnson 2008; Lizardo 2006, 2013). For example, Lizardo (2006) shows that tastes for popular or refined consumption tend to foster social networks of primarily weak or strong ties, respectively. This is the case because popular culture consumption converts into relatively superficial relationships with large groups of other consumers, whereas refined tastes tend to foster fewer but more complex relationships.",
                        "Although the concept is generally absent from research on social support, health research in other areas embraces cultural capital. Scholars define cultural health capital (CHC) as \"a specialized collection of cultural skills, attitudes, behaviors, and interactional styles that are valued, leveraged, and exchanged\" in health-related encounters (Dubbin, Chang, and Shim 2013:113; Shim 2010). CHC is an adaptation of Bourdieu's concept of cultural capital into the context of health and healthcare; the core proposition of CHC theory is that patients' health beliefs, knowledge, and self-discipline shape health-related relationships and outcomes in medical institutional settings. For example, Gengler (2014) found that families could leverage their CHC, like access to elite hospitals or knowledge of medications, to obtain small but consequential advantages for their children in treatment.",
                        "In addition to providing instrumental benefits, CHC signals \"worthiness\" to healthcare providers (Dubbin et al. 2013; Shim 2010). To understand this claim, one must recognize that the symbolic capacity to define what skills and resources are most valuable in an institution falls to the powerful incumbent groups (Fligstein and McAdam 2012). In the U.S. healthcare system, conceptions of \"healthy\" reflect the socially sanctioned views of elite groups, like physicians and hospital administrators (Dubbin et al. 2013:119; Korp 2010). In this context, the dominant cultural standard refers to respect for scientific medicine, adherence to formal treatment, and proactive self-management of health. Through disproportionately rewarding actors who adhere to that standard, the symbolic dimension of CHC helps to maintain power relations within the healthcare field. For example, in in-depth interviews with patients and providers, Dubbin et al. (2013) found that patients who did not share their physicians' biomedical understanding of their health problems had less beneficial care experiences."
                    ]
                },
                {
                    "title": "Social Support in Personal Networks",
                    "paragraphs": [
                        "In this section, I build on the preceding theories to propose a capital conversion model in which mental health patients seek social support based on cultural resources held by their network members. In short, I argue that supportive social interaction during the initiation of professional mental health treatment demands and rewards pro-medical cultural resources among lay network members. Although CHC theory provides an important theoretical tool to link the cultural context of the U.S. medical institution to health disparities, prior CHC research has been limited to dyadic patient-provider relationships and clinical settings. In order to illustrate how CHC theory applies to informal social networks, I borrow the concept of cultural guides from research on social mobility (Lareau 2015). Cultural guides are individuals who provide knowledge and resources that are consistent with formal and informal institutional expectations and who thereby help beneficiaries to \"decode the rules of the game\" (Lareau 2015:2). For example, a first-generation college student might benefit from an admissions counselor's help preparing applications, an experienced student's advice regarding study habits, or the intervention of well-connected colleagues when seeking employment postgraduation (Lareau 2015:17-20). This type of guidance is highly consequential, for example, in helping to close educational achievement gaps (Lareau 2015).",
                        "Following CHC theory, the cultural resources most valued in the U.S. healthcare field include health and healthcare knowledge, respect for scientific medicine, and a willingness to comply with professional recommendations (Korp 2010; Shim 2010). I expect that mental health patients adapting to the demands of professional care will disproportionately rely on network members who hold such valued cultural resources, effectively transforming them into cultural guides. One basic signal of CHC is trust in doctors, or the belief that physicians act in patients' best interests and that they can be counted on when problems occur (Becker and Roblin 2008:795). In contrast, individuals who lack trust perceive exploitation, dishonesty, or incompetence among healthcare professionals. I expect that patients will leverage trusting network members for emotional support, because they should be more likely to approve of the patient's decision to seek care and sympathize with their situation. Patients may rely on trusting network members for instrumental assistance as well, calling on them to discuss health problems candidly and obtain informed advice about medical decision making. In the opposite case, qualitative research has shown that negative attitudes toward mental healthcare among family members adversely affect patients' help-seeking behaviors (Hines-Martin et al. 2003). Consistent with the logic of capital conversion, I predict the following:",
                        "Hypothesis 1: A network member who trusts doctors will be more likely to provide mental health patients with social support than other network members.",
                        "In any stressful situation, experientially similar others are a valuable source of both emotional sustenance and instrumental assistance (Thoits 2011). For example, Gage (2013) conducted in-depth interviews with parents coping with pediatric cancer. These parents formed supportive networks that shared not only emotional support but also practical information, such as caregiving strategies, health-related knowledge, and advice about navigating the healthcare system. Involvement in these networks had direct consequences, for example, through shaping parents' satisfaction with healthcare professionals and promoting advocacy activities (Gage 2013). I anticipate that patients will target network members with prior mental health experience for the emotional and instrumental assistance that those individuals are uniquely qualified to provide.",
                        "Hypothesis 2: A network member who has a similar mental health problem or previous treatment experience will be more likely to provide patients with social support.",
                        "The concept of cultural guides as originally expressed by Lareau (2015) does not consider negative or disruptive social influences. Recent research on the \"dark side\" of networks focuses on relationships that induce stress, act as burdens, or otherwise cause problems (Umberson and Montez 2010). I approach this topic from a cultural capital perspective and introduce the idea of cultural critics. In this context, cultural critics are individuals who hold cultural resources that conflict with the institutional standards of modern medicine. For example, critics may distrust doctors or believe that medical professionals are \"out to get you,\" prefer complementary and alternative medicines, discount the effectiveness of treatment, or hold other beliefs that undermine relationships with healthcare professionals. When it comes to navigating professional care, these individuals might discourage help-seeking, disrupt treatment adherence, or promote health decision making that is inconsistent with professional recommendations. Indeed, the absence of trust in patient-provider relationships predicts less frequent and less continuous care, worse self-rated health, and an unwillingness to comply with treatment regimens (Becker and Roblin 2008; Musa et al. 2009:1293). If a mental health patient occupies a network populated by individuals who express such culturally discordant views and practices, then that patient should have fewer opportunities to obtain supportive resources. Concerning emotional sustenance, patients may confront stigmatizing social reactions that belittle treatment decisions or discount the validity of illness (Hines-Martin et al. 2003; Link, Mirotznik, and Cullen 1991). Concerning instrumental assistance (e.g., advice about prescription medications), even when such support is forthcoming from cultural critics, it is arguably less likely to be informed and appropriate for patients navigating care. I predict the following:",
                        "Hypothesis 3: A network member who distrusts doctors will be less likely to provide new mental health patients with social support and more likely to disrupt treatment.",
                        "Importantly, I recognize that conflicting resources held by cultural critics are not disadvantageous in an absolute sense. Indeed, beliefs like distrust of medical doctors can be beneficial in many circumstances (Gengler 2014). Rather than resources being inherently beneficial or disadvantageous, the institutional context of modern medicine bestows value on certain knowledge, beliefs, and practices (Madden 2015; Shim 2010). Consider that healthcare providers may attempt to recruit patients to medical rationales in order to encourage treatment adherence (Fineman 1991; Lutfey 2005). One unintended consequences of this practice could be to engender conflict between patients and their otherwise supportive network members who hold conflicting health beliefs. In other words, the institutional context rewards cultural resources in such a way that patients and their relationships transform. Although I cannot test the above propositions directly, I now turn to an illustrative empirical test that demonstrates the potential contributions of the theory."
                    ]
                }
            ]
        },
        {
            "title": "Data and Method",
            "subsections": [
                {
                    "title": "Data",
                    "paragraphs": [
                        "Researchers carried out the INMHS from 1990 to 1997 at two large hospitals, one public and one private.1 Researchers contacted individuals making their first major contact with mental health services and who had a mental health history of no more than two years. Of all clients beginning treatment during the study period, 66.4% consented to an initial interview. These persons were administered the Structured Clinical Interview for DSM-III-R (Spitzer et al. 1990). Those who received a research diagnosis of any major Axis I disorder (schizophrenia, bipolar disorder, or major depression) were recruited to the study. Some respondents were hospitalized following their initial contact, but the majority were referred to outpatient treatment. The data collection period produced a large sample of new mental health patients: 173 respondents participated in the first wave of face-to-face interviews.2 Researchers conducted all interviews within three months of initial contact.",
                        "Respondents provided information about a total of 2,598 network members in the first wave of the INMHS. Researchers collected information about network members through a battery of name generators, which solicited names of respondents' social connections in various domains. The name generators included the well-known \"important matters\" question, \"Who are the people in your life with whom you discuss matters important to you? Who are the people you can really count on?\" (Marsden 1987). In addition, the INMHS included one or more name generators within each of these domains: health discussion, household, family outside household and relatives, work, friends and leisure activities, people with similar mental health problems, treatment providers, and any other persons mentioned in the respondent's narrative history of their entry into mental health treatment. For example, the INMHS section on friends and leisure activities separately solicited names of close friends, casual acquaintances, and people whom the respondent disliked. Altogether, the INMHS included 29 name generators with no limit on the number of persons that respondents could name. This procedure produced an average of 15 unique network members per respondent; researchers asked follow-up questions about each named individual. The INMHS remains one of the largest and most detailed studies of its kind, providing a nearly exhaustive inventory of new mental health patients' social relationships."
                    ]
                },
                {
                    "title": "Data",
                    "paragraphs": [
                        "I adopted a research design consistent with prior multilevel analysis of egocentric networks (e.g., Perry and Pescosolido 2015). I distinguished between three conceptual levels: network members, patients, and networks. In the multilevel modeling strategy employed below, these conceptual levels fell into two distinct analytic levels. Network members composed the first level of analysis; variables at this analytic level refer to characteristics of network members (e.g., male) or patients' relationships with those members (e.g., sibling). Patients and networks composed the second level of analysis. Variables at this analytic level refer to characteristics of patients or aggregated characteristics of networks (e.g., percent female network members).",
                        "Four dependent variables characterized the relationship between a patient and each network member, as reported by the patient.3 First, patients identified network members with whom they discussed health matters (Perry and Pescosolido 2015). This extension of the \"important matters\" name generator (Marsden 1987) asks, \"Who are the people that you discuss your health with or who you can really count on when you have physical or emotional problems?\" Network members named in response provided health discussion (1, else 0). Second, patients identified the network members who first suggested that they \"try and get some professional help, like going to a doctor or hospital\"; that they take medicine or pills; or that they go to either hospital participating in the INMHS study. Network members who made any of these suggestions suggested professional help (1, else 0). Third, if a patient reported that a network member will \"listen to you when you're upset\" or \"tell you they care about you,\" that network member provided emotional support (1, else 0). The first two dependent variables signal social support as instrumental coping assistance, whereas the third signals emotional sustenance. The final dependent variable represents a disruptive relationship. Patients were asked, \"Does this person hassle you, cause you problems, or make your life difficult?\" Response categories were \"a lot,\" \"sometimes,\" and \"no, not really.\" A network member in either of the first two categories causes problems for the patient (1, else 0).4",
                        "There were two primary independent variables: network members' distrust of doctors and members' experience with mental health problems. In order to distinguish the effect of network members' cultural beliefs from confounding contextual influences, I measured distrust at each of the three conceptual levels mentioned previously. For each network member, respondents were asked, \"Do they trust doctors to take care of people's problems?\" To identify the network members with more than a typical amount of medical distrust, I created a binary variable contrasting network members who trusted doctors \"not very much\" (1) with those who trusted \"a lot\" or \"most of the time\" (0).5 I included an identical binary variable at the patient level, measuring a patient's own distrust of doctors. Finally, I also measured distrust at the network level as the average of the original three-category variable across all of a patient's network members. Higher values for the network variable correspond to higher average trust in the network. In addition to trust, I examined a binary variable identifying network members who had a similar emotional or mental health problem or who had previously been treated by a mental health professional, as reported by the patient (1, else 0).",
                        "I adjusted models for network member characteristics that could be associated with the dependent variables. These included relationship closeness (1 is \"very close,\" else 0), frequency of contact (1 is \"very frequent,\" else 0), network member sex (1 if female, 0 if male), age (years), and relationship type. I collapsed an initial nine-category relationship type variable into five mutually exclusive categories. Network members could be friends, parents, spouses/romantic partners, medical professionals (including mental health), or other relationships. The other category included respondents attached to any other name generator, including roommates, coworkers, neighbors, acquaintances, and so forth.",
                        "For patient characteristics, I considered sex (1 if female, 0 if male), age (years), race (1 if white, 0 if black), education (years), and diagnosis (depression, schizophrenia, or other disorder). Two variables count the number of negative and positive (i.e., externalized) mental illness symptoms. For network characteristics, I calculated a network-level version of each Level 1 variable: percentage of network members who had a similar emotional or mental health problem, percentage female, average age, percentage kin, average closeness, and average frequency of contact. I measured network closeness by averaging \"How close are you to this person?\" over all members, with a three-point response scale ranging from \"not very close\" (1) to \"very close\" (3). I measured network frequency of contact by averaging \"How often do you see or talk to the person?\" over all members, with a three-point response scale ranging from \"not very often/hardly ever\" (1) to \"very often/often\" (3). Network-level variables also included the count of network members, or network size.",
                        "Altogether, the estimation sample after adjusting for missing data included 1,868 members nested in 152 patients/networks.6 Table 1 shows descriptive statistics for all variables."
                    ]
                },
                {
                    "title": "Data",
                    "paragraphs": [
                        "Random-intercept regression models provide an appropriate framework for egocentric network analysis with relationship-level outcome variables (Van Duijn, van Busschbach, and Snijders 1999). These models allow for estimation of effects across all three conceptual levels of interest (patients, network members, and networks). Because network members are associated with patients in the INMHS data, normal independence assumptions for regression do not hold. To address this problem, I treated network members (Level 1) as nested within patients/networks (Level 2). A random intercept at Level 2 allowed each patient/network to vary freely with respect to the dependent variable; thus, Level 1 observations within a network were conditionally independent, conditioned on the Level 2 equation. In other words, I estimated \"mixed\" models, which included randomly varying intercepts at Level 2 as well as independent effects fixed to be the same across Level 2 units. This approach avoids the loss of information that would result from aggregating observations up to the patient level. The two-level logistic regression model predicting probability, p, of the outcome is written as",
                        "",
                        "where i corresponds to the network member (Level 1) identifier,  j to the patient/network (Level 2) identifier, u0j to the random intercept, and rij to the Level 1 residual. Z  j represents a Level 2 variable (patient or network characteristic), and xij represents a Level 1 variable (network member characteristic). Together, u0j and rij are the random parts of the model, whereas all other estimates are fixed.",
                        "Random-intercept models were estimated using the melogit command in Stata 14/SE, (StataCorp 2015). All models included robust standard errors, which adjust for potential misspecification. Following model fit procedures recommended by Raudenbush and Bryk (2002:256-80), I arrived at the final models presented below. For parsimony, I omitted several variables with low magnitude and nonsignificant effects: patients' positive and negative symptoms, network percentage mental health experience, network percentage kin, and network average age. Each model was a better fit for the data than the corresponding logistic regressions with no random intercept (all likelihood ratio tests significant, p < .001), and each model passed a Hausman specification test indicating that Level 1 predictors are plausibly uncorrelated with the error term. The primary effects of interest, network members' trust in doctors and mental health experience, were notably unaffected by alternative model specifications with different combinations of covariates.",
                        "In the next section, I first present selected predicted probabilities that illustrate the relationship between network members' cultural resources and support provision to patients. I obtained predicted probabilities from fixed effects using Stata's margins command. Next, I present the full regression results using odds ratios. Finally, I examine cross-level interactions and other supplemental tests. Although these cross-sectional analyses cannot provide evidence of causal effects, I have taken appropriate steps to address endogeneity concerns and ensure that model assumptions have been adequately met.7"
                    ]
                }
            ]
        },
        {
            "title": "Results",
            "subsections": [
                {
                    "title": "Support Provision",
                    "paragraphs": [
                        "Table 2 summarizes how network members' distrust of doctors and experience with mental health problems relate to the probability of four different types of relationships with the patient. Predictions are based on fixed effects from random-intercept logistic regression, holding other variables constant at sample means. Overall, the results provide evidence for Hypothesis 1, that network members' trust in doctors is associated with increased probability of social support provision to patients. Network members who do not distrust doctors have a .22 predicted probability to participate in health discussion with patients (significantly different from Pr[Y] = 0 at p < .001). In contrast, network members who distrust doctors have only a .15 predicted probability of health discussion (p < .001). The .07 difference in predictions is a statistically significant 32% decrease (test of difference, p < .01). Similarly, network members who distrust doctors have .10 lower probability to provide patients with emotional support, which corresponds to a 12% decrease relative to those who do not distrust doctors (p < .01). Interestingly, however, distrust of doctors does not significantly differentiate network members with respect to suggesting professional help (p > .05). Relative to other network members, a member with mental health experience has greater probability to discuss health with patients (.13 increase, p < .001), suggest professional help (.09 increase, p < .05), and provide emotional support (.13 increase, p < .001). This supports Hypothesis 2, that prior mental health experience is associated with greater support provision to patients."
                    ]
                },
                {
                    "title": "Support Provision",
                    "paragraphs": [
                        "Also shown in Table 2, network members who do not distrust doctors have a .22 predicted probability to cause problems for patients (different from Pr[Y] = 0, p < .001). In contrast, network members who distrust doctors have a .36 probability to cause problems (p < .001). The .13 difference in probability corresponds to an increase of 59% (test of difference, p < .001). This provides evidence for Hypothesis 3, that network members who distrust doctors not only withhold support but also more frequently disrupt treatment. Unexpectedly, network members who have prior experience with mental health problems also have greater probability to cause problems for patients (.08 increase, p < .05).",
                        "Table 3 contains the full regression results. The predictions in Table 2 were obtained using the fixed effects from these models, presented here as odds ratios. For example, the odds of a network member discussing health decrease by a factor of .5 when the member distrusts doctors, holding other variables constant (odds ratio [OR] = .53, p < .01). Unexpectedly, distrust is significant only as a characteristic of network members; coefficients for a patient's own distrust and average network trust are nonsignificant in all models. I investigate this surprising result by estimating an additional model predicting causing problems, now including a cross-level interaction between patient distrust and network member distrust. The overall interaction is significant, (kh2[3] = 29.7, p < .001). To facilitate interpretation, Figure 1 plots the predicted probabilities from fixed effects. Network members who distrust doctors are significantly more likely to cause problems compared to their trusting peers when their associated patient does not distrust doctors. However, network member distrust has a nonsignificant effect on causing problems if the patient also distrusts doctors. From another perspective, network members who distrust doctors have .13 lower probability to cause problems if the patient distrusts doctors as well (test of difference, p < .05).",
                        "Although distrust is clearly associated with causing problems, it remains unclear what constitutes a \"problem\" for patients. Supplemental analyses demonstrate that network members who cause problems are no less likely to be aware of the patient's new circumstances. Nevertheless, problematic network members are less likely to express sympathy to the patient, and they are more likely to discourage taking medications and going to the hospital.8 Although suggestive, further research is necessary to understand how distrustful network members become involved during treatment and cause problems for patients."
                    ]
                },
                {
                    "title": "Support Provision",
                    "paragraphs": [
                        "Table 3 contains results for all other variables. Looking first to the results for causing problems, network members have lower odds to cause problems when they are older (OR = .75, p < .001) or very close to the patient (OR = .35, p < .001). Network members have greater odds to cause problems when they see the patient very frequently (OR = 1.45, p < .05) and when they are parents (OR = 10.67, p < .001) or spouses (OR = 8.01, p < .001) relative to friends. \"Other\" relationships also have greater odds to cause problems (OR = 2.43, p < .001), whereas medical professionals have lower odds (OR = .19, p < .01). Turning to the models predicting provision of support, patients have greater odds to discuss their health with parents, partners/spouses, and medical professionals relative to friends (all p < .01). Both partners/spouses and professionals have greater odds to suggest that patients seek professional help (respectively, OR = 5.49, p < .001, and OR = 21.74, p < .001), although professionals have lower odds than friends to provide emotional support (OR = .23, p < .001). Network members who are female have greater odds to discuss health (OR = 1.45, p < .05) and provide emotional support (OR = 1.45, p < .01), although there is no difference for suggesting professional help. Older members have greater odds for health discussion (OR = 1.18, p < .01); they do not differ in other respects. Members who are very close and those who contact the patient very frequently have greater odds to participate in health discussion, suggest professional help, and provide emotional support (all, p < .05).",
                        "Turning to network characteristics, increased logged network size is associated with lower odds of any one network member discussing health or suggesting professional help (respectively, OR = .56, p < .05, and OR = .61, p < .05). The odds of any one network member providing emotional support are lower as percentage female network members and average frequency of contact increase (respectively, OR = .84, p < .05, and OR = .37, p < .05). Surprisingly few patient characteristics are associated with the outcome variables. For one example, older patients have greater odds to draw emotional support from their network members (OR = 1.28, p < .05)."
                    ]
                }
            ]
        },
        {
            "title": "Discussion",
            "subsections": [
                {
                    "title": "Cultural Resources and Social Support",
                    "paragraphs": [
                        "I proposed a capital conversion model in which the availability of social support for patients entering mental health treatment partly depends upon the cultural resources held by their network members. Egocentric network analysis provides the framework for an illustrative test. I find strong support for Hypotheses 1 and 2, that network members who trust doctors and who have prior experience with mental health problems are more likely to provide patients with social support. Patients disproportionately turn to those network members for both emotional sustenance and instrumental coping assistance (in this case, health discussion and treatment suggestions). This evidence is consistent with the concept of cultural guides, or network members with valued cultural resources that may assist individuals navigating institutions like the medical system (Lareau 2015). Entering mental health treatment is a challenging period with high potential to disrupt an individual's normal life and social relationships (Perry and Pescosolido 2012). New patients with access to network members whose beliefs and experiences are consistent with the demands of professional care perhaps have a better chance to obtain support during their critical transition period. Overall, my findings are consistent with prior research demonstrating the beneficial effects of social relationships for health. However, my results also illustrate that not all relationships are equally beneficial and that the health benefits of relationships may depend upon cultural context (see also Abramson 2015:126-32).",
                        "I also find support for Hypothesis 3, that network members who distrust doctors are less likely to provide support and more likely to cause problems for patients. In this sample, patients' \"problems\" include a lack of sympathy, fewer suggestions, and discouragement of medications and help-seeking.9 The problematic nature of distrust is consistent with the concept of cultural critics, or network members who hold cultural resources that conflict with institutional expectations. Taking a cultural perspective provides a new theoretical rationale for understanding the \"dark side\" of networks (Umberson and Montez 2010). It directs researchers' attention to cultural contexts that reshape network dynamics in institutional settings. Faced with the demands of professional care, patients may be forced to avoid network members who disagree with treatment or discount the validity of their mental illness. Patients may strategically withdraw from such relationships to avoid stigmatization or establish new relationships that are better equipped to meet their needs (McConnell and Perry 2016). All else equal, discordant network culture appears to burden new mental health patients with not only less support but also more problems.",
                        "That said, network members with prior mental health experience, like those who distrust doctors, are relatively more likely to cause problems for patients. Access to similar others does promote exposure to their problems and perhaps encourages feelings of inadequacy if they are more successful during treatment (Gage 2013). In most accounts, however, experienced network members are a valuable source of firsthand knowledge and empathy that can facilitate successful healthcare experiences (Gage 2013; Thoits 2011). Consequently, this finding may point toward a more nuanced understanding of what it means to be a cultural guide. Rather than being \"cheerleaders\" who provide unconditional support, cultural guides may challenge individuals to confront the sometimes difficult realities of mental disorders and professional care. Consider that parents and spouses had greater odds to cause problems for patients than friends did. An important next step in this line of research is to distinguish between seemingly disruptive cultural critics and supportive but challenging cultural guides. There could also be a middle ground between the two. Research on social movements has identified a \"bystander\" perspective, defined by a desire to avoid inconvenience (Gamson 2004). Scholars might examine how medical professionals and patients recruit otherwise disinterested network members to provide temporary or conditional guidance during care.",
                        "Further complicating interpretation, if both a patient and a network member distrust doctors, then that network member is no more likely to cause problems than his or her trusting peers. In this sample, 16% of patients report distrust of doctors, and the networks of patients who distrust doctors are, on average, 36% distrustful network members. In contrast, the networks of patients who do not distrust doctors are only about 15% distrustful network members. The discrepancy could be attributed to endogenous selection based on shared social contexts or selective association such that individuals choose network ties who share their views regarding medicine. Alternatively, matching could result from social influence between ties such that individuals adopt similar beliefs over time. In any case, the seemingly ameliorative effect of homophily on conflict suggests that distrust of doctors is not inherently disadvantageous or disruptive for patients. Such a \"deficit view\" of cultural differences has hampered previous cultural research (Madden 2015). Instead, disruptions may result from interpersonal conflicts related to incompatible beliefs between patients and their network members. Healthcare professionals may unintentionally engender these types of conflicts through recruiting patients to medical rationales during treatment (Fineman 1991; Lutfey 2005). That said, absent longitudinal analysis, it is impossible to determine whether otherwise supportive relationships transform into cultural critics when patients enter treatment. Further research is necessary to determine the extent to which professional healthcare settings reward or punish the beliefs, skills, and interactional styles expressed by patients and caregivers (Shim 2010). There is very little information about how institutional pressure on patients affects relationship dynamics within patients' informal networks of support (Weinberg et al. 2007)."
                    ]
                },
                {
                    "title": "Cultural Resources and Social Support",
                    "paragraphs": [
                        "First, I provide only a narrow perspective on how cultural guides and critics become involved during treatment. Although I have demonstrated associations between cultural resources and the emotional sustenance and practical suggestions that new mental health patients draw from their networks, an important segment of the population of interest, those who did not seek care, is overlooked in this analysis. It is likely that individuals who seek help for their mental health problems have substantially different networks compared to those who never seek care (Pescosolido 1991). Furthermore, I cannot determine whether these results are unique to mental health as opposed to other health problems. These questions fall outside the scope of the present study, but future research should examine cultural guides and critics within other health contexts and across stages of treatment. Concerning cultural resources, I used distrust of doctors and prior experience with mental health problems as illustrative examples. Scholars should adapt insights from qualitative research to develop alternative measures for identifying cultural guides and critics. Building on my limited examination of distrust homophily, future research should also consider how patients' cultural resources interact with the resources of their network members.",
                        "Second, I have not addressed the possibility that supportive social interaction between patients and network members may affect members' cultural resources. This possibility refers to the broader debate about the causal relationship between networks and culture. In the context of artistic tastes, Lizardo (2006) has convincingly argued that individuals, rather than passively receiving cultural content, actively shape network relationships based on cultural dispositions. Subsequent studies have provided additional support, although the focus has remained on artistic consumption (Lizardo 2013; Vaisey and Lizardo 2010). I take a novel approach in considering how health-related cultural resources shape social support provision. Novelty aside, the present study is limited by my inability to distinguish between the intervention of cultural guides and critics during treatment and the emergence of cultural guides and critics from treatment. Indeed, the medical institution sometimes deliberately cultivates resources within patients' networks through mechanisms like caregiver training initiatives. As another example, Abramson (2015:94) notes that older adults' cultural orientations toward healthcare were shaped by their prior experiences interacting with healthcare providers. In all likelihood, then, both causal processes are at work. To tease apart causality, future research should examine the dynamic coevolution of CHC and supportive relationships during professional care.",
                        "Third, the INMHS does not provide information on network members' educational attainment, although I do adjust models for patients' education. Perhaps network members with lower educational attainment are both more likely to distrust doctors and less likely to be leveraged for support. This criticism is unconvincing for two reasons. First, the types of support examined here do not seem to be contingent on education level. It is not apparent that individuals with lower educational attainment are inhibited in providing emotional support, for example, but distrustful network members tend to provide less emotional support than their peers. In fact, if distrust were merely a proxy for education, then one might expect it to have the largest negative effect on provision of instrumental resources, for which less educated individuals perhaps face more constraints as a function of socioeconomic status. Supplemental analyses show the opposite result: the effect of distrust on instrumental support (e.g., lending money) is nonsignificant. Second, even if these findings for distrust reflect latent educational attainment, such a relationship between education and support provision is consistent with my theoretical argument. CHC is a multidimensional concept that encompasses a wide variety of health and healthcare resources that probably correlate with educational attainment (Shim 2010). Cultural guides are valuable not because of their trust in doctors or education level per se but rather because of their concomitant ability to help beneficiaries to navigate institutions successfully (Lareau 2015)."
                    ]
                }
            ]
        },
        {
            "title": "Conclusion",
            "subsections": [
                {
                    "title": null,
                    "paragraphs": [
                        "This initial study of cultural guides and critics within healthcare settings makes two contributions. First, I demonstrate the value of reexamining the cultural bases of social support. Prior research often conceptualizes social network ties as objectively beneficial sources of psychosocial benefits or structural pipes through which cultural resources flow. I suggest expanding the culture-as-content metaphor to recognize that social relationships are conditioned by institutional environments and the cultural dispositions that they foster and reward (Emirbayer and Goodwin 1994; Pachucki and Breiger 2010). This extension points to a revitalized interpretation of current research problems, including the troublesome \"dark side\" of networks. Second, this study extends theory on culture and health beyond dyadic patient-doctor relationships within clinical settings. I argue that individuals have the chance to convert not only their own capital but also the cultural capital of their network members into supportive social resources. In fact, the necessity of extending cultural theory into network context follows from these results. Rather than patients' own cultural dispositions shaping their access to social support, the cultural dispositions of their network members were far more influential. Thus, the picture painted by more individualistic understandings of CHC are incomplete, and the consequences of cultural resources for health outcomes may be even more extensive than previously believed. Amid growing emphasis on chronic illness management and outpatient care (Weinberg et al. 2007), the potential contributions of cultural guides and critics to long-term treatment outcomes is an important concern for future research."
                    ]
                }
            ]
        }
    ],
    "references": [
        "Abramson, Corey M. 2015. The End Game. Cambridge, MA: Harvard University Press.",
        "Becker, Edwin R., Roblin, Douglas W. 2008. \u201cTranslating Primary Care Practice Climate into Patient Activation: The Role of Patient Trust in Physician.\u201d Medical Care 46(8):795\u2013805.",
        "Berkman, Lisa F., Glass, Thomas, Brissette, Ian, Seeman, Teresa E. 2000. \u201cFrom Social Integration to Health: Durkheim in the New Millennium.\u201d Social Science and Medicine 51(6):843\u201357.",
        "Bourdieu, Pierre. 1984. Distinction: A Social Critique of the Judgement of Taste. Cambridge, MA: Harvard.",
        "Bourdieu, Pierre. 1986. \u201cThe Forms of Capital.\u201d Pp. 241\u201358 in Handbook of Theory and Research for the Sociology of Education, edited by Richardson, J. New York: Greenwood.",
        "Cockerham, William C. 2005. \u201cHealth Lifestyle Theory and the Convergence of Agency and Structure.\u201d Journal of Health and Social Behavior 46(1):51\u201367.",
        "DiMaggio, Paul. 1987. \u201cClassification in Art.\u201d American Sociological Review 52(4):440\u201355.",
        "Dubbin, Leslie A., Chang, Jamie S., Shim, Janet K. 2013. \u201cCultural Health Capital and the Interactional Dynamics of Patient-centered Care.\u201d Social Science & Medicine 93:113\u201320.",
        "Emirbayer, Mustafa, Goodwin, Jeff. 1994. \u201cNetwork Analysis, Culture, and the Problem of Agency.\u201d American Journal of Sociology 99(6):1411\u201354.",
        "Emirbayer, Mustafa, Johnson, Victoria. 2008. \u201cBourdieu and Organizational Analysis.\u201d Theory and Society 37(1):1\u201344.",
        "Fineman, Norman. 1991. \u201cThe Social Construction of Noncompliance: A Study of Health Care and Social Service Providers in Everyday Practice.\u201d Sociology of Health and Illness 13(3):354\u201374.",
        "Fligstein, Neil, McAdam, Doug. 2012. A Theory of Fields. Oxford, UK: Oxford University Press.",
        "Gage, Elizabeth A. 2013. \u201cSocial Networks of Experientially Similar Others: Formation, Activation, and Consequences of Network Ties on the Health Care Experience.\u201d Social Science & Medicine 95:43\u201351.",
        "Gamson, William A. 2004. \u201cBystanders, Public Opinion, and the Media.\u201d Pp. 242\u201361 in Blackwell Companion to Social Movements, edited by Snow, D. A., Soule, S. A., Kriesi, H. Hoboken, NJ: Blackwell.",
        "Gengler, Amanda M. 2014. \u201c\u201cI Want You to Save My Kid!\u201d Illness Management Strategies, Access, and Inequality at an Elite University Research Hospital.\u201d Journal of Health and Social Behavior 55(3):342\u201359.",
        "Hines-Martin, Vickie, Malone, Mary, Kim, Sanggil, Brown-Piper, Ada. 2003. \u201cBarriers to Mental Health Care Access in an African American Population.\u201d Issues in Mental Health Nursing 24(3):237\u201356.",
        "House, James S., Umberson, Debra, Landis, Karl R. 1988. \u201cStructures and Processes of Social Support.\u201d Annual Review of Sociology 14(1):293\u2013318.",
        "Jaeger, Gertrude, Selznick, Philip. 1964. \u201cA Normative Theory of Culture.\u201d American Sociological Review 29(5):653\u201369.",
        "Kawachi, Ichiro, Subramanian, Sankaran V., Kim, Daniel. 2008. \u201cSocial Capital and Health: A Decade of Progress and Beyond.\u201d Pp. 1\u201326 in Social Capital and Health, edited by Kawachi, I., Subramanian, S. V., Kim, D. New York: Springer.",
        "Korp, Peter. 2010. \u201cProblems of the Healthy Lifestyle Discourse.\u201d Sociology Compass 4(9):800\u201310.",
        "Lareau, Annette. 2015. \u201cCultural Knowledge and Social Inequality.\u201d American Sociological Review 80(1):1\u201327.",
        "Lin, Nan. 1999. \u201cBuilding a Network Theory of Social Capital.\u201d Connections 22(1):28\u201351.",
        "Link, Bruce G., Mirotznik, Jerrold, Cullen, Francis T. 1991. \u201cThe Effectiveness of Stigma Coping Orientations: Can Negative Consequences of Mental Illness Labeling be Avoided?\u201d Journal of Health and Social Behavior 32(3):302\u201320.",
        "Lizardo, Omar. 2006. \u201cHow Cultural Tastes Shape Personal Networks.\u201d American Sociological Review 71(5):778\u2013807.",
        "Lizardo, Omar. 2013. \u201cVariety in Cultural Choice and the Activation of Social Ties.\u201d Social Science Research 42(2):321\u201330.",
        "Lutfey, Karen. 2005. \u201cOn Practices of \u2018Good Doctoring\u2019: Reconsidering the Relationship between Provider Roles and Patient Adherence.\u201d Sociology of Health & Illness 27(4):421\u201347.",
        "Madden, Erin F. 2015. \u201cCultural Health Capital on the Margins: Cultural Resources for Navigating Healthcare in Communities with Limited Access.\u201d Social Science & Medicine 133:145\u201352.",
        "Marsden, Peter. 1987. \u201cCore Discussion Networks of Americans.\u201d American Sociological Review 52(1):122\u201331.",
        "McConnell, William R., Perry, Brea L. 2016. \u201cThe Revolving Door: Patient Needs and Network Turnover during Mental Health Treatment.\u201d Pp. 119\u201345 in 50 Years after Deinstitutionalization: Mental Illness in Contemporary Communities (Advances in Medical Sociology 17), edited by Perry, B. L. Bingley, UK: Emerald.",
        "Musa, Donald, Schulz, Richard, Harris, Roderick, Silverman, Myrna, Thomas, Stephen B. 2009. \u201cTrust in the Health Care System and the Use of Preventive Health Services by Older Black and White Adults.\u201d American Journal of Public Health 99(7):1293\u201399.",
        "Pachucki, Mark A., Breiger, Ronald L. 2010. \u201cCultural Holes: Beyond Relationality in Social Networks and Culture.\u201d Annual Review of Sociology 36:205\u201324.",
        "Perry, Brea L., Pescosolido, Bernice A. 2012. \u201cSocial Network Dynamics and Biographical Disruption: The Case of \u2018First-timers\u2019 with Mental Illness.\u201d American Journal of Sociology 118(1):134\u201375.",
        "Perry, Brea L., Pescosolido, Bernice A. 2015. \u201cSocial Network Activation: The Role of Health Discussion Partners in Recovery from Mental Illness.\u201d Social Science & Medicine 125:116\u201328.",
        "Pescosolido, Bernice A. 1991. \u201cIllness Careers and Network Ties: A Conceptual Model of Utilization and Compliance.\u201d Advances in Medical Sociology 2(16):164\u201381.",
        "Raudenbush, Stephen W., Bryk, Anthony S. 2002. Hierarchical Linear Models: Applications and Data Analysis Methods. Newbury Park, CA: Sage.",
        "Shim, Janet K. 2010. \u201cCultural Health Capital: A Theoretical Approach to Understanding Health Care Interactions and the Dynamics of Unequal Treatment.\u201d Journal of Health and Social Behavior 51(1):1\u201315.",
        "Small, Mario L. 2013. \u201cWeak Ties and the Core Discussion Network: Why People Regularly Discuss Important Matters with Unimportant Alters.\u201d Social Networks 35(3):470\u201383.",
        "Small, Mario L., Vontrese, Pamphile, Deeds, McMahan, Peter. 2015. \u201cHow Stable Is the Core Discussion Network?\u201d Social Networks 40:90\u2013102.",
        "Spitzer, Robert L., Williams, Janet, Gibbon, Miriam, First, Michael B. 1990. Structured Clinical Interview for DSM-III-R-Patient Edition. Washington, DC: American Psychiatric Press.",
        "StataCorp. 2015. Stata Statistical Software: Release 14. College Station, TX: StataCorp LP.",
        "Swidler, Ann. 1986. \u201cCulture in Action: Symbols and Strategies.\u201d American Sociological Review 51(2):273\u201386.",
        "Thoits, Peggy A. 2011. \u201cMechanisms Linking Social Ties and Support to Physical and Mental Health.\u201d Journal of Health and Social Behavior 52(2):145\u201361.",
        "Umberson, Debra, Montez, Jennifer K. 2010. \u201cSocial Relationships and Health: A Flashpoint for Health Policy.\u201d Journal of Health and Social Behavior 51(Suppl. 1):S54\u201366.",
        "Vaisey, Stephen, Lizardo, Omar. 2010. \u201cCan Cultural Worldviews Influence Network Composition?\u201d Social Forces 88(4):1595\u20131618.",
        "Van Duijn, Marijtje, van Busschbach, Jooske, Snijders, Tom A. 1999. \u201cMultilevel Analysis of Personal Networks as Dependent Variables.\u201d Social Networks 21(2):187\u2013210.",
        "Weinberg, Dana B., Lusenhop, R. William, Gittell, Jody H., Kautz, Cory M. 2007. \u201cCoordination between Formal Providers and Informal Caregivers.\u201d Health Care Management Review 32(2):140\u201349.",
        "Wellman, Barry, Wong, Renita Yuk-Lin, Tindall, David, Nazer, Nancy. 1997. \u201cA Decade of Network Change: Turnover, Persistence and Stability in Personal Communities.\u201d Social Networks 19(1):27\u201350."
    ],
    "title": "Cultural Guides, Cultural Critics: Distrust of Doctors and Social Support during Mental Health Treatment",
    "issue": "4",
    "volume": "58",
    "year": 2017,
    "issn": "0022-1465",
    "journal": "Journal of Health and Social Behavior",
    "authors": [
        "William R. McConnell"
    ]
}