{
    "doi": "http://dx.doi.org/10.1177/0022146518755698",
    "abstract": "Scholars have long theorized that religious contexts provide health-promoting social integration and regulation. A growing body of literature has documented associations between individual religiosity and health as well as macro\u2013micro linkages between religious contexts, religious participation, and individual health. Using unique data on individuals and county contexts in the United States, this study offers new insight by using multilevel analysis to examine meso\u2013micro relationships between religion and health. We assess whether and how the relationship between individual religiosity and health depends on communal religious contexts. In highly religious contexts, religious individuals are less likely to have poor health, while nonreligious individuals are markedly more likely to have poor health. In less religious contexts, religious and nonreligious individuals report similar levels of health. Consequently, the health gap between religious and nonreligious individuals is largest in religiously devout contexts, primarily due to the negative effects on nonreligious individuals\u2019 health in religious contexts.",
    "sections": [
        {
            "title": "Introduction",
            "subsections": [
                {
                    "title": null,
                    "paragraphs": [
                        "Sociological research on the relationship between religious contexts and population health goes back to the origins of the discipline (Durkheim [1897] 1966). Religious contexts are theorized as providing individuals with health-promoting social integration and regulation; however, a nascent body of research on the \"dark side\" of religion complicates this picture, suggesting that some aspects of religion can be deleterious for health (Hill and Cobb 2011). The influence of religious social integration and regulation raises the question. What happens to those on the margins of religious communities? The boundedness of collective religious life may leave those at the periphery more vulnerable to adverse health, particularly in highly religious environments. In highly religious environments, nonreligious individuals may find themselves on the outside of social networks where health-promoting resources and social capital are shared.1 They may also suffer from the health effects of religious nonconformity and its associated stigma. These are important considerations, especially considering the growth of nonreligious populations in most industrialized countries and the rising polarization between the religious and nonreligious (Norris and Inglehart 2012).",
                        "Despite the long-standing importance of this topic, researchers have only recently returned attention to explicitly modeling Durkheim's arguments as they relate to the power of religious contexts for shaping communities' and individuals' health. Existing research on religious contexts typically examines nonhealth outcomes, such as volunteering and social attitudes, pointing to the importance of religious contexts for these outcomes (Finke and Adamczyk 2008; Lim and MacGregor 2012). Research that focuses on health has almost exclusively assessed whether religious contexts are associated with aggregate health in general populations. Meanwhile, the majority of individual-level research indicates that religious involvement promotes health yet does not assess potential variation across geographic contexts (Koenig, King, and Carson 2012).",
                        "In religion and health research, a small number of cross-national, multilevel studies have gone beyond single-level measurement to combine aggregate and individual-level data, finding that the influence of individual religiosity is conditioned by national religious context (e.g., Hayward and Elliott 2014). But national contexts mask the regionally uneven distribution of religious participation within nations, especially in large nations, such as the United States, where considerable variation in religious ecologies is well documented (Lim 2013). Narrowing the analytic resolution by measuring the religiosity of subnational and substate units can help account for these issues. The need for community-level analysis is reinforced by recent research showing that the effects of local religious contexts can diverge in important ways from the effects of higher-level aggregations, such as national religious contexts (Lim and MacGregor 2012).",
                        "We address these issues by examining whether and how the association between individual religiosity and health depends on community-level religiosity. More specifically, to avoid many of the limitations of studies based on aggregate and cross-national data, we use a unique multilevel data set that combines survey data on 25,862 individuals with data on 258 U.S. counties to examine the subnational, communal contextual effects of religion on health. Drawing on prior theory and research, we elaborate multilevel mechanisms and set out a series of empirical expectations for the interplay between religious contexts and individuals."
                    ]
                }
            ]
        },
        {
            "title": "Background",
            "subsections": [
                {
                    "title": "Religious Contexts and Health",
                    "paragraphs": [
                        "The majority of religion-health research suggests that individuals' religious involvement promotes mental and physical health. For example, national U.S. population-based research using representative samples has found that individuals' religious service attendance is associated with lower mortality risk, enhanced health behaviors, increased social support, and better mental health, among other health-promoting factors (Ellison and George 1994; Glanville, Sikkink, and Hernandez 2008; Hill et al. 2005; Hummer et al. 1999; Musick, House, and Williams 2004; Schieman, van Gundy, and Taylor 2001). The vast majority of research focuses on data measured at the individual level, but religion is also a higher-order, community-level force in people's lives that can shape behavior and experience (Stark 1996). Examining religious contexts can both complicate and illuminate the relationship between religion and health. Yet a recent review of religion and population health research reported that relatively little is known about the effects of religious contexts on individuals' health, as \"it remains unclear whether community-level religious composition (a) influences individual- or family-level outcomes directly or (b) moderates the effects of religion,\" so \"studies investigating the interplay of religious influences at varying analytical levels should be a priority for future research\" (Ellison and Hummer 2010:436).",
                        "In Suicide, Durkheim ([1897] 1966:170) argued that residing in areas with an absence of religion's \"sufficiently intense collective life\" left \"modern\" people vulnerable to anomie and its accompanying social pathologies. Relatedly, Durkheim's ([1912] 1995) The Elementary Forms of Religious Life emphasized the importance of the sacred and the profane--boundaries drawn by religious communities' restrictions on a variety of health-related behaviors, including quarantine, diet, hygiene, rhythms of refraining from labor, sexual behavior, support for the young and old, and the handling of the dead. Drawing on Durkheim, scholars have examined connections between religious contexts and a variety of individual outcomes, such as sense of community (Stroope and Baker 2014), beliefs (Finke and Adamczyk 2008; Stroope 2011a), marital patterns (Uecker 2014), and educational attainment (Stroope, Franzen, and Uecker 2015), but health remains conspicuously neglected.",
                        "Researchers have studied the relationship between local religious contexts and population health and mortality primarily using health data limited to aggregate levels (Bartkowski, Xu, and Garcia 2011; Blanchard et al. 2008; Ellison, Burr, and McCall 1997). Much of this work relies on insights from \"moral communities\" theory (Stark 1996; Stark, Kent, and Doyle 1982), an elaboration of Durkheim's arguments concerning religious contexts' regulatory and integrative capacities, but almost no moral communities research has examined religious contexts and individual health. Further, analyses limited to the aggregate level do not adjust for individual characteristics and do not specifically measure the effects of context characteristics on individual-level relationships and outcomes, leaving aggregate-level studies vulnerable to the ecological fallacy. Accordingly, researchers have called for multilevel data and analysis to examine local contextual effects on individual health (Cockerham 2005; Ellison and Hummer 2010).",
                        "Recent large-N, cross-national studies have explored national religious contexts and individual health. One study found that low individual religiosity had a stronger association with poor self-rated health in countries with higher average religiosity compared to countries with lower average religiosity (Nicholson, Rose, and Bobak 2009). Another study found that in locations with greater levels of religious freedom and where there was a match between a contextual emphasis on religion and individual religiosity, there were positive effects of religious participation for individuals' health; however, in secular contexts, there were little to no positive effects of religiosity for individuals, and there were even negative effects of participation in locations with high levels of religious regulation and lower levels of contextual religiosity (Hayward and Elliott 2014). Taking the above studies together suggests that the large literature showing positive relationships between religiosity and health may not be generalizable to all contexts.",
                        "Further, the relationship within a country may be more complicated than a simple positive association. In an analysis conducted separately within nine U.S. census regions, Stavrova (2015) found a protective association between religious attendance and self-rated health and mortality in high-religiosity regions but no significant associations in low-religiosity regions. This last point is especially important because cross-national studies not only mask considerable variation in community-level religiosity within countries; they can also confound national religious culture with other institutions. There are documented community patterns of covariance between religion and education, socioeconomic inequality, and ethnic concentration (Moore and Ovadia 2006; Putnam and Campbell 2010; Solt, Habel, and Grant 2011). These patterns suggest that subnational units of analysis (i.e., more granular units than nations) are advantageous for more precisely accounting for such institutions while specifying how individual religiosity and communal religious contexts intersect in relation to health. For example, a positive contextual association between religion and poor health may be due to disadvantaged ethnic-minority and/or poverty concentration simultaneously increasing levels of both religiosity and poor health. More generally, national contexts may simply be too distant from many people's localized lived experiences to accurately assess the contextual effects of religion (Lim 2013). Therefore, in this study we focus on subnational, communal religious contexts. Combining insights from prior moral communities research on nonhealth outcomes and recent cross-national studies on health, we develop a series of hypotheses regarding the interplay between communal religious contexts, individual religiosity, and individual health."
                    ]
                },
                {
                    "title": "Religious Contexts and Health",
                    "paragraphs": [
                        "The moral communities thesis argues that religious contexts--not simply individual religiosity--matter for individuals' behavior. However, the effects of individual religiosity likely depend on religious contexts, and vice versa. Perhaps the most well-known moral communities concept is the \"light switch\" hypothesis, which argues that religious contexts \"turn on\" (or strengthen) the influence of individual religiosity (Lim and MacGregor 2012; Regnerus 2003).2 According to the light switch hypothesis, aggregate religious participation serves as an indication of social interactions among co-religionists. In other words, religious people directly interact with religious social networks present in a surrounding context. If individuals' religiosity aligns with that of the surrounding context, their religious commitment will be socially ratified and be more effectual (Stark 1996). In these contexts, religious individuals will reap the benefits of social and cultural conformity. Indeed, recent research finds that a sense of belonging and well-being depend on individual-congregation alignment (Hayward and Elliott 2009; Stroope 2011b). Similarly, Brashears (2010) shows that levels of both happiness and anomie depend on a combination of individual religion and religiously homogenous ties. Based on this background, we hypothesize that highly religious individuals in devout contexts will be less likely to have poor health compared to highly religious individuals in more secular contexts. This hypothesized multilevel relationship is depicted in Figure 1, Graph A.",
                        "Another hypothesis--what we label the secular stigma thesis--expects that devout contexts will have a negative effect on the less religious. This follows the empirical finding that the nonreligious (e.g., \"atheists\") are among the most disliked status groups in American society (Edgell et al. 2016; Edgell, Gerteis, and Hartmann 2006). Light switch and secular stigma hypotheses are not mutually exclusive, as the social processes inherent in each can operate simultaneously and may even be mutually reinforcing. Compared to the light switch hypothesis, we know relatively little about how religious contexts might negatively affect nonreligious individuals; however, several literatures point to potential mechanisms that might underlie negative effects of devout contexts on nonreligious individuals' health. First, previous research finds that the degree of social segregation based on religious participation is relatively high and similar to levels of social segregation based on race (DiPrete et al. 2011). Such religion-based in-group homophily likely results in lower local levels of bridging ties, social support, and social regulation. Higher levels of in-group homophily along religious lines may occur in devout contexts because religion is a salient feature of social life. Nonreligious individuals in devout contexts may be more socially isolated and experience less health-promoting social control and social support.",
                        "Indeed, similar explanations have been used in community studies of crime and other research. Religious social capital can be beneficial for religious adherents, but in highly devout contexts may become \"too much of a good thing\" for others, intensifying religious boundaries and weakening bridging social capital and overall shared identity--potentially leaving those outside religious groups excluded and more vulnerable (Beyerlein and Hipp 2005; Edgell 2012). Religious individuals often benefit from status-bridging social capital available within religious groups (Wuthnow 2002). In devout contexts, there are likely to be fewer opportunities to tap into status-bridging social capital outside of congregational social circles as congregation-based bonding networks affect ties to the surrounding community and its overall network structure, limiting broad-based bridging networks. In sum, compared to nonreligious individuals in secular contexts, nonreligious individuals in devout contexts are less likely to have social integration and support, and more likely to have limited access to associated resources.",
                        "Second, prior research suggests that a mobilization queue may exist in devout contexts. Civic organizers and social service providers tend to focus mobilization efforts on congregations (Chaves 2009), and this pattern is likely intensified in devout contexts. The nonreligious may become less socially integrated as organizations focus their efforts more heavily on members of religious groups. A variety of formal and informal health-promoting resources and services may be tailored to religious participants. As such, nonreligious people are more likely to opt out of such opportunities, feel unwelcome, or have limited access. By contrast, in secular contexts there are more fully developed and religiously neutral institutions and cultural supports along with more highly developed secular networks for people to participate in and through which to access opportunities, resources, and social support.",
                        "Third, social identity may be operative in influencing the health of the nonreligious in religious contexts. Recent research has found negative health impacts for religious discordance within some religious traditions (Lim 2015). Drawing on insights from self-categorization theory (Turner et al. 1987), Hayward and Elliott (2014) suggest that when a religious identity is discordant with the national religious climate, well-being can suffer because individuals with a nonreligious (or minority religious) identity do not share in the \"collective self-esteem.\" Whether through interpersonal interactions or the dominance of religious symbols, there may be a sense that the surrounding environment is part of a collective sentiment and that belonging is primarily available to devout members of the culturally dominant religious group (Edgell et al. 2006). Since religious environments can build collective self-esteem, when a religious identity is discordant with a highly religious environment, personal well-being may suffer.",
                        "Fourth and finally, population health research on structural stigma suggests that contexts vary in the extent to which they stigmatize different social groups, affecting the distribution of resources, stress, and health for those groups (Link and Phelan 2001). Public wariness toward secular people is among the highest for any group in American society (Edgell et al. 2016), and secular individuals may be differentially stigmatized in contexts where religion is highly salient, experiencing higher levels of prejudice and discrimination (Edgell et al. 2006). Religion is more likely to enter discussions of local politics, business, or even interactions with healthcare workers. For example, in everyday social interactions, people in devout contexts may ask each other not only what neighborhood they live in or where they work but also where they go to church. The salience of religion in devout places can result in nonreligious individuals feeling excluded, judged, or actively discriminated against for their lack of religious conformity (Cragun et al. 2012). In highly religious contexts, nonreligious people must frequently react to religious ideas and policies, confront subtle or overt proselytism, and be willing to defend their lack of religious commitment and concomitant views (or else \"pass\" as religious). Overall, nonreligious individuals living in highly religious contexts may have a chronic sense of exclusion from their local cultures and communities. Taking the above literatures and potential mechanisms together, the secular stigma hypothesis (depicted in Figure 1, Graph B) posits that nonreligious individuals will be more likely to have poor health in devout contexts compared to nonreligious individuals in secular contexts."
                    ]
                }
            ]
        },
        {
            "title": "Data and Method",
            "subsections": [
                {
                    "title": "Individual-level Variables",
                    "paragraphs": [
                        "Self-rated health--the outcome of interest--is among the strongest predictors of physical health, functional health status, mental health, healthcare utilization, and subjective well-being; is correlated with objective health indicators; and is independently predictive of mortality (Frankenberg and Jones 2004; Idler and Benyamini 1997; Jylha 2009). Used by the World Health Organization and other organizations as a valid and reliable assessment of overall health, self-rated health includes biological, social, and psychological dimensions of a person's assessment of his or her health (Boardman 2004; De Bruin, Picavet, and Nassikov 1996; Ferraro and Farmer 1999). To measure self-rated health, the SCCBS asked participants, \"How would you describe your overall state of health these days?\" Reverse coded, responses were (0) \"excellent,\" (1) \"very good,\" (2) \"good,\" (3) \"fair,\" or (4) \"poor.\" Zajacova and Dowd (2011) argue that a fair/poor health dichotomization may achieve enhanced reliability in the general U.S. population. Following the frequently used approach in the literature, we dichotomized this measure and used a binary self-rated poor health indicator (fair/poor health = 1, else 0; Browning and Cagney 2003; Idler and Benyamini 1997; Lynch 2003). Dichotomization also enabled comparability with prior research (Kim and Kawachi 2006; Kim, Subramanian, and Kawachi 2006; Subramanian, Kim, and Kawachi 2002). Models using the five-point coding of the dependent variable yielded similar results to those presented.",
                        "To measure religiosity, we created a summative individual-level religiosity index from standardized scores of a religious service attendance variable and a religious identity salience variable (a = .743). To measure religious service attendance, the SCCBS asked respondents about their attendance frequency. Responses were (4) \"every week (or more often),\" (3) \"almost every week,\" (2) \"once or twice a month,\" (1) \"a few times per year,\" or (0) \"less often than that.\" To gauge religious salience, participants responded to the statement, \"Religion is very important in my life,\" with (1) \"disagree strongly,\" (2) \"disagree somewhat,\" (3) \"agree somewhat,\" or (4) \"agree strongly.\"",
                        "At the individual level, our regressions controlled for variables capturing demographic, socioeconomic, and religious characteristics associated with self-rated health and religiosity. To account for demographic variability, we included binary indicators for gender, race-ethnicity, and marital status. The measure of race-ethnicity included classifications of non-Hispanic white (reference), Hispanic, non-Hispanic black, and non-Hispanic other. Age was measured in years. At the individual level, socioeconomic control variables included household income, education, and employment status. Household income ranged from $20,000 or less to $100,000 or more per year. This variable was divided by 1,000. Education was measured using four categories: less than high school diploma (reference), high school graduate, some college or associate degree, and college graduate. Employment status was coded as employed = 1, else 0. We classified religious affiliation using a coding scheme based on the Steensland et al. (2000) typology (i.e., conservative Protestant, mainline Protestant, Catholic, other, and no religion). To account for geographic differences, we included indicators for Northeast, Midwest, West, and South (reference) regions as well as metro area (metropolitan statistical area = 1, else 0)."
                    ]
                },
                {
                    "title": "Individual-level Variables",
                    "paragraphs": [
                        "Contextual religiosity was measured by incorporating standardized county-level means of two variables (religious service attendance and religious salience) into an index of contextual religiosity (a = .803). In calculating means, the average county sample size was 100. Ancillary models using only counties with sample sizes over 50 and 100 produced similar results. This approach followed prior research using aggregate religiosity as a measure of context religiousness (e.g., Huijts and Kraaykamp 2011; Lim and MacGregor 2012). Reliability coefficients for mean service attendance (.966) and mean salience (.972) were substantially higher than acceptable thresholds (i.e., .6; Jones and Norrander 1996; O'Brien 1990).",
                        "To ensure that the effects of county religiosity were not confounded by other county characteristics, models controlled for key factors, such as socioeconomic disadvantage, health infrastructure, minority concentration, and population size. These items came from the 2000 Census of Population and Housing, Summary Files 3, and the Office of Management and Budget. To control for socioeconomic and demographic characteristics of the county, we constructed a summary measure that captured socioeconomic diversity in the composition of the county population. This index was based on the Gini coefficient of family income inequality, the percentage of the population ages 25 and older with a high school diploma, percentage unemployed, and percentage in poverty. Due to high correlations among these four variables, they were summarized using a factor score labeled socioeconomic disadvantage (a = .87). Controlling for socioeconomic disadvantage was especially important because health may be worse and individual religiosity higher in contexts experiencing socioeconomic deprivation and insecurity. The number of hospital beds per 1,000 persons was used as a control for local levels of healthcare infrastructure in counties. We also controlled for minority concentration (percentage non-Hispanic black and percentage Hispanic), county population (logged), and the county-level mean of a sum of five types of nonreligious volunteering (volunteering for the poor/elderly, youth/school programs, neighborhood/civic group, healthcare/particular diseases, and arts/cultural organizations; a = .71). Focal results with and without mean nonreligious volunteering were similar."
                    ]
                }
            ]
        },
        {
            "title": "Results",
            "subsections": [
                {
                    "title": null,
                    "paragraphs": [
                        "Table 2 presents results from a multilevel binary logistic model of individual-level poor health regressed on an interaction of individual religiosity by contextual religiosity, controlling for individual and contextual background characteristics. The results show that there is a significant cross-level interaction. In this model, the individual religiosity odds ratio (OR) shows a negative relationship (OR = .77; p < .001), the contextual religiosity odds ratio is positive (OR = 1.09; p > .05), and the cross-level interaction shows a significant negative interaction (OR = .83; p < .001).",
                        "Figure 2 displays this cross-level interaction using predicted probabilities. Predicted probabilities are calculated holding all binary variables at 0 and continuous variables at their respective means. Individuals with lower levels of religiosity have a higher probability of poor health across both low- and high-religiosity contexts; however, going from more secular communal contexts to more religiously devout contexts, the health gap between individuals with low and high religiosity widens considerably. The gap is small in the most secular contexts but is substantial in the most religious contexts. High- and low-religiosity individuals have differing patterns as contextual religiosity increases. Going from secular to devout contexts, the probability of poor health is lower for individuals with higher religiosity. Illustratively, for a person with high religiosity (one standard deviation above the mean), the probability of poor health decreases by 10.8% (from .292 to .260) going from secular to devout contexts (defined here as one standard deviation below and above the mean). Overall, highly religious individuals in devout contexts are less likely to have poor health compared to highly religious individuals in more secular contexts. This result is consistent with the light switch hypothesis, which argues that religious contexts strengthen the influence of individual religiosity.",
                        "Making the same comparison across secular and devout contexts for a person with low religiosity, the probability of poor health increases by 33.3% (from .325 to .433)--a substantial increase. This finding provides strong support for the secular stigma hypothesis, which posits that devout contexts will have a negative effect on less religious individuals. In this perspective, low-religiosity individuals in devout contexts will experience stress and fewer social and material resources through processes of discrimination, lower social integration, and greater discordance with their cultural environment.",
                        "In analyses not shown, we used data from the 2000 Religious Congregations and Membership Study (RCMS; Jones et al. 2002) to explore whether contextual religiosity effects may be due to the county-level prevalence of major religious traditions. Focal results are not meaningfully altered when percentage conservative Protestant, mainline Protestant, Catholic, and other religious traditions are controlled. No significant effects were found for religious tradition concentration or religious pluralism, as measured with a Herfindahl index (Barro, Hwang, and McCleary 2010). The lack of religious tradition concentration effects is notable because it differs from other county-level religious concentration results using other health outcomes (e.g., Bartkowski et al. 2011; Blanchard et al. 2008)."
                    ]
                }
            ]
        },
        {
            "title": "Discussion",
            "subsections": [
                {
                    "title": "Light Switch and Secular Stigma",
                    "paragraphs": [
                        "This study's findings advance the literatures on contextual effects, religion, and health by showing how the relationship between individual religiosity and health outcomes varies depending on communal religious contexts. Compared to high-religiosity individuals, low-religiosity individuals are more likely to have poor health in all contexts analyzed, but they were especially likely to have poor health in high-religiosity contexts. Additionally, with greater community religiosity, the health gap between individuals with low and high religiosity widens substantially. These results highlight the importance of local religious contexts for both religious and nonreligious individuals' health.",
                        "We proposed two motivating hypotheses regarding whether and how contextual religiosity conditions the relationship between individual religiosity and health: (1) the light switch hypothesis and (2) the secular stigma hypothesis. In support of the light switch hypothesis, we find that poor health is less likely for highly religious individuals in devout contexts compared to those in more secular contexts. This finding extends prior research on religious contexts and health (e.g., Nicholson et al. 2009), religious networks and well-being (Brashears 2010), and related theory, particularly that of Stark (1996), who argued that individuals' religious commitments are ratified in religious social contexts, producing a greater influence on behavior and--correspondingly, as we have found--health. Our findings are consistent with other scholars' arguments that broader social, cultural, and institutional support for religion in a surrounding context reinforces individual religious commitment, enhances self-esteem, and can positively influence health (Hayward and Elliott 2014; Stroope 2012).",
                        "We also found clear support for the secular stigma hypothesis. Nonreligious individuals are substantially more likely to have poor health in devout contexts compared to nonreligious individuals in more secular contexts. Further, the deleterious effects of religious contexts on nonreligious individuals' health are considerably greater (50% larger) than the salutary effect of religious contexts on devout individuals' health. This finding is consistent with recent research showing that devout local contexts have negative effects on the social inclusion of the nonreligious (Lim and MacGregor 2012). One important mechanism potentially contributing to these negative effects is discrimination. When considering discrimination, however, the impact of religious contexts on the nonreligious need not come directly through interpersonal interaction or access to resources and opportunities. Aggregate religion may point to the presence of religion as a cultural force in the local environment (Finke and Adamczyk 2008). Public discourse, media, laws, institutions, material objects, and other symbolic religious elements in a locale may reinforce antisecular cultural schemas through involvement in associated rituals or simply through visible reminders. Furthermore, such visible symbolic elements may influence nonreligious individuals' experiences regardless of whether they experience any interpersonal bias shown by religious individuals, as public symbols may serve as frequent reminders to nonreligious individuals of their marginalized status. Future research should seek to measure and assess the importance of religion as a cultural force and its role in both discrimination and in creating stress for religious minorities and the nonreligious."
                    ]
                },
                {
                    "title": "Light Switch and Secular Stigma",
                    "paragraphs": [
                        "The secular stigma hypothesis is built on several literatures suggesting mechanisms underlying the negative effects of devout contexts on nonreligious individuals. However, a limitation of this study is that variables available in the data were not well suited to evaluate these mechanisms. Going forward, an important task for multilevel research is to assess these potential underlying mechanisms linking secularity to negative health outcomes.",
                        "There are other possibilities that we were not able to explore with current data. For example, nonreligious individuals may engage in health-averse behaviors as a way to cope with the stress of living in devout locales. Some behaviors, such as smoking, using drugs, and drinking alcohol, may also serve as symbolic boundaries dividing the religious from the nonreligious, especially in devout settings with strict norms (Uecker, Regnerus, and Vaaler 2007). This may arise because many religious groups have historically prohibited the use of tobacco, alcohol, and drugs and have engaged in public campaigns against the use of such substances. Religious and cultural tastes can influence social networks and the corresponding formation of oppositional cultures and symbolic boundaries (Edgell 2012; Edgell et al. 2006; Vaisey and Lizardo 2010). Taking these points together, in devout contexts, health-related behaviors, such as drinking alcohol, may be used as symbolic boundaries of both exclusion from dominant religious social circles and inclusion into a marginalized nonreligious group. Future research using health behavior data should investigate these possibilities.",
                        "Finally, another possibility is that in devout contexts, marginally religious individuals may have a religious residue or lingering religious and moral orientations that negatively impact various aspects of life when disconnected from regular communal participation. A religious residue can lead to poor health because religious beliefs and norms--when detached from religious participation and the support of religious communities--frustrate individuals' ability to lead healthy lifestyles, avoid stress, and maintain mental health. In support of this possibility, Lim and Putnam (2010) found that life satisfaction is lower for people with weak religious integration compared to individuals with strong or no religious integration. Additionally, recent studies show that the marginally religious--adherents with low/no institutional involvement and some nominal religious affiliates--fare worse compared to more thoroughly secular people on a variety of outcomes, including mental health (Lim 2015). In analyses not shown, we examined health variations in non-/low attenders who agree or strongly agree that religion is important. We did not find that contextual variations in this group explained our findings. In the current study, those low in religiosity are referred to as the nonreligious, but due to data limitations these individuals may be nontheistic or theistic. Consequently, we cannot go far in ruling out the possibility that it is marginally religious rather than irreligious individuals who are driving the elevated poor health among low-religiosity people in devout contexts. Assessing these data limitations and this hypothesis is a promising direction for future research using contextual data with a wider range of suitable religiosity measures.",
                        "Like most large multilevel studies, our analysis is limited to available administrative areal contexts. Future research can extend this work with data linked to alternate levels of geography. However, while certain mechanisms and populations may be well suited to smaller geographic units, a number of the theorized religious context mechanisms (e.g., mobilization queue) may be best suited for larger units, such as counties.",
                        "The current results raise further questions. If devout places are health erosive for nonreligious individuals, why are secular places not as erosive for religious individuals? One possibility is that religion may not be as salient a factor of everyday life in secular contexts. Rather than discriminating against or actively trying to deconvert the religious, residents of secular contexts may simply be unconcerned with the presence of religion, and religious people in such contexts may be energized by the need to evangelize rather than focus on their incongruence with the local area (Wellman and Corcoran 2013). Another possibility is that religious people tend to have a variety of coping resources: plausibility structures (Berger 1967), in-group trust and social support (Merino 2014), and cultural traditions of positively interpreting persecution and hardship (Stroope, Walker, and Franzen 2017). The nonreligious are less likely to have such fully formed cultural and communal structures overall, but more specific secular identities and communities within this grouping--such as organized atheists--may have better health than other nonreligious groups due to their (relative) belief unity, cohesion, and social organization (Doane and Elliott 2015; Hwang, Hammer, and Cragun 2011; Zuckerman, Galen, and Pasquale 2016). Future research using more granular data on the nonreligious should investigate whether the negative effects of religious contexts vary across nonreligious subgroups.",
                        "In conjunction with better measures of religiosity and secularity, additional health indicators are necessary to further detail the connections between religion and health we have outlined. Health surveys are rapidly incorporating biomarkers, and data sets with adequate sample size, geographic identifiers, and measures of religion may become available, allowing for further elaboration of this study's findings through the investigation of potential biological pathways. Beyond improved measures, future research should compare the current results from the United States to other national and subnational contexts, as the relationships between religion and health may differ across cultural settings.",
                        "A final limitation is this study's use of cross-sectional data, which cannot completely rule out health selection or the possibility that poor health reduces religious involvement. Our composite measure of religiosity, however, includes personal religious salience, which is not affected by immobility. Additionally, prospective studies have shown that the effects of religion on health are not accounted for by reciprocal effects (for reviews, see Ellison et al. 2014; George, Ellison, and Larson 2002). The interactive variations by context also give some confidence that the findings reflect the processes as theorized. If the relationship between religion and health was explained by poor health reliably reducing people's religiosity, we would expect to see a comparably strong religion-health correlation across secular and devout contexts, yet we do not. Still, to further address issues of temporal ordering in relation to our findings, future research should employ multilevel longitudinal data with measures of religion and health."
                    ]
                }
            ]
        },
        {
            "title": "Conclusion",
            "subsections": [
                {
                    "title": null,
                    "paragraphs": [
                        "This study moves beyond prior individual-level studies and the macro-micro linkages of cross-national research by contributing novel findings on the meso-micro relationships between communal religious contexts, individual religiosity, and health. The results highlight the importance of subnational religious contexts for individual health. We also move beyond arguments regarding whether religion is beneficial or harmful and illustrate the complexity of connections between religion and health, demonstrating that a full understanding entails concurrent analysis of individuals and their local communities. Connections between religiosity and health depend on local religious contexts, which can be beneficial or harmful, depending on an individual's level of religious involvement. These results highlight geographic health variations among nonreligious individuals in particular. While health in more secular contexts is relatively similar for religious and nonreligious individuals, the health of these populations diverge in devout contexts, with better health for the religious and--as the secular stigma hypothesis predicts--a marked increase in poor health among the nonreligious. These findings suggest that collective religiosity benefits the health of some while eroding the health of others. By bringing in local religious ecologies, researchers can develop a more refined understanding of the religious, communal, and cultural drivers of health inequalities across a variety of settings. Ultimately the benefits and detriments of moral communities depend on whose moral community it is."
                    ]
                }
            ]
        }
    ],
    "references": [
        "Baker, Joseph O., Smith, Buster G. 2015. American Secularism: Cultural Contours of Nonreligious Belief Systems. New York: New York University Press.",
        "Barro, Robert, Hwang, Jason, McCleary, Rachel. 2010. \u201cReligious Conversion in 40 Countries.\u201d Journal for the Scientific Study of Religion 49(1):15\u201336.",
        "Bartkowski, John P., Xu, Xiaohe, Garcia, Ginny E. 2011. \u201cReligion and Infant Mortality in the US: A Preliminary Study of Denominational Variations.\u201d Religions 2(3):264\u201376.",
        "Berger, Peter L. 1967. The Sacred Canopy: Elements of a Sociological Theory of Religion. Garden City, NY: Doubleday.",
        "Beyerlein, Kraig, Hipp, John R. 2005. \u201cSocial Capital, Too Much of a Good Thing? American Religious Traditions and Community Crime.\u201d Social Forces 84(2):995\u20131013.",
        "Blanchard, Troy C., Bartkowski, John P., Matthews, Todd L., Kerley, Kent R. 2008. \u201cFaith, Morality and Mortality: The Ecological Impact of Religion on Population Health.\u201d Social Forces 86(4):1591\u2013620.",
        "Boardman, Jason D. 2004. \u201cHealth Pessimism among Black and White Adults: The Role of Interpersonal and Institutional Maltreatment.\u201d Social Science & Medicine 59(12):2523\u201333.",
        "Brashears, Matthew E. 2010. \u201cAnomia and the Sacred Canopy: Testing a Network Theory.\u201d Social Networks 32(3):187\u201396.",
        "Browning, Christopher R., Cagney, Kathleen A. 2003. \u201cMoving beyond Poverty: Neighborhood Structure, Social Processes, and Health.\u201d Journal of Health and Social Behavior 44(4):552\u201371.",
        "Chaves, Mark A. 2009. \u201cCongregations\u2019 Significance to American Civic Life.\u201d Pp. 69\u201381 in The Civic Life of American Religion, edited by Lichterman, P., Potts, C. B. Palo Alto, CA: Stanford University Press.",
        "Cockerham, William C. 2005. \u201cHealth Lifestyle Theory and the Convergence of Agency and Structure.\u201d Journal of Health and Social Behavior 46(1):51\u201367.",
        "Cragun, Ryan T., Kosmin, Barry, Keysar, Ariela, Hammer, Joseph H., Nielsen, Michael. 2012. \u201cOn the Receiving End: Discrimination toward the Non-religious in the United States.\u201d Journal of Contemporary Religion 27(1):105\u201327.",
        "De Bruin, A., Picavet, H. S. J., Nassikov, A., eds. 1996. Health Interview Survey: Towards International Harmonization of Methods and Instruments. Copenhagen: WHO Regional Publications European Series.",
        "DiPrete, Thomas A., Gelman, Andrew, McCormick, Tyler, Teitler, Julien, Zheng, Tian. 2011. \u201cSegregation in Social Networks Based on Acquaintanceship and Trust.\u201d American Journal of Sociology 116(4):1234\u201383.",
        "Doane, Michael J., Elliott, Marta. 2015. \u201cPerceptions of Discrimination among Atheists: Consequences for Atheist Identification, Psychological and Physical Well-being.\u201d Psychology of Religion and Spirituality 7(2):130\u201341.",
        "Durkheim, \u00c9mile. [1897] 1966. Suicide. Translated by Spaulding, J. A., Simpson, G. New York: Free Press.",
        "Durkheim, \u00c9mile. [1912] 1995. The Elementary Forms of Religious Life. Translated by Fields, K. E. New York: Free Press.",
        "Edgell, Penny. 2012. \u201cA Cultural Sociology of Religion: New Directions.\u201d Annual Review of Sociology 38(1):247\u201365.",
        "Edgell, Penny, Gerteis, Joseph, Hartmann, Douglas. 2006. \u201cAtheists as \u2018Other\u2019: Moral Boundaries and Cultural Membership in American Society.\u201d American Sociological Review 71(2):211\u201334.",
        "Edgell, Penny, Hartmann, Douglas, Stewart, Evan, Gerteis, Joseph. 2016. \u201cAtheists and Other Cultural Outsiders: Moral Boundaries and the Non-religious in the United States.\u201d Social Forces 95(2):607\u201338.",
        "Ellison, Christopher G., Bradshaw, Matt, Flannelly, Kevin J., Galek, Kathleen C. 2014. \u201cPrayer, Attachment to God, and Symptoms of Anxiety-related Disorders among U.S. Adults.\u201d Sociology of Religion 75(2):208\u201333.",
        "Ellison, Christopher G., Burr, Jeffrey A., McCall, Patricia L. 1997. \u201cReligious Homogeneity and Metropolitan Suicide Rates.\u201d Social Forces 76(1):273\u201399.",
        "Ellison, Christopher G., George, Linda K. 1994. \u201cReligious Involvement, Social Ties, and Social Support in a Southeastern Community.\u201d Journal for the Scientific Study of Religion 33(1):46\u201361.",
        "Ellison, Christopher G., Hummer, Robert A. 2010. \u201cFuture Directions in Population-based Research on Religion, Family Life, and Health in the United States.\u201d Pp. 431\u201353 in Religion, Families, and Health: Population-based Research in the United States, edited by Ellison, C. G., Hummer, R. A. New Brunswick, NJ: Rutgers University Press.",
        "Ferraro, Kenneth F., Farmer, Melissa M. 1999. \u201cUtility of Health Data from Social Surveys: Is There a Gold Standard for Measuring Morbidity?\u201d American Sociological Review 64(2):303\u201315.",
        "Finke, Roger, Adamczyk, Amy. 2008. \u201cCross-national Moral Beliefs: The Influence of National Religious Context.\u201d Sociological Quarterly 49(4):617\u201352.",
        "Frankenberg, Elizabeth, Jones, Nathan R. 2004. \u201cSelf-rated Health and Mortality: Does the Relationship Extend to a Low Income Setting?\u201d Journal of Health and Social Behavior 45(4):441\u201352.",
        "George, Linda K., Ellison, Christopher G., Larson, David B. 2002. \u201cExplaining the Relationships between Religious Involvement and Health.\u201d Psychological Inquiry 13(3):190\u2013200.",
        "Glanville, Jennifer L., Sikkink, David, Hern\u00e1ndez, Edwin I. 2008. \u201cReligious Involvement and Educational Outcomes: The Role of Social Capital and Extracurricular Participation.\u201d Sociological Quarterly 49(1):105\u201337.",
        "Hayward, R. David, Elliott, Marta. 2009. \u201cFitting In with the Flock: Social Attractiveness as a Mechanism for Well-being in Religious Groups.\u201d European Journal of Social Psychology 39(4):592\u2013607.",
        "Hayward, R. David, Elliott, Marta. 2014. \u201cCross-national Analysis of the Influence of Cultural Norms and Government Restrictions on the Relationship between Religion and Well-being.\u201d Review of Religious Research 56(1):23\u201343.",
        "Hill, Terrence D., Angel, Jacqueline L., Ellison, Christopher G., Angel, Ronald J. 2005. \u201cReligious Attendance and Mortality: An 8-year Follow-up of Older Mexican Americans.\u201d Journals of Gerontology Series B: Psychological Sciences and Social Sciences 60(2):S102\u201309.",
        "Hill, Terrence D., Cobb, Ryon J. 2011. \u201cReligious Involvement and Religious Struggles.\u201d Pp. 239\u201360 in Toward a Sociological Theory of Religion and Health, edited by Blasi, A. Boston: Brill.",
        "Huijts, Tim, Kraaykamp, Gerbert. 2011. \u201cReligious Involvement, Religious Context, and Self-assessed Health in Europe.\u201d Journal of Health and Social Behavior 52(1):91\u2013106.",
        "Hummer, Robert A., Rogers, Richard G., Nam, Charles B., Ellison, Christopher G. 1999. \u201cReligious Involvement and U.S. Adult Mortality.\u201d Demography 36(2):273\u201385.",
        "Hwang, Karen, Hammer, Joseph H., Cragun, Ryan T. 2011. \u201cExtending Religion\u2013Health Research to Secular Minorities: Issues and Concerns.\u201d Journal of Religion and Health 50(3):608\u201322.",
        "Idler, Ellen L., Benyamini, Yael. 1997. \u201cSelf-rated Health and Mortality: A Review of Twenty-seven Community Studies.\u201d Journal of Health and Social Behavior 38(1):21\u201337.",
        "Jones, Bradford S., Norrander, Barbara. 1996. \u201cThe Reliability of Aggregated Public Opinion Measures.\u201d American Journal of Political Science 40(1):295\u2013309.",
        "Jones, Dale E., Doty, Sherry, Grammich, Clifford, Horsch, James E., Houseal, Richard, Lynn, Mac, Marcum, John P., Sanchagrin, Kenneth M., Taylor, Richard H. 2002. Religious Congregations & Membership in the United States 2000. Nashville, TN: Glenmary Research Center.",
        "Jylh\u00e4, Marja. 2009. \u201cWhat Is Self-rated Health and Why Does It Predict Mortality? Towards a Unified Conceptual Model.\u201d Social Science & Medicine 69(3):307\u201316.",
        "Kim, Daniel, Kawachi, Ichiro. 2006. \u201cA Multilevel Analysis of Key Forms of Community- and Individual-level Social Capital as Predictors of Self-rated Health in the United States.\u201d Journal of Urban Health 83(5):813\u201326.",
        "Kim, Daniel, Subramanian, Sukanya V., Kawachi, Ichiro. 2006. \u201cBonding versus Bridging Social Capital and Their Associations with Self Rated Health: A Multilevel Analysis of 40 US Communities.\u201d Journal of Epidemiology & Community Health 60(2):116\u201322.",
        "Koenig, Harold G., King, Dana E., Carson, Verna Benner. 2012. Handbook of Religion and Health. 2nd ed. New York: Oxford University Press.",
        "Lee, Lois. 2015. Recognizing the Non-religious: Reimagining the Secular. Oxford: Oxford University Press.",
        "Lim, Chaeyoon. 2013. \u201cCounting the Faithful: Measuring Local Religious Contexts in the United States.\u201d Journal for the Scientific Study of Religion 52(2):386\u2013400.",
        "Lim, Chaeyoon. 2015. \u201cReligion and Subjective Well-being across Religious Traditions: Evidence from 1.3 Million Americans.\u201d Journal for the Scientific Study of Religion 54(4):684\u2013701.",
        "Lim, Chaeyoon, MacGregor, Carol Ann. 2012. \u201cReligion and Volunteering in Context: Disentangling the Contextual Effects of Religion on Voluntary Behavior.\u201d American Sociological Review 77(5):747\u201379.",
        "Lim, Chaeyoon, Putnam, Robert D. 2010. \u201cReligion, Social Networks, and Life Satisfaction.\u201d American Sociological Review 75(6):914\u201333.",
        "Link, Bruce G., Phelan, Jo C. 2001. \u201cConceptualizing Stigma.\u201d Annual Review of Sociology 27(1):363\u201385.",
        "Lynch, Scott M. 2003. \u201cCohort and Life-course Patterns in the Relationship between Education and Health: A Hierarchical Approach.\u201d Demography 40(2):309\u201331.",
        "Merino, Stephen M. 2014. \u201cSocial Support and the Religious Dimensions of Close Ties.\u201d Journal for the Scientific Study of Religion 53(3):595\u2013612.",
        "Moore, Laura M., Ovadia, Seth. 2006. \u201cAccounting for Spatial Variation in Tolerance: The Effects of Education and Religion.\u201d Social Forces 84(4):2205\u201322.",
        "Musick, Marc A., House, James S., Williams, David R. 2004. \u201cAttendance at Religious Services and Mortality in a National Sample.\u201d Journal of Health and Social Behavior 45(2):198\u2013213.",
        "Nicholson, Amanda, Rose, Richard, Bobak, Martin. 2009. \u201cAssociation between Attendance at Religious Services and Self-reported Health in 22 European Countries.\u201d Social Science & Medicine 69(4):519\u201328.",
        "Norris, Pippa, Inglehart, Ronald. 2012. Sacred and Secular: Religion and Politics Worldwide. 2nd ed. Cambridge: Cambridge University Press.",
        "O\u2019Brien, Robert M. 1990. \u201cEstimating the Reliability of Aggregate-level Variables Based on Individual-level Characteristics.\u201d Sociological Methods & Research 18(4):473\u2013504.",
        "Putnam, Robert D. 2007. \u201cE Pluribus Unum: Diversity and Community in the Twenty-first Century.\u201d Scandinavian Political Studies 30(2):137\u201374.",
        "Putnam, Robert D., Campbell, David E. 2010. American Grace: How Religion Divides and Unites Us. New York: Simon & Schuster.",
        "Raudenbush, Stephen W., Bryk, Anthony S. 2002. Hierarchical Linear Models: Applications and Data Analysis Methods. Newbury Park, CA: Sage.",
        "Regnerus, Mark D. 2003. \u201cMoral Communities and Adolescent Delinquency: Religious Contexts and Community Social Control.\u201d Sociological Quarterly 44(4):523\u201354.",
        "Saguaro Seminar. 2001. Social Capital Community Benchmark Survey, 2000: Codebook. Cambridge, MA: John F. Kennedy School of Government, Harvard University.",
        "Schieman, Scott, van Gundy, Karen, Taylor, John. 2001. \u201cStatus, Role, and Resource Explanations for Age Patterns in Psychological Distress.\u201d Journal of Health and Social Behavior 42(1):80\u201396.",
        "Solt, Frederick, Habel, Philip, Grant, J. Tobin. 2011. \u201cEconomic Inequality, Relative Power, and Religiosity.\u201d Social Science Quarterly 92(2):447\u201365.",
        "Stark, Rodney. 1996. \u201cReligion as Context: Hellfire and Delinquency One More Time.\u201d Sociology of Religion 57(2):163\u201373.",
        "Stark, Rodney, Kent, Lori, Doyle, Daniel P. 1982. \u201cReligion and Delinquency: The Ecology of a \u2018Lost\u2019 Relationship.\u201d Journal of Research in Crime and Delinquency 19(1):4\u201324.",
        "Stavrova, Olga. 2015. \u201cReligion, Self-rated Health, and Mortality: Whether Religiosity Delays Death Depends on the Cultural Context.\u201d Social Psychological and Personality Science 6(8):911\u201322.",
        "Steensland, Brian, Park, Jerry Z., Robinson, Lynn D., Wilcox, W. Bradford, Woodberry, Robert D. 2000. \u201cThe Measure of American Religion: Toward Improving the State of the Art.\u201d Social Forces 79(1):291\u2013318.",
        "Stroope, Samuel. 2011a. \u201cEducation and Religion: Individual, Congregational, and Cross-level Interaction Effects on Biblical Literalism.\u201d Social Science Research 40(6):1478\u201393.",
        "Stroope, Samuel. 2011b. \u201cHow Culture Shapes Community: Bible Belief, Theological Unity, and a Sense of Belonging in Religious Congregations.\u201d Sociological Quarterly 52(4):568\u201392.",
        "Stroope, Samuel. 2012. \u201cSocial Networks and Religion: The Role of Congregational Social Embeddedness in Religious Belief and Practice.\u201d Sociology of Religion 73(3):273\u201398.",
        "Stroope, Samuel, Baker, Joseph O. 2014. \u201cStructural and Cultural Sources of Community in American Congregations.\u201d Social Science Research 45:1\u201317.",
        "Stroope, Samuel, Franzen, Aaron B., Uecker, Jeremy E. 2015. \u201cSocial Context and College Completion in the United States: The Role of Congregational Biblical Literalism.\u201d Sociological Perspectives 58(1):120\u201337.",
        "Stroope, Samuel, Walker, Mark H., Franzen, Aaron B. 2017. \u201cStress Buffer or Identity Threat?: Negative Media Portrayal, Public and Private Religious Involvement, and Mental Health in a National Sample of US Adults.\u201d Society and Mental Health 7(2):85\u2013104.",
        "Subramanian, S. V., Kim, Daniel J., Kawachi, Ichiro. 2002. \u201cSocial Trust and Self-rated Health in US Communities: A Multilevel Analysis.\u201d Journal of Urban Health: Bulletin of the New York Academy of Medicine 79(Suppl. 1):S21\u201334.",
        "Turner, John C., Hogg, Michael A., Oakes, Penelope J., Reicher, Stephen D., Wetherell, Margaret S. 1987. Rediscovering the Social Group: A Self-categorization Theory. Cambridge, MA: Basil Blackwell.",
        "Uecker, Jeremy E. 2014. \u201cReligion and Early Marriage in the United States: Evidence from the Add Health Study.\u201d Journal for the Scientific Study of Religion 53(2):392\u2013415.",
        "Uecker, Jeremy E., Regnerus, Mark D., Vaaler, Margaret L. 2007. \u201cLosing My Religion: The Social Sources of Religious Decline in Early Adulthood.\u201d Social Forces 85(4):1667\u201392.",
        "Vaisey, Stephen, Lizardo, Omar. 2010. \u201cCan Cultural Worldviews Influence Network Composition?\u201d Social Forces 88(4):1595\u2013618.",
        "Wellman, James K., Corcoran, Katie E. 2013. \u201cReligion and Regional Culture: Embedding Religious Commitment within Place.\u201d Sociology of Religion 74(4):496\u2013520.",
        "Wuthnow, Robert. 2002. \u201cReligious Involvement and Status-bridging Social Capital.\u201d Journal for the Scientific Study of Religion 41(4):669\u201384.",
        "Zajacova, Anna, Dowd, Jennifer Beam. 2011. \u201cReliability of Self-rated Health in US Adults.\u201d American Journal of Epidemiology 174(8):977\u201383.",
        "Zuckerman, Phil, Galen, Luke W., Pasquale, Frank L. 2016. The Nonreligious: Understanding Secular People and Societies. New York: Oxford University Press."
    ],
    "title": "Whose Moral Community? Religiosity, Secularity, and Self-rated Health across Communal Religious Contexts",
    "issue": "2",
    "volume": "59",
    "year": 2018,
    "issn": "0022-1465",
    "journal": "Journal of Health and Social Behavior",
    "authors": [
        "Samuel Stroope",
        " Joseph O. Baker"
    ]
}