{
    "doi": "http://dx.doi.org/10.1093/esr/jcu048",
    "abstract": "The \u2018dual system\u2019 combining school-based vocational education with employer-provided training is often praised for effectively integrating young people into the labour market and recommended as a model for countries struggling with high youth unemployment. However, without an institutional framework supporting employer involvement, it has proven difficult to elicit or maintain what is essentially voluntary provision of training places by employers. Whenever employers are unwilling to train, school-provided training represents a viable alternative, but to date we know little about the relative effectiveness of school- vs. employer-provided training. This study exploits a rapid shift of training provision from employers to vocational schools that occurred during the Hungarian transformation from socialism to capitalism to analyse how these different ways of organizing training affect the labour market entry of vocational graduates. Our expectation is that the substitution of employer- with school-provided training has resulted in higher unemployment and lower job quality, particularly on leaving school. Results from differences-in-differences analyses indicate that the shift in training provision from employers to schools between 1994 and 2000 has increased male vocational school graduates\u2019 unemployment rate by 10 percentage points within the first 2 years after graduation. We find no effects of training organization on class position.",
    "sections": [
        {
            "title": "Introduction",
            "paragraphs": [
                "This study examines how the partial withdrawal of employers from Hungarian vocational education and training (VET) has affected VET graduates' transition from school to work. Past research suggests that employer participation is important for VET to effectively integrate young people into the labour market (Muller and Shavit, 1998; Shavit and Muller, 2000; Gangl, 2001; Ryan, 2001; Breen, 2005; Scherer, 2005; Iannelli and Raffe, 2007; Wolbers, 2007). In particular, the provision of on-the-job training appears to be crucial because it provides vocational students with an opportunity to obtain up-to-date specific skills and secure a foothold in employment before schooling is completed. While employer involvement in VET is highly institutionalized in 'coordinated market economies' (Hall and Soskice, 2001) like Germany or Austria, this is generally not the case for post-socialist European countries or 'liberal market economies' like the United States. Even though VET programmes still enrol a sizeable percentage of young people in several post-socialist Central and Eastern European countries, VET students' access to on-the-job training has diminished considerably (Kogan, 2008).",
                "Similar to the German dual system, Hungarian VET has traditionally combined classroom-based vocational education and employer-provided on-the-job training. However, in the course of transformation from socialism to capitalism, employers withdrew in large numbers from training VET students, and the importance of public vocational schools as training providers has increased. We exploit this institutional variation to analyse whether the substitution of employer- with school-provided training has caused VET graduates' early labour market outcomes to deteriorate.",
                "Our study contributes to several active research fields in sociology. First, there has been a growing number of sociological studies trying to understand how socialist past and diverse transformation experiences have contributed to variation in school-to-work transitions and youth labour market performance in post-socialist countries (for example, Solga and Konietzka, 1999; Konietzka, 2001; Gerber, 2003; Diewald, Goedicke and Mayer, 2006; Kogan, Noelke and Gebel, 2011; Kogan, 2012; Noelke, Gebel and Kogan, 2012). While prior work has analysed the transition from school to work in Hungary (Audas, Berde and Dolton, 2005; Kogan and Unt, 2005; Bukodi, 2006; Bukodi and Robert, 2011), existing studies neither focus in detail on the changing situation of VET graduates nor try to directly measure the role of a specific institutional mechanism, causing the outcomes of VET graduates to change.",
                "Second, our study also contributes evidence on the effectiveness of employer- vs. school-provided training. For example, the German VET system offers both dual apprenticeship-type programmes and fully school-based programmes. To date, we still know little about the causal effects of these different modes of organizing VET. Given the difficulty of eliciting and maintaining employer cooperation in dual system VET, school-based training provision has been tried and may represent a viable alternative. If employers refuse to provide training, public schools may simply step in, as it happened not only in Hungary but also in East Germany, where a decline in the apprenticeship places has been in part compensated by establishing public training centres (Culpepper and Thelen, 2007).",
                "Third, our analysis addresses methodological problems of previous studies on the transition from vocational education to work. Prior research has either compared the outcomes of individuals who enrolled in different VET programmes within a given country (for example, Parey, 2009; Baranowska, 2011; Matkovic, 2011) or the outcomes of VET graduates across countries with different organizations of VET training (for example, Muller and Shavit, 1998). Causal inference based on these comparisons is problematic because of unobserved heterogeneity at the level of individuals and countries. The research design and differences-in-differences (DD) estimator we implement (for a recent applications in sociology, see Mooi-Reci and Mills, 2012) try to address these issues."
            ]
        },
        {
            "title": "VET in Hungary",
            "paragraphs": [
                "On completion of lower secondary education, students may enrol in vocational schools (szakmunkaskepzo or szakiskola) that offer dual system VET. Alternatively, students can continue in either upper secondary general school (Gimnazium) or upper secondary vocational school (Teknikum or Szakkozepiskola), both of which qualify for admission to higher education.1 VET students typically obtain school-based vocational and academic education during the first 2 years and receive (either school-based or employer-provided) training in the last 2 years. Vocational schools mainly prepare for blue-collar occupations, typically semi-skilled and skilled occupations in industry and agriculture, but also some semi-skilled service sector occupations. Completion of vocational school does not qualify for access to higher education. Therefore, most graduates enter the labour market directly after completion, usually at 17-18 years of age.",
                "Vocational schools were tightly linked to enterprises under socialism. Students received training in enterprise-based workshops or directly at workplaces. Under capitalism, employer-provided training is either organized by students themselves or arranged for by their school. Those who do not (or do not want to) find a training place with an employer are trained within facilities run by the school, such as workshops or, for example, a school canteen. The distribution of training places across industries does not differ much by training sites (schools, employers) and, for the cohorts that we have data for (1997-2000), changes little over time (see Supplementary Data and Supplementary Data, Supplementary Data). For the 1997 cohort of VET graduates, 54 per cent of school-based training places were in industry, compared with 64 per cent among employers. The largest discrepancy concerns training places in agriculture, which comprise 17 per cent of training places within schools and only 3.8 per cent of the employer-provided training places.",
                "In the course of transformation, vocational schools have lost the support of different stakeholders. Young people themselves increasingly chose upper secondary tracks granting access to higher education instead of vocational schools. While 49 per cent of young people aged 17-22 years had obtained a vocational school degree in 1992, this number dropped to 25 per cent in 2000 and stabilized at ~20 per cent in the early 2000s (Hungarian Labour Force Survey [LFS], own calculations). The economic transformation crisis peaking in the early 1990s reduced employer training provision, both because firms were shedding rather than creating jobs and presumably also because increased job turnover shortened employment spells and therefore incentives to invest into specific skills (Becker, 1994).",
                "While demographic and macroeconomic factors have certainly been influential, institutions have also been critical for the transformation of dual system VET. The socialist state has crowded out institutions that could maintain voluntary employer training provision under capitalism, especially independent bodies of collective worker and employer representation (Ost, 2000). The emergent neo-liberal policy regime emphasized market-based decentralized solutions in key areas of educational and labour market policy (Bukodi and Robert, 2008; Horn, 2010). The socialist past and the transformation process have therefore created an environment that is hostile to the maintenance of institutionalized employer coordination in the provision of VET."
            ]
        },
        {
            "title": "Theory and Hypotheses",
            "paragraphs": [
                "This study draws on the canonical work of Allmendinger (1989), Kerckhoff (2001) and Muller and Shavit (1998), who emphasize the importance of the education system for structuring the transition from school to work, and research in political economy that focuses on the determinants of employer involvement in VET provision (for example, Culpepper and Thelen, 2007). Following Shavit and Muller (2000) and others, we consider as dependent variables, unemployment as a measure of the difficulty of finding a job and class position as a measure of employment in routine vs. non-routine jobs.",
                "From a human capital perspective (Becker, 1994), by moving training sites out of workplaces into schools, young people are at risk of acquiring obsolete vocational skills, particularly in a rapidly restructuring economy (Blossfeld, 1992; Gebel and Noelke, 2011). Industry-, occupation-, and firm-specific skills derive their economic values from being up-to-date. If school-based vocational curricula were speedily updated to reflect shifts in labour demand, there should be few differences in the skill content of on-the-job and school-based training. However, because of rapid economic restructuring and a lacking institutional infrastructure to achieve employer vocational school coordination, we expect that the shift of training from employers to schools should increase the risk of skill obsolescence. With the value of their vocational skills eroding, young vocational graduates are expected to suffer from increased unemployment risks after leaving vocational school, and as obsolete vocational skills have no productive value to the employers, young people should be more likely to work in an unskilled routine occupation.",
                "On-the-job training also matches young people to prospective employers, reducing information problems, search costs, and unproductive turnover (Acemoglu and Pischke, 1998; Breen, 2005). On-the-job training provides an opportunity for employers to screen potential future employees, while students have the opportunity to assess whether a specific employer would be a good fit for them. Moving the site of training provisions from companies to schools implies that young people lack a bridge into employment. Young people (as well as employers) increasingly face search costs that prolong job search and increase the incidence and duration of search-related unemployment spells (Breen, 2005; Wolbers, 2007). The increase in search costs due to the substitution of training places should therefore increase unemployment risks on graduation, and may also force young vocational graduates to accept unskilled rather than skilled jobs.",
                "Whether through human capital or matching mechanisms, training substitution should have the strongest impact on VET graduates immediately on leaving school because firm-provided training may lead to continuous employment after graduation in skilled occupations in the training firm. In contrast, school-trained VET graduates, unless they have found a job before graduation, will become unemployed when they graduate and search for jobs. With time spent on the labour market, the chance of a high-quality match between employers' and individuals' preferences and skills should increase, and young people also acquire experience from the jobs they obtain. Therefore, time spent on the labour market should become an increasingly important determinant of early career unemployment risks and job quality. We expect experience-unemployment profiles to steepen, as recent graduates suffer increasing disadvantages for their lack of experience. However, as they acquire experience, their unemployment risk diminishes. Similarly, the risk of working in an unskilled job should become more strongly dependent on labour force experience, with risks increasing immediately on graduation."
            ]
        },
        {
            "title": "Review of Previous Research",
            "paragraphs": [
                "Prior research has identified the effect of VET training provision by comparing VET graduates who received employer-provided training to 'similar' VET graduates who enrolled in fully school-based VET programmes. Studies on Western European countries suggest that employer-provided training lowers unemployment risks on graduation, but find no effects on earnings (for example, Parey, 2009). Studies on Croatia (Matkovic, 2011) and Poland (Baranowska, 2011) find little or no evidence that employer-provided training leads to faster labour market entries or better job quality. Evidence from cross-nationally comparative studies are based on comparing differences in outcomes between VET graduates and other secondary school graduates across countries with different VET systems, and yield less conclusive results (see Supplementary Data, for further details).",
                "Causal inference in either type of study hinges on the assumption that conditional on measured covariates, sorting into different VET programmes (or secondary school types) is as good as random. This assumption is most likely violated, as at least some individual characteristics that are predictors of both training choice and labour market outcomes are typically unobserved or poorly measured. The comparative studies, in addition, have to assume equivalence of educational degrees across countries (Schneider, 2010) and rule out unobserved confounders at the country level."
            ]
        },
        {
            "title": "Data and Methods",
            "paragraphs": [
                "This study exploits the rapid substitution of employer- with school-provided training places that occurred in post-socialist Hungary during the 1990s. The rapid change obviates the need for cross-country comparison to obtain institutional variation in VET provision. By comparing vocational school graduation cohorts over time, we do not have to compare graduates from different secondary school types. The DD estimator (Angrist and Pischke, 2009) allows us to control non-parametrically for unobserved time-constant and time-varying confounders."
            ]
        },
        {
            "title": "Data",
            "paragraphs": [
                "From official school reports (KIR-Stat database [Kozoktatasi Informacios Iroda]) collected by the Hungarian Ministry of Education in October around the beginning of the school year, we obtain information on the number of training places available at schools or employers at the county level for the period from 1993 to 1999. We calculate three indicators measuring training opportunities: the ratio of school- to employer-provided training places, the ratio of school-provided training places to total training places, and the ratio of employer-provided training places to total training places. While we cannot use data after 1999 because of changes in survey design, we still capture the most dynamic period in terms of the restructuring of training provision.",
                "Data on labour market outcomes are obtained from the Hungarian LFS, provided by the Hungarian Statistical Office and available since 1992. We restrict the sample to male vocational school graduates and define labour market entrant cohorts by the year of obtaining the vocational school degree. From individual information on graduation years, we can identify individuals belonging to the same cohort across surveys, thereby generating a pseudo panel (Deaton, 1985) of labour market entrant cohorts. Using information on graduation years and counties in the LFS data, we merge the LFS with the training data, assigning each respondent county-by-cohort averages on the training indicator variables.",
                "For the multivariate analysis, we restrict the sample to respondents who obtained their vocational school degree between 1994 and 2000. To capture graduates early in their labour market career, we restrict the analytical sample to those who obtained a degree within 1-24 months before the month of survey and report not to be enrolled in education at the time of survey. We further restrict the sample to students aged 17 and 22 years (dropping 2.6 per cent of the sample) to focus only on those young people who make the typical transition after completing vocational school in regular time. Supplementary Data (Supplementary Data) contains descriptive information for the observations used in the unemployment analyses. Individual respondents are nested within 20 counties, 7 (annual school-leaver) cohorts, and 8 years (periods).",
                "Our dependent variables are a dummy variable for unemployment (1 = unemployed, 0 = employed) and, as a measure of job quality and skill requirements, a dummy variable for employment in a routine occupation (1 = employed in routine occupation, 0 = employed in other occupation). Routine occupations are those belonging to class 9 in the European Socio-economic Classification (Harrison and Rose, 2006), a class schema derived from the Erikson-Goldthorpe-Portocarero scheme (Goldthorpe, 2007). Class 9 comprises routine occupations that do not require extensive skills and can be monitored easily. Typical occupations include cleaners, labourers, assemblers, porters, and messengers. We used three-digit ISCO-88 codes to derive the class schema. Unfortunately, information on respondents' occupation was available only from 1995, which is why we drop the 1994 cohort in the respective analyses. Data on respondents' wages were unavailable.",
                "All models control for the natural log of respondents' age. Moreover, as 95 per cent of the respondents in the analytical sample are identified as children on the survey household roster, we can identify their parents within households and thereby control for respondents' social background (parental education and employment status, number of siblings) to control compositional differences across counties and cohorts. Further details on the construction of variables and descriptive statistics are included in the Supplementary Data."
            ]
        },
        {
            "title": "Identification and Estimation",
            "paragraphs": [
                "d estimates the effect of changing the opportunities for training provision for all VET graduates no matter what type of training they received, picking up the individual level returns to different types of training, general equilibrium effects, for example, due to job competition on the labour market (Imbens and Wooldridge, 2009; Gangl, 2010), and time-varying effects, such as exit from the labour force of discouraged workers.2 d does not estimate by how much individual i's unemployment probability would be reduced if he or she participated in firm- rather than school-based training.3 Instead, we obtain an estimate of the total effect of changing the structure of training provision on all the individuals exposed to that change.4",
                "Our key identifying assumption is that differences in training opportunities, i.e. in TRAINcj, across cohorts are as good as random, i.e. independent of unobserved factors specific to cohorts and counties that predict both training opportunities and labour market outcomes.5 Because we compare cohorts with different training opportunities within counties, we make use of fixed effects in our baseline specification (equation 1) to control for unobserved factors specific to cohorts, counties, and calendar years that may be confounded with variable training opportunities across cohorts and counties. This is a powerful strategy to deal with the endogeneity of TRAINcj due to unobserved confounders or selection on unobservables, i.e. factors associated with both training choice and labour market outcomes, which are a key threat to causal inference (Imbens and Wooldridge, 2009; Gangl, 2010).6",
                "Because of the county, period, and cohort fixed effects included in equation 1, we need not worry about unobserved time-constant confounders specific to counties and time-varying confounders such as the national business cycle affecting all counties/cohorts equally, changes in economic restructuring that proceed in the same manner across counties/cohorts, reforms of vocational schools that change the organization of schools for different cohorts in the same way, and change in the composition of VET graduates that affects all counties equally. However, biases may result from unobserved changes that occur at different speeds across cohorts or counties (or affect only certain cohorts or counties), which may induce a non-causal association between TRAINcj and Yicjt. For example, if labour demand declines in some counties but not others, this would cause both a reduction in firm-based training and increased unemployment among vocational graduates in these counties. To address these and other biases, we perform three specification checks.",
                "First, we control for county-specific linear trends in the outcome variable (Angrist and Pischke, 2009). To the extent that time-varying unobserved confounders, such as gradual changes in the composition of vocational graduates or training firms, evolve smoothly with the county-specific linear trends, these trends account for such confounding. Rather than identifying the effect of changes in training provision around county-specific means (equation 1), the resulting model identifies the effect from non-linear changes in training provisions around county-specific linear trends.7",
                "Second, as individuals observed in the same county and calendar year can belong to two different cohorts, we can adopt a more flexible specification for county and period shocks by replacing the gt and mj in equation 1 with 160 county-by-year dummies. With this DD specification, we control for whatever shocks have occurred that equally impacted members of two cohorts we observe within each county-by-year cell. This specification should be powerful in removing non-linear county-specific trends in labour demand and other county- and year-specific confounders.",
                "Third, to test whether cohorts observed within the same county and year differ, we replace the cohort fixed effects dc and county fixed effects mj in equation 1 with 140 county-by-cohort dummies. Because the cohort-by-county dummy variables are perfectly collinear with the main effect of the training indicator variable, this effect is no longer identified. However, we can still estimate the interaction term between training provision and time since graduation. In this case, we identify the effect of reform by comparing outcomes of individuals within the same cohort with different levels of labour force experience.",
                "All analyses are performed separately by gender. To be able to compare coefficient estimates across different model specifications and interpret interaction effects in an intuitive manner, we report estimates from Ordinary Least Squares (OLS) linear probability models (Mood, 2010). We also graph simulated probabilities from logistic regressions using the CLARIFY ado (King, Tomz and Wittenberg, 2000; Tomz, Wittenberg and King 2003). Both approaches yield consistent results. Standard errors are adjusted for clustering within the 140 county-by-cohort cells."
            ]
        },
        {
            "title": "Results",
            "paragraphs": [
                "Our observation period is marked by a recovery on the youth labour market. From peak levels observed in the early 1990s in the midst of transformation crisis, male vocational school graduates' unemployment rates decline until 1997. Macroeconomic recovery in the second half of the 1990s could certainly be strong enough to mask a weakening of vocational graduates' labour market outcomes due to the substitution of employer with school-provided training places. The goal of the multivariate analyses is to account for such macroeconomic and other time-varying factors to partial out the independent effect of training substitution. We also observe a steady increase of the percentage used in the lowest occupational category, which points to a weakening of vocational graduates' employment opportunities despite macroeconomic recovery.",
                "Table 1 reports the results from linear probability OLS regression models where the dependent variables are unemployment (upper panel) and employment in a routine occupation (lower panel). The baseline specification M1 (equation 1) shows that the substitution of employer- with school-provided training provision has had a positive effect on vocational graduates' unemployment risk significant at the 5 per cent level (P = 0.016). Controlling for county-level linear trends (M2), the training coefficient drops only marginally in size. Controlling for county-by-year fixed effects (M3), the effect increases in size. Neither county-specific linear trends nor county-by-year-specific shocks reduce the effect size more than marginally compared with the baseline specification (M1), indicating that the training variable is not endogenous to either type of unobserved time-varying confounder. That statistical significance drops is likely caused by restricting the variation in the training indicator that is used to estimate the effect of training substitution. ",
                "Allowing for an interaction between training provision and time on the labour market (time since graduation) provides for a more realistic model: the impact of training substitution should be strongest on leaving school and then dissipate, as young VET graduates spend more time on the labour market. Consistent with our expectations, M1i provides strong evidence in support of this interaction. The unemployment-reducing effect of experience is more pronounced if a greater fraction of graduates has received training in schools rather than enterprises. The interaction effect is barely changed by the inclusion of county-specific trends (M2i), county-by-year fixed effects (M3i), and county-by-cohort fixed effects (M4i).",
                "The interaction effect is also not affected by dropping whichever year, cohort, or county and is also unaffected by retaining only respondents for which we have full social background information. If we move the cluster level, over which standard errors are calculated, from the county-by-cohort up to the county level (effectively assuming only 20 independent observations for the purposes of calculating standard errors), standard errors increase but the interaction effects retain significance at the 5 per cent level and also remains statistically significant when dropping any year, cohort, and county from the sample. For women, however, we find no significant effect of the training indicator, or its interaction with experience, on unemployment, or class position (see Supplementary Data, Supplementary Data).",
                "As a further test for the endogeneity of the training indicator, the leftmost column of Table 2 reports results from a placebo test. Instead of VET graduates, we use a sample of upper secondary (gymnasium and tehnikum) graduates, specified in the same manner as for VET graduates, and assess whether their unemployment risks have also been affected by training substitution, which theoretically they should not be. However, if the training indicator captures unobserved macroeconomic shocks that have an impact on training provision and the youth labour market and that our control variables were unable to account for, we would expect the training indicator to also predict the unemployment rate of upper secondary graduates. Using the baseline specifications (M1, M1i in Table 1), we find no effect of training provision on upper secondary graduates' unemployment probability (see Supplementary Data, Supplementary Data, for full results). ",
                "Figure 4 illustrates that potential labour force experience has become a more important predictor of unemployment. The more VET graduates have received training in schools rather than enterprises, the steeper the slope of the unemployment-experience profile. The negative effect of additional months of labour force experience on unemployment is particularly strong in the months after leaving school. Over time, the unemployment risks of VET graduates trained in schools vs. enterprises become more similar, as VET graduates predominantly trained in schools acquire more relevant skills and better information about available jobs.",
                "To further explore the underlying mechanisms, we use two alternate training indicators: the percentage of school-provided training places (of all training places) and the percentage of employer-provided training places (see Table 2). As we would expect, school-based training raises unemployment and increases the unemployment-reducing effect of time since graduation, as young people's unemployment risks become more dependent on labour force experience. Also conforming to expectations, employer-provided training lowers VET graduates unemployment, and flattens their unemployment-experience profiles.",
                "The Supplementary Data contains additional results for male vocational graduates (Supplementary Data). Repeating the unemployment analyses, but including individuals who report to be enrolled in school yields similar results. Repeating the analyses using employment probability (1 = employed, 0 = not employed) as the dependent variable also produces the expected patterns, essentially mirroring the results for unemployment with respect to the interaction effect.8 While the unemployment analyses may suffer from bias due to selective withdrawal of individuals from the labour force, this does not affect the employment analyses. We find no effect of training provision on being neither in education nor employment. We also find no effects on temporary employment status.",
                "The lower panel of Table 1 reports regression results with employment in routine occupations (=1, employment in other occupation = 0) as a dependent variable. We observe no statistically significant effects. Repeating these analyses with occupational status (measured by the International Socioeconomic Index; Ganzeboom, De Graaf and Treiman, 1992) as the dependent variable did not yield different conclusions. That we fail to find an effect on job quality might reflect the short post-graduation observation span or the measures of job quality used. However, it also remains a possibility that extant research finding an association (Arum and Shavit, 1995; Shavit and Muller, 2000) has suffered from bias due to, for example, unobserved demand side factors. The organization of production and demand for the products intensive in VET graduates skills should be a critical determinant of the number, skill content, and quality of jobs available to VET graduates. Therefore, one interpretation of our results is that demand side factors, but not training organization, are critical for the quality of jobs, while training organization matters for unemployment risks and the dynamics of labour market integration."
            ]
        },
        {
            "title": "Discussion",
            "paragraphs": [
                "In the course of economic liberalization, employers withdrew in large numbers from providing training places to vocational students in the Hungarian dual system. Our analyses indicate that the resulting substitution of employer- with school-provided training between 1994 and 2000 has increased male VET graduates' unemployment rate by 10 percentage points within the first 2 years after graduation. We found no evidence linking the training shift to changes in class positions. While concerns about time-varying confounding remain, our results have proven remarkably robust to demanding specification checks for this type of confounding.",
                "These results suggest that economic liberalization in Hungary has made the transition from vocational education to work more difficult by breaking linkages from schools to employers that perform a critical matching function. The growing role of markets has led to more search-related unemployment and turnover due to diminished flow of information between vocational schools and employers. The absence of an effect on quality of employment (skilled vs. unskilled) may be taken as further evidence that it is the matching rather than the skilling function of employer-provided training that makes dual system VET effective (Acemoglu and Pischke, 1998; Breen, 2005).",
                "This case study also illustrates the contingency and importance of employer involvement in VET at a time where the dual system is, once again, portrayed as a model to emulate for other countries.9 The Hungarian case and the experience of post-socialist Central European countries more generally illustrate the challenges in building and maintaining dual system VET (Culpepper and Thelen, 2007): without historically grown institutions facilitating voluntary employer involvement in VET, employer participation is difficult to elicit, and as the Hungarian case illustrates, employers exit in droves during periods of economic crisis. This suggests that reformers in countries without strong institutional foundations for voluntary employer involvement in VET face tough constraints on their reform options, and might consider innovative strategies that do not rely on employers providing training places for vocational skill formation.",
                "Is school-provided vocational training an alternative? Our and other research clearly indicates that declining employer involvement leads to higher unemployment on graduation. Our results also indicate that after 2 years, more than two-third of the initial adverse effect on unemployment has dissipated. The absence of effects on class position (and temporary contract status) suggests equivalent outcomes of school- and employer-provided training. However, before we can draw definite conclusion on whether or under which conditions employer- and school-provided training yield equivalent or divergent outcomes, more research is clearly in order. In particular, the underlying logics of employer training provisions as well as the effectiveness of on-the-job training may differ considerably across occupations. Future research should also consider other outcomes, including wages, health, and well-being, examine long-term effects, and further explore gender segregation in VET enrolment and gender differences in VET outcomes (Jacob, Kleinert and Kuhhirt, 2009).",
                "The authors are grateful for comments received from participants at meetings of the Workshop of the European Research Network on Transitions in Youth at Bamberg University, the RC28 Meeting at the European University Institute, Florence, and the Hungarian Society of Economics. The authors thank Peter Robert for sharing his code converting the occupational classification used in the Hungarian Labour Force Survey to ISCO-88. They thank Mary Brinton, Irena Kogan, Reinhard Pollak, Natasha Warikoo, Queenie Zhu, Nicole Deterding, and other members of the Sociology of Education Workshop at Harvard University as well as three reviewers of ESR and the editor Melinda Mills for helpful comments on previous versions of this manuscript.",
                "This work was supported by the Volkswagen Foundation through the Project \"Education Systems and Labour Markets in Central and Eastern Europe.\""
            ]
        }
    ],
    "references": [
        "http://dx.doi.org/10.1093/oxfordjournals.esr.a036524",
        "http://dx.doi.org/10.2307/2112684",
        "http://dx.doi.org/10.1080/0964529042000325180",
        "http://dx.doi.org/10.1177/002071529203300302",
        "http://dx.doi.org/10.1108/01437720210436046",
        "http://dx.doi.org/10.1093/esr/jci008",
        "http://dx.doi.org/10.1016/0304-4076(85)90134-4",
        "http://dx.doi.org/10.1146/annurev.soc.012809.102702",
        "http://dx.doi.org/10.1016/0049-089X(92)90017-B",
        "http://dx.doi.org/10.1353/sof.2003.0085",
        "http://dx.doi.org/10.1177/1740774511420743",
        "http://dx.doi.org/10.1093/esr/jcl019",
        "http://dx.doi.org/10.1257/jel.47.1.5",
        "http://dx.doi.org/10.2307/2673250",
        "http://dx.doi.org/10.2307/2669316",
        "http://dx.doi.org/10.1093/esr/jcs062",
        "http://dx.doi.org/10.1080/14616690500083428",
        "http://dx.doi.org/10.1007/s11577-001-0003-8",
        "http://dx.doi.org/10.1093/esr/jcp006",
        "http://dx.doi.org/10.1093/sf/sos111",
        "http://dx.doi.org/10.1093/esr/jcs008",
        "http://dx.doi.org/10.1177/0032329200028004004",
        "http://dx.doi.org/10.1257/jel.39.1.34",
        "http://dx.doi.org/10.1093/esr/jci029",
        "http://dx.doi.org/10.1016/j.rssm.2010.03.001",
        "http://dx.doi.org/10.1080/146166900360710",
        "http://dx.doi.org/10.1093/oxfordjournals.esr.a018253",
        "http://dx.doi.org/10.18637/jss.v008.i01",
        "http://dx.doi.org/10.1177/0001699307080924"
    ],
    "title": "Social Transformation and the Transition from Vocational Education to Work in Hungary: A Differences-in-differences Approach",
    "issue": "4",
    "volume": "30",
    "year": 2014,
    "issn": "0266-7215",
    "journal": "European Sociological Review",
    "authors": [
        "Clemens Noelke",
        "Daniel Horn"
    ]
}