{
    "doi": "http://dx.doi.org/10.1093/esr/jcn045",
    "abstract": "Whereas there is a well-developed literature on socio-economic inequalities in timing of first marriage, most research on the association between socio-economic family background and union timing misses out on unmarried cohabitation. Using a rich Norwegian dataset linking survey data and administrative registers (N = 6,317), this article examines the impact of parents\u2019 education and economic resources on timing of first union among men and women entering their first cohabitation or marriage between 1970 and 2002. Discrete-time multinomial logistic regression models reveal that timing of first cohabitation was more rapid among persons with lower educated parents, while direct entrance into marriage was delayed by growing up in a wealthier childhood home. These findings are discussed within a theoretical framework stressing intergenerational transfer of preferences and parents\u2019 abilities to sanction children's first union formation. Additionally, the delaying effects of socio-economic background could stem from individuals\u2019 rational search behaviour.",
    "sections": [
        {
            "title": "Introduction",
            "paragraphs": [
                "Love, looks, and other individual preferences notwithstanding, a rich body of empirical research demonstrates the importance of family background characteristics, i.e. family socio-economic status and childhood family structure, as crucial determinants when starting a heterosexual union. For example, young people from disrupted families show less positive attitudes towards marriage (Axinn and Thornton, 1996) and generally marry later than children from intact families (Wolfinger, 2003). Also, couples have a tendency to match on socio-economic background (Hansen, 1995; Kalmijn, 1998).",
                "Another key finding from this research is that persons from higher socio-economic backgrounds delay their first unions compared with those growing up in families in lower educational, occupational, and income stratas (Blossfeld and Huinink, 1991; De Jong Gierveld et al., 1991; Axinn and Thornton, 1992; South, 2001; De Graaf et al., 2003; Mulder et al., 2006). However, with only a few exceptions (cf. Blom, 1994; Hoem, 1995; Sassler and Goldscheider, 2004), little research has focused explicitly on the effects of family socio-economic background variables on union timing among young adults entering their first cohabitation. To include cohabitation in the study of union formation is crucial. In most Western societies cohabitation has become an increasingly popular living arrangement, and the majority of young adults now cohabit prior to marriage (Kiernan, 2002; Heuveline and Timberlake, 2004).",
                "In Scandinavia, the rise in cohabitation has been particularly marked relative to other comparable regions. In Norway, the Scandinavian country serving as context of the present study, over 80% choose cohabitation as their first partnership (Noack, 2001), as much as 51% of all co-residential partnerships in the age group 25-34 are cohabitations, and 50% of first births are to cohabiting couples (Statistics Norway, 2007, 2008a). Although direct marriage is relatively rare and married and cohabiting couples gradually have been given many of the same rights and obligations (Noack, 2001), most persons still end up getting married: according to official statistics for 45-year old, 72% of men and 80% of women are married (Statistics Norway, 2008b).",
                "Using a rich Norwegian dataset linking survey data and longitudinal administrative registers, this article tries to enhance our understanding of union formation by examining the impact of socio-economic background on timing of first union among men and women entering their first cohabitation or marriage between 1970 and 2002. The changes associated with the second demographic transition since the late 1960s (e.g. a rising age at first marriage, more cohabitation, and increasing divorce rates) have been particularly marked in Scandinavia relative to comparable regions (Surkyn and Lesthaeghe, 2004), and cohabitation is an integral part of the contemporary Norwegian family life. Additionally, the country has comprehensive welfare institutions and comparatively low inequalities in income and education, and is considered to be among the most egalitarian societies in the world (cf. Kangas and Palme, 2005). Studying socio-economic inequalities in first union formation in the Norwegian context should thus be of interest to a wider audience.",
                "Because first union formation is a demographic event with potential consequences for individuals' well-being and further life course, the role of socio-economic origin in timing of first union is of sociological relevance. For instance, persons who enter into unions at an early age run a higher risk of breaking up the union (Berrington and Diamond, 1999; Lyngstad, 2006), and there is a consensus that union formation has a positive effect on subjective well-being (Zimmermann and Easterlin, 2006). Also, in a society where individualism is argued to have diminished the role of class, it is important to investigate whether family background variables influence first union formation."
            ]
        },
        {
            "title": "Previous Research on Socio-economic Background and Union Timing",
            "paragraphs": [
                "Considering the transition to first marriage in the United States, Axinn and Thornton (1992) found that maternal education and parents' financial resources affected children's marital timing negatively. They concluded that parents' marital age preferences for their children, as well as their success in influencing their offspring's first marriage, co-varied positively with their socio-economic resources. Likewise, South (2001) found that family income and maternal education served to postpone first marriages in the United States, although these effects declined significantly over the time period 1969-1993. In Germany, Blossfeld and Huinink (1991) observed that women with working class fathers marry earlier than women from higher social classes, whereas De Jong Gierveld et al. (1991) found that having fathers with higher economic job status led to a delay in first union formation in the Netherlands for both sexes. De Graaf et al. (2003) confirmed this Dutch finding as far as father's education goes. Further, young Swedes growing up in working class families entered their first cohabitation at younger ages than did children of parents employed in white collar occupations (Hoem, 1995). Similarly, Norwegian men from families whose main breadwinner were unskilled workers or farmers or fishermen enter first cohabitation at an earlier age than men from higher socio-economic backgrounds (Blom, 1994).",
                "To be sure, there are some contradictory findings. In Spain, parents' occupational status facilitates the transition to first marriage, especially for men (Baizan, 2001), whereas Sassler and Goldscheider (2004) reported no significant effects of parents' education and fathers' occupation on the timing of first marriage or cohabitation among young men in the United States. Although treating parents' education mainly as a control, the results of Clarkberg (1999) and Xie et al. (2003) indicated that the timing of first marriage was negatively affected by parents' education in the United States. On the other hand, the relation between parental education and timing of first cohabitation was less clear cut; whereas both of these studies found that women with highly educated parents were younger upon entry into first cohabitation, Xie et al. (2003) observed a reverse effect for men.",
                "Summing up, with only a few exceptions individuals from advantaged family backgrounds, in terms of both parental material (e.g. parents' income and occupation) and non-material (e.g. parents' education) resources, postpone their first unions relative to individuals from less advantaged family backgrounds. And, although no studies to date have simultaneously compared the effects of socio-economic origin on timing of first marriage versus first cohabitation for both sexes, parents' resources seem to influence entrance into first marriage as well as first cohabitation."
            ]
        },
        {
            "title": "Why Parents\u2019 Resources Influence Children's First Union Formation",
            "paragraphs": [
                "When explaining these differentials in timing of first union several mechanisms are plausible. For example, the positive association between parental education and children's educational aspirations is well-known (Breen and Goldthorpe, 1997). From past research there is also evidence that enrollment in school discourages entry into marriage and cohabitation (Kravdal, 1999; Xie et al., 2003). In other words, because persons with highly educated parents more often partake in educational activities, this may be an indirect mechanism explaining why they defer the first partnership.",
                "Nevertheless, as shown in previous research, the association between parental socio-economic status and first union formation still holds true, net of individuals' own resources (Blom, 1994; South, 2001; Mulder et al., 2006). Therefore, in the next section of the article a number of plausible theoretical explanations on why parental resources influence children's union formation are discussed. Family socio-economic background has several potential components, which at a minimum may be divided into economic and socio-cultural resources. Thus, a line is drawn between on the one hand parents' transferable material resources, such as their income or the general level of material well-being in the childhood home, and non-material resources such as parents' education, on the other. These resources could affect children's opportunity structures and their preferences, thus influencing timing of first union as well as choice of union type.",
                "One possible mechanism linking the resources of parents with the union timing of children is the level of material comfort of the parental home. Parents' ability to help their children of financial, for instance to set up their own home or finance their wedding, is clearly dependent upon their economic resources, and the allocation of resources to children should increase with parents' resources. Empirical evidence from the Netherlands show that couples with higher status parents more often receive financially help to become home owners (Mulder and Smits, 1999) and are more likely to have a church wedding (Kalmijn, 2004).",
                "Within an economic-demographic framework, it is argued that persons form a union when they are better off doing so than remaining single: individuals maximize their utility by finding a partner with whom the highest utility level (economic and emotionally) is expected (Becker, 1991). Consequently, because parents share with their children through inheritance and other forms of direct economic support, parents' level of material resources should influence children's marriage market position positively (Becker, 1991). By the same token, there's likely to be a direct association between parents' resources and their ability to influence children's union formation. Since wealthy parents potentially have more resources to share, children from privileged backgrounds can be more influenced by their parents' expectations about when to move out of the parental home to live with a partner for the first time. Consistent with this idea, Whittington and Peters (1996) found in their study of first homeleaving that higher income parents more often elicited the desired behaviour of their children. Furthermore, parental resources may signal future economic status to potential partners through family name, place of residence, or other status symbols, thereby affecting young adults marriagability positively (Becker, 1991). Accordingly, children of wealthy parents can be seen as more 'attractive catches' on the marriage market, and therefore enter their first unions earlier.",
                "Nonetheless, as reported in the majority of the relevant empirical literature, higher levels of material well-being in the family of origin increase the age at first union. Some have argued that this delaying influence of parents' material resources lies in children's expectations towards future level of consumption and standard of living (Easterlin, 1976). According to this idea, individuals from advantaged backgrounds might hold higher standards of consumption. Given that it takes longer time to realize higher consumption aspirations, young persons from wealthy family backgrounds might delay entry into first partnership until they are capable of maintaining a standard of living comparable to that of their childhood home. More generally, higher levels of parental resources might enhance the material home environment, stimulating young adults to remain dependent on their parents (Avery et al., 1992). For example, material well-being in the childhood home is likely to correlate positively with the size and quality of the housing, thereby reducing the push to leave home due to, say, lack of space. Alternatively, persons with fewer resources may have relatively more to gain from pooling their resources. That is, given that they are in a steady relationship, persons from less advantaged family backgrounds may have a greater need to share the costs of housing when moving out of the parental home.",
                "There is some evidence that parental material resources could matter less for first union formation because first union formation is increasingly occurring after residential independence (Mulder et al., 2006). In this way, maturity and independence may reduce parents' ability to sanction the timing of children's first union. Nonetheless, leaving home and first union formation are closely related lifecycle events that occur within a limited period of time (Guzzo, 2006). Also, for most individuals first union formation takes place at an age when they begin to establish independence and commonly experience a modest economic situation, and we therefore expect children to remain in part dependent on their parents' financial resources upon first partnership formation.",
                "Parent's attitudes and involvement can be salient for the likelihood that children enter a first union early or late. First, as argued in socialization theory, children internalize parental expectations and attitudes through childhood socialization. Children's own preferences on when to form the first union, and eventually their actual behaviour, is thus indirectly a product of their parents' preferences. The transmission of preferences from parent to child might also be direct, particularly with respect to issues that parents find important, like timing of first marriage (De Valk and Liefbroer, 2007).",
                "The choice of a partner for long-term relationships is one of the most serious decisions young adults face, and because parents care about their children's long-term well-being it is likely that parents would want to have a say in the process. Further, taking on certain adult roles such as childbearing and marriage at very young ages can have long-lasting negative consequences on the further life course. For example, leaving the parental home to form a union at a young age may raise the likelihood of early childbearing, thereby reducing participation in activities in the furtherance of a future work career (Kahn and Anderson, 1992). Moreover, there is evidence that those who start cohabiting or marry young have a raised dissolution risk compared with late starters (Berrington and Diamond, 1999; Lyngstad, 2006). Therefore, it is probable that parents have preferences that are independent of, and perhaps in conflict with, the child's own desires. As found by Axinn and Thornton (1992), parents with higher education are more successful in persuading their children to avoid early union formation. One reason why higher educated parents should be successful in inducing their children to postpone first union can be that they play a more active role in the long-term planning of children's future and perhaps are more aware of potential negative consequences of choices made in the early life-course, as ascertained in studies of the role of social class in the stratification process (cf. Farkas, 2003). Alternatively, parents' level of education may reflect differences in cultural preferences for timing of first union. More educated individuals are known to be pioneers when it comes to new forms of relationships and delay of parenthood and union formation (De Valk and Liefbroer, 2007).",
                "The effects of parental preferences on when to leave home through union formation can, however, decline as children reach adulthood. To return to a point made earlier, independence and intellectual maturity can put older children in a stronger bargaining position vis-a-vis their parents. This could, as confirmed in the studies conducted by Axinn and Thornton (1992) and South (2001), mean that the effects of parental educational as well as their material resources subside as children age.",
                "The role conflict between career and family may hit women harder than men. That is, since women bear the main responsibility for the bearing and rearing of children, the possible negative career outcomes of a premature union formation and child birth may be greater for women, as shown in studies of gender wage differences (Hardoy and Schone, 2008). Further, some have argued that gender socialization teaches women to be obedient and submissive (Xiao, 2000), and results from a Norwegian study support the assumption that women are more willing to yield to a normative pressure to marry (Reneflot, 2006). Taken together, this could imply that daughter's decisions on whether or not to form a union are more influenced by their parents' preferences than sons.",
                "Given that individuals seek to maximize the utility from the union by finding a sufficiently good match in terms of his or her resources, it may be suggested that young adults' partner preferences are structured by socio-economic factors in the childhood home. Because downward social mobility has social and economic costs, one can assume that individuals seek to retain, or alternatively increase, the socio-economic status of the parental family. Accordingly, the socio-economic conditions in the family of origin influence individuals' goals and actions, and 'actions directed toward these goals are conditioned by the distribution of resources, opportunities, and constraints that the class structure as a whole entails' (Goldthorpe, 2000, p. 165). This implies that socio-economic background affects individuals' assessments of costs and benefits by following different routes of action, and homogamous partner choice could thus be indicative of inequalities in union timing.",
                "In a search-theoretical framework, people spend time looking for a suitable match, in terms of his or her socio-economic resources, and a union is formed if the 'offers' are above the acceptable minimum utility level (Oppenheimer, 1988). In order to retain the socio-economic status of their parental family, persons from advantaged backgrounds can have higher social, cultural, and economic standards for what constitutes a minimally suitable match compared to persons whose parents are less educated or financially well off. Further, when a union is formed alternative and possibly better matches are excluded. If individuals enter their first union early, before their education is completed and the work career has started, they will choose a mate on incomplete information on his or her future socio-economic status (Oppenheimer, 1988). This mechanism of risk aversion implies that persons with privileged family backgrounds maximize their chances of upward mobility by delaying their first partnerships, avoiding the 'first and best' and wait for a 'later and better' mate.",
                "The reasoning from the above paragraphs can be summarized with the following hypotheses: young persons with wealthier and higher educated parents enter their first cohabitation or marriage at a later age than persons whose parents are less educated and well off financially. Also, the delaying effects of socio-economic background will decrease as children age, and women are more influenced by their parents' resources than men."
            ]
        },
        {
            "title": "Socio-economic Background, Cohabitation, and Marriage",
            "paragraphs": [
                "The literature on the relation between socio-economic background and timing of first cohabitation is small and inconclusive. And, although cohabitation today is common and in many respects resembles marriage, cohabitation is not altogether indistinguishable from marriage. As cohabitation has become increasingly popular, researchers have asked whether cohabitation should be understood as a temporary phase before marriage or an alternative to marriage, or as an alternative to being single (Prinz, 1995; Smock, 2000). This suggests a need to distinguish between marriage and cohabitation in the effects of socio-economic origin.",
                "A common understanding is that cohabitation is a result of long-term cultural and material trends during the 20th century. On the material side, economic development and industrialization (e.g. female labour market participation and new contraceptive methods) have contributed to the rise of cohabitation. The cultural trends included an emphasis on emotional satisfaction, and romantic love in partnerships (Cherlin, 2004, p. 851), perhaps indicative of an ongoing process of secularization and individualization in Western societies (Giddens, 1992; Gross, 2005). These changes could imply that the influence of parental socio-economic resources on first union formation decrease over time, as proven empirically in the United States for first marriage in the latter half of the 20th century (South, 2001; Sassler and Goldscheider, 2004).",
                "If the choice to cohabit reflects an ideology rejecting tradition, stressing romantic love and self-fulfillment, cohabitors could be less influenced by family socio-economic origin than those marrying directly. Reflecting these cultural trends, it is often argued that cohabitation is selective of more individualistic and non-traditional individuals (cf. Smock, 2000). Also, there are fewer formalities when entering and dissolving cohabitational unions. If cohabitation is a shorter lived and more informal living arrangement than marriage, one could argue that parents to a lesser degree will try to influence when and with whom a union is formed. In other words, if parents perceive cohabitation only as a temporary phase, they may not involve themselves as much in their children's first cohabitation as they would upon first marriage. Conversely, some parents could be less willing to assist with the establishment of an independent household if the partnership is cohabitation.",
                "The respondents in this study entered their first unions from 1970 through 2002, a period in which many of the differences between marriage and cohabitation have declined in Norway. Simultaneously with the rise in cohabitation, the mean duration of these partnerships has increased and a rising proportion of couples have lived together for a minimum of 2 years or have children together. Today, these marriage-like cohabitations constitute about three-quarters of all existing cohabitations (Noack and Seierstad, 2003). Although cohabitation is most popular among people of lower socio-economic status (Kravdal, 1999), recent findings suggest that married and cohabiting couples with children are getting more equal with regard to socio-economic characteristics (Skrede et al., 2007). Cohabitation is also becoming more accepted and institutionalized (Noack, 2001).",
                "Nonetheless, cohabitors are overall less serious, less satisfied, and more often consider breaking up their unions than married individuals (Bernhardt et al., 2007), implying that the costs of dissolving a cohabitating union could be lower than for marriage. Further, as argued by Oppenheimer (1994, p. 308) cohabitation may be an alternative to a costly search for a spouse during a period of social and economic insecurity, which at the same time offers many of the benefits of marriage (e.g. pooling of resources). This can explain why cohabitation is chosen by young persons experiencing economic uncertainty. Moreover, as argued above, persons from advantaged backgrounds might have higher consumption aspirations and prefer a partner with better prospects, thus delaying first union. As cohabitation is an alternative to a high-cost marital search and at the same time has lower 'transaction costs', cohabitors could more frequently be in search of a better match even though still living in a partnership. Therefore, individuals from advantaged family backgrounds might postpone first marriage more than cohabitation.",
                "The hypotheses based on these arguments are, first, that socio-economic background influences the timing of first cohabitation less than direct marriage. It is also expected that the relation between parents' socio-economic resources and union timing will decrease over historical time. It is, however, unclear whether this temporal trend will be stronger for cohabitation than marriage."
            ]
        },
        {
            "title": "Data and Method",
            "paragraphs": [
                "The present analysis draws on The New Families Survey, a nationally representative postal survey carried out by Statistics Norway in 2003. The target population was the total non-immigrant population (i.e. individuals with at least one Norwegian-born parent) aged 20-47. To reflect age and gender differences in the family building pattern, the population was stratified according to age and sex. Thus, the female respondents were in the age group 20-44, whereas the men were 23-47 years old. The gross sample consisted of 10,000 respondents, while the final sample comprised 6,317 individuals, giving a net response rate of 63.3%. The sample is representative of the Norwegian non-immigrant population in the age groups of current interest (Wiecek, 2003).",
                "The survey data were supplemented with data from administrative registers maintained by Statistics Norway. Such linking of data is facilitated through a system of universal ID numbers. The survey data were supplemented with longitudinal register data on respondents' education (level and activity), income, place of residence, and parental education.",
                "Complete retrospective union histories coupled with an array of socio-economic information from administrative registers and other determinants of union formation makes The New Families Survey a rich data source for analysing timing of first union. It is, however, important to bear in mind that retrospective life-course data may have their flaws. For instance, individuals could project their current union status into the past. Since relationships are markers individuals rely on when remembering and frequently are reminded of (Wu et al., 2001), retrospective reports of relationships should nonetheless produce reasonably accurate data. Marriage is, however, more than cohabitation a landmark event, and through symbols like wedding rings and photos it may be easier to remember when one got married. Also, because some cohabitors cycle in and out of co-residence or reside together only part-time inconsistencies may be generated by conceptual ambiguity. Therefore, the analyses are restricted to cohabiting unions with duration of 6 months or more. For most persons it should be easier to recall unions that have lasted for longer periods, which may also reduce bias due to conceptual ambiguity. Due to short duration 94 cohabitations (1.5%) were treated as non-cohabitation.",
                "To estimate the timing of first union formation we use discrete-time event-history analysis (Allison, 1984). The event-history analyses are applied to a data file where the union histories are converted into person-month observations. In this data file, respondent's union status as well as the other time-varying covariates are updated each month. The observation starts when respondents are 15 years old and ceases upon first union formation. Respondents who have not partnered by the end of the observation period (31 December 2002) are censored. The dataset consists of 702,275 person-month observations. The total number of events is 5,277, of which 548 (10%) married directly and 4,729 were cohabitations. Of the 6,317 respondents, 1,040 (16%) were censored cases. We model the transition from being single to first marriage or cohabitation.",
                "Since the dependent variable is nominal with three values, we use multinomial logistic regression analysis (Long, 1997). The probability modelled in the multinomial logit model is the conditional probability of first union formation versus none in month t, given no union formation before t. Two equations are estimated simultaneously: the log-odds of cohabitation versus no union formation, and the log-odds of marriage versus no union formation.",
                "Mothers' and fathers' highest level of completed education are used as indicators of the non-material resources of the parental family. Using data from administrative registers, parents' educational level are measured by two continuous variables with values ranged 0 (none/preschool) to 7 (university, advanced degree).1 These variables are measured in 1980 if the respondent was 15 years or above in 1979. If he or she was 15 years or older in 1989, then we use parents' level of education in 1990. Because most parents are likely to have finished school when their children have reached the age of 15, this should suffice. Next, by utilizing a question on perceived economic well-being during childhood, we made a variable measuring parents' material resources.2 This item is measured by responses to a question asking respondents, 'Overall, how do you perceive the economic situation in your childhood home?' Originally a variable with five levels ranging from 1 (very poor) to 5 (very good) this covariate was regrouped as a dummy, with 1 indicating a good to very good (values 4 and 5) economy in the parental home. Respondents reporting a moderate to very poor economic situation during childhood are coded 0. The results were similar with a non-dummy specification of this variable. For ease of interpretation the dichotomized version is included in the final models. A measure of parental divorce is incorporated in the analyses as well. In the mail questionnaire the respondents were asked if while growing up (<17 years old) they experienced divorce in their family of origin. Positive answers are coded 1, whereas negative answers are coded 0.",
                "Respondent's highest level of completed education is measured continuously with values ranging from 0 (none/preschool) to 7 (university, advanced degree). School enrollment reflects whether the respondents are in full-time education (1) or not (0). Annual income refers to respondent's income before taxes and transfers in the year preceding each monthly observation period. The income estimates are adjusted for inflation, and given in whole 10,000s of 1998-Norwegian Kroner. All income and educational variables are treated as time-varying covariates.",
                "The models also include a continuous time-varying variable for respondent's age reported in years above 15. This variable captures the duration dependence of the estimated hazard of first union formation. To allow for non-linearity, a quadratic term for age is added to the equation in addition to the linear. As is well known from earlier studies, women enter their first unions earlier than men (Blom, 1994; South, 2001). Therefore, we include a control for respondent's sex with values 0 for men and 1 for women. Also, a variable for calendar year of observation is incorporated, and this covariate captures temporal trends in the chance of first union formation, as well as the development in the choice between marriage and cohabitation as a first union. This item is measured continuously in years with values ranging from 1970 to 2002. The year 1985 was set as the baseline year.3",
                "Because religious persons have more traditional attitudes towards family life (Lehrer, 2004), support for religious ideas and values could affect first union formation. Religiosity is measured by responses to a question asking respondents to rate the importance attached to religion on a scale ranging from 1 (very unimportant) to 5 (very important). This covariate was then dichotomized, with 1 meaning that religion is an important to very important aspect of the respondent's everyday life.4 Another potential confounder is size of place of residence. For instance, social control may be larger in small communities. Respondents living in the municipalities of one of Norway's three most populated cities at time t are defined as urbanites and coded 1. Otherwise, the urbanite indicator is set to 0."
            ]
        },
        {
            "title": "Results",
            "paragraphs": [
                "Table 1 lists means and SDs for the two samples of individuals with either cohabitation or marriage as their first union. It is clear from these descriptive statistics that although cohabiting and married individuals come from quite similar socio-economic backgrounds, respondents marrying directly have mothers whose level of education is significantly higher. ",
                "A finding in earlier research is that marriage is selective of individuals of higher socio-economic status. Table 1 reveals a murkier picture for Norwegians entering their first union between 1970 and 2002. Comparing married and cohabiting individuals, cohabitors on average held higher levels of education, and more frequently were enrolled in school, when they moved together with a partner for the first time. Other differences emerging in Table 1 reflect that there are continuing socio-demographic differences between marriage and cohabitation. In particular, married persons are older, less frequently come from disrupted parental families, and more often hold religion to be important. Lastly, confirming the rising popularity of cohabitation, we see that cohabitors came under observation more recently.5",
                "Table 2 shows results from two event-history multinomial logistic regression models of the likelihood of cohabiting or marrying relative to no union formation (the reference category) in a given monthly observation interval. The multinomial logit coefficients are interpreted as odds ratios (exp b). The odds ratio compares the odds of cohabiting or marrying in a given month for a single individual in one group compared with that of one in the reference group. ",
                "Model A includes the family background predictors, with controls for respondents' age and sex. To tap the potential influence of individuals' own resources, Model B includes the covariates measuring individual socio-economic resources as well as controls for metropolitan residence, religiosity, and period of observation. Although the effect of material well-being during childhood is slightly reduced for direct marriage, the effects of the socio-economic background characteristics remain stable after including these attributes. As the model fit improves significantly (x2 = 1405.03, df = 12, P < 0.001), we mainly focus on the complete model.",
                "Although some parameter estimates fail to take on statistical significance, all of the included family background characteristics in Model B of Table 2 exhibit the hypothesized effects. First, we set out to assess the role of normative expectations, socialization in childhood and early adulthood, and other non-material aspects of the parental family by examining the impact of mother's and father's level of education. Starting with cohabitation, we note that increasing levels of maternal and paternal education are associated with a significant postponement of first cohabitation, net of the other variables included. A 1 point rise in the variable measuring father's educational level is associated with a 3% decrease in the odds of entering first cohabitation relative to no union formation in a given month, given that no union was formed before that month (Table 2). Similarly, having higher educated mothers significantly delays entry into a first cohabitation: net of the other independent variables included in the equation, the odds ratio of entering the first cohabitation relative to no union formation in a given month decrease with 10% with a one-level increase in mothers' education level. Although displaying the hypothesized delaying effect, mother's and father's education do not significantly influence the odds of marrying directly.",
                "The level of economic well-being in the childhood home was hypothesized to correlate negatively with first union formation as well. Table 2 shows that among respondents who marry directly, growing up in a wealthier home environment significantly decreases the odds of marrying versus not entering a union in a given month with 17%. Economic well-being in the upbringing is inversely related to cohabitation as well, but this estimate fails to reach statistical significance.6 Moreover, in compliance with previous studies the results in Table 2 verify that having experienced parental divorce during childhood reduces the likelihood of marrying directly with 40%. On the other hand, parental divorce increases the odds of entering the first cohabitation with 14%. Table A1 in Appendix 1 shows results from an analysis of the timing of entry into a first union, irrespective of whether it is by cohabitation or marriage. As can be seen, the effect of economic well-being in the childhood is non-significant whereas parents' education delay timing of first union.7",
                "Turning to individual's own socio-economic status, empirical work has demonstrated that schooling discourages marriage and cohabitation, whereas higher levels of education and earnings encourage union formation (Blom, 1994; Kravdal, 1999; Sassler and Goldscheider, 2004). Table 2 shows that the time-varying measures for educational level and school enrollment exhibit these effects for cohabitation whereas marriage is significantly delayed by being enrolled in education. The rising odds of entering first cohabitation versus staying single of a one-level rise in education amounts to 12%, holding the other covariates constant. School enrollment, on the other hand, decreases the likelihood of entering the first union, be it cohabitation or marriage, although the magnitude of the relationship is somewhat stronger for persons marrying directly. The reduction in the odds of entering a first non-marital union relative to no union formation in a given month by being a full-time student corresponds to 15%. Similarly, being a full-time student reduces the odds of marrying with 28%. Lastly, as individuals' annual income rise, they are increasingly likely to start cohabitating: a one-level raise amounting to 10,000 Norwegian Kroner is associated with 1% higher odds of entering the first cohabitation relative to remaining single.",
                "To be sure, the time-varying covariates for student status, education, and annual income are all potentially endogenous. That is, we cannot rule out the possibility that they are jointly determined with the decision about the timing of first union as well as the choice of union type. This can be especially relevant for female respondents. For instance, women who are 'family-oriented' may prefer to partner and leave education earlier than more career-oriented women. For this reason, these results should be interpreted with caution.",
                "The coefficients for age and age squared in Table 2 show that over the age range 15-47 the likelihood of first marriage and cohabitation increases and then decreases at later ages. Not surprisingly, women enter their first marital and non-marital unions at younger ages than men. Moreover, the likelihood of marrying directly is far higher among religious persons whereas holding a religious belief discourages entry into cohabitation, a finding that is consistent with the literature. Although recognizing that the effect of this anticipatory covariate may be biased, we interpret this result as evidence of more traditional family values among religious persons. The likelihood of marrying directly decreases over historical time as well. Net of the other variables included the odds of a direct marriage versus no union decreased with 7% for each calendar year between 1970 and 2002. Substantively, these estimates reflect the increasing popularity of cohabitation and at the same time the rising selectivity of the group marrying directly in Norway in the period under study.",
                "In the theoretical discussion, it was hypothesized that the effects of socio-economic background are stronger for women than men, and that younger persons are more influenced by their parent's resources than older persons. Further, it was suggested that the impact of parental resources on entry into first marriage and cohabitation might be stronger for respondent entering their first union early in the observation period. We test for a historical change in the impact of parental socio-economic resources as well as the other two plausible interactions by including interaction terms between period of observation, respondent's age and sex, and the three predictors referring to socio-economic origin. Model C of Table 3 includes these nine product terms as well as controls for the other independent variables from Model B. ",
                "Of the nine product terms included in Model C three reach statistical significance (P < 0.05), indicating that the effects of parental education varies with respondents' age for cohabitation and year of observation for marriage. These findings are congruent with research on marital entry (Axinn and Thornton, 1992; South, 2001). First, the coefficients for the interactions between age and maternal as well as paternal educational level for entry into cohabitation are positive and statistically significant. Substantively, the statistical interactions between parents' education and age for entry into cohabitation is interpreted to mean that the negative effect on timing of first cohabitation of having higher educated parents decreases with children's age. Next, there is a divergence in the impact of mother's education on first marriage between respondents who entered their first marriage early or late in the observation period (1970-2002). The significant positive coefficient for the product term representing the interaction between mother's education and year of observation indicates that the effect of maternal education on first marriage weakens and become less negative over historical time."
            ]
        },
        {
            "title": "Summary and Discussion",
            "paragraphs": [
                "Using recent Norwegian data, this study has enhanced our understanding on the relation between socio-economic background and timing of first union by considering marriage and cohabitation as competing risks. Overall, the results of this study lend support to the main hypothesis of a negative relation between socio-economic family background and timing of first union, as found in previous European and US studies. In particular, we have added to this body of knowledge by showing that the advent of cohabitation as an alternative union form has not weakened the impact of parental socio-economic resources: men and women whose parents have higher education defer their first cohabitations compared with persons whose parents' education is lower. Persons reporting a good economic family background, on the other hand, defer entry into first marriage.",
                "Given these results, the hypothesis that socio-economic background would influence the timing of first cohabitation less than direct marriage is rejected. The divergent effects of parental economic resources and education on marriage and cohabitation do nonetheless confirm that the two partnership types are diverse. Researchers have found differences between people who cohabit and those who marry on several variables ranging from an elevated dissolution risk in cohabiting couples (Liefbroer and Dourleijn, 2006) to variations in use of leisure time (Smock, 2000). One explanation given is that cohabitors are selected, i.e. that the characteristics selecting people into cohabitation in themselves account for these differentials. The results from the foregoing analyses indicate that the reverse may be the case for first union formation in Norway. That is, the rise in cohabitation as first union may have altered the meaning of marriage thus reducing the impact of socio-economic background on marital timing. Although we found a negative gradient of parental economic resources for timing of first marriage, only respondents entering cohabitation were affected by parental education. And, whereas the mean effect of parental education on first marriage for the observation period as a whole was negative and non-significant, the positive interaction between year of observation and mothers' education on marriage implies that parental education was a more important determinant of marriage timing earlier when marriage was the standard route into a partnership. Although the majority of young cohabiting couples in Norway expect to get married, and most of them actually do (Lyngstad and Noack, 2005), the majority of young adults now cohabit prior to an eventual marriage. As shown in this article, marrying directly has become non-standard behaviour particularly associated with religiosity. No interaction between parental resources and year of observation was found for cohabitation. The hypothesis of a diminishing effect of socio-economic origin by historical time is thus only partly confirmed.",
                "Considering that parental education affects the timing of first cohabitation independently of respondent's economic situation during childhood, individual socio-economic resources, and the other variables included, this most likely stem from childhood socialization and social control. Parents' explicit and implicit signals on when and with whom their offspring ought to mate could be of particular importance, and this finding could mean that highly educated parents themselves are more aware of potential costs of an early union formation. Clearly, parents with higher education might themselves have delayed their first unions, projecting their own age-specific preferences on when they think their children should form the first union. There is evidence for such an intergenerational transfer of first birth timing (Barber, 2001; Steenhof and Liefbroer, 2008), and that parental pressure for grandchildren increases the likelihood that young men and women enter a union (Barber and Axinn, 1998). Unfortunately, our data do not provide information neither about parents' union timing nor their preferences. On the other hand, as the negative effect of parental education is weaker for persons entering their first cohabitation at a later age, the results from this research do support the hypothesis that the impact of parental preferences may be more important at earlier ages.",
                "As no significant interactions were found between socio-economic background and sex for entry into first cohabitation or marriage, our data do not support the hypothesis that women are more influenced by parental resources than men. One plausible explanation for this finding may be that the rise in women's educational level and the diminishing importance of the male breadwinner model in the Scandinavian countries (Ellingsaeter and Leira, 2006) has altered traditional sex role expectations.",
                "Regarding the postponement of first marriage among individuals from privileged economic backgrounds, it seems likely that parents' economic resources positively influence their ability to sanction offspring's first marriage. That is, wealthier parents may be more successful in inducing their offspring to marry at a later stage in their lives. Also, economic well-being in the upbringing could reduce the push to leave home in early adulthood or lead to increased consumption aspirations, and this could be other mechanism through which parental economic resources and first marriage are linked. Besides, we cannot rule out the possibility that persons with fewer resources may have relatively more to gain from pooling their resources, which can explain why they marry more rapidly than others.",
                "Taking into account the delaying effect of parental education as well as material well-being in the childhood family, we might also ask whether socio-economic origin influences individuals' own rational search behaviour on the marriage market. The results from this research are in tandem with the suggestion stemming from search theory that individuals seek partners who maximize the outcome of entering a union. Taken with the assumption that individuals' assessment of costs and benefits are structured by the socio-economic conditions in their families of origin, individuals search for a mate with similar or higher socio-economic status in order to lower the likelihood of downward mobility. Such utility-maximizing behaviour could make it particularly worthwhile for individuals with advantaged backgrounds to delay first union formation.",
                "In the theoretical part, it was argued that the 'costs' of dissolving cohabiting unions might be lower than what is the case for marriages, and that cohabitors therefore more frequently could be in search of a better match even though still living in a partnership. As cohabitation is an alternative to a costly search for a spouse and persons from wealthier backgrounds might prefer partners whose socio-economic prospects are good, this could explain our finding that individuals from economically advantaged childhood homes defer their first marriage more than cohabitation. Further, if we stick to the notion that individuals with advantaged family backgrounds search longer in order to detain the social status from the parental family, future research should investigate whether this also could be a mechanism explaining socio-economic differentials in timing of cohabitors' entrance into marriage.",
                "This research was supported by Grant 150237/530 from the Research Council of Norway. I would like to thank Gunn Elisabeth Birkelund, Torkild Hovde Lyngstad, and Oystein Kravdal for their helpful comments on earlier versions of this article. ESR's anonymous reviewers contributed with useful suggestions that improved this article.",
                ""
            ]
        }
    ],
    "references": [
        "http://dx.doi.org/10.2307/2061824",
        "http://dx.doi.org/10.1016/0049-089X(92)90008-5",
        "http://dx.doi.org/10.2307/2061714",
        "http://dx.doi.org/10.1006/ssre.2000.0697",
        "http://dx.doi.org/10.1080/0032472031000150336",
        "http://dx.doi.org/10.1080/00324720308066",
        "http://dx.doi.org/10.1007/BF01264896",
        "http://dx.doi.org/10.1086/229743",
        "http://dx.doi.org/10.1177/104346397009003002",
        "http://dx.doi.org/10.1111/j.0022-2445.2004.00058.x",
        "http://dx.doi.org/10.1093/sf/77.3.945",
        "http://dx.doi.org/10.1111/jomf.2007.69.issue-1",
        "http://dx.doi.org/10.2307/1971619",
        "http://dx.doi.org/10.1146/annurev.soc.29.010202.100023",
        "http://dx.doi.org/10.1111/soth.2005.23.issue-3",
        "http://dx.doi.org/10.1016/j.ssresearch.2005.06.002",
        "http://dx.doi.org/10.1111/jomf.2004.66.issue-5",
        "http://dx.doi.org/10.2307/2061362",
        "http://dx.doi.org/10.1146/annurev.soc.24.1.395",
        "http://dx.doi.org/10.1111/jomf.2004.66.issue-3",
        "http://dx.doi.org/10.1080/00324720308067",
        "http://dx.doi.org/10.1023/B:POPU.0000019917.00860.ba",
        "http://dx.doi.org/10.1353/dem.2006.0018",
        "http://dx.doi.org/10.1093/esr/jci041",
        "http://dx.doi.org/10.1007/s10680-005-4768-8",
        "http://dx.doi.org/10.1093/oxfordjournals.esr.a018266",
        "http://dx.doi.org/10.1093/lawfam/15.1.102",
        "http://dx.doi.org/10.1086/229030",
        "http://dx.doi.org/10.2307/2137521",
        "http://dx.doi.org/10.4054/DemRes.2006.15.10",
        "http://dx.doi.org/10.1177/0192513X03257708",
        "http://dx.doi.org/10.1146/annurev.soc.26.1.1",
        "http://dx.doi.org/10.1006/ssre.2001.0714",
        "http://dx.doi.org/10.1080/00324720701788616",
        "http://dx.doi.org/10.4054/DemRes.2004.S3.3",
        "http://dx.doi.org/10.2307/2061715",
        "http://dx.doi.org/10.1353/sof.2003.0108",
        "http://dx.doi.org/10.2307/3069629",
        "http://dx.doi.org/10.1177/089124300014006005",
        "http://dx.doi.org/10.1353/dem.2003.0019",
        "http://dx.doi.org/10.1111/padr.2006.32.issue-3"
    ],
    "title": "'You'd Better Wait!'--Socio-economic Background and Timing of First Marriage versus First Cohabitation",
    "issue": "2",
    "volume": "25",
    "authors": [
        "Kenneth Aarskaug Wiik"
    ]
}