{
    "doi": "http://dx.doi.org/10.1177/0003122411409698",
    "abstract": "Past research recognizes that firms exploit regulatory variations to their advantage but depicts such regulatory arbitrage as a dyadic process between firms and regulators. We extend this account by including a firm\u2019s non-market rivals and suggest that firms view regulatory differences as part of a corporate political opportunity structure and exploit regulatory variations to disadvantage their rivals. Empirically, we focus on variations in right-to-work (RTW) laws that signal the pro-business climate in a state; these laws exist in 22 U.S. states. Using a spatial-regression discontinuity design, we analyze how Walmart locates new stores in the face of anti-Walmart activists and exploits regulatory discontinuities on the borders between RTW and non-RTW states. We find that Walmart is more likely to propose new stores, and to open those stores even if they are protested, at the borders of RTW states, compared with the borders of neighboring non-RTW states. We conclude with a discussion of implications for the study of regulation, social movements, and organizations.",
    "sections": [
        {
            "title": "Introduction",
            "subsections": [
                {
                    "title": null,
                    "paragraphs": [
                        "The metaphor of regulatory races has inspired a body of research that predicts the convergence of regulations governing business firms across states. The mechanism underlying these arguments is regulatory arbitrage--if regulatory policies do not suit business firms' interests, they will locate their operations in pro-business states, creating an incentive for other states to become pro-business (Drezner 2001; Murphy 2004). Tiebout (1956) suggested that jurisdictions will be compelled to provide an efficient mix of public goods and taxes or will face an exodus of residents to other jurisdictions. In a detailed review of the literature, Carruthers and Lamoreaux (2009:45) observe that \"regulatory races . . . are much clearer in theory and political rhetoric than they are in reality. In many situations, a substantial degree of regulatory variation endures.\" Hence, there are ample opportunities for corporations to engage in regulatory arbitrage.",
                        "As nation-states are weakening, activists are increasingly targeting corporations (see Baron and Diermeier 2007; King and Pierce 2010). Corporations are more vulnerable than states to the threat of delegitimation, but they lack states' weapons to repress, routinize, or channel activists' protests (Walker, Martin, and McCarthy 2008). Yet, corporations do have wide latitude to exploit regulatory variations in their response to protests. Corporations treat protests as signals of regulatory costs (Ingram, Yue, and Rao 2010), but the existing structure of regulation is likely to moderate signal quality. Although a few studies examine how firms exploit regulatory variations when locating operations (e.g., Dube, Lester, and Eidlin 2008; Holmes 1998), these accounts depict regulatory arbitrage as a dyadic contest between firms on the one side and regulators on the other. The image is one of regime shopping for the most favorable jurisdiction. However, firms also have to contend with non-state political rivals when locating their operations, and any micro-account of a firm's location decisions must consider how firms exploit regulatory variations to disadvantage these rivals. In this context, large business firms may have to contend with social movement activists who seek to limit or disrupt their operations. Indeed, formal control of the state and more diffuse forms of social control are often substitutes for each other (King 2009; Schneiberg and Bartley 2001; Simons and Ingram 1997; Soule 2009; Weber, Rao, and Thomas 2009). This substitutability may create arbitrage opportunities. For example, Cowie (1999) shows how RCA moved operations from Camden, NJ to other cities as the risk of unionization increased.",
                        "These considerations supply the motivation for us to study the role of social activists in Walmart's location decisions, as the firm chooses between states with right-to-work (RTW) laws and those without. Why do we expect a firm such as Walmart to exploit variation in RTW laws? We do not think threat of unionization is the answer. Walmart is non-unionized and has had very few union organizing efforts directed against it (Lichtenstein 2009).",
                        "We suggest that RTW laws signal a positive business climate and lower the risk that protesters will seek to establish restrictive regulations on large firms. RTW laws therefore constitute an element of the political opportunity structure for large firms and for activists (McAdam, McCarthy, and Zald 1988). We expect Walmart's proposals to open establishments to abruptly increase when we cross the borders of an RTW state. We expect Walmart is more likely to open a store on the border of an RTW state even when it faces protests. In an earlier study, Ingram and colleagues (2010) show that Walmart treats protests as signals of subsequent regulatory costs; Walmart walks away from locations to prevent the snowballing of protests into a hostile regulatory regime spanning multiple locations in a given state. We extend this line of reasoning by suggesting that the existing regulatory context moderates the efficacy of protests. As a result, protests in RTW states convey less negative information: Walmart is unlikely to believe the community will be anti-business because legislators and voters have already revealed they are pro-business. In short, we contend that regulatory arbitrage plays a role in mediating the efficacy of protest (Amenta 2005). We predict that large organizations such as Walmart are more likely to commence operations despite protests when they cross the border of RTW states, compared with non-RTW states.",
                        "We focus on Walmart for three reasons. First, it is arguably the most consequential firm in the U.S. economy. Walmart's decisions are of interest to economic sociologists and political sociologists alike. Second, its proposals to open new stores often encounter protests. Since 1988, Walmart has been opening supercenters that have 150,000 to 250,000 square feet of space; these stores have grocery sections and offer a wide array of products. In general, Walmart's entry leads to a 3 percent overall price decline in competing stores, and in the case of some items, the declines are as high as 13 percent (Basker 2005; Hausman and Leibtag 2005). Due to Walmart's impact on local retail trade and the increase in congestion and traffic, activists often protest proposed new stores. Many of these activists are seeking to preserve Main Street or are driven by not-in-my-backyard (NIMBY) motivations. Typically, protesters want to establish stringent size limits on the size of new stores to insulate towns against the entry of big-box retailers such as Walmart, Home Depot, and Target. Indeed, Forbes magazine identified activists leading protests as Walmart's principal enemy. In view of these protests, Walmart likely has incentives to engage in regulatory arbitrage. Finally, by focusing on the location decisions of one firm, we reduce the problems that unobserved heterogeneity across firms presents for analysis."
                    ]
                }
            ]
        },
        {
            "title": "Regulatory Arbitrage: Laws, Political Opportunity, and Mediation of Protest",
            "subsections": [
                {
                    "title": null,
                    "paragraphs": [
                        "When there is regulatory variation, business organizations may engage in regulatory arbitrage in a variety of ways. For example, when the 1863 National Banking Act imposed a 10 percent tax on banking notes issued by state banks, U.S. banks shifted from state to federal charters to avoid the tax (White 1983). A more complex form of arbitrage across geographic borders occurs when European financial institutions shift poorly monitored risk exposures to taxpayers in a different country through cross-border mergers (Carbo-Valverde, Kane, and Rodriguez-Fernandez 2008). By contrast, a simpler form of regulatory arbitrage across geographic borders occurs when firms shift geographic location in response to legislation.",
                        "Legal and regulatory variations across states provide large business firms political opportunities to disadvantage rivals such as activists. Much of the discussion of political opportunity structures, however, has been from the vantage point of activists challenging state authorities (see McAdam, Tarrow, and Tilly 2003; Meyer 2004). Some scholars suggest that one also ought to think of how political opportunity influences policy outcomes. Political mediation theory holds that the \"ability of a challenger to win collective benefits depends partly on conditions it can control, including its ability to mobilize, its goals and program . . . including issue framing and other claims-making. However, the impact of even well-mobilized challengers also depends on political context\" (Amenta, Caren, and Olasky 2005:519-20). Strong versions of the political mediation model hold that activism matters only when the political context is favorable, and weaker versions insist that political context intensifies the effect of activism (Soule 2009). In particular, ease of participation in the political system, existence of patronage politics, availability of support from bureaucrats, and, most of all, whether a regime is open to claims determine the effectiveness of activist mobilization (Amenta, Carruthers, and Zylan 1992; Amenta, Dunleavy, and Bernstein 1994).",
                        "In the case of private politics, activists are battling large corporations (Baron and Diermeier 2007). As a result, one ought to emphasize corporate opportunity structure to understand political mediation (King 2008; Soule 2009). Nonetheless, studies such as King (2008) and Soule (2009) define opportunity structure from the perspective of the activist and identify factors such as poor performance or leadership changes as opening up windows of opportunity. We extend this line of work by focusing on opportunities from the point of view of the corporate target.",
                        "What might a corporate target consider as part of an opportunity structure as it seeks to disadvantage rivals? A number of studies suggest that corporations look at the legal infrastructure for guidance on contested issues (Edelman and Suchman 1997; Soule 2009). We argue that corporations do more than that--they pay great attention to how legal and regulatory variability magnifies or reduces activists' effectiveness and make location choices accordingly. We suggest that corporate targets are concerned about laws that signal a pro-business climate and restrict activists' ability to put restrictive regulations in place. We focus on Walmart and how it sees RTW laws as undermining activists' effectiveness and therefore locates stores right across the borders of RTW states.",
                        "The 1935 Wagner Act enabled union organizing and identified unfair labor practices that management were not allowed to use. The 1947 Taft-Hartley Act undid some of the provisions. Almost uniquely among federal laws, this act allowed individual states to weaken the legal protection afforded to unions. In particular, it allowed states to exempt new employees of unionized firms from being required to join a union and from paying dues, but it gave these employees the benefits of the union contract. Twenty-two states, mostly in the south, passed RTW laws; in 2001, Oklahoma was the last state to enact such a law (Reed 2003). A number of studies show that RTW laws have a negligible effect on wages (for a review, see Moore 1998), but a recent study finds 2 percent higher wages in RTW states (Greer 2004). Some evidence shows that RTW laws reduce union membership (Davis and Huston 1993; Ellwood and Fine 1987) and induce unions to abandon organizing drives (Ferguson 2008). Because only 22 states enacted RTW laws, substantial heterogeneity remains, creating an opportunity for regulatory arbitrage.",
                        "Why would Walmart engage in regulatory arbitrage on account of RTW laws even when it has not faced a serious threat of unionization? Moore and Newman (1985) observe that while it is difficult to directly measure the business climate of a state, the division of powers between management and unions is one signal of a pro-business climate. Early on, RTW laws were a narrow signal that it was costly to organize unions in a state. Since then, the laws have become a broad-based signal of a state's pro-business ideology. As Holmes (1998:673) observes, \"the same forces that lead to the passage of right-to-work laws also lead to the adoption of other pro-business policies.\" In fact, states routinely market themselves as pro-business by proclaiming that they have an RTW law--it telegraphs the state's ideology. In a 2010 CEO survey of best and worst states for businesses, 9 of the 10 best states had an RTW law, and none of the worst 10 states did (ChiefExecutive.net 2010).",
                        "For organizations such as Walmart, an RTW law signals that protests might be hard to organize in that state. Even if anti-Walmart groups organized a protest, be they NIMBY activists or small businessmen concerned about Main Street, they would find it hard to gain the support of legislators, government authorities, voters, or consumers. For large businesses, an RTW law signals that it is less likely regulatory restrictions will be implemented on the size of their stores. The nuclear option of regulatory responses against Walmart is a size-cap restriction that limits the size of retail stores in a municipality to preclude big-box retailers. Groups that protest against Walmart stores in the name of protecting Main Street business and reducing urban sprawl often seek to mobilize popular support for a size-cap regulation that would limit a store's footprint to 30,000 square feet or less. This renders the economics unviable for Walmart, which typically establishes superstores with 150,000 to 200,000 square-foot floor plans. As of 2005, about 23 percent of RTW states had some local size-cap legislation, while about 56 percent of non-RTW states had such laws.",
                        "Walmart's retail model fits the possibility of arbitrage well. A 200,000 square-foot store draws customers from many miles around, particularly in the rural areas that are Walmart's base. Given the gravity of a Walmart, it is possible to reach the same customer from any one of a number of potential locations. If Walmart does not find a favorable policy and cultural context in one place, it may siphon retail customers from that place by locating nearby. The process resembles the bargaining over drilling rights between land owners and oilmen depicted in Wes Anderson's feature film There Will Be Blood. In this analogy, Walmart is the oil man, and communities are the landowners who want the best deal possible (in terms of planning, taxes, and good jobs) but risk having their retail dollars sucked into a neighboring jurisdiction if they bargain too hard. Stone (1997) provides a good example of Walmart's arbitrage at state borders. In that case, Walmart built stores on the New Hampshire and New York borders to suck trade out of Vermont, a state that implemented hostile policies toward Walmart in an attempt to protect small merchants.",
                        "In the context of private politics, where activists and their targets seek to gain advantage, a pro-business climate is a key part of political opportunity structure in favor of the target and against activists--it signals the tastes of voters, elected legislators, and regulators. Abraham and Voos (2000) report that stockholder wealth rose when Louisiana enacted an RTW law in 1976 and when Idaho did so in 1985 to 1986, presumably because investors anticipated higher future profits with weaker unions, and lower probabilities of restrictive regulations. Stevans (2009) finds that even after correcting for endogeneity, self-employment increased in RTW states and the ratio of bankruptcies to number of firms declined significantly. In view of these findings, the presence of RTW laws would be a signal of favorable opportunity and should increase Walmart's proposals to open new stores. This leads to Hypothesis 1:",
                        "Hypothesis 1: Walmart is more likely to issue proposals for new stores at the borders of RTW states than it is in comparable places in neighboring non-RTW states.",
                        "Even if there are protests against proposed stores in the border area of an RTW state, Walmart is likely to open the store because the pro-business climate implies support from elected officeholders and bureaucrats. Amenta and colleagues (1992, 1994) suggest that protests' effectiveness against a target is mediated by such support. Put simply, the \"productivity of collective action of state-oriented challengers is mediated by political circumstances\" (Amenta 2006:8). More specifically, in a polity where there are resource constraints on activists, collective action is likely weakened. Moreover, partisan regimes that undermine social movements are also likely to dampen the effect of protests. In an environment propitious for protesters, sheer mobilization might be enough for activists to exert influence on a target, but in an unfavorable environment, a movement's impact is severely weakened. King (2008), for example, finds that political context mediates the effectiveness of consumer boycotts directed against private firms.",
                        "Ingram and colleagues (2010) observe that Walmart often accedes to protests against proposed stores; they argue that protests serve as a signal of a community's capacity for collective action. Such signals are less clear in RTW states, where the pro-business climate makes Walmart more confident of maintaining or gaining the support of elected officeholders, regulators, and voters. Similarly, in places with a pro-business climate, anti-Walmart protests may be less likely to dent customer patronage. Ingram and colleagues (2010) argue that acceding to protests is relatively cheap for Walmart, because it can typically find another location of comparable business value nearby. This is less true, however, in places in RTW states that border non-RTW states, because some of the nearby locations are in states with a less favorable business climate. For these reasons, we predict the following:",
                        "Hypothesis 2: Walmart is more likely to open new stores despite protests at the borders of RTW states than it is in comparable places in neighboring non-RTW states."
                    ]
                }
            ]
        },
        {
            "title": "Data and Methods",
            "subsections": [
                {
                    "title": "Dependent Variables and Estimation",
                    "paragraphs": [
                        "Our first dependent variable is whether Walmart proposed to open a store in a place in a year. Proposal is a dichotomous variable coded 1 if Walmart proposed to open a store in a place in a year. We use a probit model to estimate the effect of RTW laws on Walmart's proposal behavior. Because most states did not experience a change in the status of RTW laws during our observation period, variance regarding RTW laws is mainly cross-sectional. We therefore also report results of the pooled cross-sectional probit analysis.5",
                        "Our second dependent variable is a dichotomous variable that indicates whether a proposed Walmart store opened. We coded an opening as 1 if a proposed store successfully opened by the end of 2007. We use a pooled probit model to estimate the effect of RTW laws on the probability of opening proposed stores. However, we confronted a non-random assignment problem. Protests are not likely to happen randomly; communities consider their chances of success when deciding whether to organize protests. An added issue is that protests are conditional on a proposal from Walmart, and these proposals are not distributed randomly.",
                        "We therefore use the inverse probability treatment weighting (IPTW) method that was recently developed and widely adopted by biostatisticians to resolve the non-random assignment problem in observational data (Azoulay, Ding, and Stuart 2007; Robins, Hernan, and Brumback 2000). IPTW relies on the logic of counterfactuals and compares each treated subject or observation with a pseudo-population; the difference between the two groups represents the average treatment effect. We assigned each observation in the sample a stabilized weight,6swi=P(A=ai)P(A=ai|L=li) where ai = {0,1} indicates potential treatment (i.e., protest or not) and li represents the observed confounding variables. Places that protested Walmart's proposals received the weight swiT=1n(i=1nai)Pi11, where Pi11 is the predicted probability of place i to protest if Walmart proposed to open a store. The numerator is the sample proportion of places that actually protested. Similarly, places that did not protest received the weight swiC=1-1n(i=1nai)Pi01, where Pi01 is the predicted probability of place i not to protest if Walmart proposed to open a store. In this way, the IPTW method simultaneously counterbalances the estimation bias caused by Walmart's selection of places to propose new stores and activists' choices to protest. We calculate probability of the incidence of protests from a Heckman two-stage selection model that estimates the incidence of protests using our independent and control variables as predictors."
                    ]
                },
                {
                    "title": "Dependent Variables and Estimation",
                    "paragraphs": [
                        "RTW place is a dichotomous variable coded 1 if a place is located in an RTW state (recall that all places in our sample are on contrast borders). Hypothesis 1 predicts that RTW places should be more likely to receive a proposal from Walmart to open a new store. Hypothesis 2 predicts that Walmart is more likely to overcome protesters in pro-business border places, so we created an interaction term between protest and the RTW place indicator. We expect the interaction term will have a positive effect on the opening of Walmart stores."
                    ]
                },
                {
                    "title": "Dependent Variables and Estimation",
                    "paragraphs": [
                        "For the analysis of each dependent variable, we include a set of control variables. First, we include control variables about community characteristics. We control for population size, unemployment rate, income per capita, and percentage of urban population in a place. We also control for race homogeneity of a place, which we measure by a Herfindahl index for each place i: i(populationijpopulationi)2, where j rep-resents any of the following six race groups, White, Black, Hispanic, Asian, Native Indian, or other. We collected these data from the 2000 Population Census. In addition, we include an indicator of location in the Midwest to control for the fact that most RTW contrast border places are located in the Midwest.",
                        "Second, we include control variables related to a place's political ideology and local government. We measure liberal ideology using a place's pro-Democrat political orientation, which we calculate as the county-level7 vote margins of individuals supporting a Democratic presidential candidate over those supporting a Republican candidate during the nearest past presidential election. We collected data for county-level presidential election results from 1996 to 2004 from U.S. News and World Report. We control for hazard of institutional escalation with a dichotomous variable that indicates whether a locality in a state had legislation in force in the prior year that restrains store size. We collected data about municipal-level store size legislation from the Institute for Local Self-Reliance. To control for the effect that prior protests may figure into Walmart's decisions, we measure the effect of prior protest in nearby communities by including the geographic distance weighted count of prior protests. We created a variable to indicate local governments' financial health, government's debt per capita, measured by a county government's total outstanding debt divided by the county's population. We collected the data from the Census of Government in 1997 and 2002. Finally, to control for business incentive policies at the state level (Jenkins, Leicht, and Wendt 2006), we include the number of tax and financial incentive policies adopted by each state. We obtained the data from the State Business Incentives report (2nd edition) published by the Council of State Governments.",
                        "Third, we add control variables related to the organization of mobilization. We control for union density measured by the percentage of workers who are union members in a state's private sector in the previous year. We obtained union data from the Current Population Survey. We control for number of churches per capita in a county in 2000, collected from the Association of Religion Data Archives. We also insert a dichotomous variable that indicates if a place was enrolled with the Main Street Program in a year. The Main Street Program is a national nonprofit organization that organizes community-based training, guidance, and support to revitalize a town's traditional commercial district. The National Trust developed the program in the late 1970s, and it has since enrolled more than 1,200 communities in 35 states. We obtained data about the Main Street Program's local branches from its membership directories and the state-level Main Street Program offices.",
                        "Fourth, we include control variables related to the potential profitability of a proposed store. We include a variable that measures a place's distance to the closest Walmart distribution center. We also control for number of Walmart stores within 50 miles. These two variables are good indicators of profitability because distance to the closest distribution center captures efficiencies of distribution, while the number of existing stores within 50 miles measures threat of cannibalization (Holmes 2009).",
                        "Fifth, we add control variables about a place's retail economy. We measure percentage of the civil labor force employed in the retail sector using data from the 2000 Census. We control for state-level count of stores affiliated with Walmart's two major competitors, Target and K-Mart, lagged by one year. We collected data from Target and K-Mart's annual reports, as well as K-Mart store closing lists before and after its bankruptcy. We control for whether a state has favorable tax transfer for retailers by inserting a dichotomous variable to indicate if a state has non-ceiling sales tax compensation for retailers. In the United States, 26 states provide compensation for retailers for collecting sales tax, and the 13 states without a ceiling (i.e., compensation is proportional to sales tax collected) provide more generous compensation for large retailers (Mattera and McIlvaine 2008). Walmart is regarded as a particular beneficiary of the non-ceiling policy (Mattera and McIlvaine 2008). Finally, we also include rate of retail sales tax for each state to control for the fact that Walmart may locate at the border places of a state with a low tax rate to attract shoppers from a neighboring state with a high tax rate.",
                        "Sixth, we create control variables related to the effect of media. Social movement researchers note that specialized gatekeepers such as media or editors select some messages that can evoke reactions from others. These scholars argue that such resonant messages become relevant, prominent, and speed diffusion of a social movement (Koopmans and Olzak 2004). We thus control for the influence of media's attention on anti-Walmart protests using two variables: the annual count of editorials with Walmart as a key word, lagged by one year,8 and the annual percentage of editorials that present an unfavorable attitude about Walmart. We collected data from the America's News database.",
                        "Finally, we inserted a time trend, in case the incidence of store proposals and openings increased or decreased during this period."
                    ]
                }
            ]
        },
        {
            "title": "Results",
            "subsections": [
                {
                    "title": "Does Walmart Exploit Regulatory Variations in Minimum Wage or Fair Employment Laws?",
                    "paragraphs": [
                        "While we argue that Walmart locates in pro-business states as indicated by RTW laws, something else about these states could serve as the attraction. Two possibilities are that Walmart exploits variations in minimum wage laws and fair employment laws due to cost considerations. It is also possible that such laws increase activists' effectiveness by allowing them to make social justice claims more persuasively. If this were true, it would be consistent with our overall arguments regarding triadic regulatory arbitrage, but it would indicate that something other than RTW laws are the marker of an arbitrage opportunity.",
                        "We obtained minimum wage data for each state between 1998 and 2005 from the U.S. Department of Labor. We defined contrast borders as those between states with different levels of minimum wage. We selected all places within 25 miles of contrast borders and conducted analyses similar to those for RTW laws. In addition, we controlled for the number of cities that have adopted living wage ordinances, an acute version of minimum wage, in a state in the previous year using data reported by the Living Wage Resource Center. As reported in Tables S4a and S4b in the online supplement, we find evidence in line with our theory of triadic regulatory arbitrage: high-minimum-wage states have a negative coefficient for Walmart proposals and for the efficacy of protests, but the effects are not statistically significant.",
                        "For fair employment, we defined contrast state borders using two sets of criteria. First, we defined contrast borders as those occurring between a state without extensive protection beyond federal law and a state with at least one protected category not included in federal law. Second, we defined contrast borders as those between a state without extensive protection beyond federal law and a state with at least three protected categories not included in federal law. The second definition captures a subgroup of states defined by the first, representing borders with stronger contrast. Similar to other analyses, we included all places within 25 miles of these contrast borders. As Tables S5a and S5b show, although we find directional effects consistent with the prediction of triadic regulatory arbitrage--Walmart was less likely to propose and to open stores when protested in states with more pro-labor protection--these effects are not statistically significant.",
                        "In unreported analyses of paired down models with fewer control variables, we do find statistically significant evidence that Walmart is significantly less likely to propose new stores in states with more labor protection and that community protesters are more effective in dissuading Walmart in these states. These results indicate another form of arbitrage, by which Walmart exploits state differences to disadvantage their activist rivals. While this is fully in line with our core theoretical claims, the relatively weak effects in these additional analyses for minimum wage and fair employment laws leave us with the conclusion that RTW laws are the best indicator of Walmart's regulatory arbitrage opportunities."
                    ]
                },
                {
                    "title": "Does Walmart Exploit Regulatory Variations in Minimum Wage or Fair Employment Laws?",
                    "paragraphs": [
                        "We conducted a number of other robustness tests but do not report the results for the sake of brevity; we present a summary here. We expanded our sample to not only compare RTW and non-RTW states across contrast borders, but also across regular borders. We created a sample of places located within 25 miles to any type of state border in all U.S. continental states. We ended up with four types of border places: places in an RTW state facing another RTW state, places in an RTW state facing a non-RTW state, places in a non-RTW state facing another non-RTW state, and places in a non-RTW state facing an RTW state. As expected, Walmart is more likely to propose new stores, and to open stores despite protests, in RTW states with contrast borders.",
                        "In another unreported analysis, we extended the border place sample to include all places within 50 miles from contrast borders, and we defined places within RTW states as having positive distances to contrast borders and places within non-RTW states as having negative distances to contrast borders. Our analyses suggest that Walmart is more likely to issue proposals for new stores in the interior land of non-RTW states than in their border areas. Furthermore, protesters are less likely to dissuade Walmart from opening a store in the interior area of non-RTW states than in their border areas. Protesters are more likely, however, to dissuade Walmart from opening a store in the bordering area of RTW states than in their interior land. This is consistent with our view that contrast borders present opportunities for arbitrage for large retailers. As Walmart considers places farther into the interior of a non-RTW state, the possibility of locating on the border in an adjacent RTW state becomes less feasible."
                    ]
                }
            ]
        },
        {
            "title": "Discussion and Conclusions",
            "subsections": [
                {
                    "title": "State\u2013corporate link",
                    "paragraphs": [
                        "The state's influence on the form and survival of corporations and other organizations is well documented in institutional and organizational ecology literature (e.g., Dobbin 2009; Fligstein 2001; Hannan, Polos, and Carroll 2007). Our contribution concerns the potential of influence to flow the other way, from corporations to the state. It is well known that states' autonomy may be compromised by organizations (see Hacker and Pierson 2002), but, to date, state autonomy has been characterized as a function of relative size and capacity. State autonomy is seen as threatened only in the case of a very powerful organization or a particularly weak state (Simons and Ingram 2003; Strange 1996). Yet, just as market competition can empower a lone consumer facing a powerful corporation, so too can jurisdictional competition shift the power between states and their (potential) subjects, even if the subjects are small and weak relative to the state.",
                        "To date, the idea of jurisdictional competition spurred by regulatory arbitrage has been more convincing in theory than in evidence. Tiebout's (1956) model predicts an equilibrium--states should reach a regulatory convergence driven by the pressure of competition, and citizens should be sorted into communities that maximize their personal utility. But this equilibrium thesis faces two basic challenges. First, we do not know much about how the sorting process happens--that is, how individuals, activists, and firms match with jurisdictions. By examining the strategic location decisions of a single firm, we are able to document regulatory arbitrage, providing mechanism-level evidence consistent with the aggregate differences in employment and wages that are documented in past comparisons of RTW and non-RTW states. The spatial discontinuity design we employed presents a powerful identification strategy that will likely have broad applications in sociological research on the influence of regulations on firm behavior.",
                        "A second challenge is that despite regulatory arbitrage, regulatory convergence does not happen as neatly in reality as the theory would predict (Carruthers and Lamoreaux 2009). Here, we may return to the idea of a triad to understand why corporate power to choose regulatory jurisdictions may not result in quick regulatory convergence. Our findings suggest that the sorting of firms across jurisdictions does not occur in a dyadic contest between firms choosing from a menu of regulatory variations. Instead, there is also interaction between firms and their rivals--in our case, social movement activists. The presence of social movement activists may tip the balance of power between states and corporations. Activists may also cloud state policymakers' understanding as to why corporations locate where they do.",
                        "In our analysis, Walmart's increasing prevalence on the RTW side of contrast borders emerges from two processes: Walmart's increased likelihood of proposing stores on the RTW side, and the greater likelihood that protests will dissuade Walmart from opening stores on the non-RTW side. In the former case, protests are a weak signal of voter and community preferences for greater regulation--the very fact that legislators have revealed their pro-business preferences implies that protests are not a credible signal of future regulatory costs. In the latter case, protests are a strong signal that communities and legislators may impose even more stringent regulations. Thus, the effectiveness of movement demands is moderated by variations in regulatory regimes. Wallace (2007) describes labor laws as state administered truces; we argue that RTW law embodies a pro-business settlement in a state, which is why Walmart seeks to exploit such legal variation.",
                        "Our results also shed light on the interdependence of public and private regulation. In their review, Schneiberg and Bartley (2008:551) observe that \"hard\" laws are being supplemented by \"soft\" laws (i.e., private certification, rating systems, and information disclosure rules), and they urge researchers to study how \"multiple forms of regulation intersect, raising questions about the extent to which they undermine or reinforce each other.\" Our study shows that when explicit deregulation in one domain is a credible signal of the pro-business bent of legislators and voters in a state, the effectiveness of protests as a signal of future regulatory costs is muted. By contrast, in non-RTW states, protests do signal future regulatory costs; so protests matter more in more regulated states. The prevalent view in law and society circles is that social movement activists can play a key role in the hard enforcement of soft laws; our study, however, shows there is far greater interdependence between public and private regulation.",
                        "While our study analyzes regulation in a federal context, its implications for understanding state-corporate interaction go beyond the boundaries of a nation-state. The idea that corporations choose the location of their incorporation on the basis of tax and governance regulations is familiar (Bebchuk and Cohen 2003). In the wake of the current financial crisis, some commentators have offered the specter of regulatory arbitrage as a reason for caution when imposing new regulations, as when politicians claim that poorly conceived U.S. regulations would drive the finance industry to London or Hong Kong (Kenny 2010). Activists further complicate the picture internationally (e.g., global opponents of genetically modified food). Future work should thus look at the interaction of corporations, states, and activists globally, and document the resulting effects on the distribution of economic activity and on regulation. Similarly, the triad we examine of states, corporations, and political rivals could be expanded to include industry competitors."
                    ]
                },
                {
                    "title": "State\u2013corporate link",
                    "paragraphs": [
                        "While social movement literature has been criticized for over-emphasizing the state as a target of protest, recent efforts have rebalanced the consideration of how movements and activists affect other actors, particularly corporations (e.g., King 2008; King and Soule 2007; Soule 2009). Still, it is worth recalling the triad we began with, which suggests that the state looms over interactions between activists and corporations. Our findings suggest that large firms and activists strategically interact with each other against the background of regulatory variation. Walmart seeks to locate proposals for new stores such that it disadvantages a decentralized rival: anti-Walmart activists. Walmart thus offers proposals in the borders of states with a pro-business ideology proxied by RTW laws; even if protests occur at the borders of RTW states, Walmart is able to overcome them. This suggests that organizations may have a larger portfolio of responses to protest than simply accede or resist. Future research should consider that corporations may also choose jurisdictions to disadvantage political rivals.",
                        "Although we did not hypothesize about whether protests are less likely at the borders of RTW states, it is worth pointing out that we do not observe large differences in the incidence of protests across contrast borders (31 percent of proposals on the RTW side were protested, versus 38 percent on the non-RTW side). One implication is that activists are less responsive than Walmart to arbitrage opportunities presented by laws, perhaps because the anti-Walmart movement is localized in nature and lacks national coordination. Local activists may have neither the incentive nor the ability to engage in arbitrage. The other implication is that Walmart cannot predict protest location with accuracy (Ingram et al. 2010). Walmart must therefore locate in places where it has natural allies: pro-business officials, legislators, and the public. In these places, even if protests arise in the borders of RTW states, Walmart is unlikely to be dissuaded and can open a store.",
                        "Indeed, our findings point to the unintended impact of movements. Giugni (1998) observes that social movements may fail to achieve activists' goals but can still exert secondary and indirect effects. Our study shows that regulatory arbitrage is an indirect effect of protests targeting private corporations. Although a venerable line of work suggests that regulatory policies constitute an important influence on firms (DiMaggio and Powell 1983; Fligstein 2001), there have been repeated calls for the study of how firms can respond to coercive regulatory pressures through manipulation (Oliver and Holzinger 2008). Our study speaks to such calls by showing how regulatory arbitrage is one way in which firms exploit institutional pressures. However, as our study demonstrates, regulatory variation in laws constitutes an element of corporate opportunity structure for the target firm and disadvantages activists. We enlarge the concept of corporate opportunity structure such that it works for targets and not just activists or protesters, and we describe firms' location strategies as an important response to anti-business activism.",
                        "In our study, Walmart engaged in regulatory arbitrage, but activists did not. Future research needs to investigate whether more coordinated activists exploit regulatory variations in tandem with their opponents. Should this happen, one might expect protests to be rare, because large firms would only locate where protest is unlikely, and protesters would only protest where they are likely to succeed. Yet, there are many departures from such a model of full information, and future research should investigate how the organizational structure of large firms and activist groups influences the perception of opportunity, decision making, and ultimately the process of regulatory arbitrage."
                    ]
                }
            ]
        }
    ],
    "references": [
        "Abraham, Steven E., Voos, Paula B.. 2000. \u201cThe Ramifications of the Gilmer Decision for Firm Profitability.\u201d Employment Rights and Employment Policy Journal 4:341\u201363.",
        "Amenta, Edwin. 2005. \u201cPolitical Contexts, Strategies, and Challenger Mobilization: The Impact of the Townsend Plan.\u201d Pp. 29\u201364 in Routing the Opposition: Social Movements, Public Policy, and Democracy, edited by Ingram, H., Jenness, V., Meyer, D. S.. Minneapolis: University of Minnesota Press.",
        "Amenta, Edwin. 2006. When Movements Matter: The Townsend Plan and the Rise of Social Security. Princeton, NJ: Princeton University Press.",
        "Amenta, Edwin, Caren, Neal, Olasky, Sheera Joy. 2005. \u201cAge for Leisure? Political Mediation and the Impact of the Pension Movement on U.S. Old-Age Policy.\u201d American Sociological Review 70:516\u201338.",
        "Amenta, Edwin, Carruthers, Bruce G., Zylan, Yvonne. 1992. \u201cA Hero for the Aged? The Townsend Movement, the Political Mediation Model, and U.S. Old-Age Policy, 1934\u20131950.\u201d American Journal of Sociology 98:308\u2013339.",
        "Amenta, Edwin, Dunleavy, Kathleen, Bernstein, Mary. 1994. \u201cStolen Thunder? Huey Long\u2019s Share Our Wealth, Political Mediation, and the Second New Deal.\u201d American Sociological Review 59:678\u2013702.",
        "Azoulay, Pierre, Ding, Waverly, Stuart, Toby. 2007. \u201cThe Impact of Academic Patenting on the Rate, Quality, and Direction of (Public) Research.\u201d Journal of Industrial Economics 63:599\u2013623.",
        "Baron, David P., Diermeier, Daniel. 2007. \u201cStrategic Activism and Nonmarket Strategy.\u201d Journal of Economics & Management Strategy 16:599\u2013634.",
        "Basker, Emek. 2005. \u201cSelling a Cheaper Mousetrap: Walmart\u2019s Effect on Retail Prices.\u201d Journal of Urban Economics 58:203\u2013229.",
        "Bebchuk, Lucian, Cohen, Alma. 2003. \u201cFirms\u2019 Decisions Where to Incorporate.\u201d Journal of Law and Economics 46:383\u2013425.",
        "Carbo-Valverde, Santiago, Kane, Edward, Rodriguez-Fernandez, Francisco. 2008. \u201cEvidence of Differences in the Effectiveness of Safety-Net Management in European Union Countries.\u201d Journal of Financial Services Research 34:151\u201376.",
        "Carruthers, Bruce, Lamoreaux, Naomi. 2009. \u201cRegulatory Races: The Effect of Jurisdictional Competition on Regulatory Standards.\u201d Working paper, Department of Sociology, Northwestern University, Evanston, IL.",
        "Chandler, Alfred D. 1977. The Visible Hand. Cambridge, MA: Belknap Press.",
        "ChiefExecutive.net. 2010. \u201cBest and Worst States for Business, 2010.\u201d Retrieved November 25, 2010 (http://www.chiefexecutive.net).",
        "Cowie, Jefferson. 1999. Capital Moves. New York: The New Press.",
        "Davis, Joe C., Huston, John H.. 1993. \u201cRight-to-Work Laws and Free Riding.\u201d Economic Inquiry 31:52\u201358.",
        "DiMaggio, Paul J., Powell, Walter W.. 1983. \u201cThe Iron Cage Revisited: Institutional Isomorphism and Collective Rationality in Organizational Fields.\u201d American Sociological Review 48:147\u201360.",
        "Dobbin, Frank. 2009. Inventing Equal Opportunity. Princeton, NJ: Princeton University Press.",
        "Drezner, Daniel W. 2001. \u201cGlobalization and Policy Convergence.\u201d International Studies Review 3:53\u201378.",
        "Dube, Arindrajit, Lester, T. William, Eidlin, Barry. 2008. \u201cFirm Entry and Wages: Impact of Walmart Growth on Earnings throughout the Retailing Sector.\u201d IRLE, University of California, Berkeley, WP iiwps-125-05.",
        "Edelman, Lauren. B., Suchman, Mark C.. 1997. \u201cThe Legal Environments of Organizations.\u201d Annual Review of Sociology 23:479\u2013515.",
        "Ellwood, David T., Fine, Glenn. 1987. \u201cThe Impact of Right-to-Work Laws on Union Organizing.\u201d Journal of Political Economy 95:250\u201373.",
        "Ferguson, John-Paul. 2008. \u201cThe Eyes of the Needles: A Sequential Model of Union Organizing Drives, 1999\u20132004.\u201d Industrial and Labor Relations Review 62:3\u201321.",
        "Fligstein, Neil. 2001. The Architecture of Markets: An Economic Sociology of Twenty-First-Century Capitalist Societies. Princeton, NJ: Princeton University Press.",
        "Giugni, Marco. 1998. \u201cWas It Worth the Effort? The Outcomes and Consequences of Social Movements.\u201d Annual Review of Sociology 24:371\u201393.",
        "Greer, Stan. 2004. \u201cReal Earnings Remain Higher in Right-to-Work States: Fresh Evidence from the AFL-CIO.\u201d February 2004. National Institute for Labor Relations Research, Springfield, VA.",
        "Hacker, Jacob S., Pierson, Paul. 2002. \u201cBusiness Power and Social Policy: Employers and the Formation of the American Welfare State.\u201d Politics and Society 30:277\u2013325.",
        "Hannan, Michael T., Polos, Laszlo, Carroll, Glenn R.. 2007. Logics of Organization Theory. Princeton, NJ: Princeton University Press.",
        "Hausman, Jerry, Leibtag, Ephraim. 2005. \u201cConsumer Benefits from Increased Competition in Shopping Outlets: Measuring the Effect of Walmart.\u201d Working Paper No. 11809, National Bureau of Economic Research, Cambridge, MA.",
        "Holmes, Thomas J. 1998. \u201cThe Effect of State Policies on the Location of Manufacturing: Evidence from State Borders.\u201d Journal of Political Economy 106:667\u2013705.",
        "Holmes, Thomas J. 2009. \u201cThe Diffusion of Walmart and Economies of Density.\u201d Working Paper No. 13783, National Bureau of Economic Research, Cambridge, MA.",
        "Imbens, Guido W., Lemieux, Thomas. 2008. \u201cRegression Discontinuity Designs: A Guide to Practice.\u201d Journal of Econometrics 142:615\u201335.",
        "Ingram, Paul, Yue, Lori Qingyuan, Rao, Hayagreeva. 2010. \u201cTroubled Store: Probes, Protests and Store Openings by Walmart.\u201d American Journal of Sociology 116:53\u201392.",
        "Jenkins, J. Craig, Leicht, Kevin T., Wendt, Heather. 2006. \u201cClass Forces, Political Institutions, and State Intervention: Subnational Economic Development Policy in the United States, 1971\u20131990.\u201d American Journal of Sociology 111:1122\u201380.",
        "Kenny, Jack. 2010. \u201cWall Street Reform Bill May Drive Companies Overseas, Bloomberg Warns.\u201d The New American, retrieved March 30, 2011 (http://www.thenewamerican.com/index.php/usnews/politics/3376-reform-bill-may-drive-companies-overseas-bloomberg-warns).",
        "King, Brayden G. 2008. \u201cA Political Mediation Model of Corporate Response to Social Movement Activism.\u201d Administrative Science Quarterly 53:395\u2013421.",
        "King, Brayden G. 2009. \u201cWhen Markets Become Contentious.\u201d Contexts 8:34\u201339.",
        "King, Brayden G., Pierce, Nicholas. 2010. \u201cThe Contentiousness of Markets: Politics, Social Movements and Institutional Change in Markets.\u201d Annual Review of Sociology 36:249\u201367.",
        "King, Brayden G., Soule, Sarah A.. 2007. \u201cSocial Movements as Extra-Institutional Entrepreneurs: The Effect of Protests on Stock Price Returns.\u201d Administrative Science Quarterly 52:413\u201342.",
        "Koopmans, Ruud, Olzak, Susan. 2004. \u201cDiscursive Opportunities and the Evolution of Right-Wing Violence in Germany.\u201d American Journal of Sociology 110:198\u2013230.",
        "Lichtenstein, Nelson. 2009. The Retail Revolution: How Walmart Created a Brave New World of Business. New York: Macmillan.",
        "Mattera, Philip, McIlvaine, Leigh. 2008. \u201cSkimming the Sales Tax: How Walmart and Other Big Retailers (Legally) Keep A Cut of the Taxes We Pay on Everyday Purchases.\u201d Good Jobs First, retrieved March 30, 2011 (http://www.goodjobsfirst.org/publications/index.cfm).",
        "McAdam, Doug, McCarthy, John, Zald, Mayer. 1988. \u201cSocial Movements and Collective Behavior: Building Macro-Micro Bridges.\u201d Pp. 695\u2013737 in Handbook of Sociology, edited by Smelser, N.. Beverly Hills, CA: Sage.",
        "McAdam, Doug, Tarrow, Sidney, Tilly, Charles. 2003. Dynamics of Contention. New York: Cambridge University Press.",
        "Meyer, David S. 2004. \u201cProtest and Political Opportunities.\u201d Annual Review of Sociology 30:125\u201345.",
        "Moore, Christopher T. 2009. \u201cSpatial Regression Discontinuity: Estimating Effects of Geographically Implemented Programs and Policies.\u201d Presented at the annual conference of the American Evaluation Association, Orlando, FL.",
        "Moore, William J. 1998. \u201cThe Determinants and Effects of Right-To-Work Laws: A Review of the Recent Literature.\u201d Journal of Labor Research 19:445\u201369.",
        "Moore, William J., Newman, Robert J.. 1985. \u201cThe Effects of Right-to-Work Laws: A Review of the Literature.\u201d Industrial and Labor Relations Review 38:571\u201385.",
        "Murphy, Dale D. 2004. The Structure of Regulatory Competition: Corporations and Public Policies in a Global Economy. New York: Oxford University Press.",
        "Oliver, Christine, Holzinger, Ingo. 2008. \u201cThe Effectiveness of Strategic Regulatory Management: A Dynamic Capabilities Framework.\u201d Academy of Management Review 33:496\u2013520.",
        "Reed, Robert. 2003. \u201cHow Right-To-Work Laws Affect Wages.\u201d Journal of Labor Research 24:713\u201330.",
        "Robins, James M., Hernan, Miguel Angel, Brumback, Babette. 2000. \u201cMarginal Structural Models and Causal Inference in Epidemiology.\u201d Epidemiology 11:550\u201360.",
        "Schneiberg, Marc, Bartley, Tim. 2001. \u201cRegulating American Industries: Markets, Politics, and the Institutional Determinants of Fire Insurance Regulation.\u201d American Journal of Sociology 107:101\u2013146.",
        "Schneiberg, Marc, Bartley, Tim. 2008. \u201cOrganizations, Regulation, and Economic Behavior: Regulatory Dynamics and Forms from the Nineteenth to Twenty-First Century.\u201d Annual Review of Law and Social Science 4:31\u201361.",
        "Shadish, William R., Cook, Thomas D., Campbell, David T.. 2002. Experimental and Quasi-Experimental Designs for Generalized Causal Inference. Boston: Houghton Mifflin Company.",
        "Simons, Tal, Ingram, Paul. 1997. \u201cOrganization and Ideology: Kibbutzim and Hired Labor, 1951\u20131965.\u201d Administrative Science Quarterly 42:784\u2013813.",
        "Simons, Tal, Ingram, Paul. 2003. \u201cEnemies of the State: Interdependence between Institutional Forms and the Ecology of the Kibbutz, 1910\u20131997.\u201d Administrative Science Quarterly 44:592\u201362.",
        "Soule, Sarah A. 2009. Contention and Corporate Social Responsibility. New York: Cambridge University Press.",
        "Stevans, Lonnie K. 2009. \u201cThe Effect of Endogenous Right-to-Work Laws on Business and Economic Conditions in the United States: A Multivariate Approach.\u201d Review of Law & Economics 5:595\u2013614.",
        "Stone, Kenneth E. 1997. \u201cImpact of the Walmart Phenomenon on Rural Communities.\u201d Department of Economics, Iowa State University, Ames, IA.",
        "Strange, Susan. 1996. The Retreat of the State. Cambridge: Cambridge University Press.",
        "Thompson, James D. 1967. Organizations in Action: Social Science Bases of Administrative Theory. New York: McGraw-Hill.",
        "Tiebout, Charles M. 1956. \u201cA Pure Theory of Local Expenditures.\u201d Journal of Political Economy 4:416\u201324.",
        "Walker, Edward, Martin, Andrew, McCarthy, John. 2008. \u201cConfronting the State, the Corporation and the Academy: The Influence of Institutional Targets on Movement Repertoires.\u201d American Journal of Sociology 114:35\u201376.",
        "Wallace, Michael. 2007. \u201cAfter Taft-Hartley: The Legal-Institutional Context of U.S. Strike Activity, 1948 to 1980.\u201d Sociological Quarterly 48:769\u201399.",
        "Weber, Klaus, Rao, Hayagreeva, Thomas, L. G.. 2009. \u201cFrom Streets to Suites: How the Anti-Biotech Movement Affected German Pharmaceutical Firms.\u201d American Sociological Review 74:106\u2013127.",
        "White, Eugene Nelson. 1983. The Regulation and Reform of the American Banking System, 1900\u20131929. Princeton, NJ: Princeton University Press."
    ],
    "title": "Laws of Attraction",
    "issue": "3",
    "volume": "76",
    "year": 2011,
    "issn": "0003-1224",
    "journal": "American Sociological Review",
    "authors": [
        "Hayagreeva Rao",
        " Lori Qingyuan Yue",
        " Paul Ingram"
    ]
}