{
    "doi": "http://dx.doi.org/10.1093/esr/jcr049",
    "abstract": "",
    "sections": [
        {
            "title": "Amy C. Alexander",
            "paragraphs": [
                "Amy C. Alexander is a PhD student (ABD) and fellow at the Center for the Study of Democracy at the University of California, Irvine. Her research focuses on gender and politics, and political representation."
            ]
        },
        {
            "title": "Tak Wing Chan",
            "paragraphs": [
                "Tak Wing Chan is the Head of the Department of Sociology at the University of Oxford, where he is also a Fellow and Tutor of New College, and the Director of the Oxford Network for Social Inequality Research. His main research interests are social stratification and family sociology. His book Social Status and Cultural Consumption was published by Cambridge University Press in 2010."
            ]
        },
        {
            "title": "Henryk Doma\u0144ski",
            "paragraphs": [
                "Henryk Domanski is a Professor of Sociology in the Institute of Philosophy and Sociology Polish Academy of Sciences in Warsaw. Since July 2000, he has been the Director of this Institute, and Head of Department of Studies on Methods and Techniques of Sociological Research. His main fields of interest are studies of social stratification and mobility, and the methodology of social research. He has authored 30 books, primarily on labour market segmentation, inequality of sex, and comparative social stratification, with the most recent being: On the Verge of Convergence. Social Stratification in Eastern Europe (2000); Women on the Polish Labour Market (2001)--the latter two edited by the Central European University Press; The Polish Middle Class (2002); Poverty and Social Stratification in Eastern Europe (2002); On Social Mobility in Poland (2004); Marital Homogamy and Social Stratification (2007); Social Structure (2007); and Sociological Tools. Measuring Occupations (2009)."
            ]
        },
        {
            "title": "Jenny Hansson",
            "paragraphs": [
                "Jenny Hansson is a PhD student at the Department of Political and Social Sciences at the European University Institute. Her dissertation project investigates how the work-to-life balance affects well-being and individual career/influence opportunities among National Parliamentarians, in a comparative perspective between Sweden and Germany. Based on a model (and pre-study) originally developed in her Master Thesis, Jenny Hansson has constructed a survey questionnaire tailored for country comparison between groups of political elites and currently applied to the total populations of Swedish and German parliamentarians. Her survey study is complemented by in-depth interviews with representatives of the two countries."
            ]
        },
        {
            "title": "Helmut Hirtenlehner",
            "paragraphs": [
                "Helmut Hirtenlehner is an Assistant Professor at the Institute for Criminal Sciences at the University of Linz. His research interests include quantitative methods, fear of crime, punitiveness, and testing theories of crime. He is currently engaging in research on institutional anomie theory and expressive accounts of attitudes towards punishment."
            ]
        },
        {
            "title": "Dina Hummelsheim",
            "paragraphs": [
                "Dina Hummelsheim is a Senior Researcher at the Max Planck Institute for Foreign and International Criminal Law in Freiburg (Germany). Her research interests are focused on criminology (victimization, crime-related perceptions, and attitudes), sociology of the welfare state, and quantitative research methods."
            ]
        },
        {
            "title": "Jonathan Jackson",
            "paragraphs": [
                "Jonathan Jackson is a Senior Lecturer in Research Methodology and member of the Mannheim Centre for Criminology at the LSE. His research centres on public attitudes towards crime, justice, and punishment. He is currently working on a rotating module on trust in justice and the legitimacy of legal authorities in Round 5 of the European Social Survey."
            ]
        },
        {
            "title": "Rianne Kloosterman",
            "paragraphs": [
                "Rianne Kloosterman was a PhD student from September 2005 onwards at the Department of Sociology of the Radboud University Nijmegen. As of December 2010, she is employed as a statistical researcher at Statistics Netherlands in Heerlen. Her research interests include social stratification, educational inequality, cultural participation, and social cohesion."
            ]
        },
        {
            "title": "Anita Koo",
            "paragraphs": [
                "Anita Koo is an Assistant Professor in the Department of Applied Social Sciences at the Hong Kong Polytechnic University. Her research interests are education and social stratification, youth, and family."
            ]
        },
        {
            "title": "Gerbert Kraaykamp",
            "paragraphs": [
                "Gerbert Kraaykamp is a Professor of empirical sociology in the Department of Sociology, Radboud University Nijmegen. His main fields of interest and current work are in social stratification and cultural capital. He has published on these subjects in Dutch as well as international journals (website: http://gerbertkraaykamp.ruhosting.nl/)."
            ]
        },
        {
            "title": "Natascha Notten",
            "paragraphs": [
                "Natascha Notten studied Sociology at the Radboud University Nijmegen (MA with distinction, 2005), where she currently works as a PhD student at the Department of Sociology. Her research interests include social stratification, cultural participation, media consumption, and parental media socialization activities. She has published her work in several international and Dutch journals."
            ]
        },
        {
            "title": "Dietrich Oberwittler",
            "paragraphs": [
                "Dietrich Oberwittler is a Research Group Leader at the Max Planck Institute for Foreign and International Criminal Law in Freiburg (Germany), Privatdozent (Associate Professor) for Sociology at the University of Freiburg, and affiliated research fellow at the University of Cambridge (PADS+Study). His research interests are focused on criminology (juvenile delinquency, homicide, communities, and perceptions) and quantitative research methods (multilevel modelling)."
            ]
        },
        {
            "title": "Jochem Tolsma",
            "paragraphs": [
                "Jochem Tolsma is an Assistant Professor at the Department of Sociology, Radboud University Nijmegen. His research interests include consequences of social mobility on ethnic antagonism, the impact of the direct living environment on ethnic antagonism and social cohesion, and educational inequality."
            ]
        },
        {
            "title": "Richard Traunm\u00fcller",
            "paragraphs": [
                "Richard Traunmuller holds a degree in Social Sciences (Dipl.-Soz.) from Humboldt-University of Berlin. Currently, he is a research assistant and a PhD candidate at the Department of Politics and Management, University of Konstanz, Germany. Research interests include social capital, religion and politics, political sociology, and quantitative methods. Previous work has appeared in Berliner Journal fur Soziologie, Comparative Politics, European Journal of Political Research, Journal of Applied Social Science Studies, and the Swiss Political Science Review."
            ]
        },
        {
            "title": "Christian Welzel",
            "paragraphs": [
                "Christian Welzel is a Professor of Political Science at Jacobs University Bremen, Germany, and Vice President of the World Values Survey. Author of more than 80 scholarly publications, his research focuses on social and cultural change, human values, democratization, and human empowerment."
            ]
        }
    ],
    "references": [],
    "title": "Notes on Contributors",
    "issue": "3",
    "volume": "27",
    "year": 2011,
    "issn": "0266-7215",
    "journal": "European Sociological Review",
    "authors": []
}