{
    "doi": "http://dx.doi.org/10.1177/0022146516685370",
    "abstract": "Guided by the stress process model and the life course perspective, we hypothesize: (1) that childhood abuse is concentrated, in terms of type and intensity, among socially disadvantaged individuals, and (2) that experiencing serious abuse contributes to poor biological profiles in multiple body systems in adulthood. Data came from the Biomarker subsample of Midlife in the United States (2004\u20132006). We used latent class analysis to identify distinct profiles of childhood abuse, each reflecting a combination of type and severity. Results indicate that disadvantaged groups, women, and those from disadvantaged families are at greater risk of experiencing more severe and multiple types of abuse. Those with more severe and multifaceted childhood abuse show greater physiological dysregulation. Childhood abuse experiences partially accounted for the social status differences in physiological profiles. Our findings underscore that differential exposure to serious childhood stressors plays a significant role in gender and class inequalities in adult health.",
    "sections": [
        {
            "title": "Introduction",
            "subsections": [
                {
                    "title": null,
                    "paragraphs": [
                        "Life course approaches to health suggest that an individual's early life experiences are precursors to later health outcomes (Kuh et al. 2003). Child abuse is one of the most widely studied adverse experiences in early life (Gilbert et al. 2009), and socially disadvantaged individuals, including women and those in lower classes, are at greater risk of being abused (Sedlak, Mettenburg, et al. 2010). Although the deleterious effects of child abuse have been studied extensively and are linked to a wide array of health outcomes, including biological risk (Danese and McEwen 2012; Felitti et al. 1998), previous research is limited in several ways.",
                        "First, differential exposure to stressful life experiences is a principal mechanism that contributes to social status differences in health (Pearlin et al. 2005; Turner 2013). Yet, few studies have investigated whether social characteristics (gender, race, childhood socioeconomic status [SES]) shape the nature of abuse that individuals encounter in their early lives and the extent to which childhood abuse contributes to social status differences in physiological dysregulation.",
                        "Second, despite the importance of using comprehensive measures of stressors to investigate health disparities (Thoits 2010), prior studies have relied on narrow definitions of abuse. These studies use either binary indicators (i.e., abuse occurred or did not occur) or broad summary indices, which may fail to capture the complex nature of abuse--for example, the type, severity, and frequency (Bernstein et al. 2003). Explicating the specific nature of child abuse is thus important for investigations into the social origins and biological consequences of abuse.",
                        "Third, prior work noted that stressful life experiences are associated with dysregulation in a number of physiological systems, yet the results vary by physiological system and measures of biological risk (Goldman et al. 2005). These findings convey the importance of investigating a broad spectrum of biomarkers across multiple systems to better capture the adverse effects of childhood abuse. However, previous studies have been limited to a single biomarker or physiological pathway. Two recent studies have investigated cumulative dysregulation across multiple systems (Carroll et al. 2013; Friedman et al. 2015), but these inquiries focused on only emotional and physical abuse.",
                        "Finally, prior studies have not fully taken into account that dysregulation in stress hormones may present in different ways. For example, some studies have reported that early life adversities increase hypothalamic-pituitary-adrenal (HPA) axis and sympathetic nervous system (SNS) activities, thus raising levels of stress hormones (De Bellis et al. 1999; Gonzalez et al. 2009). In contrast, others found that severe or chronic stress leads to downregulation of the primary stress systems and hence below-normal levels of stress hormones (Yehuda et al. 1993). Moreover, there is evidence that individuals who experience chronic and extreme stress can exhibit an imbalance of stress hormones, such as elevated norepinephrine in conjunction with reduced epinephrine and cortisol secretion, which has the potential to lead to adverse health consequences, including chronic fatigue and pain syndromes (Loevinger et al. 2007; Mason et al. 1988). Our study builds on and extends prior research by incorporating diverse evidence (e.g., hyper- and hyposecretion of cortisol) and novel indices (e.g., the ratio of norepinephrine to cortisol), along with conventional biomarker indicators.",
                        "Using middle-aged adults from the National Survey of Midlife Development in the United States (MIDUS), the current study has three goals: (1) to identify different categories of childhood abuse by incorporating unique combinations of type and severity of abuse; (2) to assess whether socially disadvantaged groups, women, nonwhites, and individuals who grew up in disadvantaged families are at greater risk of exposure to more severe and multiple types of abuse; and (3) to test whether childhood abuse contributes to the relationship between social characteristics and physiological dysregulation in adulthood."
                    ]
                }
            ]
        },
        {
            "title": "Background",
            "subsections": [
                {
                    "title": "Social Status, Stress, and Health",
                    "paragraphs": [
                        "Almost everyone encounters stressful life experiences, yet not everyone is equally exposed to or affected by stressors. According to the social process model (Pearlin 1989), the risk of experiencing stressors is significantly impacted by social characteristics, like race, gender, and SES. Specifically, socially disadvantaged individuals, including women, members of racial-ethnic minority groups, and low-SES individuals, tend to encounter more frequent and intense stressors across the life course (Lantz et al. 2005; Turner, Wheaton, and Lloyd 1995). Moreover, faced with similar stressors, individuals with lower SES are more likely to experience elevated emotional distress compared to those with higher SES (McLeod and Kessler 1990), and women, compared to men, tend to rate life adversities as less controllable (Matud 2004) and having a more negative impact on their lives (C. Lee, Glei, et al. 2014; C. Lee, Rodriguez, et al. 2014). Such susceptibility among socially disadvantaged individuals is partially attributed to fewer stress-dampening resources and less effective coping strategies as well as to lower psychological strength (e.g., self-esteem; Pearlin et al. 2005). Exposure to negative life events and ongoing stressors has been linked with a variety of deleterious health outcomes, and cumulative evidence shows that health disparities, particularly in terms of mental health, can be partially explained by differential exposure to stressors between disadvantaged and advantaged individuals (Thoits 2010). For example, using comprehensive measures of stressors, Turner and colleagues reported that almost half of the SES gap and one fifth of the gender gap in depressive symptoms were explained by life events (Turner et al. 1995; Turner and Avison 2003), indicating the significant role of stressors as a key pathway to poor health outcomes."
                    ]
                },
                {
                    "title": "Social Status, Stress, and Health",
                    "paragraphs": [
                        "Some stressful life experiences that shape trajectories of individuals' health and well-being occur in early life. Childhood abuse is one of the most widely studied early life adversities (Gilbert et al. 2009), and like other life events, exposure to childhood abuse is not randomly distributed throughout the population. Children who grow up in families with low income (Cancian, Yang, and Slack 2013), unemployed parents (Gillham et al. 1998), poorly educated parents (e.g., less than high school degree; Cancian et al. 2013), or single parents (Mersky et al. 2009) are at greater risk of being exposed to abuse or neglect than their counterparts. Gender is a significant sociodemographic predictor. While findings related to physical or emotional abuse have been mixed, girls are at greater risk of being sexually abused than boys (Maikovich-Fong and Jaffee 2010; Thompson, Kingree, and Desai 2004). Although the stigma against submissiveness and same-sex sexual contact may render boys reluctant to report sexual abuse (Holmes and Slap 1998), the disproportionately greater risk of sexual abuse among girls has been stable across different assessments, times, and societies (Gilbert et al. 2009).",
                        "The prevalence of childhood abuse also varies by race, with greater risk for African Americans than non-Hispanic whites (Sedlak, Mettenburg, et al. 2010). However, racial differences may be confounded with other characteristics. National studies show that racial differences in abuse weaken or are no longer statistically significant when controlling for other sociodemographic characteristics (Hussey, Chang, and Kotch 2006) or when limited to children living in low-income households (Sedlak, McPherson, and Das 2010). In sum, social characteristics, particularly, gender and childhood SES, are significantly associated with an individual's risk of exposure to childhood abuse. Few studies have investigated how such social characteristics are associated with heterogeneity of childhood abuse in terms of severity and types of abuse. Based on the differential exposure hypothesis, we examined whether women, nonwhites, and those from disadvantaged families are at greater risk of exposure to multiple types of severe abuse in childhood."
                    ]
                },
                {
                    "title": "Social Status, Stress, and Health",
                    "paragraphs": [
                        "Experiencing abuse during childhood can have persistent and negative consequences on adult health (Felitti et al. 1998). Mounting evidence indicates that adults who experienced abuse as children suffer from more chronic diseases than those who were not traumatized (Norman et al. 2012). In particular, victims of child abuse are at greater risk of developing stress-related immune disorders, including allergies, asthma, and autoimmune diseases (Dube et al. 2009) as well as metabolic and vascular diseases, including type 2 diabetes, hypertension, and heart disease (Dong et al. 2004; Fuller-Thomson, Stefanyk, and Brennenstuhl 2009; C. Lee, Tsenkova, and Carr 2014; Rich-Edwards et al. 2010; Riley et al. 2010). Adult survivors of childhood abuse are overrepresented in many clinical patient groups, including irritable bowel syndrome, fibromyalgia, and extreme obesity (Drossman et al. 1990; Walker et al. 1997). Diverse health risks likely arise from the cumulative impact of biological dysregulation beginning during early development and continuing into adulthood (Danese and McEwen 2012).",
                        "Childhood abuse tends to carry a cumulative biological toll into adulthood, impacting multiple body systems, yet evidence varies by individual systems. The association is pronounced with indicators of secondary stress systems, including inflammatory, cardiovascular, and metabolic function biomarkers (Carroll et al. 2013; Friedman et al. 2015). For example, individuals who experienced abuse as children show higher adiposity, increased glucose levels, elevated blood pressure, and a greater risk of developing metabolic syndrome (Danese et al. 2009; Danese and Tan 2013; C. Lee, Tsenkova, et al. 2014; Thomas, Hypponen, and Power 2008). Similarly, adults with a history of childhood abuse often present with signs of subclinical inflammation and infection, including elevated white blood cell counts, C-reactive protein (CRP), and fibrinogen, along with higher circulating levels of proinflammatory cytokines, such as interleukin-6 (IL-6; Slopen et al. 2010; Taylor et al. 2006).",
                        "Evidence regarding the effects of early life adversities on the primary stress system has been mixed. In the association with SNS activity, some studies have documented hyperactivity (Oosterman et al. 2010), while others did not find significant association (Carroll et al. 2013; Friedman et al. 2015). Inconsistent findings have also been reported for cortisol as an indicator of activity of HPA axis. Various studies have found (1) hyperactivity (Cicchetti and Rogosch 2001; Wismer Fries, Shirtcliff, and Pollak 2008), (2) attenuated or blunted activity (Trickett et al. 2010), and (3) no significant association (Friedman et al. 2015). Some of these inconsistencies could be attributed to methodological differences, including measures of early life adversities, differing ways of assessment of stress hormones (e.g., daytime salivary versus 12-hour overnight urinary cortisol), and sampling (e.g., clinical versus population-based samples). At the same time, there is strong evidence for the effects of trauma on the atypical secretion of stress hormones. Contrary to the conventional assumption that more stress always leads to higher levels of stress hormones, childhood trauma has been associated with both low and high levels of cortisol in adulthood (Heim, Ehlert, and Hellhammer 2000; Miller, Chen, and Zhou 2007; Yehuda et al. 1993). Similarly, both elevated and reduced levels of epinephrine have been found in adults with a history of extreme or chronic stress (De Bellis et al. 1994; Delahanty et al. 2005; Loevinger et al. 2007). Other investigations suggest that individuals with childhood trauma-related conditions (e.g., posttraumatic stress disorder and fibromyalgia) may evince an imbalance between stress hormones, such as a higher norepinephrine/epinephrine ratio and a higher norepinephrine/cortisol ratio (Loevinger et al. 2007; Mason et al. 1988).",
                        "In sum, individuals who experience extreme or chronic abuse as children are likely to secrete abnormal levels of hormones from the primary stress systems (HPA axis and SNS), which appears to be related to poor biological profiles in other body systems associated with stress physiology (glucose regulation, lipid metabolism, cardiovascular function, immune competence). Yet, few population-based studies of childhood abuse and adult health have attempted to incorporate such biological evidence from the trauma literature. By combining various perspectives from prior work, we will explicitly test the effects of childhood abuse on multiple body systems and the contribution of childhood abuse to the association of social status and physiological dysregulation across body systems."
                    ]
                }
            ]
        },
        {
            "title": "Data and Methods",
            "subsections": [
                {
                    "title": "Sample",
                    "paragraphs": [
                        "The current study included participants in the Biomarker subsample of the MIDUS study (n = 1,255). MIDUS began in 1995 with a sample of non-institutionalized, English-speaking residents of the contiguous United States, ages 25 to 78 (N = 7,108). National random-digit dialing was used to select the main sample (n = 3,487) and a sample of twin pairs (n = 1,914). The study also included a random subsample of siblings of individuals in the main sample (n = 950) and oversamples of those living in urban areas using five cities in the United States (n = 757). Between 2004 and 2006, 4,963 of the original respondents completed a follow-up telephone survey and self-assessment questionnaires. At this time, a supplemental sample of 592 African Americans from Milwaukee, Wisconsin, was recruited to enhance the racial diversity of the sample (Radler and Ryff 2010). Respondents in Wave 2 and the Milwaukee samples were invited to participate in the Biomarker study. Around 39% of those eligible for participation were able to participate in a two-day visit to a clinical research center for a physical exam that included a 12-hour urine collection, a fasting blood sample, and measurements of height, weight, waist-hip circumference, and blood pressure. Respondents participating in the Biomarker subsample were more likely to have higher levels of education than those from the full MIDUS II sample. For more details, see Love et al. (2010)."
                    ]
                },
                {
                    "title": "Sample",
                    "paragraphs": [
                        "We included five social characteristics: gender (male = 0, female =1), race (white = 0, nonwhite = 1, with around 90% of nonwhites being black), and three dichotomous measures to capture childhood disadvantage: parental education, poverty, and family instability. We coded parental education as 1 if neither parent had a high school degree. Childhood poverty was coded as 1 if the respondent's family had ever received welfare or Aid to Families with Dependent Children in childhood. A dichotomous measure of family instability was based on the question, \"Did you live with both of your biological parents up until you were 16?\" Possible explanations for a response of \"no\" included parents being separated or divorced, parents not being legally married, the death of a parent, and adoption. We also calculated a sum of the three indicators representing childhood disadvantage.",
                        "The current study focused on severe forms of maltreatment, which were measured with 15 items from the Childhood Trauma Questionnaire (CTQ; Bernstein and Fink 1997). The CTQ, which assessed trauma in early life (younger than 18 years of age), included five items within each of several domains, and three of those domains were included in this analysis: (1) emotional abuse (called names by family, parents wished was never born, family said hurtful things, felt hated by family, was emotionally abused), (2) physical abuse (hit hard enough to see doctor, hit hard enough to leave bruises, punished with hard objects, hit hard enough to be noticed, was physically abused), and (3) sexual abuse (touched sexually, hurt if did not do something sexual, made to do sexual things, was molested, was sexually abused). The CTQ also contained a three-item scale for minimization and denial to identify respondents who were more likely to underreport negative events in childhood (e.g., \"I had the best family in the world\"). Response categories ranged from 1 (\"never true\") to 5 (\"very often true\"). Using latent class analysis (LCA), we created five categories of childhood abuse, based on distinct profiles of severity and type of abuse: (1) no abuse, (2) moderate abuse, (3) severe sexual abuse, (4) severe emotional and physical abuse, and (5) severe emotional, physical, and sexual abuse (for details, see the Analytic Strategy and Results sections and Table 1).",
                        "Using 28 biological markers, we constructed summary scores of biological dysregulations. Individual biomarkers representing each domain were selected based on prior studies (e.g., Carroll et al. 2013; Glei et al. 2012; Loevinger et al. 2007; Mason et al. 1988). For the primary stress systems, HPA-axis activity included three hormones: urinary cortisol, blood dehydroepiandrosterone (DHEA), and its sulfated form (DHEA-S). SNS activity was indexed with the hormones: urinary epinephrine and urinary norepinephrine. For imbalanced secretion of stress hormones, we used the ratios of norepinephrine/cortisol and norepinephrine/epinephrine. Parasympathetic nervous system (PNS) consisted of four parameters of heart rate variability, including low- and high-frequency spectral power, the standard deviation of R-R (heartbeat to heartbeat) intervals, and the root mean square of successive differences. For secondary physiological systems associated with stress, proinflammatory activity included five indices: CRP, fibrinogen, IL-6, the soluble intracellular adhesion molecule-1 (sICAM-1), and endothelial leukocyte adhesion molecule-1 (E-selectin). Cardiovascular function included three indicators: resting heartbeat and systolic and diastolic blood pressure. Lipid metabolism contained six indices: waist circumference, triglycerides, high-density lipoproteins (HDL) cholesterol, low-density lipoprotein (LDL) cholesterol, and total cholesterol/HDL ratio. Finally, for glucose metabolism, we used three indices: glycosylated hemoglobin (HbA1c), fasting glucose, and the homeostasis model assessment of insulin resistance (HOMA-IR).",
                        "To construct summary scores, we defined high-risk cutoffs for biomarkers using previously established clinical cutoffs and, for biomarkers without an established high-risk cutoff, a level above the 80th or below the 20th percentile. Given that both high and low cortisol and epinephrine levels are associated with extreme trauma (De Bellis et al. 1994; Heim et al. 2000; Loevinger et al. 2007), we defined the top and bottom deciles in urinary cortisol and epinephrine as high-risk ranges. For details on the high-risk cutoffs for each biomarker, see Supplementary Table S2 available in the online version of the article. The summary score for each biological domain reflects the number of biomarkers in the high-risk range (possible range from 0 to 6). As the number of biomarkers was different across the eight domains (ranging from two to six), each domain's potential contribution to a physiological dysregulation score varied. As in prior studies (Gruenewald et al. 2012), we created a weighted summary score (possible range from 0 to 8) by first computing a weighted score for each domain (summary score/the number of biomarkers; possible range from 0 to 1) and then calculating the total of the eight domain scores. We included three control variables: (1) age as a continuous variable after confirming that the linearity assumption was appropriate, (2) sampling status (the Milwaukee subsample), and (3) the site of data collection (West, Midwest, and East Coast)."
                    ]
                },
                {
                    "title": "Sample",
                    "paragraphs": [
                        "One fifth of the sample had missing data for at least one variable. The range of missing information for individual variables varied, for example, 3% for race, 2% for childhood abuse, 3% for parental education, and 0.2% to 8.2% for the various biomarkers. Using the ice command in Stata (StataCorp 2013), we performed five imputations to predict missing values. We used \"multiple imputation, then deletion\" by generating imputed values, including dependent variables, and then deleting observations with imputed dependent variables (Von Hippel 2007). After deleting those with information missing for at least one biomarker of interest (n = 152), the analytic sample included 1,103 respondents.",
                        "We used LCA to identify subgroups of respondents who had similar histories of childhood abuse. Given that most abused children experience multiple types of abuse with varying degrees of severity, latent modeling is beneficial for identifying the underlying heterogeneity of abuse experiences. LCA has been used to identify a set of heterogeneous subgroups based on the patterns of responses to questions about categorical variables (Collins and Lanza 2010). To elicit latent classes, we used 15 items from the CTQ (five items for each type of abuse). To achieve a manageable number of cells and to avoid unacceptably sparse distributions within cells in the latent analysis data matrix, we recoded the five initial response categories of the CTQ items into a dichotomized response for each item (0 = \"never\" and \"rarely true,\" and 1 = \"sometimes,\" \"often,\" and \"very often true\"). For the LCA, we added a composite score of the three items of minimization/denial as a control variable to adjust for the tendency among some respondents to exaggerate positive aspects of their childhood or to deny negative experiences (Bernstein et al. 2003). To select the best-fitting model in subsequent comparisons between k and k + 1 class solutions, we used the Akaike information criterion (AIC), the Bayesian information criterion (BIC), entropy, and interpretability (Collins and Lanza 2010). To label these profiles, we used both the pattern of item response probabilities produced by LCA and the CTQ cutoff scores recommended in prior studies (Bernstein and Fink 1997).",
                        "We reported descriptive statistics (Table 2) and constructed multinomial logistic regression models to simultaneously estimate binary comparisons among the childhood abuse groups (Table 3). We examined whether socially disadvantaged groups were more likely to experience abuse and more severe forms of abuse in childhood. In Tables 4 through 6, we constructed a series of nested models to assess the contribution of childhood abuse to the association between three social characteristics (gender, race, and childhood disadvantage) and physiological dysregulation. Given that only a small percentage of respondents were nonwhites (18% blacks and 3% other nonwhites), and after confirming the blacks were comparable to other nonwhites in terms of biological risk, we collapsed all nonwhite individuals into one group to obtain sufficient statistical power.",
                        "In the models (Tables 4 through 6), latent classes of childhood abuse were entered as a series of dummy variables, with the reference group no abuse. We used Poisson regression models (count-type outcomes) for each subsystem score and ordinary least squares regression for a weighted summary score for overall stress systems. In Model 1, we assessed the extent to which social status affects dysregulation in biological systems. We then examined the extent to which childhood abuse explains the association between social status and biological profiles (Model 2). The contribution of childhood abuse to the summary score of overall stress systems (Table 6) was evaluated by (1) attenuation in the social status coefficients between Models 1 and 2, and (2) testing the significance of the indirect effects with bootstrapping methods (Hayes 2009). Based on estimates from the final model (Model 2 in Table 6), Figure 1 depicted the average levels for the summary scores of multiple biological domains across the five latent classes of childhood abuse. Because approximately 10% of respondents were from the same family, we corrected intraclass correlation by applying robust standard error estimation. LCA analyses were carried out using Mplus 6.0 and all other analyses using Stata 13.0."
                    ]
                }
            ]
        },
        {
            "title": "Results",
            "subsections": [
                {
                    "title": "Latent Classes of Childhood Abuse and Their Characteristics",
                    "paragraphs": [
                        "The results of LCA revealed that the five-class solution best fit the data. The BIC and AIC showed significant model improvement for the five-class solution (BIC = 7,798 and AIC = 8,214) when compared to the four-class solution (BIC = 8,002 and AIC = 8,332). In the comparisons between the five- and six-class solutions, the AIC supported the six-class solution (AIC = 7,726), but there was no significant improvement in BIC when using the six-class solution (BIC = 8,227). The entropies also supported the five-class over the six-class solution (.930 vs. .911). In addition, the six-class model did not reveal an additional, substantively meaningful class, and one of the six classes contained less than 4% of the sample, raising concerns regarding adequate statistical power for conducting subsequent analyses.",
                        "Approximately 32% of the respondents experienced some forms of childhood abuse. Among abused individuals, emotional abuse (EA) and physical abuse (PA) were common. There were two profiles of severe sexual abuse (SA): one contained individuals who reported severe SA combined with other severe forms of abuse; the other included individuals who did not report other severe forms of abuse. The five classes were labeled as follows: Class 1 = no abuse (68%), Class 2 = moderate abuse (15%), Class 3 = severe SA (7%), Class 4 = severe EA and PA (5%), and Class 5 = severe EA, PA, and SA (5%). The findings for the five classes are summarized in Table 1. To confirm the robustness of these findings, we repeated LCA using the alternative sample without any missing information. The analysis generated results similar to those described above (see Supplementary Table S1 available in the online version of the article).",
                        "Descriptive statistics for all variables are shown in Table 2. The average age of respondents was 54 years old, and the majority of the sample was white (78%). A quarter of the respondents reported that neither parent graduated from high school. Around 9% of respondents reported that their family had been on welfare at some point during their childhood, and a quarter of the respondents did not live with both of their biological parents up to age 16."
                    ]
                },
                {
                    "title": "Latent Classes of Childhood Abuse and Their Characteristics",
                    "paragraphs": [
                        "Table 3 shows that disadvantaged individuals, women, and individuals who grew in disadvantaged families are at greater risk of experiencing abuse, particularly, severe abuse of multiple types. Results from multinomial logistic models indicated that the risk of experiencing severe SA and all types of severe abuse was more than three times higher among women than among men (relative risk ratio [RRR] = 4.37, p < .001). Yet, there were no significant gender differences in two other forms of abuse (moderate abuse and severe EA, PA). Disadvantaged individuals were at greater risk for experiencing severe SA (RRR = 1.66, p < .01); severe EA, PA (RRR = 1.56, p = .06); and all types of severe abuse (RRR = 3.80, p < .001).1"
                    ]
                },
                {
                    "title": "Latent Classes of Childhood Abuse and Their Characteristics",
                    "paragraphs": [
                        "Estimates from Model 1 in Table 4 show biological risk in the primary stress systems differed by social status. Women had higher risk scores for HPA-axis activity (b = .496, p < .001), SNS activity (b = .391, p < .001), and imbalanced secretion of stress hormones (b = .229, p < .05). Individuals from disadvantaged families also had high risk scores in SNS activity (b = .143, p < .05) and imbalanced stress hormones (b = .169, p < .05). After including childhood abuse (Model 2), the coefficients of gender and childhood disadvantage on the imbalanced secretion of stress hormones were substantially reduced. Individuals in the severest abuse groups had higher risk score for HPA axis (b = .374, p < .05) than those in the no-abuse group. There were large differences in the ratios of several stress hormones: those with more severe and multifaceted abuse were more prone to secrete stress hormones in an imbalanced and atypical manner. For SNS activity, there was no significant difference across the groups.",
                        "Table 5 shows substantial and significant gender differences in the secondary stress systems, which varied by biological systems: women had a higher inflammatory burden than men (b = .194, p < .01) but had lower scores for lipid metabolism (b = -.181, p < .01) and glucose metabolism (b = -.241, p < .05). These patterns are partially attributed to biological sex differences in immune and metabolic function, with women being at greater risk for inflammatory disorders and men being more prone to cardiovascular disease (Carr 2003; Oertelt-Prigione 2012). Individuals from disadvantaged families were significantly more prone to higher inflammatory burden (b = .121, p < .05) and greater cardiovascular dysfunction (b = .144, p < .05). After adjusting for childhood abuse, the gender gap weakened for proinflammatory activity but became stronger for cardiovascular function, lipid metabolism, and glucose metabolism. Similar to findings from the primary stress system, experience of severe abuse was significantly associated with higher risk scores for elevated proinflammatory activity and poor lipid metabolism. There were fewer significant associations for childhood abuse and cardiovascular function and glucose metabolism.",
                        "Table 6 portrays the results from the analysis testing whether childhood abuse significantly contributes to the association between social status and the summary risk score of overall stress systems. From Models 1 and 2, the coefficient of gender was changed substantially from .142 to .092 (35%). Similarly, there were substantial reductions in the coefficient of childhood disadvantage between two models (37%). The results of bootstrapping support statistically significant contribution of childhood abuse. Specifically, childhood abuse significantly linked the two pathways: (1) being female and risk scores of the overall stress system (95% confidence interval [CI] = [.024, .113]) and (2) childhood disadvantage and risk scores of the overall stress system (95% CI = [.033, .107]).",
                        "After controlling for social status, the relationships between childhood abuse and physiological dysregulation in overall stress systems were in the predicted direction with a dose-response association: more severe and multiple types of abuse were associated with higher risk scores (Figure 1). Specifically, those with severe abuse of all types had the highest levels of physiological dysregulation (2.12), followed by severe EA and PA (1.99), severe SA (1.82), moderate abuse (1.70), and no abuse (1.54). Post hoc pairwise comparisons of adjusted means show that compared to no abuse, the two severe abuse groups (severe EA, PA and severe EA, PA, and SA) have significantly higher levels of physiological dysregulation."
                    ]
                }
            ]
        },
        {
            "title": "Discussion",
            "subsections": [
                {
                    "title": "Limitations and Future Directions",
                    "paragraphs": [
                        "There are some limitations to the study. First, questions about childhood trauma were asked in midlife, requiring retrospective evaluations of experiences that may have occurred as many as 50 years earlier. Individuals with current mood disorders may be particularly prone to recall bias, exaggerating or misrepresenting adversities experienced during childhood (Widom and Morris 1997). Nonetheless, self-reports are the most common way to document a history of early abuse, and memories of specific childhood experiences are highly stable over time (Yancura and Aldwin 2009). In addition, recollections of traumatic events in childhood tend to be fairly accurate (reviewed in Hardt and Rutter 2004). In supplementary analyses, we confirmed strong reliability between reports of PA measured across the 10-year gap between Waves 1 and 2.",
                        "Second, unobserved and unmeasured factors in this study may potentially affect our estimates. Victims with similar experiences of abuse may respond very differently depending on other attributes, such as genetics and environmental background (Danese and McEwen 2012). For example, a family genetic liability may contribute to harsh parenting and disease vulnerability (D. Lee et al. 2013; Walter and Emery 2005). Risk of having elevated levels of physiological dysregulation may also be affected by environmental factors, such as exposure to chemicals, crowded housing, and other adverse neighborhood characteristics (Schulz et al. 2012).",
                        "Third, the majority of the African American participants in the Biomarker subsample (85%) were recruited as part of the Milwaukee supplement sample; thus our findings on racial differences cannot be generalized beyond this city-specific sample.",
                        "Fourth, nonrandom attrition for victims of childhood abuse (e.g., greater mortality risk of victims between Waves 1 and 2) may create some biased estimates. Yet, if missing data have caused any bias, it is likely to be in a conservative direction (i.e., underestimation).",
                        "Despite these limitations, our study contributes to the literature on health inequality by identifying significant links between social disadvantage, severe child abuse, and biological dysregulation in adulthood. More work is needed to further disentangle the pathways to adult risk whereby individuals who experienced severe abuse as children tend to be more vulnerable to subsequent adversities over the life course. Fortunately, not all individuals who experienced childhood abuse are at greater risk of physiological dysregulation. We observed wide variation in the magnitude of the biological toll, even among victims of severe abuse. Future research should investigate the sources of this heterogeneity in health outcomes and identify factors that foster resilience, buffering against the adverse impact of early life trauma. Finally, our study indicates that employing novel biomarker indices can improve our understanding of early life trauma and its long-term consequences. We encourage social scientists and biomedical researchers to incorporate diverse methods and knowledge from multiple disciplines to advance our understanding of the relationship between the social stress process and dynamics of stress-response physiological systems played out over the life course."
                    ]
                }
            ]
        }
    ],
    "references": [
        "American Diabetes Association. 2010. \u201cDiagnosis and Classification of Diabetes Mellitus.\u201d Diabetes Care 33(Suppl. 1):S62\u201369.",
        "Bernstein, David, Fink, Laura. 1997. Childhood Trauma Questionnaire: A Retrospective Self-report. San Antonio, TX: Psychological Corporation.",
        "Bernstein, David P., Stein, Judith A., Newcomb, Michael D., Walker, Edward, Pogge, David, Ahluvalia, Taruna, Stokes, John, Handelsman, Leonard, Medrano, Martha, Desmond, David. 2003. \u201cDevelopment and Validation of a Brief Screening Version of the Childhood Trauma Questionnaire.\u201d Child Abuse & Neglect 27(2):169\u201390.",
        "Bj\u00f6rntorp, Perm, Rosmond, Roland. 2000. \u201cThe Metabolic Syndrome: A Neuroendocrine Disorder?\u201d British Journal of Nutrition 83(Suppl. 1):S49\u201357.",
        "Cancian, Maria, Yang, Mi-Youn, Slack, Kristen S. 2013. \u201cThe Effect of Additional Child Support Income on the Risk of Child Maltreatment.\u201d Social Service Review 87(3):417\u201337.",
        "Carr, Molley C. 2003. \u201cThe Emergence of the Metabolic Syndrome with Menopause.\u201d Journal of Clinical Endocrinology & Metabolism 88(6):2404\u201311.",
        "Carroll, Judith E., Gruenewald, Tara L., Taylor, Shelley E., Janicki-Deverts, Denise, Matthews, Karen A., Seeman, Teresa E. 2013. \u201cChildhood Abuse, Parental Warmth, and Adult Multisystem Biological Risk in the Coronary Artery Risk Development in Young Adults Study.\u201d Proceedings of the National Academy of Sciences 110(42):17149\u201353.",
        "Cicchetti, Dante, Rogosch, Fred A. 2001. \u201cDiverse Patterns of Neuroendocrine Activity in Maltreated Children.\u201d Development and Psychopathology 13(3):677\u201393.",
        "Collins, Linda M., Lanza, Stephanie T. 2010. Latent Class and Latent Transition Analysis: With Applications in the Social Behavioral, and Health Sciences. Hoboken: NJ: Wiley.",
        "Danese, Andrea, McEwen, Bruce S. 2012. \u201cAdverse Childhood Experiences, Allostasis, Allostatic Load, and Age-related Disease.\u201d Physiology & Behavior 106(1):29\u201339.",
        "Danese, Andrea, Moffitt, Terrie E., Harrington, HonaLee, Milne, Barry J., Polanczyk, Guilherme, Pariante, Carmine M., Poulton, Richie, Caspi, Avshalom. 2009. \u201cAdverse Childhood Experiences and Adult Risk Factors for Age-related Disease: Depression, Inflammation, and Clustering of Metabolic Risk Markers.\u201d Archives of Pediatrics & Adolescent Medicine 163(12):1135\u201343.",
        "Danese, Andrea, Tan, M. 2013. \u201cChildhood Maltreatment and Obesity: Systematic Review and Meta-analysis.\u201d Molecular Psychiatry 19(5):1\u201311.",
        "De Bellis, Michael D., Baum, Andrew S., Birmaher, Boris, Keshavan, Matcheri S., Eccard, Clayton H., Boring, Amy M., Jenkins, Frank J., Ryan, Neal D. 1999. \u201cDevelopmental Traumatology Part I: Biological Stress Systems.\u201d Biological Psychiatry 45(10):1259\u201370.",
        "De Bellis, Michael D., Lefter, Lori, Trickett, Penelope K., Putnam, Frank W. 1994. \u201cUrinary Catecholamine Excretion in Sexually Abused Girls.\u201d Journal of the American Academy of Child and Adolescent Psychiatry 33(3):320\u201327.",
        "Delahanty, Douglas L., Nugent, Nicole R., Christopher, Norman C., Walsh, Michele. 2005. \u201cInitial Urinary Epinephrine and Cortisol Levels Predict Acute PTSD Symptoms in Child Trauma Victims.\u201d Psychoneuroendocrinology 30(2):121\u201328.",
        "Dong, Maxia, Giles, Wayne H., Felitti, Vincent J., Dube, Shanta R., Williams, Janice E., Chapman, Daniel P., Anda, Robert F. 2004. \u201cInsights into Causal Pathways for Ischemic Heart Disease: Adverse Childhood Experiences Study.\u201d Circulation 110(13):1761\u201366.",
        "Drossman, Douglas A., Leserman, Jane, Nachman, Ginette, Li, Zhiming, Gluck, Honi, Toomey, Timothy C., Mitchell, C. Madeline. 1990. \u201cSexual and Physical Abuse in Women with Functional or Organic Gastrointestinal Disorders.\u201d Annals of Internal Medicine 113(11):828\u201333.",
        "Dube, Shanta R., Fairweather, Delisa L., Pearson, Willima S., Felitti, Vincent J., Anda, Reber F., Croft, Janet B. 2009. \u201cCumulative Childhood Stress and Autoimmune Diseases in Adults.\u201d Psychosomatic Medicine 71(2):243\u201350.",
        "Egan, Brent M., Zhao, Yumin, Axon, R. Neal. 2010. \u201cUS trends in prevalence, awareness, treatment, and control of hypertension, 1988\u20132008.\u201d JAMA 303(20):2043\u201350.",
        "Felitti, Vincent J., Anda, Robert F., Nordenberg, dale, Williamson, David F., Spitz, Alison. M., Edwards, Valerie, Koss, Mary P., Marks, James S. 1998. \u201cRelationship of Childhood Abuse and Household Dysfunction to Many of the Leading Causes of Death in Adults: The Adverse Childhood Experiences (ACE) Study.\u201d American Journal of Preventive Medicine 14(4):245\u201358.",
        "Friedman, Esther M., Karlamangla, Arun S., Gruenewald, Tara, Koretz, Brandon, Seeman, Teresa E. 2015. \u201cEarly Life Adversity and Adult Biological Risk Profiles.\u201d Psychosomatic Medicine 77(2):176\u201385.",
        "Fuller-Thomson, Esme, Stefanyk, Maria, Brennenstuhl, Sarah. 2009. \u201cThe Robust Association between Childhood Physical Abuse and Osteoarthritis in Adulthood: Findings from a Representative Community Sample.\u201d Arthritis Care & Research 61(11):1554\u201362.",
        "Gilbert, Ruth, Widom, Cathy Spatz, Browne, Kevin, Fergusson, David, Webb, Elspeth, Janson, Staffan. 2009. \u201c\"Burden and Consequences of Child Maltreatment in High-income Countries.\u201d Lancet 373(9567):68\u201381.",
        "Gillham, Bill, Tanner, Gary, Cheyne, Bill, Freeman, Isobel, Rooney, Martin, Lambie, Allan. 1998. \u201cUnemployment Rates, Single Parent Density, and Indices of Child Poverty: Their Relationship to Different Categories of Child Abuse and Neglect.\u201d Child Abuse & Neglect 22(2):79\u201390.",
        "Glei, Dana A., Goldman, Noreen, Lin, Yu-Hsuan, Weinstein, Maxine. 2012. \u201cRelaxation Practice and Physiologic Regulation in a National Sample of Older Taiwanese.\u201d Journal of Alternative and Complementary Medicine 18(7):653\u201361.",
        "Glei, Dana A., Goldman, Noreen, Wu, Chih-Hsun, Weinstein, Maxine. 2013. \u201cDoes Exposure to Stressors Predict Changes in Physiological Dysregulation?\u201d Annals of Behavioral Medicine 46(1):121\u201326.",
        "Goldman, Noreen, Glei, Dana A., Seplaki, Christopher, Liu, I-Wen, Weinstein, Maxine. 2005. \u201cPerceived Stress and Physiological Dysregulation in Older Adults.\u201d Stress 8(2):95\u2013105.",
        "Gonzalez, Andrea, Jenkins, Jennifer M., Steiner, Meir, Fleming, Alison S. 2009. \u201cThe Relation between Early Life Adversity, Cortisol Awakening Response and Diurnal Salivary Cortisol Levels in Postpartum Women.\u201d Psychoneuroendocrinology 34(1):76\u201386.",
        "Gruenewald, Tara L., Karlamangla, Arun S., Hu, Perry, Stein-Merkin, Sharon, Crandall, Carolyn, Koretz, Brandon, Seeman, Teresa E. 2012. \u201cHistory of Socioeconomic Disadvantage and Allostatic Load in Later Life.\u201d Social Science & Medicine 74(1):75\u201383.",
        "Hardt, Jochen, Rutter, Michael. 2004. \u201cValidity of Adult Retrospective Reports of Adverse Childhood Experiences: Review of the Evidence.\u201d Journal of Child Psychology and Psychiatry 45(2):260\u201373.",
        "Hayes, Andrew F. 2009. \u201cBeyond Baron and Kenny: Statistical Mediation Analysis in the New Millennium.\u201d Communication Monographs 76(4):408\u201320.",
        "Heim, Christine, Ehlert, Ulrike, Hellhammer, Dirk H. 2000. \u201cThe Potential Role of Hypocortisolism in the Pathophysiology of Stress-related Bodily Disorders.\u201d Psychoneuroendocrinology 25(1):1\u201335.",
        "Holmes, William C., Slap, Gail B. 1998. \u201c\"Sexual Abuse of Boys: Definition, Prevalence, Correlates, Sequelae, and Management.\u201d Journal of the American Medical Association 280(21):1855\u201362.",
        "Hussey, Jon M., Chang, Jen. J., Kotch, Jonathan. B. 2006. \u201cChild Maltreatment in the United States: Prevalence, Risk factors, and Adolescent Health Consequences.\u201d Pediatrics 118(3):933\u201342.",
        "Kuh, Diana, Ben-Shlomo, Yoav, Lynch, John, Hallqvist, Johan, Power, Chris. 2003. \u201cLife Course Epidemiology.\u201d Journal of Epidemiology and Community Health 57(10):778\u201383.",
        "Lantz, Paula M., House, James S., Mero, Richard P., Williams, David R. 2005. \u201cStress, Life Events, and Socioeconomic Disparities in Health: Results from the Americans\u2019 Changing Lives Study.\u201d Journal of Health and Social Behavior 46(3):274\u201388.",
        "Lee, Chioun, Glei, Dana A., Weinstein, Maxine, Goldman, Noreen. 2014. \u201cDeath of a Child and Parental Well-being in Old Age: Evidence from Taiwan.\u201d Social Science & Medicine 101:166\u201373.",
        "Lee, Chioun, Rodr\u00edguez, Germ\u00e1n, Glei, Dana A., Weinstein, Maxine, Goldman, Noreen. 2014. \u201cIncreases in Blood Glucose in Older Adults: The Effects of Spousal Health.\u201d Journal of Aging and Health 26(6):952\u201368.",
        "Lee, Chioun, Tsenkova, Vera, Carr, Deborah. 2014. \u201cChildhood Trauma and Metabolic Syndrome in Men and Women.\u201d Social Science & Medicine 105:122\u201330.",
        "Lee, Dohoon, Brooks-Gunn, Jeanne, McLanahan, Sara S., Notterman, Daniel, Garfinkel, Irwin. 2013. The Great Recession, Genetic Sensitivity, and Maternal Harsh Parenting. Proceedings of the National Academy of Sciences 110(34):13780\u201384.",
        "Loevinger, Barbara L., Muller, Daniel, Alonso, Carmen, Coe, Christopher L. 2007. \u201cMetabolic Syndrome in Women with Chronic Pain.\u201d Metabolism 56(1):87\u201393.",
        "Love, Gayle D., Seeman, Teresa E., Weinstein, Maxine, Ryff, Carol D. 2010. \u201cBioindicators in the MIDUS National Study: Protocol, Measures, Sample, and Comparative Context.\u201d Journal of Aging and Health 22(8):1059\u201380.",
        "Maikovich-Fong, Andrea K., Jaffee, Sara R. 2010. \u201cSex Differences in Childhood Sexual Abuse Characteristics and Victims\u2019 Emotional and Behavioral Problems: Findings from a National Sample of Youth.\u201d Child Abuse and Neglect 34(6):429\u201337.",
        "Mason, John W., Giller, Earl L., Kosten, Thomas R., Harkness, Laurie. 1988. \u201cElevation of Urinary Norepinephrine/Cortisol Ratio in Posttraumatic Stress Disorder.\u201d Journal of Nervous and Mental Disease 176(8):498\u2013502.",
        "Matud, M. Pilar. 2004. \u201cGender Differences in Stress and Coping Styles.\u201d Personality and Individual Differences 37(7):1401\u201315.",
        "McLeod, Jane D., Kessler, Ronald C. 1990. \u201cSocioeconomic Status Differences in Vulnerability to Undesirable Life Events.\u201d Journal of Health and Social Behavior 31(2):162\u201372.",
        "Mersky, Joshua P., Berger, Lawrence M., Reynolds, Arthur J., Gromoske, Andrea N. 2009. \u201cRisk Factors for Child and Adolescent Maltreatment: A Longitudinal Investigation of a Cohort of Inner-city Youth.\u201d Child Maltreatment 14(1):73\u201388.",
        "Miller, Gregory E., Chen, Edith, Zhou, Eric S. 2007. \u201cIf It Goes Up, Must It Come Down? Chronic Stress and the Hypothalamic-pituitary-adrenocortical Axis in Humans.\u201d Psychological Bulletin 133(1):25\u201345.",
        "Norman, Rosana E., Byambaa, Munkhtsetseg, De, Rumna, Butchart, Alexander, Scott, James, Vos, Theo. 2012. \u201cThe Long-term Health Consequences of Child Physical Abuse, Emotional Abuse, and Neglect: A Systematic Review and Meta-analysis.\u201d PLoS Medicine 9(11):e1001349.",
        "Oertelt-Prigione, Sabine. 2012. \u201cThe Influence of Sex and Gender on the Immune Response.\u201d Autoimmunity Reviews 11(6\u20137):A479\u201385.",
        "Oosterman, Mirjam, De Schipper, J. Clasien, Fisher, Philip, Dozier, Mary, Schuengel, Carlo. 2010. \u201cAutonomic Reactivity in Relation to Attachment and Early Adversity among Foster Children.\u201d Development and Psychopathology 22(1):109\u201318.",
        "Pearlin, Leonard I. 1989. \u201cThe Sociological Study of Stress.\u201d Journal of Health and Social Behavior 30(3):241\u201356.",
        "Pearlin, Leonard I., Schieman, Scott, Fazio, Elena M., Meersman, Stephen C. 2005. \u201cStress, Health, and the Life Course: Some Conceptual Perspectives.\u201d Journal of Health and Social Behavior 46(2):205\u201319.",
        "Radler, Barry T., Ryff, Carol D. 2010. \u201cWho Participates? Accounting for Longitudinal Retention in the MIDUS National Study of Health and Well-being.\u201d Journal of Aging and Health 22(3):307\u201331.",
        "Rich-Edwards, Janet W., Spiegelman, Donna, Lividoti Hibert, Eileen N., Jun, Hee-Jin, Todd, Tamarra J., Kawachi, Ichiro, Wright, Rosalind J. 2010. \u201cAbuse in Childhood and Adolescence as a Predictor of Type 2 Diabetes in Adult Women.\u201d American Journal of Preventive Medicine 39(6):529\u201336.",
        "Riley, Erika H., Wright, Rosalind J., Jun, Hee-Jin, Hibert, Eileen N., Rich-Edwards, Janet W. 2010. \u201cHypertension in Adult Survivors of Child Abuse: Observations from the Nurses\u2019 Health Study II.\u201d Journal of Epidemiology and Community Health 64(5):413\u201318.",
        "Schulz, Amy J., Mentz, Graciela, Lachance, Laurie, Johnson, Jonetta, Gaines, Causandra, Israel, Barbara A. 2012. \u201cAssociations between Socioeconomic Status and Allostatic Load: Effects of Neighborhood Poverty and Tests of Mediating Pathways.\u201d American Journal of Public Health 102(9):1706\u201314.",
        "Sedlak, Andrea J., McPherson, Karla, Das, Barnali. 2010. Supplementary Analyses of Race Differences in Child Maltreatment Rates in the Fourth National Incidence Study of Child Abuse and Neglect (NIS-4). Washington, DC: U.S. Department of Health and Human Services.",
        "Sedlak, Andrea J., Mettenburg, Jane, Basena, Monica, Peta, I., McPherson, Karla, Greene, A. 2010. Fourth National Incidence Study of Child Abuse and Neglect (NIS-4). Washington, DC: U.S. Department of Health and Human Services.",
        "Slopen, Natalie, Lewis, Tene T., Gruenewald, Tara L., Mujahid, Mahasin S., Ryff, Carol D., Albert, Mujahid A., Williams, David R. 2010. \u201cEarly Life Adversity and Inflammation in African Americans and Whites in the Midlife in the United States Survey.\u201d Psychosomatic Medicine 72(7):694\u2013701.",
        "StataCorp. 2013. Stata Statistical Software: Release 13. College Station, TX: StataCorp LP.",
        "Taylor, Shelley E., Lehman, Barbara J., Kiefe, Catarina I., Seeman, Teresa E. 2006. \u201cRelationship of Early Life Stress and Psychological Functioning to Adult C-reactive Protein in the Coronary Artery Risk Development in Young Adults Study.\u201d Biological Psychiatry 60(8):819\u201324.",
        "Thoits, Peggy A. 2010. \u201cStress and Health: Major Findings and Policy Implications.\u201d Journal of Health and Social Behavior 51(Suppl. 1):S41\u201353.",
        "Thomas, Claudia, Hypponen, Elina, Power, Chris. 2008. \u201cObesity and Type 2 Diabetes Risk in Midadult Life: The Role of Childhood Adversity.\u201d Pediatrics 121(5):e1240\u201349.",
        "Thompson, Martie P., Kingree, J. B., Desai, Sujata. 2004. \u201cGender Differences in Long-term Health Consequences of Physical Abuse of Children: Data from a Nationally Representative Survey.\u201d American Journal of Public Health 94(4):599\u2013604.",
        "Trickett, Penelope K., Noll, Jennie G., Susman, Elizabeth J., Shenk, Chad E., Putnam, Frank W. 2010. \u201cAttenuation of Cortisol across Development for Victims of Sexual Abuse.\u201d Developmental Psychobiology 22(1):165\u201375.",
        "Turner, R. Jay. 2013. \u201cUnderstanding Health Disparities The Relevance of the Stress Process Model.\u201d Society and Mental Health 3(3):170\u201386.",
        "Turner, R. Jay, Wheaton, Blair, Lloyd, Donald A. 1995. \u201cThe Epidemiology of Social Stress.\u201d American Sociological Review 60(1):104\u201325.",
        "Turner, R. Jay., Avison, William R. 2003. \u201cStatus Variations in Stress Exposure: Implications for the Interpretation of Research on Race, Socioeconomic Status, and Gender.\u201d Journal of Health and Social Behavior 44(4):488\u2013505.",
        "Von Hippel, Paul T. 2007. \u201cRegression with Missing Ys: An Improved Strategy for Analyzing Multiply Imputed Data.\u201d Sociological Methodology 37(1):83\u2013117.",
        "Walker, Edward A., Keegan, David, Gardner, Gregory, Sullivan, Mark, Bernstein, David, Katon, Wayne J. 1997. \u201cPsychosocial Factors in Fibromyalgia Compared with Rheumatoid Arthritis: II. Sexual, Physical, and Emotional Abuse and Neglect.\u201d Psychosomatic Medicine 59(6):572\u201377.",
        "Walter, Fiona M., Emery, Jon. 2005. \u201c\u2018Coming down the Line\u2019\u2014Patients\u2019 Understanding of Their Family History of Common Chronic Disease.\u201d Annals of Family Medicine 3(5):405\u201314.",
        "Widom, Cathy S., Morris, Suzanne. 1997. \u201cAccuracy of Adult Recollections of Childhood Victimization: Part 2. Childhood Sexual Abuse.\u201d Psychological Assessment 9(1):34\u201346.",
        "Wismer Fries, Alison B., Shirtcliff, Elizabeth A., Pollak, Seth D. 2008. \u201cNeuroendocrine Dysregulation Following Early Social Deprivation in Children.\u201d Developmental Psychobiology 50(6):588\u201399.",
        "Yancura, Loriena A., Aldwin, Carolyn M. 2009. \u201cStability and Change in Retrospective Reports of Childhood Experiences over a 5-year Period: Findings from the Davis Longitudinal Study.\u201d Psychology and Aging 24(3):715\u201321.",
        "Yehuda, R., Resnick, H., Kahana, B., Giller, E. L. 1993. \u201cLong-lasting Hormonal Alterations to Extreme Stress in Humans: Normative or Maladaptive?\u201d Psychosomatic Medicine 55(3):287\u201397."
    ],
    "title": "Social Disadvantage, Severe Child Abuse, and Biological Profiles in Adulthood",
    "issue": "3",
    "volume": "58",
    "year": 2017,
    "issn": "0022-1465",
    "journal": "Journal of Health and Social Behavior",
    "authors": [
        "Chioun Lee",
        " Christopher L. Coe",
        " Carol D. Ryff"
    ]
}