{
    "doi": "http://dx.doi.org/10.1177/0003122417712729",
    "abstract": "Mothers are shown to receive lower wages than childless women across industrial countries. Although research on mothers\u2019 wage disadvantage has noted that the extent of this disadvantage is not universal among mothers, it has paid relatively little attention to how the structural characteristics of jobs moderate the price women pay for motherhood. Using data from 16 waves of the National Longitudinal Survey of Youth that began in 1997, we examine how the pay gap between mothers and non-mothers varies by occupational characteristics. Deriving hypotheses from three prominent explanations for the motherhood wage penalty\u2014stressing work-family conflict and job performance, compensating differentials, and employer discrimination, respectively\u2014we test whether this penalty changes with an occupation\u2019s exposure to hazardous conditions, schedule regularity, required on-the-job training, competitiveness, level of autonomy, and emphasis on teamwork. Results from fixed-effects models show that the wage reduction for each child is less in occupations with greater autonomy and lower teamwork requirements. Moreover, mothers encounter a smaller penalty when their occupations impose less competitive pressure. On the whole, these findings are consistent with the model focusing on job strain and work-family conflict, adding evidence to the importance of improving job conditions to alleviate work-family conflict.",
    "sections": [
        {
            "title": "Introduction",
            "subsections": [
                {
                    "title": null,
                    "paragraphs": [
                        "The existence of a wage penalty for mothers is one of the most established findings in the literature on gender and labor markets (Amuedo-Dorantes and Kimmel 2005; Anderson, Binder, and Krause 2002, 2003; Avellar and Smock 2003; Budig and Hodges 2010; Correll, Benard, and Paik 2007; England et al. 2016; Gough and Noonan 2013; Kahn, Garcia-Manglano, and Bianchi 2014; Korenman and Neumark 1991; Lundberg and Rose 2000; Staff and Mortimer 2012). In the United States, women's wages are found to be approximately 5 percent lower with the presence of each child, after taking into account women's length of employment experience and frequency of work interruptions (Budig and England 2001; Gangl and Ziefle 2009; Waldfogel 1997). Although the size of the motherhood wage penalty varies, a pay reduction associated with having a child is equally common in other industrialized countries (Davies and Pierre 2005; Misra, Budig, and Moller 2007; Sigle-Rushton and Waldfogel 2007; Waldfogel 1995).",
                        "Despite the finding that mothers, on average, receive lower pay than childless women, research also points to variation among mothers in the extent to which they experience a wage penalty (Gough and Noonan 2013). Mothers who postpone first childbirth, for example, encounter a smaller or no wage penalty (Amuedo-Dorantes and Kimmel 2005; Taniguchi 1999; Wilde, Batchelder, and Ellwood 2010). Prior work has also found that the wage gap between mothers and non-mothers differs by marital status (Budig and England 2001), race and ethnicity (Glauber 2007; Waldfogel 1997), education and skill levels (Amuedo-Dorantes and Kimmel 2005; Anderson et al. 2002, 2003; England et al. 2016), age and cohort (Avellar and Smock 2003; Kahn et al. 2014), and level of earnings (Budig and Hodges 2010; Killewald and Bearak 2014). Although the findings regarding how the various factors affect the motherhood penalty are not entirely consistent (Gough and Noonan 2013), the considerable amount of research on the heterogeneity of this penalty highlights the importance of considering different mothers' different labor market experiences.",
                        "An overwhelming majority of studies examining variation in the motherhood wage penalty centers on how mothers' individual characteristics are associated with the extent of their disadvantage in earnings (e.g., Amuedo-Dorantes and Kimmel 2005; Anderson et al. 2002; Budig and England 2001; Glauber 2007; Kahn et al. 2014; Taniguchi 1999). Surprisingly few studies, however, investigate how different work conditions amplify or mitigate this disadvantage. Studies that do examine work conditions only focus on penalty differences by wage level or occupational sex composition (Budig and Hodges 2010; England et al. 2016; Glauber 2012); they fail to comprehensively consider how structural characteristics of occupations, such as schedules or training requirements, may disproportionately hinder mothers.1 Even though a rising literature indicates the importance of work conditions to employed parents' well-being (Kelly et al. 2014; Kelly, Moen, and Tranby 2011; Moen et al. 2016), the question of whether such conditions have consequences on the wage disparity between mothers and non-mothers is left virtually unanswered.",
                        "Many theories of the motherhood wage penalty suggest that occupational characteristics would condition such a penalty. If, for example, the motherhood penalty has to do with employers' bias against mothers on the suspicion of the latter's lack of devotion (Correll et al. 2007), the penalty should be smaller in occupations that allow closer monitoring of workers' effort and output, as monitoring may lessen employers' bias. By contrast, if the difficulty of balancing job and family demands that mothers face accounts for the earnings gap between them and childless women (Anderson et al. 2003; Budig and England 2001), mothers in occupations with varying levels of work-family conflict should experience different wage penalties.",
                        "Because of the void in the literature on the roles of various work conditions, in this article we investigate how the wage gap between mothers and non-mothers varies by occupational characteristics. We take advantage of the wealth of occupation-specific information collected by the Occupational Information Network (O*NET) and merge this information with longitudinal data from a nationally representative sample of young women (i.e., the 1997 National Longitudinal Survey of Young Women) for the analysis. Doing so enables us to show which attributes or requirements of occupations are important to, and how they mitigate or heighten, the motherhood wage penalty. This knowledge is critical for our understanding of how occupational conditions constrain or empower women as they maneuver through employment and motherhood.",
                        "Rather than the total wage gap between mothers and non-mothers, we focus on how occupational characteristics moderate the residual wage gap--that is, the part that cannot be explained by other worker attributes that typically affect earnings, such as education, work experience, job tenure, marital status, geographic location, and industry. Because statistical analyses of the motherhood wage penalty generally face difficulty adjudicating between discrimination against mothers and mothers' productivity differences as explanations for the residual penalty (Budig and England 2001; Gough and Noonan 2013), and because the different explanations likely have different implications for how the residual penalty may vary by occupational characteristics, our focus on the net motherhood penalty also helps shed light on the relevance of different explanations.",
                        "Finally, we use up-to-date occupational information and data from a recent cohort of women, many of whom entered the workforce and motherhood during the past two decades. Compared to prior research on mothers' wage disadvantage (e.g., Anderson et al. 2002; Budig and England 2001; Budig and Hodges 2010; England et al. 2016; Gangl and Ziefle 2009), this study contributes to the literature by better reflecting the labor market experiences of young mothers today."
                    ]
                }
            ]
        },
        {
            "title": "Sources of The Motherhood Penalty and Their Relevance to Occupational Characteristics",
            "subsections": [
                {
                    "title": "Job Strain, Work-Family Conflict, and Job Performance",
                    "paragraphs": [
                        "An often-cited explanation for the motherhood wage penalty, derived from Becker's (1985) argument that individuals have finite time and energy to devote to various activities, is that mothers tend to expend less effort on paid work than do non-mothers (Anderson et al. 2003; Budig and England 2001; Gough and Noonan 2013). Because the household division of labor among heterosexual couples has been persistently unequal (Sayer 2010; Shelton and John 1996), and because having a child leads women to spend more time on both childcare and domestic chores (Bianchi et al. 2000; Sayer, Bianchi, and Robinson 2004), mothers may simply be too exhausted to put the same amount of energy into their jobs as do childless women; therefore, they receive lower financial rewards. Even if mothers do not deliberately expend less effort on paid work--an analysis of self-reported work effort indicates that having a child does not affect this effort (Kmec 2011)--the greater conflict between job and family demands they encounter may nevertheless weaken their job performance. Mothers, for example, might have less flexibility in making work-related plans, such as scheduling meetings and setting task timetables, because of commitments to their children's school or other activities. Women with children also have to deal with emergencies at home (e.g., a sick child) more frequently, making them unable to accommodate workplace demands the way childless women can. All these differences could result in mothers' lower wages.",
                        "Although measuring work effort or job performance empirically is difficult, several studies provide evidence consistent with the effort- or performance-based hypothesis. Budig and England (2001), for example, show that the motherhood penalty increases with each additional child. Because employers may not know how many children mothers have, and thus cannot discriminate against them accordingly, mothers' diminishing energy with the number of children is thought to be a likely explanation for this finding. Anderson and colleagues (2003) find the wage penalty to be similar for white and black mothers. They argue that this similarity should reflect the work-family conflict that mothers of different races equivalently experience, as employers' discrimination is likely to vary by race. The evidence that mothers' wage disadvantage attenuates at older ages, after their children grow up (Anderson et al. 2003; Kahn et al. 2014), also suggests that the especially great conflict between work and family during early childrearing years has a detrimental effect on mothers' job performance and pay.",
                        "If work-family conflict and its impact on mothers' job performance account for mothers' lower wages, then the motherhood wage penalty should be smaller in occupations that are more compatible with mothers' family obligations. A sizable amount of recent research shows that workers, particularly mothers, with greater schedule control and flexibility experience less work-family conflict and burnout (Kelly et al. 2014; Kelly et al. 2011; Moen et al. 2016; Moen et al. 2011). By reducing impediments to mothers' productivity, this work condition may further narrow the wage gap between mothers and non-mothers. Although schedule flexibility is often implemented at the organizational level, as firms vary in their adoption of family responsive policies (Glass and Estes 1997), characteristics of occupations also shape individual workers' schedule flexibility. Specifically, when a particular occupation requires one to work with a group or as part of a team, as in the cases of flight attendants and childcare workers, one naturally has to coordinate with others, leading to less time flexibility. Because being able to work as a team is an essential requirement of such occupations, mothers' greater schedule constraints directly hurt their job performance. Conversely, occupations enabling greater autonomy allow mothers to set their own work agendas, thus increasing their ability to adjust work schedules for family demands. Such occupations are also less likely to evaluate workers based on their physical presence at certain places and times, which is conducive to less difference in job performance between mothers and non-mothers.",
                        "The ways in which relatively autonomous occupations may help narrow the wage gap between mothers and non-mothers, however, are not limited to their potentially greater schedule flexibility.2 More autonomous occupations, by definition, provide workers greater decision-making latitude. Based on the job strain model proposed by Karasek and colleagues (Karasek 1979; Karasek and Theorell 1990), decision-making latitude enhances workers' sense of control at work, resulting in greater job satisfaction and decreased job strain. Because of their lower job strain, women with more control over their work are likely to feel less work-family conflict (Gronlund 2007). Holding work-family conflict constant, research also shows that this conflict is less likely to translate into psychological distress for workers with decision-making latitude (Schieman, McBrier, and Van Gundy 2003). By imposing less work-family conflict and reducing emotional distress, more autonomous occupations may enable mothers to perform more similarly to childless women, leading to a smaller motherhood penalty.",
                        "The job strain model also emphasizes the importance of job demands, considering high work demand as a major stressor that is harmful to physical health (Karasek et al. 1981; Karasek 1979; Karasek and Theorell 1990; Theorell and Karasek 1996). Given that mothers already encounter high demands at home, job strain resulting from high work demands can be especially detrimental to their health and well-being, making them less productive workers. Following this logic, the gap in job performance between mothers and non-mothers may be wider in occupations that require workers to compete or routinely subject them to competitive pressure, because the pressure to compete, which signals the need to put in extra effort to succeed, tends to result in high demands on workers. Thus, the motherhood wage penalty should be greater in more competitive occupations."
                    ]
                },
                {
                    "title": "Job Strain, Work-Family Conflict, and Job Performance",
                    "paragraphs": [
                        "The wage gap between mothers and non-mothers is also thought to be a result of differing job preferences (Becker 1991; Gough and Noonan 2013). The notion that mothers must pay for their potentially different job preferences from non-mothers is rooted in the theory of compensating differentials (Filer 1985; Smith 1979), which argues that workers are willing to sacrifice pay to fulfill their desires for certain job conditions, such as safe and comfortable work environments. Hence, all else being equal, jobs with undesirable conditions pay more. With regard to mothers, the theory further contends that mothers' family obligations lead them to choose jobs more compatible with these obligations. To offset the amenities uniquely valued by mothers, they as a group receive lower wages than do non-mothers.",
                        "Empirical support for the explanation based on compensating differentials theory is generally weak. Prior research shows no evidence that occupations chosen by mothers are more compatible with parenthood (Glass and Camarigg 1992), nor does it find that firms offering more mother-friendly policies pay less (Glass 2004). Studies of the motherhood wage penalty also reveal rather small decreases in this penalty with the inclusion of a wide range of job characteristics (Budig and England 2001; Budig and Hodges 2010), indicating that job characteristics do not differ between mothers and non-mothers in ways that could fully account for the former's lower wages.",
                        "Although previous research provides only weak evidence in support of compensating differentials theory's explanation of the overall motherhood penalty, the theory's emphasis on mothers' job preferences may still be relevant to our expectations of the penalty by occupational characteristics. Specifically, mothers' preferences for certain work conditions may lead them to accept lower wages than non-mothers for the same occupations as long as the occupations have their preferred conditions. If this is the case, mothers' wage disadvantage will be greater in occupations with characteristics they especially value. As discussed earlier, occupations with greater autonomy and lower teamwork requirements tend to allow mothers more schedule flexibility, thus better accommodating their family demands. Mothers may therefore prefer such occupations more than non-mothers do. This differential preference may lead mothers to bargain less hard for pay, thus increasing mothers' wage disadvantage in occupations with greater autonomy and less teamwork.",
                        "Likewise, mothers' greater need for schedule control may lead them to prefer occupations with more predictable schedules. That is, mothers may be less inclined to take jobs in occupations in which schedules change frequently according to production demands, weather conditions, or contracts (e.g., agricultural workers and tax preparers). If this is the case, then the wage disadvantage for mothers should also be greater in occupations with higher schedule regularity. In addition, mothers' family obligations may make them more reluctant to work in occupations that compel workers to put in extra time and energy to compete. In turn, mothers may sacrifice more pay to be in less competitive occupations. They therefore may experience a greater wage penalty in these occupations. Furthermore, occupations with hazardous work conditions, which are frequently found to be associated with higher pay in studies testing compensating differentials theory (Cousineau, Lacroix, and Girard 1992; Garen 1988; Smith 1979), should disadvantage mothers less, compared to other occupations. Although all workers prefer occupations with little or no health risk, mothers with young children may be especially unwilling to be subjected to hazardous working conditions because of their role as caretakers for their children. Mothers' stronger preference for healthy work environments may lead to their especially lower wages in occupations less likely to expose workers to hazardous conditions."
                    ]
                },
                {
                    "title": "Job Strain, Work-Family Conflict, and Job Performance",
                    "paragraphs": [
                        "Another possible reason why mothers receive lower wages than non-mothers is that employers discriminate against mothers. As a status characteristic, being a mother is thought to trigger employers' expectation of inferior job performance, given that mothers are seen as being less devoted to their jobs than non-mothers (Correll et al. 2007). This expectation may lead employers to be more suspicious of mothers' productivity and evaluate them less favorably, even when there is no observable difference in job performance between mothers and non-mothers. In addition, mothers' statistically higher likelihood of job changes and employment interruptions may also lead employers to offer them lower wages, to offset the associated training and replacement costs (Gangl and Ziefle 2009). Although discrimination based on mothers' statistically different behaviors, if unbiased, would not result in a penalty beyond the amount corresponding to their productivity, on average, much research shows that employers' perceptions of different groups' statistical tendencies are inaccurate and inflated (Bielby and Baron 1986; Pager and Karafin 2009). Because employers are likely to have an exaggerated view of mothers' turnover rates, they may overestimate the associated training and replacement costs, leading to an unwarranted pay reduction for mothers.",
                        "Measuring discrimination with survey data is difficult. Nevertheless, Correll and colleagues (2007) use a lab experiment and an audit study to show that prospective employers evaluate applicants who are mothers less favorably, want to monitor such applicants more closely at work, and intend to pay them less. Because parental status is the only attribute that distinguishes the female applicants in their study, these findings persuasively demonstrate that being a mother triggers employers' suspicion of lower job commitment and productivity, even when there is no evidence for it. Extending this argument, however, employers could have less biased assessments of mothers' job performance if they believe that the latter are being closely monitored and can make few decisions that would compromise the output. To put it differently, employers may, unwarrantedly, expect a wider productivity gap between mothers and non-mothers when workers have greater decision-making latitude and control over their work agenda, as in more autonomous occupations, because such occupations have fewer means to prevent mothers--and all other workers for that matter--from shirking.3 Consequently, we might expect the wage penalty for mothers to be greater in occupations enabling higher levels of autonomy.",
                        "By contrast, how employers' discrimination should affect the wage gap between mothers and non-mothers in occupations that require teamwork is difficult to say. On the one hand, employers may be less willing to hire mothers and offer them lower wages on the suspicion that mothers' schedule constraints will make them suboptimal team players. On the other hand, employers may think that the existence of other team members will serve as additional checks on mothers' efforts and decision-making; hence, they may be less suspicious of mothers' productivity. These two mechanisms may offset each other, making occupations with a greater emphasis on teamwork no different from others with respect to the motherhood pay penalty.",
                        "In addition, employers' bias against mothers is likely to be greater in occupations that require workers to compete, because job devotion, which mothers are perceived to be lacking, is especially essential for succeeding in highly competitive environments. Employers may therefore offer mothers even lower wages in occupations that necessitate more competition. Finally, if inflated assessments of mothers' higher job turnover rates account, in part, for their wage penalty, this bias should translate to a greater penalty in occupations for which job turnover, or even short-term leaves, are more costly, as employers need to penalize mothers further to offset the higher potential costs. In general, the more on-the-job training an occupation requires, the greater are the costs to replace an existing worker, because employers lose more by forgoing the training already invested in the worker, and because finding another person with equivalent skills is more difficult (Bielby and Baron 1986:761-62). Thus, the wage gap between mothers and non-mothers will be wider in such occupations.",
                        "In short, the three possible explanations for the motherhood wage penalty--work-family conflict, compensating differentials, and employer discrimination--all suggest that this penalty will vary with occupational characteristics. Nevertheless, the specific hypotheses derived from each explanation differ. To highlight the differences, Table 1 summarizes the hypotheses corresponding to each explanation. Whereas the explanation centering on job strain and work-family conflict leads to the hypotheses that occupational autonomy will mitigate, and higher levels of teamwork requirements and competitive pressure in occupations will amplify, the motherhood wage penalty, compensating differentials theory suggests the opposite hypotheses for the same occupational characteristics, as mothers are expected to sacrifice wages for occupations with lower competition, more autonomy, and less teamwork. Yet, based on the discrimination perspective, we can expect mothers' wage disadvantage to increase with both occupational competitiveness and autonomy, because such characteristics tend to inflate employers' bias about mothers' inferior productivity. We also hypothesize that the levels of hazardous exposure and schedule regularity will be pertinent only to compensating differentials theory, and the extent of required on-the-job training will be relevant only to the discrimination-based perspective. Given all these differences, we can illuminate the extent to which a given explanation accounts for the residual motherhood wage penalty by showing how well the moderating effects of occupational characteristics correspond to the predictions of each account."
                    ]
                }
            ]
        },
        {
            "title": "Data",
            "subsections": [
                {
                    "title": null,
                    "paragraphs": [
                        "The data used in this study are drawn from Rounds 1 through 16 of the 1997 National Longitudinal Survey of Youth (NLSY97), which has been collecting information from a national sample of individuals born from 1980 to 1984 since 1997. The NLSY97 interviewed respondents annually for Rounds 1 through 15 (1997 to 2011/12) and biannually thereafter. The last round included in our study was fielded in 2013 to 2014, when the majority of respondents were in their early to mid-30s. In contrast to previous research on the motherhood wage penalty, which generally analyzes women born in the 1950s and 1960s (Amuedo-Dorantes and Kimmel 2005; Anderson et al. 2002, 2003; Budig and England 2001; Budig and Hodges 2010; England et al. 2016; Gangl and Ziefle 2009; Lundberg and Rose 2000; Waldfogel 1997), this study is the first to use a nationally representative sample of women of a contemporary cohort, which can shed light on current labor market conditions for mothers of young children.",
                        "Updating the wage gap between mothers and non-mothers with a contemporary national sample is important, because occupational opportunities for women have improved somewhat since women born in the 1950s and 1960s became mothers (England 2010). Moreover, declines in marriage and men's economic stability have made mothers' wages increasingly essential for their families (Cherlin 2005; Danziger and Ratner 2010). Today's young mothers may therefore exhibit different labor market behaviors from mothers of 20-some years ago, which could result in different treatment by employers. The increase in women's age at first birth in recent years, to which the largest contributor is the decline in teenage births (Mathews and Hamilton 2016), further indicates less need for women to sacrifice education--and hence wages--for motherhood (Taniguchi 1999). Yet, existing research provides little clue about whether mothers of recent cohorts continue to experience a wage disadvantage.",
                        "Using a contemporary sample comes with a tradeoff, however. Because the NLSY97 respondents were generally in their early 30s at the last wave available, our analysis cannot capture the motherhood experiences of women who enter motherhood in their late 30s or 40s. Given that a later first birth is associated with a smaller motherhood wage penalty (Taniguchi 1999; Wilde et al. 2010), the age of our analytic sample may lead to an overestimate of mothers' wage disadvantage. At the same time, however, research shows that the wage cost women pay for childbearing peaks at 8 to 10 years after giving birth to their first child (England et al. 2016; Wilde et al. 2010). The relatively young age of the sample restricts our ability to measure mothers' wage disadvantage at its peak, especially for women with higher education and skill levels, who tend to be older at the time of first birth. As previous research also finds that women with higher skill levels are penalized more for motherhood (England et al. 2016), the disproportionate exclusion of such women's motherhood experiences or post-first-birth years could especially underestimate the motherhood penalty. In addition, our analysis will likely miss the experiences of women who left their jobs since becoming mothers and have not returned to the labor force, although we found only 69 women in the sample who never had a job for the entire time when they were mothers.4",
                        "Perhaps because using a relatively young sample of women could result in both under- and over-estimation of mothers' wage disadvantage, the extent of the motherhood penalty shown in Budig and England's (2001) landmark study, which includes women in virtually the same age range as ours, is highly similar to--if not slightly lower than--the one reported in Glauber's (2012), which uses the same survey (NLSY79) but adds 13 more years of data. For the same reason, our use of a contemporary sample, although it imposes a limitation, should result in a fair, if not slightly more conservative, estimate of mothers' wage penalty. Moreover, although it would be ideal to observe women through a later age, the fact that respondents in our sample were around the same age at the last observed round as those in Budig and England's (2001) makes our estimate of the motherhood pay penalty directly comparable to theirs, giving us a clear reference point when considering the potential wage disadvantage experienced by young mothers today.5",
                        "Another key benefit of using a contemporary sample of women is that we can take advantage of the detailed data of occupational characteristics in the O*NET database. The O*NET program, developed under the sponsorship of the U.S. Department of Labor for the purpose of replacing the Dictionary of Occupational Titles, compiles information on occupational attributes and requirements from surveys of job incumbents, occupational experts, and occupational analysts. Such information is useful for studying the links between occupations and various individual outcomes (Goldin 2014; Kuo and Raley 2014; McClendon, Kuo, and Raley 2014). Because the O*NET database began in the 2000s and is constantly updated to reflect current occupational features, matching the O*NET's occupational characteristic data with the occupational records of respondents from earlier birth cohorts, who have job histories dating back to the 1980s, would be problematic; the activities and requirements of many occupations may have changed with time. As described in detail in the next section, the similar time frames of the NLSY97 and the O*NET database enable us to merge the latter's information on different occupations' training requirements, levels of autonomy, schedule regularities, and other work conditions with NLSY97 respondents' occupational records to examine how mothers' wage disadvantage varies by occupational characteristics.",
                        "Because of our focus on the motherhood wage penalty, we restrict our analysis to women in the NLSY97 sample. Of the 4,385 women initially surveyed, we selected those with at least two observations of employee-type jobs across survey rounds (N = 4,199) to facilitate our estimation of fixed-effects models, which require multiple observations from each respondent. As we elaborate in a later section, because fixed-effects models allow researchers to take unobserved heterogeneity into account, using such models to study the motherhood penalty is standard (Budig and England 2001; Gangl and Ziefle 2009; Waldfogel 1997). We limit our analysis to employee-type jobs, because the self-employed likely face different constraints and working conditions even in the same occupations, not to mention that they are exempt from employer discrimination. From the person-year observations of the 4,199 respondents, we further eliminated those with no report of a current or most recent job since the previous interview, as such a condition preempts having a wage. The resultant analytic sample contains 42,917 person-year observations."
                    ]
                }
            ]
        },
        {
            "title": "Variables and Analytic Strategy",
            "subsections": [
                {
                    "title": null,
                    "paragraphs": [
                        "To examine the pay gap between mothers and non-mothers, we use log hourly wage (in cents) as the dependent variable for the statistical analysis. Taking the natural log of the hourly wage reduces the skewness of the variable and enables us to interpret the coefficients in terms of percent changes in hourly wages. To measure motherhood status, we create a time-varying variable for the number of children, based on respondents' reports at each interview. We use the number of children, rather than a binary indicator for being mothers, because prior research shows that the price women pay for motherhood increases with each additional child (Budig and England 2001; England et al. 2016; Gangl and Ziefle 2009; Staff and Mortimer 2012). In an exploratory analysis, however, we found that results were largely similar when using a dichotomous variable for being mothers. Because mothers' lower human capital is thought to account for a considerable part of the wage gap between mothers and non-mothers (Gough and Noonan 2013), we include highest educational attainment (less than high school, high school, some college, and college and more), whether respondents were enrolled in school, years of work experience since age 14, and years of current job tenure as covariates in the models. We also introduce a squared term of job tenure to reflect a possible wage plateau for women staying at the same job for too long.6 Moreover, because mothers' higher likelihood to withdraw from the labor force may depreciate their human capital, resulting in lower wages, we include the total number of employment interruptions respondents had experienced at the time of observation. We measure the number of employment breaks in the same way as Budig and England (2001), considering a break as a jobless period lasting six weeks or more since one's first stable full-time job (i.e., a job with a duration of at least six weeks).",
                        "The statistical models also contain respondents' time-varying marital status and a series of job characteristics commonly thought to be relevant to wages. For marital status, we divide respondents into three categories: (1) married, (2) cohabiting, and (3) not in a romantic union. For job characteristics, we measure whether respondents held full-time jobs (working 35 hours or more per week),7 whether the job was unionized, firm size (fewer than 30 employees, 30 to 299 employees, 300 and more employees, or unknown), whether the firm had multiple locations, and the industry to which the firm belonged. We create 18 dummy variables for industry, using the broad categories listed in the 2002 Census Industrial Classification Codes (e.g., construction, retail trade, health care; see Appendix Table A1 for details).",
                        "With respect to occupational characteristics, the primary focus of this study, we merge several occupation-based indexes with the three-digit occupation codes used in the NLSY97. To begin, we use an index of occupational education--that is, the educational level of incumbents of the occupation--developed by Hauser and Warren (1997) and updated by Frederick (2010), to represent the overall skill levels of respondents' occupations.8 Next, we include the share of women in the occupation, because mothers' possible concentration in customary female occupations could explain their lower wages (Budig and England 2001; Gangl and Ziefle 2009), given that such occupations tend to pay less (Kilbourne et al. 1994). We create the proportion female in each occupation using data on occupational distributions from the 2000 Census.",
                        "To test the various hypotheses derived from different accounts of mothers' wage disadvantage, we include indexes for the occupation's level of autonomy, importance of teamwork, competitiveness, exposure to hazard conditions, extent of schedule regularity, and need for on-the-job training. We extracted these measures from the O*NET's database (Version 20.1, released in 2015) and matched them with the NLSY97 occupational codes.9 The O*NET generally creates indexes for occupational characteristics by averaging responses--on a 1 to 5 scale in most cases--from job incumbents or occupational experts to the question about the extent to which a given occupation can be characterized a certain way. For an occupation's competitiveness, importance of teamwork, level of exposure to hazardous conditions, and extent of schedule regularity, we use the indexes directly taken from the O*NET database. The O*NET defines occupational competitiveness as the extent to which workers are required to compete or are aware of competitive pressure. The index concerning teamwork is based on the question of how important it is for the worker to work with or contribute to a team or a work group to perform the job. Similarly, we derive the index for hazardous exposure from a single question regarding the extent to which the job requires workers to be exposed to hazardous conditions. Schedule regularity is based on the question of whether the job's schedule can be described as set and having established routines; as variant with production demands, contract durations, and weather conditions; or as highly seasonal.",
                        "To measure an occupation's level of autonomy, we create a new index by averaging the scores for three occupational characteristics, all on a 1 to 5 scale, provided by the O*NET: (1) the degree to which the worker is allowed to determine tasks, priorities, and goals, rather than having the job structured for the worker; (2) the level of decision-making freedom the job offers; and (3) the frequency with which the worker is required to make decisions (Cronbach's alpha = .81). We combine these three indexes into one because at the occupational level, these three characteristics are considerably correlated and load well onto a single factor.10 From a theoretical point of view, the combined index of occupational autonomy also better reflects the fact that autonomy at work is not only about having control over task priorities and schedules but also about decision-making opportunities.",
                        "The last measure derived from the O*NET database is the amount of specialized job training needed for each occupation. To create this variable, we take the average of the O*NET informants' reports on how many months of on-the-job training--including training received as an apprentice--are required to perform the job proficiently.11 To provide a more comprehensive picture of the series of occupational characteristics used to examine variation in the motherhood penalty, Table 2 presents descriptive statistics and correlations among these characteristics in our analytic sample (descriptive statistics for all other variables are in Table A1 in the Appendix).12 As the table shows, the correlations are modest at most, indicating that each index derived from the O*NET represents a distinctive aspect of occupations.13",
                        "Along with indicators of human capital, marital status, and job characteristics, our models also control for respondents' geographic locations, including whether they lived in the (1) Northeast, (2) North Central, (3) South, or (4) West region and whether they lived in urban areas, based on U.S. Census definitions.14 Finally, given that a few variables in our models--specifically, marital status, total work experience, whether the firm has multiple locations, and whether the job is covered by collective bargaining--have no valid values for around 5 percent of the person-year observations, we use a dummy variable for missing values for each of these variables, similar to prior research (Killewald and Gough 2013). In an exploratory analysis, we used multiple imputation methods to fill in the values for all independent variables with near 5 percent or more of the observations without valid values (Allison 2002). The models estimated with imputed data yielded similar results to those presented here. The main results also did not change in a meaningful way when we excluded the control variables with relatively high proportions of missing values from the models.",
                        "With respect to the specific analytic strategies, we estimate two-way fixed-effects models that can be expressed in the following form:",
                        "",
                        "where the outcome is the log hourly wage of person i (i = 1, 2, 3, . . ., n) at time t (t = 1, 2, 3, . . ., l); g0 is the intercept; g1 is the coefficient for the number of children; Xjit is a vector of variables for occupational characteristics; Saj denote the coefficients of j occupational characteristics; Sbj indicates the extent to which the wage gap between mothers and non-mothers differs by occupational characteristics; Ykit represents a vector of other variables related to wages, such as human capital indicators, marital status, firm characteristics, and geographic location, with Ssk indicating their effects; Sml-1Ttl-1 and Sdn-1Iin-1 denote fixed effects for the l - 1 time points and n - 1 individuals in the dataset, respectively; and eit is the error term. As alluded to earlier, because women who decide to become mothers likely differ from those who do not, much previous research relies on fixed-effects models to address the issue of unobserved heterogeneity (Budig and England 2001; Gangl and Ziefle 2009; Waldfogel 1997). By estimating how changes in motherhood status correspond to the variation in wages for the same person, fixed-effects models take into account all time-invariant personal attributes that may affect wages--such as race, family background, and general personality traits--thereby reducing unobserved heterogeneity to a great extent. We also include survey-round fixed effects (i.e., Sml-1Ttl-1) to control for any unobserved conditions of the survey year that may influence women's wages, such as macroeconomic fluctuations--including the Great Recession, which coincided with most of the NLSY97 respondents' prime working years--or economic inflation. Finally, because the NLSY97 oversampled certain minority groups, we apply its initial survey weights to all the fixed-effects models and estimate robust standard errors throughout the analysis."
                    ]
                }
            ]
        },
        {
            "title": "Results",
            "subsections": [
                {
                    "title": null,
                    "paragraphs": [
                        "Because we know little about the wage penalty that mothers with young children experience in today's labor market, we begin by fitting a series of fixed-effects models estimating the wage gap between mothers and non-mothers. Table 3 presents the coefficients for the number of children with five different model specifications. We omit the results from other variables in the models to conserve space. Without any control variables, Model A shows that the gross motherhood wage penalty is near 11 percent. That is, for each child, mothers receive 11 percent lower wages than do childless women, on average. This estimate is higher than the gross motherhood penalty estimated in Budig and England's (2001) study--about 7 percent--in which the women examined were born approximately 20 years before those in our sample. Adding geographic location does not affect mothers' wage disadvantage much (Model B), whereas including marital status actually increases the coefficient for the number of children slightly (Model C). Further including a series of variables representing human capital, however, leads to a considerable reduction in this coefficient. As indicated in Model D, the differences in human capital between mothers and non-mothers account for 62 percent of their wage gap ([.110 - .042]/.110 = 62 percent). The finding that human capital accounts for a large part of the wage difference is consistent with Budig and England's (2001) result. Moreover, our result of mothers' wage disadvantage net of human capital and marital status, slightly over 4 percent per child, is highly similar to that in their study. Given that the gross wage gap between mothers and non-mothers is larger in our sample, this similarity means that human capital differences between mothers and non-mothers explain more of the wage gap for women born more recently. This trend likely reflects an increasing divergence between mothers and non-mothers in their educational investment and labor market behaviors affecting the accumulation of human capital.",
                        "Although differences in human capital are critical in explaining the wage gap between mothers and non-mothers, similar to Budig and England (2001) and other researchers (e.g., Anderson et al. 2003; Budig and Hodges 2010), we find that the coefficient for the number of children remains negative and significant even after adding an extensive set of job traits, including firm attributes, union status, occupational female representation, and the occupation's general skill level. Furthermore, these job characteristics, taken together, account for a relatively small portion of the wage decrease associated with the addition of each child. Thus, despite changes in women's educational and occupational opportunities over the past several decades, the motherhood penalty persists. For each child, mothers of young children still receive 3 percent lower pay than do non-mothers with similar marital status, human capital, and job characteristics, hardly an improvement from their mothers' generation (cf. Budig and England 2001:Table 2).",
                        "Turning to the main focus of the article, Table 4 presents partial results from a series of fixed-effects models examining how the wage gap between mothers and non-mothers varies by occupational characteristics. Although Table 2 indicates no more than modest correlations among the occupational characteristics related to our hypotheses, we nevertheless build our models gradually, adding one or two variables at a time, to ensure there are no dramatic changes in the coefficients--a sign of excessive multicollinearity--with the inclusion of additional occupational characteristics. Including all the occupational characteristics and their interactions with the number of children at once, however, would have led us to the same final model as that presented in Table 4.",
                        "Starting with the two occupational characteristics relevant only to the compensating differentials perspective, Model 1 shows that occupations with higher exposure to hazard conditions pay more and those with greater schedule regularity pay less, although the coefficient for schedule regularity is only marginally significant. Both findings are consistent with compensating differentials theory, but including these characteristics does not help reduce the wage penalty for mothers (based on a comparison with Model E in Table 3). Further suggesting that mothers' differential job preferences do not account for the motherhood penalty, Model 2 indicates that the extent of mothers' wage disadvantage does not vary with their occupations' exposure to hazardous conditions or schedule regularity. Given the nonsignificant results, in later models we remove the interaction terms with occupational exposure to hazardous conditions and schedule regularity.",
                        "To show how employers' perception of mothers' higher turnover rates may be linked to the motherhood wage penalty, Models 3 and 4 add the amount of on-the-job training required for the occupation and its interaction with the number of children, respectively. Occupations requiring more specialized, on-the-job training pay more, but employers' possible avoidance of hiring mothers into occupations with high requirements of specialized training does not account for the wage gap between mothers and non-mothers, as the coefficient for the number of children hardly differs between Models 1 and 3. Moreover, mothers' wage disadvantage does not increase in occupations that require more on-the-job training (Model 4).15 Taken together, the findings suggest that discrimination against mothers based on the concern about worker replacement costs is unlikely to be the main culprit for the motherhood wage penalty.",
                        "Model 5 adds the occupation's level of competiveness, a characteristic expected to enlarge mothers' wage disadvantage by both the job strain and employer discrimination perspectives, but to reduce this disadvantage according to compensating differentials theory. We find that when holding skill requirements and other work conditions constant, more competitive occupations pay less. Perhaps the fact that many competitive occupations are competitive precisely because there are more aspiring workers than there are well-paying positions in the occupation (e.g., instrumental musicians, television announcers, architects) explains the lower average pay for workers in these occupations. Model 6 further shows the interaction term between occupational competitiveness and the number of children to be negative (with marginal significance), and it becomes more negative and significant after we take into account other occupational characteristics that also shape the wage penalty associated with each additional child (Model 8). This finding indicates that having a child is associated with a larger wage decrease in more competitive occupations.",
                        "Model 7 adds the occupation's level of autonomy and importance of teamwork, which gauge incumbents' ability to control their schedules and make decisions. Women in more autonomous occupations receive lower wages. This result may seem surprising, as we tend to find that higher-skilled workers have greater job autonomy. Because the model controls for the occupation's general and specialized skill requirements, however, what our result means is that for the same skill level, women do sacrifice some pay for having autonomy, a desired job attribute. Similar to occupations with more autonomy, occupations emphasizing teamwork also pay lower wages. The coefficients for the interaction terms with the levels of autonomy and teamwork importance nevertheless have opposite signs. Whereas more autonomous occupations increase the hourly wages of mothers with more children, occupations with greater importance placed on teamwork decrease such wages (Model 8).",
                        "Model 8 clearly shows that occupational competiveness, autonomy, and teamwork requirements moderate the residual wage cost of each child for women, but these moderating relationships might be spurious if other factors previously found to moderate the motherhood wage penalty, such as share of women in the occupation, race and ethnicity, education, marital status, and age at first childbirth, are closely associated with these occupational characteristics. If, for example, women who are married or cohabitating tend to experience a larger motherhood penalty, and they are especially likely to be in relatively competitive occupations, marital status could be what actually accounts for the larger penalty for women in more competitive occupations. Furthermore, given that our data indicate that women who entered motherhood later tend to be in occupations with greater autonomy, one may suspect that the lower motherhood penalty for those in more autonomous occupations has to do with the fact that our relatively young sample likely captures such women before the motherhood penalty peaks.16",
                        "To rule out these possibilities, we conducted a supplementary analysis, in which we added interaction terms between the number of children and the series of potential moderators mentioned earlier (results presented in Table S3 in the online supplement). Adding the interaction with age at first birth, or interactions with other sociodemographic characteristics such as race and ethnicity, marital status, and education, did not alter the results for the three occupational attributes substantially. In fact, the vast majority of the added interaction terms were nonsignificant once the moderating effects of occupational competitiveness, autonomy, and teamwork requirements were considered. When we further included interactions between the number of children and work experience, job tenure, geographic location, and other predictors in our models, the results regarding the moderating roles of the three occupational characteristics remained similar. These robustness checks thus provide confidence that occupational competitiveness, autonomy, and teamwork requirements play prominent roles in shaping the extent of mothers' wage disadvantage.",
                        "Given that both the number of children and the occupational characteristics interacting with it in Model 8 are continuous, Figure 1 provides a more intuitive understanding of the findings. Each panel in the figure shows changes in the motherhood wage penalty with the number of children, in occupations with high and low levels of the specified characteristic, holding the other two characteristics at the median levels.17 Panel A in Figure 1 indicates that net of their occupations' level of autonomy and emphasis on teamwork, mothers in occupations with a low level of competitiveness, such as accounting clerks and general maintenance and repair workers, hardly experience a motherhood wage penalty. Conversely, mothers in highly competitive occupations, such as lawyers and securities sales agents, receive a wage penalty of over 4 percent--which is greater than the sample average (2.8 percent, as in Model E in Table 3)--for every child they have.",
                        "Likewise, mothers in occupations with relatively high and low levels of autonomy experience different degrees of wage disadvantage. Mothers in rather autonomous occupations, such as animal trainers and computer and office machine repairers, face very small (and statistically nonsignificant) wage decreases with the number of children, whereas mothers whose occupations allow relatively little autonomy, such as library technicians and cashiers, experience more drastic reductions in wages. The pattern for mothers with high and low levels of teamwork requirements is similar to that for occupational competitiveness, with mothers whose occupations place relatively little emphasis on teamwork (e.g., dispensing opticians, recreation and fitness workers) encountering no significant wage penalty, and women who frequently work with a team (e.g., registered nurses, first-line supervisors of retail sales workers) subject to a substantial wage disadvantage with the arrival of each child.",
                        "Turning back to the different accounts of the motherhood wage penalty, how do the results presented so far correspond to the hypotheses developed from each explanation? To help answer this question, Table 5 provides a summary of the results in terms of whether they are consistent with the hypotheses proposed. For the accounts based on compensating differentials and employer discrimination, nearly all the findings are inconsistent with the expectations. By contrast, the hypotheses derived from the work-family conflict and job strain model receive consistent support. According to that model, because occupations with high autonomy and a low emphasis on teamwork provide workers greater levels of schedule control and decision-making latitude, and because occupations that require less competition are less likely to impose high job demands, all of these occupational characteristics help bridge the gap in work-family conflict between mothers and non-mothers. The fact that these same characteristics correspond to lower wage penalties for mothers thus suggests that a major way via which occupational attributes moderate mothers' wage disadvantage is by affecting mothers' ability to manage work-family conflict.",
                        "Despite the overall support for the work-family conflict and job strain model, our findings should not be interpreted as suggesting that employer discrimination does not exist. After all, we would also expect a larger wage penalty for mothers in more competitive occupations if employers were biased against mothers. Even though we do not find a larger wage gap between mothers and non-mothers in more autonomous occupations, an expected outcome based on the discrimination explanation of the motherhood penalty, we cannot rule out the possibility that both employer discrimination and job strain are at work. Perhaps occupational autonomy would enhance mothers' relative wages more if employers did not discriminate against them. The overall results from our analysis, however, demonstrate that job strain and its associated work-family conflict play a decisive, and possibly larger, role in shaping mothers' residual wage disadvantage."
                    ]
                }
            ]
        },
        {
            "title": "Conclusions",
            "subsections": [
                {
                    "title": null,
                    "paragraphs": [
                        "Previous studies of the motherhood wage penalty show considerable variations in this penalty for mothers with different personal attributes, but research rarely addresses the penalty variation from the viewpoint of occupational contexts. Occupations with differing characteristics can potentially reduce or exacerbate the obstacles mothers face, thus moderating their relative wage disadvantage. The ways in which occupational attributes may empower or hinder mothers, however, depend on the specific mechanisms leading to the motherhood wage penalty.",
                        "By merging detailed occupational characteristics from the O*NET data with the NLSY97 sample, this study is able to address different implications derived from several prominent accounts of mothers' wage disadvantage. Results from our statistical analysis are most consistent with the perspective highlighting job strain and work-family conflict. Because higher autonomy, a lower emphasis on teamwork, and lower competitive pressure are all conducive to reduced job strain for workers, mothers in occupations with any of these characteristics are likely to suffer less from work-family conflict than are mothers in other occupations. Therefore, the former's job performance might be more similar to childless women's, leading to a smaller wage gap. As Figure 1 shows, mothers experience virtually no wage penalty in occupations with high autonomy, low teamwork requirements, or low competitiveness--when holding the other occupational characteristics at average levels. By contrast, in a worst-case scenario, when mothers are in occupations with relatively low autonomy, a relatively strong emphasis on teamwork, and relatively great competitive pressure, as in the case of human resources managers, cost estimators, and actors, they tend to encounter much larger pay penalties for each child.",
                        "Because our analysis uses fixed-effects models, estimates of which rely exclusively on within-person variations, the findings regarding occupational attributes and size of the motherhood wage penalty are unlikely to be a byproduct of mothers' selection into occupations with differing work conditions. Rather, our results suggest that the same mothers with the same number of children would receive wages closer to those of childless women with similar qualifications if they were to move to occupations that allow greater autonomy, require less teamwork, or impose less competitive pressure. In this sense, this research not only sheds light on how different mothers--such as those from different birth cohorts or with different educational levels--fare in the labor market; it also offers insights into how the pay inequality mothers face can be ameliorated through altering their work conditions.",
                        "In showing that occupational attributes that mitigate job strain are conducive to bridging the pay gap between mothers and non-mothers, this study contributes to a growing literature focusing on improving work conditions to alleviate work-family conflict (Kelly et al. 2014; Kelly et al. 2011; Moen et al. 2016; Moen et al. 2011). For instance, in a series of experiments conducted in single-firm settings, Kelly, Moen, and their colleagues show that white-collar employees who were granted control over when and where to perform job tasks experienced reduced work-related burnout, greater job satisfaction, lower psychological distress, and enhanced work-family fit. Using large-scale survey data, our study further indicates that promoting work conditions that help reduce work-family conflict has critical implications for earnings equality. By improving the well-being of the groups highly vulnerable to work-family conflict, including mothers, such work conditions can boost these groups' productivity, thereby reducing their wage disadvantage.",
                        "The fact that the motherhood wage penalty is smaller in occupations that enable autonomy also suggests the importance of employers giving mothers the freedom and opportunities to make decisions with regard to work. Because our measure of occupational autonomy captures decision-making latitude more than schedule flexibility, it appears that this latitude could be beneficial for mothers even if their decisions are not directly related to their work schedules.18 Perhaps the well-documented finding from prior research, that schedule control lowers perceived work-family conflict (Byron 2005; Kelly et al. 2014; Kelly et al. 2011; Moen et al. 2016), partly results from the fact that schedule control creates opportunities for workers to make decisions.",
                        "The result that mothers are penalized more in occupations with greater emphasis on teamwork further suggests that some of the obstacles mothers face are embedded in the design of occupations. Even if a workplace implements policies to lessen work-family conflict and the consequential wage disadvantage for mothers, a disparity in the size of the motherhood wage penalty between occupations with different teamwork requirements will likely remain. Thus, research devoted to improving work conditions and the difficulties encountered by employed mothers needs to take into account the potential limitations of firm-based policies and pay attention to occupations' structural characteristics.",
                        "In addition to shedding light on how the structural conditions of work empower or hinder mothers, our study also contributes to the extensive literature on the motherhood wage penalty by examining this penalty for today's mothers of young children. Our analysis of the cohort of women born in the early 1980s, who are at least one generation later than most women examined in existing research on mothers' wage disadvantage (e.g., Anderson et al. 2003; Budig and England 2001; Budig and Hodges 2010; England et al. 2016; Gangl and Ziefle 2009; Waldfogel 1997), reveals a strong persistence of this disadvantage over time. Despite continuous shifts in women's educational attainment, occupational aspirations, and family structures, the pay gap between mothers and non-mothers shown in our study is highly similar to that based on women born 20-some years ago (Budig and England 2001). Interestingly, previous research comparing the motherhood wage penalty between women born in the mid-1940s to mid-1950s and the late-1950s to mid-1960s also finds little change in this penalty (Avellar and Smock 2003). This study adds further evidence that the motherhood wage penalty is highly persistent and capable of surviving many social and economic changes over time.",
                        "Given that our results suggest the importance of job strain and work-family conflict in shaping mothers' wage disadvantage, the persistence of the motherhood pay penalty likely reflects the continuously high level of conflict between work and family for employed mothers. After all, despite mothers' more frequent labor force participation, their time spent on children has not decreased (Bianchi 2000; Sayer et al. 2004), and they remain the primary person performing emotional and physical work within the household (Erickson 2005; Sayer 2010). Regardless of the mechanisms behind the persistence of the motherhood wage penalty, results from our study suggest that the price women pay for motherhood will continue to prevent them from reaching wage levels similar to men's, thus obstructing the potential for narrowing the gender wage gap for years to come."
                    ]
                }
            ]
        }
    ],
    "references": [
        "Allison, Paul D. 2002. Missing Data. Thousand Oaks, CA: Sage Publications.",
        "Amuedo-Dorantes, Catalina, Kimmel, Jean. 2005. \u201cThe Motherhood Wage Gap for Women in the United States: The Importance of College and Fertility Delay.\u201d Review of Economics of the Household 3(1):17\u201348.",
        "Anderson, Deborah J., Binder, Melissa, Krause, Kate. 2002. \u201cThe Motherhood Wage Penalty: Which Mothers Pay It and Why?\u201d American Economic Review 92(2):354\u201358.",
        "Anderson, Deborah J., Binder, Melissa, Krause, Kate. 2003. \u201cThe Motherhood Wage Penalty Revisited: Experience, Heterogeneity, Work Effort, and Work-Schedule Flexibility.\u201d Industrial and Labor Relations Review 56(2):273\u201394.",
        "Avellar, Sarah, Smock, Pamela J. 2003. \u201cHas the Price of Motherhood Declined over Time? A Cross-Cohort Comparison of the Motherhood Wage Penalty.\u201d Journal of Marriage and Family 65(3):597\u2013607.",
        "Becker, Gary S. 1985. \u201cHuman Capital, Effort, and the Sexual Division of Labor.\u201d Journal of Labor Economics 3(1):33\u201358.",
        "Becker, Gary S. 1991. A Treatise on the Family. Cambridge, MA: Harvard University Press.",
        "Bianchi, Suzanne M. 2000. \u201cMaternal Employment and Time with Children: Dramatic Change or Surprising Continuity?\u201d Demography 37(4):401\u201314.",
        "Bianchi, Suzanne M., Milkie, Melissa A., Sayer, Liana C., Robinson, John P. 2000. \u201cIs Anyone Doing the Housework? Trends in the Gender Division of Household Labor.\u201d Social Forces 79(1):191\u2013228.",
        "Bielby, William T., Baron, James N. 1986. \u201cMen and Women at Work: Sex Segregation and Statistical Discrimination.\u201d American Journal of Sociology 91(4):759\u201399.",
        "Budig, Michelle J., England, Paula. 2001. \u201cThe Wage Penalty for Motherhood.\u201d American Sociological Review 66(2):204\u201325.",
        "Budig, Michelle J., Hodges, Melissa J. 2010. \u201cDifferences in Disadvantage: Variation in the Motherhood Penalty across White Women\u2019s Earnings Distribution.\u201d American Sociological Review 75(5):705\u201328.",
        "Byron, Kristin. 2005. \u201cA Meta-Analytic Review of Work\u2013Family Conflict and Its Antecedents.\u201d Journal of Vocational Behavior 67(2):169\u201398.",
        "Cherlin, Andrew J. 2005. \u201cAmerican Marriage in the Early Twenty-First Century.\u201d The Future of Children 15(2):33\u201355.",
        "Correll, Shelley J., Benard, Stephen, Paik, In. 2007. \u201cGetting a Job: Is There a Motherhood Penalty?\u201d American Journal of Sociology 112(5):1297\u20131338.",
        "Cousineau, Jean-Michel, Lacroix, Robert, Girard, Anne-Marie. 1992. \u201cOccupational Hazard and Wage Compensating Differentials.\u201d Review of Economics and Statistics 74(1):166\u201369.",
        "Danziger, Sheldon, Ratner, David. 2010. \u201cLabor Market Outcomes and the Transition to Adulthood.\u201d Future Child 20(1):133\u201358.",
        "Davies, Rhys, Pierre, Ga\u00eblle. 2005. \u201cThe Family Gap in Pay in Europe: A Cross-Country Study.\u201d Labour Economics 12(4):469\u201386.",
        "England, Paula. 2010. \u201cThe Gender Revolution: Uneven and Stalled.\u201d Gender & Society 24(2):149\u201366.",
        "England, Paula, Bearak, Jonathan, Budig, Michelle J., Hodges, Melissa J. 2016. \u201cDo Highly Paid, Highly Skilled Women Experience the Largest Motherhood Penalty?\u201d American Sociological Review 81(6):1161\u201389.",
        "Erickson, Rebecca J. 2005. \u201cWhy Emotion Work Matters: Sex, Gender, and the Division of Household Labor.\u201d Journal of Marriage and Family 67(2):337\u201351.",
        "Filer, Randall K. 1985. \u201cMale-Female Wage Differences: The Importance of Compensating Differentials.\u201d Industrial & Labor Relations Review 38(3):426\u201337.",
        "Frederick, Carl. 2010. \u201cA Crosswalk for using Pre-2000 Occupational Status and Prestige Codes with Post-2000 Occupational Codes.\u201d CDE Working Paper No. 2010\u20133. Center for Demograpy and Ecology, University of Wisconsin-Madison, Madison, WI.",
        "Gangl, Markus, Ziefle, Andrea. 2009. \u201cMotherhood, Labor Force Behavior, and Women\u2019s Careers: An Empirical Assessment of the Wage Penalty for Motherhood in Britain, Germany, and the United States.\u201d Demography 46(2):341\u201369.",
        "Garen, John. 1988. \u201cCompensating Wage Differentials and the Endogeneity of Job Riskiness.\u201d Review of Economics and Statistics 70(1):9\u201316.",
        "Glass, Jennifer L. 2004. \u201cBlessing or Curse? Work-Family Policies and Mother\u2019s Wage Growth over Time.\u201d Work and Occupations 31(3):367\u201394.",
        "Glass, Jennifer L., Camarigg, Valarie. 1992. \u201cGender, Parenthood, and Job-Family Compatibility.\u201d American Journal of Sociology 98(1):131\u201351.",
        "Glass, Jennifer L., Estes, Sarah Beth. 1997. \u201cThe Family Responsive Workplace.\u201d Annual Review of Sociology 23:289\u2013313.",
        "Glauber, Rebecca. 2007. \u201cMarriage and the Motherhood Wage Penalty among African Americans, Hispanics, and Whites.\u201d Journal of Marriage and Family 69(4):951\u201361.",
        "Glauber, Rebecca. 2012. \u201cWomen\u2019s Work and Working Conditions: Are Mothers Compensated for Lost Wages?\u201d Work and Occupations 39(2):115\u201338.",
        "Goldin, Claudia. 2014. \u201cA Grand Gender Convergence: Its Last Chapter.\u201d American Economic Review 104(4):1091\u20131119.",
        "Gough, Margaret, Noonan, Mary. 2013. \u201cA Review of the Motherhood Wage Penalty in the United States.\u201d Sociology Compass 7(4):328\u201342.",
        "Gr\u00f6nlund, Anne. 2007. \u201cMore Control, Less Conflict? Job Demand\u2013Control, Gender and Work\u2013Family Conflict.\u201d Gender, Work & Organization 14(5):476\u201397.",
        "Hauser, Robert M., Warren, John Robert. 1997. \u201cSocioeconomic Indexes for Occupations: A Review, Update, and Critique.\u201d Sociological Methodology 27(1):177\u2013298.",
        "Kahn, Joan R., Garc\u00eda-Manglano, Javier, Bianchi, Suzanne M. 2014. \u201cThe Motherhood Penalty at Midlife: Long-Term Effects of Children on Women\u2019s Careers.\u201d Journal of Marriage and Family 76(1):56\u201372.",
        "Karasek, Robert A. 1979. \u201cJob Demands, Job Decision Latitude, and Mental Strain: Implications for Job Redesign.\u201d Administrative Science Quarterly 24(2):285\u2013308.",
        "Karasek, Robert A., Baker, Dean, Marxer, Frank, Ahlbom, Anders, Theorell, T\u00f6res. 1981. \u201cJob Decision Latitude, Job Demands, and Cardiovascular Disease: A Prospective Study of Swedish Men.\u201d American Journal of Public Health 71(7):694\u2013705.",
        "Karasek, Robert A., Theorell, T\u00f6res. 1990. Healthy Work: Stress, Productivity, and the Reconstruction of Working Life. New York: Basic Books.",
        "Kelly, Erin L., Moen, Phyllis, Oakes, J. Michael, Fan, Wen, Okechukwu, Cassandra, Davis, Kelly D., Hammer, Leslie B., Kossek, Ellen Ernst, King, Rosalind Berkowitz, Hanson, Ginger C., Mierzwa, Frank, Casper, Lynne M. 2014. \u201cChanging Work and Work-Family Conflict: Evidence from the Work, Family, and Health Network.\u201d American Sociological Review 79(3):485\u2013516.",
        "Kelly, Erin L., Moen, Phyllis, Tranby, Eric. 2011. \u201cChanging Workplaces to Reduce Work-Family Conflict: Schedule Control in a White-Collar Organization.\u201d American Sociological Review 76(2):265\u201390.",
        "Kilbourne, Barbara Stanek, England, Paula, Farkas, George, Beron, Kurt, Weir, Dorothea. 1994. \u201cReturns to Skill, Compensating Differentials, and Gender Bias: Effects of Occupational Characteristics on the Wages of White Women and Men.\u201d American Journal of Sociology 100(3):689\u2013719.",
        "Killewald, Alexandra, Bearak, Jonathan. 2014. \u201cIs the Motherhood Penalty Larger for Low-Wage Women? A Comment on Quantile Regression.\u201d American Sociological Review 79(2):350\u201357.",
        "Killewald, Alexandra, Gough, Margaret. 2013. \u201cDoes Specialization Explain Marriage Penalties and Premiums?\u201d American Sociological Review 78(3):477\u2013502.",
        "Kmec, Julie A. 2011. \u201cAre Motherhood Penalties and Fatherhood Bonuses Warranted? Comparing Pro-work Behaviors and Conditions of Mothers, Fathers, and Non-parents.\u201d Social Science Research 40(2):444\u201359.",
        "Korenman, Sanders, Neumark, David. 1991. \u201cMarriage, Motherhood, and Wages.\u201d Journal of Human Resources 27(2):233\u201355.",
        "Kuo, Janet Chen-Lan, Raley, R. Kelly. 2016. \u201cIs It All About Money? Work Characteristics and Women\u2019s and Men\u2019s Marriage Formation in Early Adulthood.\u201d Journal of Family Issues 37(8):1046\u201373.",
        "Lundberg, Shelly, Rose, Elaina. 2000. \u201cParenthood and the Earnings of Married Men and Women.\u201d Labour Economics 7(6):689\u2013710.",
        "Mathews, T. J., Hamilton, Brady E. 2016. \u201cMean Age of Mothers Is on the Rise: United States, 2000\u20132014.\u201d NCHS data brief, no 232. National Center for Health Statistics, Hyattsville, MD.",
        "McClendon, David, Kuo, Janet Chen-Lan, Raley, R. Kelly. 2014. \u201cOpportunities to Meet: Occupational Education and Marriage Formation in Young Adulthood.\u201d Demography 51(4):1319\u201344.",
        "Misra, Joya, Budig, Michelle J., Moller, Stephanie. 2007. \u201cReconciliation Policies and the Effects of Motherhood on Employment, Earnings and Poverty.\u201d Journal of Comparative Policy Analysis: Research and Practice 9(2):135\u201355.",
        "Moen, Phyllis, Kelly, Erin L., Fan, Wen, Lee, Shi-Rong, Almeida, David, Kossek, Ellen Ernst, Buxton, Orfeu M. 2016. \u201cDoes a Flexibility/Support Organizational Initiative Improve High-Tech Employees\u2019 Well-Being? Evidence from the Work, Family, and Health Network.\u201d American Sociological Review 81(1):134\u201364.",
        "Moen, Phyllis, Kelly, Erin L., Tranby, Eric, Huang, Qinlei. 2011. \u201cChanging Work, Changing Health: Can Real Work-Time Flexibility Promote Health Behaviors and Well-Being?\u201d Journal of Health and Social Behavior 52(4):404\u201329.",
        "Pager, Devah, Karafin, Diana. 2009. \u201cBayesian Bigot? Statistical Discrimination, Stereotypes, and Employer Decision Making.\u201d Annals of the American Academy of Political and Social Science 621(1):70\u201393.",
        "Pew Research Center. 2015. \u201cChildlessness Falls, Family Size Grows among Highly Educated Women\u201d. Washington, DC: Pew Research Center.",
        "Sayer, Liana C. 2010. \u201cTrends in Household.\u201d Pp. 19\u201338 in Dividing the Domestic: Men, Women, and Household Work in Cross-National Perspective, edited by Treas, J., Drobini\u010d, S. Stanford, CA: Stanford University Press.",
        "Sayer, Liana C., Bianchi, Suzanne M., Robinson, John P. 2004. \u201cAre Parents Investing Less in Children? Trends in Mothers\u2019 and Fathers\u2019 Time with Children.\u201d American Journal of Sociology 110(1):1\u201343.",
        "Schieman, Scott, McBrier, Debra Branch, Van Gundy, Karen. 2003. \u201cHome-to-Work Conflict, Work Qualities, and Emotional Distress.\u201d Sociological Forum 18(1):137\u201364.",
        "Shelton, Beth Anne, John, Daphne. 1996. \u201cThe Division of Household Labor.\u201d Annual Review of Sociology 22:299\u2013322.",
        "Sigle-Rushton, Wendy, Waldfogel, Jane. 2007. \u201cMotherhood and Women\u2019s Earnings in Anglo-American, Continental European, and Nordic Countries.\u201d Feminist Economics 13(2):55\u201391.",
        "Smith, Robert S. 1979. \u201cCompensating Wage Differentials and Public Policy: A Review.\u201d Industrial and Labor Relations Review 32(3):339\u201352.",
        "Staff, Jeremy, Mortimer, Jeylan T. 2012. \u201cExplaining the Motherhood Wage Penalty during the Early Occupational Career.\u201d Demography 49(1):1\u201321.",
        "Taniguchi, Hiromi. 1999. \u201cThe Timing of Childbearing and Women\u2019s Wages.\u201d Journal of Marriage and the Family 61(4):1008\u201319.",
        "Theorell, T\u00f6res, Karasek, Robert A. 1996. \u201cCurrent Issues Relating to Psychosocial Job Strain and Cardiovascular Disease Research.\u201d Journal of Occupational Health Psychology 1(1):9\u201326.",
        "Waldfogel, Jane. 1995. \u201cThe Price of Motherhood: Family Status and Women\u2019s Pay in a Young British Cohort.\u201d Oxford Economic Papers 47(4):584\u2013610.",
        "Waldfogel, Jane. 1997. \u201cThe Effect of Children on Women\u2019s Wages.\u201d American Sociological Review 62(2):209\u2013217.",
        "Wilde, Elizabeth Ty, Batchelder, Lily, Ellwood, David T. 2010. \u201cThe Mommy Track Divides: The Impact of Childbearing on Wages of Women of Differing Skill Levels.\u201d NBER Working Paper 16582."
    ],
    "title": "The Motherhood Wage Penalty by Work Conditions: How Do Occupational Characteristics Hinder or Empower Mothers?",
    "issue": "4",
    "volume": "82",
    "year": 2017,
    "issn": "0003-1224",
    "journal": "American Sociological Review",
    "authors": [
        "Wei-hsin Yu",
        " Janet Chen-Lan Kuo"
    ]
}