{
    "doi": "http://dx.doi.org/10.1177/0022146517704841",
    "abstract": "",
    "sections": [
        {
            "title": "Introduction",
            "subsections": [
                {
                    "title": null,
                    "paragraphs": []
                }
            ]
        }
    ],
    "references": [],
    "title": "Culture, Styles of Institutional Interactions, and Inequalities in Healthcare Experiences",
    "issue": "2",
    "volume": "58",
    "year": 2017,
    "issn": "0022-1465",
    "journal": "Journal of Health and Social Behavior",
    "authors": [
        "Elizabeth A. Gage-Bouchard"
    ]
}