{
    "doi": "http://dx.doi.org/10.1177/00221465211046356",
    "abstract": "Using the life course perspective, we assess the \u201cresources\u201d and \u201crisks\u201d to mental health associated with transitions in religious attendance between early life and midlife and how this process may be influenced by education. Drawing on over 35 years of prospective panel data from the National Longitudinal Study of Youth, baseline models suggest that stable, frequent attendance accumulated between adolescence to midlife and increases to frequent attendance by adulthood are associated with the lowest depression relative to consistent nonattenders. Individuals who declined in their religious participation report higher depression. Education conditioned this association, whereby declines in religious participation negatively impacted the health of those without a college degree more strongly and increases benefitted the well-educated to a greater extent. We combine insights from the life course perspective and work on social stratification and religiosity to interpret our results and offer directives for future research.",
    "sections": [
        {
            "title": "Introduction",
            "subsections": [
                {
                    "title": null,
                    "paragraphs": [
                        "A long and ever-growing research tradition has identified mental health benefits of public or organizational forms of religious involvement. Indeed, people who regularly attend religious services display lower rates of depression (Idler, McLaughlin, and Kasl 2009), lower rates of anxiety (Bartkowski, Acevedo, and Van Loggerenberg 2017), and higher life satisfaction (Krause 2003) compared to those who do not attend services or who attend on a more sporadic basis. Moreover, religious attendance has been identified as the strongest predictor of well-being compared to more private dimensions of religiosity, such as prayer or belief salience (Fenelon and Danielsen 2016; Vanderweele 2017).",
                        "With few exceptions, studies of religious attendance and mental health have been mostly confined to distinct periods of the life course and have largely ignored how religious attendance from different stages of the life course may matter for mental well-being in the long term. Longitudinal analyses of within-individual trajectories in religious attendance and mental health are rare, and existing studies have been limited to short periods of time in childhood (Bartkowski, Xu, and Levin 2008), adolescence (Petts 2014), adulthood (Childs 2010), or later life (Law and Sbarra 2009; Orr et al. 2019; Ronneberg et al. 2016). Although informative, these studies likely paint an incomplete portrait of the potential effects of religious attendance on mental health because religious faith is a fluid process (Pargament and Cummings 2010). Current religious attendance, usually measured in adulthood, is a function of a complex process of events that may take an entire lifetime to unfold (Bengtson 2013; Silverstein and Bengtson 2018; Upenieks, Schafer, and Mogosanu 2021). As individuals traverse the life course, many may experience a decline in religious practice as they transition into adulthood (Uecker, Regnerus, and Vaaler 2007), whereas some raised without religion may begin attending services after leaving the parental home (Schleifer and Chaves 2017). Such transitions likely shape what can be gained (or lost) through religious involvement and hold implications for health. To date, we have limited knowledge about how continued, intermittent, or complete nonexposure to religious participation is connected to mental health.",
                        "Shifts in religious participation may affect people of some social statuses more than others, so this study also considers how education could influence the effect of religious change on mental health. Although existing research is mixed on whether higher education is a catalyst for religious decline (Mayrl and Oeur 2009), research has yet to examine whether the effects of religious attendance on mental health vary by level of education. Scholars have long recognized that individuals with fewer socioeconomic resources may be more likely to draw on religious resources to meet the challenges posed by daily life (Schieman 2010). However, recent evidence suggests that the well-educated may also rely on religion in their daily lives (Upenieks and Schieman 2021). We therefore assess the complex interplay between education and changes in religious attendance over time.",
                        "The goal of this study is to apply the life course perspective to the case of religious attendance as an early life exposure. We build on previous work by examining the effects of cumulative exposure to religious attendance over a broad span of the life course (adolescence to adulthood) for mental health. Using a life course lens, we assess the \"resources\" and \"risks\" (Ferraro and Schafer 2017) associated with whether individuals gain, lose, or remain steady in their religious attendance over time, and we examine how education in adulthood may moderate these resources and risks. To achieve our study objectives, we use over 35 years of prospective panel data from the National Longitudinal Survey of Youth (NLSY79) to document how transitions in religious attendance from adolescence to adulthood influence mental health profiles of adults past age 50 and the important role of education in shaping how this process unfolds over time."
                    ]
                }
            ]
        },
        {
            "title": "Background",
            "subsections": [
                {
                    "title": "Religious Transitions as Mental Health Resources and Risks over the Life Course",
                    "paragraphs": [
                        "We draw on theoretical insights from the life course perspective and cumulative inequality theory to inform our hypotheses. This perspective emphasizes the importance of early life exposures for later life outcomes but also affords attention to the modifiability of life experiences through transitions (Pudrovska and Anikputa 2014). Research on the \"long arm of childhood\" has focused on the long-term effects to well-being resulting from early life family structure and maltreatment (e.g., Ferraro, Schafer, and Wilkinson 2016). Life course scholars have also given prominent attention to the impact of early socioeconomic status (SES) across the life course (Willson, Shuey, and Elder 2007), noting that SES and its related advantages and disadvantages may vary across time (Ferraro et al. 2016; M. D. Hayward and Gorman 2004). Similarly, religious practices are not fixed in time but, rather, may vary across the life course (Ferraro, Shippee, and Schafer 2009), with implications for its potential impact on mental health.",
                        "One axiom of cumulative inequality theory within the life course framework is that individuals have many trajectories, including \"financial, functional, spiritual, and cognitive\" (Ferraro et al. 2009:423, italics added). The cumulative inequality perspective recognizes that childhood risks and resources sort individuals into divergent trajectories (Ferraro and Shippee 2009). A great deal of research has noted the importance of SES as a resource for health (Clarke et al. 2011; Miech and Shanahan 2000), but religiosity is often situated as a resource within the life course tradition.",
                        "Indeed, religious practices can accumulate as \"religious human capital\" (Iannaccone 1990) across religious transitions (Upenieks et al. 2021). Parental religious socialization practices play an important role in shaping the subsequent religious beliefs and practices of their children. Children raised in religious households are more likely to follow these highly religious trajectories into adulthood (Upenieks et al. 2021). Parents influence future religious orientations of their children by modeling religious practices (e.g., weekly attendance) and by stressing religious values in the home (Min, Silverstein, and Gruenewald 2018). For example, more than two-thirds of people who grow up attending church at least weekly go on to be regular attenders as adults (Bengtson 2013). This continued exposure of religiosity may prove beneficial for mental well-being.",
                        "Although research centered on religion and mental health has almost exclusively relied on static measures of religious involvement in later life (Hosseini, Chaurasia, and Oremus 2019), religious exposures reflect a variety of social experiences that manifest over time. If religious attendance is a constant influence in the lives of individuals, it brings together regular repetitions of ritual observance and significant social identities that may strengthen individual faith and cultivate a sense of meaning, hope, and purpose that are beneficial for mental health (Hill 2008). Those who consistently attend may have comparatively higher levels of social capital resulting from the interpersonal relationships formed and sustained by active participation in a religious congregation (Ellison and George 1994). Moreover, people who consistently attend religious services possess a greater tendency to share and cultivate a mutual support system. This support can include companionship, advice, friendship, practical help with tasks of everyday living, and financial help (Koenig, King, and Carson 2012). Expectations of social support are established by regular engagement in a community of like-minded believers (Ellison and Henderson 2011). Some studies have found that social support explains a significant proportion of the effect of religious attendance on mental well-being (Orr et al. 2019). Taken together, more satisfying interpersonal relationships that are ripe with social support could explain why repeated exposure to religious services over the life course is efficacious for mental health.",
                        "Beyond the social resources that regular religious attendance can afford, there are additional psychological correlates of attendance that might enhance mental health. For instance, religious involvement could promote favorable mental health by promoting vital psychological resources, including self-esteem (Schieman et al. 2017) and personal control or mastery (Pascoe et al. 2016). Frequent religious attendance is also known to promote life meaning and purpose (Krause and Hayward 2012). Regarding the latter, finding an overarching theme or unifying life story line may give rise to a deeper sense of purpose and meaning and promote mental health (Krause and Ellison 2007). Considered as a whole, when individuals inevitably encounter adversity, confidence derived from self-esteem, mastery, and a sense of purpose in life can be instrumental in solving problems and offsetting any noxious mental health consequences.",
                        "Put in the tenets of the life course perspective, the combination of frequent attendance from childhood and adulthood may exert additive influences on mental health in later life. Lending credence to these assertions, two longitudinal studies focused on older adults have found that regular, consistent religious attendance is beneficial for mental health relative to those who never attended or reported inconsistent attendance (Law and Sbarra 2009; Ronneberg et al. 2016). Although existing research has not considered longer time spans of lives, this body of work informs our first hypothesis:",
                        "Hypothesis 1: Stable or increasing regular attendance from adolescence to adulthood will be associated with lower depression in later life.",
                        "Religious disaffiliation or apostasy due to negative experience within religious settings is known to detract from well-being (Fenelon and Danielsen 2016; Scheitle and Adamczyk 2010). This body of research, although smaller in size to those claiming benefits of religiosity, suggests that a decline in faith may be associated with worse mental health (Vargas 2012). Although reasons for this relationship have not been frequently examined in previous work, the inability to satisfy basic human needs through religious involvement and the loss of social support are likely at the forefront of such explanations (Fenelon and Danielsen 2016; Scheitle and Adamczyk 2010). People who lose their faith may struggle to part with an important component of their identity (Ysseldyk, Haslam, and Haslam 2013) and are faced with the challenging prospect of pursuing alternative ways of meeting these needs. In particular, aside from identity processes, cultivating new social networks outside of religious communities can also be a daunting prospect after disaffiliation. These obstacles could pose a significant mental health threat to ex-attenders (Krause and Pargament 2017).",
                        "Such consequences that may accompany declines in religious participation are important to understanding religiosity as a risk within the life course tradition. Despite reasonably strong rates of intergenerational religious transmission, religious pathways are malleable over time (Hardie, Pearce, and Denton 2016). Decreases in religious attendance are especially pronounced as people transition from adolescence into adulthood (Uecker et al. 2007). The prevalence of religious attendance has been found to differ across the early period of the life course: In early adolescence, just under half of American youth attend religious services weekly, a figure that declines to 20% in emerging adulthood (Pearce and Denton 2011). In earlier stages of the life course, parents often make religious choices on behalf of their children. Once they have left the parental home, however, individuals begin to form their own religious identities and may choose to opt out of the religious traditions in which they were raised (Pearce and Haynie 2004). Considered as a whole, this body of work suggests:",
                        "Hypothesis 2: Decreasing religious attendance from adolescence to adulthood will be associated with higher depression in later life relative to stable frequent attenders."
                    ]
                },
                {
                    "title": "Religious Transitions as Mental Health Resources and Risks over the Life Course",
                    "paragraphs": [
                        "It is possible that the relationship between religious transitions and mental health are further contingent on a person's education level. Going to college is an important life course transition with cascading effects on a variety of resources that are typically associated with better health (Ross and Mirowsky 2011; Ross and Wu 1995). Moreover, obtaining a college education may be a crucial turning point prompting religious transitions and any impact these shifts have on future mental health.",
                        "Extensive work within the sociology of mental health literature has identified education as one of the most important sources for meeting the challenges of daily life (Mirowsky and Ross 2003). Moreover, the human capital developed through education helps people generate other resources. Because education develops competence on many levels, it gives people the ability and motivation to shape and control their lives (Schieman 2008). Education may lead to full-time employment, autonomous and creative jobs, and the ability to avoid economic hardship, which may help explain why it is such a reliable predictor of mental health (Mirowsky and Ross 2003).",
                        "Although education and religious attendance may both have a positive effect on mental health, these social resources may not operate in tandem (Ross and Wu 1995). According to the deprivation compensation perspective, people with less education tend to rely more heavily on religion in their day-to-day lives (Schieman 2011). In the process of resource substitution (Mirowsky and Ross 2003), the less educated may use religion to \"substitute\" or \"compensate\" for their lack of secular resources (e.g., social capital, income, education). When resources can substitute for one another, the absence of one makes the presence of another all the more meaningful.",
                        "Empirical evidence supports these propositions. Schieman (2008) found that religiosity is more strongly associated with lower depression among those with less education because of processes of resource substitution (see also Moulton and Sherkat 2012). Religious communities offer relatively accessible resources and may help individuals find solutions to their problems (Pargament, Koenig, and Perez 2000). Within the stress process model, for instance, religious social support may act as a buffer against the stresses and strains of daily life, of which the less educated bear a greater daily burden (Pearlin and Bierman 2013). Altogether, stably high religiosity or increases in religious attendance may benefit the less educated more than the well-educated.",
                        "On the other hand, there may be larger costs to decreased attendance over the life course for the less educated. Some research has shown that religious struggles--of which a decrease in religious attendance might be the outward expression--may harm mental health (Hill et al. 2017). Religious doubt is known to have a stronger association with various aspects of well-being (e.g., self-esteem, life satisfaction) among the less educated (Krause, Pargament, and Ironson 2017). A precipitous drop in religious attendance could pose a significant mental health threat for the less educated. The less educated, especially those who at one point regularly attended religious services, are considerably more likely to hold religiosity as a key part of identity (Schieman 2010). According to Galek et al. (2015), transitions like dropping out of religion can foster depression because religion may be more salient to the identity of individuals of lower SES. As such, a downward shift in religious participation could result in higher depression for the less educated more so than the college educated.",
                        "Hypothesis 3: Among the less educated, stably high or increasing regular religious attendance from adolescence to adulthood will be more strongly associated with subsequent lower depression, whereas decreasing religious attendance will be more strongly associated with higher depression.",
                        "Transitions in religious attendance present a more complicated case for the well-educated. Some research suggests that education has a secularizing effect on religious beliefs because certain religious beliefs are thought to be at odds with scientific worldviews and exposure to diverse social networks (Sherkat 2011). However, recent longitudinal work examining changes in religiosity among the college and noncollege educated has shown that higher education promotes declines in some aspects of religiosity, such as religious beliefs, but not others, such as religious attendance and salience (Schwadel 2016). College may also be a time of religious growth for some individuals. According to Lee (2002), more than one-third of college graduates experience an increase in faith during college. Given the voluntary nature of American religion and the large variety of religious institutions in the United States, educational attainment may diminish devotional activities (Schwadel 2011; Uecker et al. 2007).",
                        "College education does, however, appear to weaken the longitudinal effects of the intergenerational transmission of religion, especially for those with religiously active parents early in life (Schwadel 2016). For individuals raised in highly religious families, parental religiosity can constrain religious choices early in the life course, and the loosening of such constraints can lead to religious decline (Hoge, Johnson, and Luidens 1995).",
                        "What might these transitions in religious attendance mean for the health of the well-educated? First, we predict that declines in religious attendance over time will not impact the mental health of those with a college education. Education provides people with access to a range of secular resources that may diminish the need to rely on religious resources (Mirowsky and Ross 2003), such as mastery (Schieman and Plickert 2008) and social capital (Phelan, Link, and Tehranifar 2010). Education is also known to help people address their problems and come to decisions on their own terms (Ross and Mirowsky 2011; Ross and Wu 1995), which could diminish the importance of religious communities for dealing with problems.",
                        "On the other hand, the well-educated could also benefit from increases or stability in religious attendance. Some educated individuals do involve religion in their everyday decision-making processes, especially when they are frequently attending religious services (Schieman 2011). The well-educated may exercise a conscious choice to maintain or increase religious attendance from early life to adulthood amid a host of other resources. It is possible that the highly educated who stably maintain or increase religious attendance represent the clearest example of those who fully internalize their religious identity. They presumably have access to other resources and yet choose to be involved in religious communities, which could be associated with lower depression. This leads us to our fourth and final study hypothesis:",
                        "Hypothesis 4: Among the well-educated, stably high or increasing regular religious attendance from adolescence to adulthood will be associated with lower depression, whereas decreasing religious attendance will not be associated with higher depression."
                    ]
                }
            ]
        },
        {
            "title": "Data and Methods",
            "subsections": [
                {
                    "title": "Dependent Variable: Depressive Symptoms",
                    "paragraphs": [
                        "We measured depressive symptoms during the 2014-2015 wave of the NLSY, when respondents in our analytic sample were between 50 and 54 years of age. This was measured through a nine-item Center for Epidemiologic Studies Depression Scale. Respondents were asked to report on how often during the past week: (1) \"I did not feel like eating; my appetite was poor\"; (2) \"I felt that I could not shake the blues, even with the help from my family and friends\"; (3) \"I had trouble keeping my mind on what I was doing\"; (4) \"I felt depressed\"; (5) \"I felt that everything I did was an effort\"; (6) \"My sleep was restless\"; (7) \"I felt lonely\"; (8) \"I felt sad\"; and (9) \"I could not \"get going.\" Responses were coded where 0 = rarely or none of the time (1 day), 1 = some/a little of the time (1-2 days), 2 = occasionally/moderate amount of the time (3-4 days), and 3 = most/all of the time (5-7 days). Scores across the nine items were averaged to form a scale, where higher scores indicate higher depression (a = .88). Unfortunately, depression was not asked of our analytic sample after adulthood religious attendance was measured in 2000 until the 2014-2015 wave of the NLSY79, precluding analyses on how changes in religious attendance associate with changes in mental health."
                    ]
                },
                {
                    "title": "Dependent Variable: Depressive Symptoms",
                    "paragraphs": [
                        "Religious attendance was measured at two time points in the NLSY: in 1979 (baseline), when the study respondents in our sample were between 14 and 18 years old, and then again in 2000, when study respondents were between 35 and 39 years old. Respondents were asked, \"In the past year, about how often have you attended religious services?\" To ensure reasonably large categories across groups, we modeled religious attendance as a three-category variable: no/low attendance (not at all or several times a year or less), moderate religious attendance (once per month or two to three times per month), and high attendance (once per week or more than once per week).",
                        "Starting with these three outlined categories, we then created a nine-category variable that captures all possible transitions from one attendance category in 1979 to another attendance category in 2000. Those with stably high attendance from adolescence to adulthood were treated as our reference group because we intended to compare those who experience upward or downward shifts in religious participation to this group, hypothesized to have the lowest levels of depression."
                    ]
                },
                {
                    "title": "Dependent Variable: Depressive Symptoms",
                    "paragraphs": [
                        "We included a binary measure of educational attainment, contrasting those with a college degree or higher (24% of the sample) and those with less than a college degree (76%). This was measured as the highest level of education the respondent had obtained by the 2000 wave (when the second measure of religious attendance was taken; for a similar approach, see Upenieks and Schieman 2021)."
                    ]
                },
                {
                    "title": "Dependent Variable: Depressive Symptoms",
                    "paragraphs": [
                        "We adjust for a series of covariates, grouped into three categories for ease of description.",
                        "Gender was coded as 1 = female, 0 = male. Race was coded as mutually exclusive categories, where non-Hispanic white (reference group) was contrasted with non-Hispanic black and Hispanic. Age was captured in 2014-2015, when respondents were between 50 and 54 years of age. At the 2014-2015 interview, respondents were asked for a complete marital history up to that point. We created a variable that contrasts those who have been stably married throughout their lives (reference group) with those who have been married twice, those who have been married more than two times, and those who have never married in their lives.",
                        "Childhood SES was measured at the 1979 survey by education level (1 = college degree or higher, 0 = all else) and work status (1 = working for pay, 0 = not working for pay) of the household head. A variable for parental family structure contrasts those in two-parent homes with those with at least one stepparent, a single parent, or another type of family arrangement. We also considered whether the respondent lived in the American South (1 = yes, 0 = no) because religious norms tend to be stronger in this region of the country.",
                        "Finally, analyses also featured a measure of respondents' religious affiliation early in the life course (1979). We contrasted those reporting no religious affiliation with Methodist, Presbyterian, Roman Catholic, Jewish, other Protestant (e.g., Lutheran, Episcopalian), and conservative Protestant (e.g., Baptist, Church of Christ) religious affiliations. For descriptive statistics for all study variables, see Appendix 1 in the online version of the article. In the interest of a parsimonious presentation of results in the main body of text, we do not show control variables in our main tables. These are available in Appendix 2 in the online version of the article."
                    ]
                },
                {
                    "title": "Dependent Variable: Depressive Symptoms",
                    "paragraphs": [
                        "We used ordinary least squares (OLS) regression with robust standard errors to test our hypotheses. Multiple imputation with chained equations was used to deal with missing data (m = 20) in all analyses (Royston 2005) because 11% of our sample was missing data on at least one study variable. Results were also consistent using listwise deletion. Given that we assessed over 35 years of longitudinal data, we also adjusted for sample attrition. We applied inverse probability of attrition weights to do so."
                    ]
                }
            ]
        },
        {
            "title": "Results",
            "subsections": [
                {
                    "title": "Multivariable Regression Analyses",
                    "paragraphs": [
                        "Results from OLS regression analyses are displayed in Table 2 as unstandardized regression coefficients.",
                        "Model 1 of Table 2 assesses the direct effect of adolescent religious attendance in 1979 on later life depression. Model 1 adjusts only for time-invariant covariates and conditions in childhood but does not include variables from adulthood. Results from Model 1 suggest that those who were low/no attenders in early life have higher depression scores in later life relative to the high attenders (b = .06, p < .05). As expected, those with a college education report significantly lower depression than those without a college degree (b = -.18, p < .001). Although not the explicit focus of the current study, Model 1 also shows that those raised in the Roman Catholic faith appeared to report lower depression (b = -.12, p < .01) relative to those not religiously affiliated, and post hoc tests also revealed Catholics to have lower depression than those raised in Methodist, conservative Protestant, and other Protestant denominations.",
                        "Model 2 adds religious attendance in adulthood (measured in 2000) while controlling for education and all of our covariates in childhood and adulthood. This model examines whether early religiosity influences later life health through adulthood religiosity. Results suggest that relative to the high attenders, both moderate and low/no attenders in adulthood (2000) had higher subsequent depression scores (b = .10, p < .001 and b = .10, p < .01, respectively). Moreover, results from Model 2 suggest that the addition of religious attendance in 2000 reduced the association between adolescent attendance and health to nonsignificance. Although not the main focus of this study, this suggests that the influence of childhood religious attendance on mental health may work through attendance later in the life course. A Sobel test of mediation was conducted and found that adult religious attendance had a significant indirect effect in the relationship between early life attendance and mental health (b = -.01 p < .001), accounting for approximately 66% of this effect of early life attendance.",
                        "Our central hypotheses focused on the role of religious transitions between adolescence and adulthood and their corresponding association with later depression. We hypothesized that consistently high and/or increasing religious attendance would be associated with lower depression and consistently low and/or decreasing religious attendance would be associated with higher depression. Results from Model 3, illustrated in Figure 2, suggest that relative to the consistently high attenders, the consistently low/no attenders had higher depression (b = .08, p < .05). Increases in religious attendance from low/no to moderate were associated with higher depression relative to the stable high attenders (b = .14, p < .01). However, post hoc tests of coefficients showed the low/no to moderate attenders had nonsignificant depression scores compared with the stable low/no attenders. Those who increased their religious attendance from low/no to high or moderate to high did not have levels of depression that were statistically different from the stable high attenders. The results revealed that declines in religious attendance are associated with higher depression scores relative to the stable high attenders. Indeed, individuals who decreased from moderate to low/no attendance (b = .09, p < .05), high to low/no attendance (b = .09, p < .05), and high to moderate attendance (b = .08, p < .05) between adolescence and adulthood are at a higher risk of depression past age 50 compared to the stable high attenders.",
                        "In summary, these results from Model 3 and a supplementary model with stable low/no attendance as the reference group provide evidence for Hypotheses 1 and 2, where the stable high attenders had the best health profiles. Meanwhile, those who increased their religious attendance have similar levels of depression to the stable nonattenders (results not shown in tables), with stable low/no as reference group, which is partially inconsistent with Hypothesis 1. Finally, all downward shifts in religious attendance from adolescence to adulthood appear to be associated with higher risk of depression relative to the stable high attenders. However, we do note that individuals who experience any religious transition involving a decline between adolescence and adulthood did not experience higher depressive symptoms than the stable nonattenders (results not shown in tables).",
                        "Having established a fair amount of variability in depression scores based on religious transitions, Model 4 tests whether these patterns depend on educational attainment. We see evidence of three negative significant interaction effects with education level for those on the low/no-high religious (b = -.08, p < .05), high-low/no (b = -.12, p < .05), and high-moderate (b = -.08, p < .05) attendance pathways relative to the high/high attenders. To aid in our interpretation of this interaction effect, Figure 3 shows the predicted depression scores for each education category across our nine categories of religious transitions.",
                        "Considered as a whole, results from Model 4 provide partial support for Hypothesis 3 and complete support for Hypothesis 4. We did not find evidence that stably high or increasing religious attendance from adolescence to adulthood was more strongly associated with lower depression among the less educated. We did, however, see evidence that decreasing religious attendance was more strongly associated with higher depression among the less educated. Comparing the depression scores of those with and without a college education in the high to low/no category, individuals without a college degree reported .57 depression symptoms compared with .35 for those with a college degree. Moreover, college-educated people who declined from high to low/no religious attendance had similar depression scores as college-educated people with stably high religious attendance, whereas this decline in religious attendance had a detrimental impact on those without a college degree compared with their peers with stably high religious attendance. People falling into the high to moderate category also showed a similar pattern of depression scores. Those without a college degree reported .56 depressive symptoms, whereas those with a college degree had, on average, .36 depressive symptoms. In other words, declines in religious attendance \"hurt\" the mental well-being of the less educated more than those with a college degree, which is consistent with the second half of Hypothesis 3.",
                        "Hypothesis 4 was supported. The well-educated appeared to experience lower depression if they experienced an upward shift in religious attendance from low/no to high levels between adolescence and adulthood. Those holding a college degree who experienced a low to high religious transition reported .28 depressive symptoms on average. Post hoc differences of coefficients showed that this was significantly lower than any religious trajectory experienced by the less educated and lower than well-educated individuals who followed the low-moderate religious pathway and the moderate to low pathway. This group's mental health was also better protected in the context of decreases in religious attendance over time compared to their less educated counterparts.",
                        "Finally, we note that in every religious transition group except the low to moderate one, the college educated have fewer depressive symptoms than those with less than a college education."
                    ]
                },
                {
                    "title": "Multivariable Regression Analyses",
                    "paragraphs": [
                        "Given that physical health may be associated with mental health and religious attendance, supplemental analyses revealed that our results remain substantively similar with adjustment for physical health (the Short Form Survey-12 Physical Health Composite Score, available at the 2014-2015 wave of the NLSY).",
                        "Ancillary analyses also considered whether there were any differences in the patterns that we observed for respondents who had switched broad religious denominations between childhood and adulthood (e.g., from Protestant to Catholic). Testing an interaction term between religious switching and categories of transitions in religious attendance failed to reach statistical significance. In addition, a three-way interaction term between switched denominations, transitions in religious attendance, and education was also not significant."
                    ]
                }
            ]
        },
        {
            "title": "Discussion",
            "subsections": [
                {
                    "title": "Limitations and Future Directions",
                    "paragraphs": [
                        "We acknowledge several limitations of the current study. First, although religious attendance is the most commonly used measure of religious involvement and is likely correlated with most other measures of religious beliefs and behaviors, it is important for future research to explore other specifications of religious commitment over the life course (e.g., frequency of prayer, fasting behavior, attending Bible study, and attitudinal assessments of personal religious salience) and whether any impact of transitions in these other dimensions on health vary by education level.",
                        "Second, the NLSY79 respondents in the 2014-2015 wave were between 50 and 58 years of age and thus have not yet fully entered the latter stages of the life course. Future research should examine the relationship between religious attendance and health over an entire life course, with more detailed tracking across time, while factoring in other life course transitions (e.g., retirement). Such efforts will provide a more holistic account of how and when religious attendance acts as a resource or a risk to mental health.",
                        "Third, there may be potential issues with the generalizability of our findings across cohorts because the data were first collected in 1979. In more recent cohorts, many young Americans are now living in homes with relatively irreligious parents (Putnam and Campbell 2012). Although being raised with no religious affiliation was once relatively rare, it has become far more common in younger birth cohorts (Schwadel 2010). The children of less religious parents have limited exposure to religion themselves (Petts 2009). If higher education does impact the relationship between religion and health, those who have had limited exposure to religion may be the most likely to experience religious growth.",
                        "Finally, we note that a full index of depression was measured only at the 2014-2015 wave in the NLSY79. It would have been preferable to have several waves with this measure to model depressive trajectories over time. Although the uniqueness of our prospective data is a great strength, future research should examine more fine-grained transitions in religious attendance that may have shorter term mental health implications than what we could detect here. In addition, we could not address whether the psychological benefits of regular attendance over the life course were derived from consistent practice in one faith community or whether switching religious affiliation offered similar mental health benefits. Unfortunately, only a very condensed list of religious traditions was available in 2000, with no way to determine membership in conservative Protestant religious groups. Past research has suggested that switching out of high-cost religious groups (e.g., conservative Protestants) requiring a hefty time and emotional commitment is associated with lower well-being (Scheitle and Adamczyk 2010), driven in part by a loss of social support. The nuances of religious switching and any mental health implications should be pursued in future work.",
                        "Despite these limitations, ours is the first study to consider prospective changes in religious attendance across a long span of the life course from adolescence to adulthood and its impact on later life health and how social stratification by education plays a role in shaping this relationship. More broadly, we argue that life course scholars should devote more attention to studying both the positive and negative consequences of religiosity as well as how religiosity may change over time, possibly reflecting processes of accumulation. Our study also suggests that life course transitions and accumulation processes should be studied in the context of social stratification, reflecting processes of cumulative inequality. Education is linked to better mental health in our study, and it conditions the impact of the risks and resources from changes in religious attendance across the life course."
                    ]
                }
            ]
        }
    ],
    "references": [
        "Bartkowski, John P., Acevedo, Gabriel A., Van Loggerenberg, Harriet. 2017. \u201cPrayer, Meditation, and Anxiety: Durkheim Revisited.\u201d Religions 8(9):191. doi:10.3390/rel8090191.",
        "Bartkowski, John P., Xu, Xiaohe, Levin, Martin L. 2008. \u201cReligion and Child Development: Evidence from the Early Childhood Longitudinal Study.\u201d Social Science Research 37(1):18\u201336.",
        "Bengtson, Vern L. 2013. Families and Faith: How Religion Is Passed Down across Generations. New York, NY: Oxford University Press.",
        "Childs, Ellen. 2010. \u201cReligious Attendance and Happiness: Examining Gaps in the Current Literature\u2014A Research Note.\u201d Journal for the Scientific Study of Religion 49(3):550\u201360.",
        "Clarke, Philippa, Marshall, Victor, House, James, Lantz, Paula. 2011. \u201cThe Social Structuring of Mental Health over the Adult Life Course: Advancing Theory in the Sociology of Aging.\u201d Social Forces 89(4):1287\u2013314.",
        "Ellison, Christopher G., Boardman, Jason D., Williams, David R., Jackson, James S. 2001. \u201cReligious Involvement, Stress, and Mental Health: Findings from the 1995 Detroit Area Study.\u201d Social Forces 80(1):215\u201349.",
        "Ellison, Christopher G., George, Linda K. 1994. \u201cReligious Involvement, Social Ties, and Social Support in a Southeastern Community.\u201d Journal for the Scientific Study of Religion 33(1):46\u201361.",
        "Ellison, Christopher G., Henderson, Andrea K. 2011. \u201cReligion and Mental Health: Through the Lens of the Stress Process.\u201d Pp. 11\u201344 in Toward a Sociological Theory and Health, edited by Blasi, A. Leiden, Netherlands: Brill.",
        "Fenelon, Andrew, Danielsen, Sabrina. 2016. \u201cLeaving My Religion: Understanding the Relationship between Religious Disaffiliation, Health, and Well-Being.\u201d Social Science Research 57:49\u201362.",
        "Ferraro, Kenneth F., Schafer, Markus H. 2017. \u201cVisions of the Life Course: Risks, Resources, and Vulnerability.\u201d Research in Human Development 14(1):88\u201393.",
        "Ferraro, Kenneth F., Schafer, Markus H., Wilkinson, Lindsay R. 2016. \u201cChildhood Disadvantage and Health Problems in Middle and Later Life: Early Imprints on Physical Health?\u201d American Sociological Review 81(1):107\u201333.",
        "Ferraro, Kenneth F., Shippee, Tetyana Pylypiv. 2009. \u201cAging and Cumulative Inequality: How Does Inequality Get under the Skin?\u201d Gerontologist 49(3):333\u201343.",
        "Ferraro, Kenneth F., Shippee, Tetyana Pylypiv, Schafer, Markus H. 2009. \u201cCumulative Inequality Theory for Research on Aging and the Life Course.\u201d Pp. 413\u201333 in Handbook of Theories of Aging. 2nd ed., edited by Bengtson, V. L., Gans, D., Putney, N., Silverstein, M. New York, NY: Springer Publishing Company.",
        "Galek, Kathleen, Flannelly, Kevin J., Ellison, Christopher G., Silton, Nava R. 2015. \u201cReligion, Meaning and Purpose, and Mental Health.\u201d Psychology of Religion and Spirituality 7(1):1\u201312.",
        "Hardie, Jessica Halliday, Pearce, Lisa D., Lundquist Denton, Melinda. 2016. \u201cThe Dynamics and Correlates of Religious Service Attendance in Adolescence.\u201d Youth and Society 48(2):151\u201375.",
        "Hayward, Mark D., Gorman, Bridget K. 2004. \u201cThe Long Arm of Childhood: The Influence of Early-Life Social Conditions on Men\u2019s Mortality.\u201d Demography 41(4):87\u2013107.",
        "Hayward, R., David, R., Maselko, Joanna, Meador, Keith G. 2012. \u201cRecollections of Childhood Religious Identity and Behavior as a Function of Adult Religiousness.\u201d International Journal for the Psychology of Religion 22(1):79\u201388.",
        "Hill, Terrence D. 2008. \u201cReligious Involvement and Healthy Cognitive Aging: Patterns, Explanations, and Future Directions.\u201d Journals of Gerontology, Series A: Biological Sciences and Medical Sciences 63(5):478\u201379.",
        "Hill, Terrence D., Carr, Dawn C., Burdette, Amy M., Dowd-Arrow, Benjamin. 2020. \u201cLife-Course Religious Attendance and Cognitive Functioning in Later Life.\u201d Research on Aging 42(7\u20138):217\u201355.",
        "Hill, Terrence D., Andr\u00e9 Christie-Mizell, C., Vaghela, Preeti, Mossakowski, Krysia N., Johnson, Robert J. 2017. \u201cDo Religious Struggles Mediate the Association between Day-to-Day Discrimination and Depressive Symptoms?\u201d Religions 8(8):134. doi:10.3390/rel8080134.",
        "Hoge, Dean R., Johnson, Benton, Luidens, Donald A. 1995. \u201cTypes of Denominational Switching among Protestant Young Adults.\u201d Journal for the Scientific Study of Religion 34(2):253\u201358.",
        "Hosseini, Shera, Chaurasia, Ashok, Oremus, Mark. 2019. \u201cThe Effect of Religion and Spirituality on Cognitive Function: A Systematic Review.\u201d Gerontologist 59(2):E76\u201385.",
        "Iannaccone, Laurence R. 1990. \u201cReligious Practice: A Human Capital Approach.\u201d Journal for the Scientific Study of Religion 29(3):297\u2013314.",
        "Idler, Ellen L., McLaughlin, Julie, Kasl, Stanislav. 2009. \u201cReligion and the Quality of Life in the Last Year of Life.\u201d Journals of Gerontology, Series B: Psychological Sciences and Social Sciences 64(4):528\u201337.",
        "Kingston, Paul W., Hubbard, Ryan, Lapp, Brent, Schroeder, Paul, Wilson, Julia. 2003. \u2018\u2018Why Education Matters.\u2019\u2019 Sociology of Education 76:53\u201370.",
        "Koenig, Harold, King, Dana, Carson, Verna B. 2012. Handbook of Religion and Health. New York, NY: Oxford University Press.",
        "Krause, Neal. 2003. \u201cReligious Meaning and Subjective Well-Being in Late Life.\u201d Journals of Gerontology, Series B: Psychological Sciences and Social Sciences 58(3):160\u201370.",
        "Krause, Neal, Ellison, Christopher G. 2007. \u201cParental Religious Socialization Practices and Self-Esteem in Late Life.\u201d Review of Religious Research 49(2):109\u201327.",
        "Krause, Neal, David Hayward, R. 2012. \u201cReligion, Meaning in Life, and Change in Physical Functioning During Late Adulthood.\u201d Journal of Adult Development 19(3):158\u201369.",
        "Krause, Neal, Pargament, Kenneth I. 2017. \u201cLosing my Religion: Exploring the Relationship between a Decline in Faith and Positive Affect.\u201d Applied Research in Quality of Life 12(4):885\u2013901.",
        "Krause, Neal, Pargament, Kenneth I., Ironson, Gail. 2017. \u201cSpiritual Struggles and Health: Assessing the Influence of Socioeconomic Status.\u201d Journal for the Scientific Study of Religion 56(3):620\u201336.",
        "Law, Rita W., Sbarra, David A. 2009. \u201cThe Effects of Church Attendance and Marital Status on the Longitudinal Trajectories of Depressed Mood among Older Adults.\u201d Journal of Aging and Health 21(6):803\u201323.",
        "Lee, Jenny, J. 2002. \u201cReligion and College Attendance: Change among Students.\u201d The Review of Higher Education 25(4):369\u201384.",
        "Mayrl, Damon, Oeur, Freeden. 2009. \u201cReligion and Higher Education: Current Knowledge and Directions for Future Research.\u201d Journal for the Scientific Study of Religion 48(2):260\u201375.",
        "Miech, Richard Allen, Shanahan, Michael J. 2000. \u201cSocioeconomic Status and Depression over the Life Course.\u201d Journal of Health and Social Behavior 41(2):162\u201376.",
        "Min, Joohong, Silverstein, Merril, Gruenewald, Tara L. 2018. \u201cIntergenerational Similarity of Religiosity over the Family Life Course.\u201d Research on Aging 40(6):580\u201396.",
        "Mirowsky, John, Ross, Catherine E. 2003. Social Causes of Psychological Distress. 2nd ed. New York, NY: Aldine de Gruyter.",
        "Moulton, Benjamin E., Sherkat, Darren E. 2012. \u201cSpecifying the Effects of Religious Participation and Educational Attainment on Mortality Risk for U.S. Adults.\u201d Sociological Spectrum 32(1):1\u201319.",
        "Orr, Joanna, Tobin, Katy, Carey, Daniel, Anne Kenny, Rose, McGarrigle, Christine. 2019. \u201cReligious Attendance, Religious Importance, and the Pathways to Depressive Symptoms in Men and Women Aged 50 and over Living in Ireland.\u201d Research on Aging 41(9):891\u2013911.",
        "Pargament, Kenneth I., Cummings, Jeremy. 2010. \u201cAnchored by Faith: Religion as a Resilience Factor.\u201d Pp. 193\u2013210 in Handbook of Adult Resilience, edited by Reich, J. W., Zautra, A. J., Hall, J. S. New York, NY: Guilford Press.",
        "Pargament, Kenneth I., Koenig, Harold G., Perez, Lisa M. 2000. \u201cThe Many Methods of Religious Coping: Development and Initial Validation of the RCOPE.\u201d Journal of Clinical Psychology 56(4):519\u201343.",
        "Park, Crystal, L. 2007. \u201cReligiousness/Spirituality and Health: A Meaning Systems Perspective.\u201d Journal of Behavioral Medicine 30(4):319\u201328.",
        "Pascoe, Anita E., Hill, Terrence D., Mossakowski, Krysia N., Johnson, Robert J. 2016. \u201cReligious Involvement and Perceptions of Control: Evidence from the Miami\u2013Dade Health Survey.\u201d Journal of Religion and Health 55(3):862\u201373.",
        "Pearce, Lisa, Lundquist Denton, Melinda. 2011. A Faith of Their Own: Stability and Change in the Religiosity of America\u2019s Adolescents. New York, NY: Oxford University Press.",
        "Pearce, Lisa D., Haynie, Dana L. 2004. \u201cIntergenerational Religious Dynamics and Adolescent Delinquency.\u201d Social Forces 82(4):1553\u201372.",
        "Pearlin, Leonard I., Bierman, Alex. 2013. \u201cCurrent Issues and Future Directions in Research into the Stress Process.\u201d Pp. 325\u201340 in Handbook of the Sociology of Mental Health, edited by Aneshensel, C. S., Phelan, J. C. New York, NY: Springer + Business Media.",
        "Petts, Richard J. 2009. \u201cTrajectories of Religious Participation from Adolescence to Young Adulthood.\u201d Journal for the Scientific Study of Religion 48(3):552\u201371.",
        "Petts, Richard J. 2014. \u201cFamily, Religious Attendance, and Trajectories of Psychological Well-Being among Youth.\u201d Journal of Family Psychology 28(6):759\u201368.",
        "Phelan, Jo C., Link, Bruce G., Tehranifar, Parisa. 2010. \u201cSocial Conditions as Fundamental Causes of Health Inequalities: Theory, Evidence, and Policy Implications.\u201d Journal of Health and Social Behavior 51(Suppl. 1):S28\u201340.",
        "Pudrovska, Tetyana, Anikputa, Benedicta. 2014. \u201cEarly-Life Socioeconomic Status and Mortality in Later Life: An Integration of Four Life-Course Mechanisms.\u201d Journals of Gerontology, Series B: Psychological Sciences and Social Sciences 69(3):451\u201360.",
        "Putnam, Robert D., Campbell, David E. 2012. American Grace: How Religion Divides and Unites Us. New York, NY: Simon and Schuster.",
        "Ronneberg, Corina R., Miller, Edward Alan, Dugan, Elizabeth, Porell, Frank. 2016. \u201cThe Protective Effects of Religiosity on Depression: A 2-Year Prospective Study.\u201d Gerontologist 56(3):421\u201331.",
        "Ross, Catherine E., Mirowsky, John. 2011. \u201cThe Interaction of Personal and Parental Education on Health.\u201d Social Science & Medicine 72(4):591\u201399.",
        "Ross, Catherine E., Wu, Chia-ling. 1995. \u201cThe Links between Education and Health.\u201d American Sociological Review 60(5):719\u201345.",
        "Royston, Patrick. 2005. \u201cMultiple Imputation of Missing Values: Update of Ice.\u201d Stata Journal 5(4):527\u201336.",
        "Scheitle, Christopher P., Adamczyk, Amy. 2010. \u201cHigh-Cost Religion, Religious Switching, and Health.\u201d Journal of Health and Social Behavior 51(3):325\u201342.",
        "Schieman, Scott. 2008. \u201cThe Education-Contingent Association between Religiosity and Health: The Differential Effects of Self-Esteem and the Sense of Mastery.\u201d Journal for the Scientific Study of Religion 47(4):710\u201324.",
        "Schieman, Scott. 2010. \u201cSocioeconomic Status and Beliefs about God\u2019s Influence in Everyday Life.\u201d Sociology of Religion 71(1):25\u201351.",
        "Schieman, Scott. 2011. \u201cEducation and the Importance of Religion in Decision Making: Do Other Dimensions of Religiousness Matter?\u201d Journal for the Scientific Study of Religion 50(3):570\u201387.",
        "Schieman, Scott, Bierman, Alex, Upenieks, Laura, Ellison, Christopher G. 2017. \u201cLove Thy Self? How Belief in a Supportive God Shapes Self-Esteem.\u201d Review of Religious Research 59(3):293\u2013318.",
        "Schieman, Scott, Plickert, Gabriele. 2008. \u201cHow Knowledge Is Power: Education and the Sense of Control.\u201d Social Forces 87(1):153\u201384.",
        "Schleifer, Cyrus, Chaves, Mark. 2017. \u201cFamily Formation and Religious Service Attendance: Untangling Marital and Parental Effects.\u201d Sociological Methods & Research 46(1):125\u201352.",
        "Schwadel, Philip. 2010. \u201cPeriod and Cohort Effects on Religious Nonaffiliation and Religious Disaffiliation: A Research Note.\u201d Journal for the Scientific Study of Religion 49(2):311\u201319.",
        "Schwadel, Philip. 2011. \u201cThe Effects of Education on Americans\u2019 Religious Practices, Beliefs, and Affiliations.\u201d Review of Religious Research 53(2):161\u201382.",
        "Schwadel, Philip. 2016. \u201cDoes Higher Education Cause Religious Decline? A Longitudinal Analysis of the Within- and Between-Person Effects of Higher Education on Religiosity.\u201d Sociological Quarterly 57(4):759\u201386.",
        "Schwadel, Philip, Falci, Christina D. 2012. \u201cInteractive Effects of Church Attendance and Religious Tradition on Depressive Symptoms and Positive Affect.\u201d Society and Mental Health 2(1):21\u201334.",
        "Sherkat, Darren E. 2011. \u201cReligion and Scientific Literacy in the United States.\u201d Social Science Quarterly 92(5):1134\u201350.",
        "Silverstein, Merril, Bengtson, Vern L. 2018. \u201cReturn to Religion? Predictors of Religious Change among Baby-Boomers in their Transition to Later Life.\u201d Journal of Population Ageing 11(1):7\u201321.",
        "Uecker, Jeremy E., Regnerus, Mark D., Vaaler, Margaret L. 2007. \u201cLosing My Religion: The Social Sources of Religious Decline in Early Adulthood.\u201d Social Forces 85(4):1667\u201392.",
        "Upenieks, Laura, Schafer, Markus H. 2020. \u201cReligious Attendance over the Life Course and Physical Well-Being in Later Life: Integrating Life Course Models of Health.\u201d Journal of Health and Social Behavior 61(4):486\u2013502.",
        "Upenieks, Laura, Schafer, Markus H., Mogosanu, Andreea. 2021. \u201cDoes Childhood Religiosity Delay Death?\u201d Journal of Religion and Health 60(1):420\u201343. doi:10.1007/s10943-019-00936-1.",
        "Upenieks, Laura, Schieman, Scott. 2021. \u201cThe Belief in Divine Control and the Mental Health Effects of Stressful Life Events: A Study of Education-Based Contingencies.\u201d Review of Religious Research 63:183\u2013215.",
        "VanderWeele, Tyler J. 2017. \u201cCausal Effects of Religious Service Attendance?\u201d Social Psychiatry and Psychiatric Epidemiology 52(11):1331\u201336.",
        "Vargas, Nicholas. 2012. \u201cRetrospective Accounts of Religious Disaffiliation in the United States: Stressors, Skepticism, and Political Factors.\u201d Sociology of Religion 73(2):200\u201323.",
        "Willson, Andrea E., Shuey, Kim M., Elder, Glen H. 2007. \u201cCumulative Advantage Processes as Mechanisms of Inequality in Life Course Health.\u201d American Journal of Sociology 112(6):1886\u2013924.",
        "Ysseldyk, Renate, Haslam, S. Alexander, Haslam, Catherine. 2013. \u201cAbide with Me: Religious Group Identification among Older Adults Promotes Health and Well-Being by Maintaining Multiple Group Memberships.\u201d Aging & Mental Health 17(7):869\u201379.",
        "Ysseldyk, Renate, Matheson, Kimberly, Anisman, Hymie. 2010. \u201cReligiosity as Identity: Toward an Understanding of Religion from a Social Identity Perspective.\u201d Personality and Social Psychology Review 14(1):60\u201371."
    ],
    "title": "Gaining Faith, Losing Faith: How Education Shapes the Relationship between Religious Transitions and Later Depression",
    "issue": "4",
    "volume": "62",
    "year": 2021,
    "issn": "0022-1465",
    "journal": "Journal of Health and Social Behavior",
    "authors": [
        "Laura Upenieks",
        " Patricia A. Thomas"
    ]
}