{
    "doi": "http://dx.doi.org/10.1177/0003122412448050",
    "abstract": "This article explores how the efficiency of Internet search is changing the way Americans find romantic partners. We use a new data source, the How Couples Meet and Stay Together survey. Results show that for 60 years, family and grade school have been steadily declining in their influence over the dating market. In the past 15 years, the rise of the Internet has partly displaced not only family and school, but also neighborhood, friends, and the workplace as venues for meeting partners. The Internet increasingly allows Americans to meet and form relationships with perfect strangers, that is, people with whom they had no previous social tie. Individuals who face a thin market for potential partners, such as gays, lesbians, and middle-aged heterosexuals, are especially likely to meet partners online. One result of the increasing importance of the Internet in meeting partners is that adults with Internet access at home are substantially more likely to have partners, even after controlling for other factors. Partnership rate has increased during the Internet era (consistent with Internet efficiency of search) for same-sex couples, but the heterosexual partnership rate has been flat.",
    "sections": [
        {
            "title": "Introduction",
            "subsections": [
                {
                    "title": null,
                    "paragraphs": [
                        "One underappreciated problem in the scholarly understanding of mate selection is the problem of search. Simply, how do people actually find mates and romantic partners? Many millions of adults in the United States are single, and presumably seeking a romantic partner. Of these millions of single adults, any one adult can only ever personally know some small number, a tiny fraction of the pool of available single persons. Even in a local neighborhood, most potential mates would be unknown to any individual unless the population density of the neighborhood was very low.",
                        "In the classic economic and game theoretic models of partner matching and mate selection (Becker 1991; Gale and Shapley 1962), the relative value of every potential mate is assumed to be already known or can easily be determined (Todd and Miller 1999).1 The actual way Americans search for and find romantic partners has been shrouded in mystery because of a lack of appropriate data. Recent studies on how couples meet have been done in France and Holland (Bozon and Heran 1989; Kalmijn and Flap 2001), but these studies use data that predates the Internet era. U.S. scholarship on how couples meet has been dormant since midcentury studies using marriage records found that a high percentage of urban marriage licenses were given to couples who lived in the same neighborhood of a city (Bossard 1932; Kennedy 1943).",
                        "In this article, we exploit unique features of a new nationally representative dataset to analyze not only how Americans meet their romantic partners (which has been studied in the past), but also how patterns of meeting have changed over time, which has not been previously studied. The first wave How Couples Meet and Stay Together survey fielded in 2009 (HCMST, see Rosenfeld and Thomas 2010) has a longitudinal component and replicates the wording of relevant questions from the 1992 National Health and Social Life Survey (see Laumann et al. 1994). We use forward and backward comparisons to supplement a retrospective history of how Americans met their partners. HCMST included open- and closed-ended questions about how respondents met their current partner, which together allow a more accurate picture of how couples met than has previously been available. Because HCMST postdated the Internet revolution by more than a decade, the data offer a unique opportunity to assess the Internet's impact on the way Americans meet their romantic partners.",
                        "The fact that Americans use the Internet to meet romantic partners has been documented before (Madden and Lenhart 2006; Sautter, Tippett, and Morgan 2010) and is not in itself surprising. The Internet has become almost ubiquitous for most Americans. We go beyond previous analyses to explain which subgroups of Americans are more likely to meet their partners online, and why. Specifically, we show that gays, lesbians, and middle-aged heterosexuals--three groups who inhabit thin markets for romantic partners--are particularly likely to find their partners online. Individuals are in a thin market for potential partners when the cost of identifying multiple potential partners who meet minimum criteria may be large enough to present a barrier to relationship formation. We propose that for single adults in thin dating markets, improvements in the efficiency of Internet search may be especially useful and important. Conversely, single people (e.g., college students) who are fortunate enough to inhabit an environment full of eligible potential partners may not need to actively search for partners."
                    ]
                }
            ]
        },
        {
            "title": "Social Impact of the Internet",
            "subsections": [
                {
                    "title": null,
                    "paragraphs": [
                        "The Internet as we know it today originated in a U.S. Defense Department initiative called ARPANET in the 1970s (Castells 2000). Over time, people have adapted the Internet to social uses, in much the same way that people adapted the telephone. Telephone companies initially intended the telephone to be a tool for business; early on, companies tried to discourage longer social telephone calls because they were causing congestion in the telephone network (Fischer 1994; Katz 1997). Fischer's (1994) study of the telephone suggests that land-line telephone users primarily call people they already know, which is to say that the telephone helps individuals stay in touch with their preexisting social networks, but the telephone does not, of its own accord, help people expand their social networks. Building on the scholarship about the social impact of the telephone, some influential scholars have suggested that computer mediated communication (CMC) will primarily reinforce already existing social patterns (Castells 2000; Putnam 2000).",
                        "While it is true that the Internet has made communications within existing social networks more efficient (as did the telephone), the Internet also has dramatically improved the efficiency of searching for and finding new people outside of one's preexisting social network, which the telephone never did. One could think of the phone book as a search tool associated with the telephone. If one were looking for a local plumber, the Yellow Pages were helpful. If one were looking for a business or person who did not fit the phone book's predefined categories, then the phone book was no help at all. The problem of rigid preselected categories was a limitation of all searches in the pre-Internet era (Anderson 2006). Modern Internet search accesses data that can be sorted and searched by user-defined rather than predefined categories, making search for anything uncommon dramatically more efficient.",
                        "When Netscape and Internet Explorer browsers were introduced in late 1994 and early 1995, respectively, hardly any U.S. households had Internet access. By 2009, about 67 percent of U.S. households had Internet access (U.S. National Telecommunications and Information Administration 2010). Rapid adoption of Internet technologies has led to much debate about the new technologies' social impact. Because Internet technologies are so varied, and social uses of the Internet are still evolving, it is too early to say what all the social impacts of the Internet will be (Katz and Rice 2002). The social impacts of even specific and narrow technologies are notoriously difficult to identify (Fischer 1985). It is difficult to find any technology that has not been alleged to have had substantial social impacts. Much has been made of the social impacts of not only the light bulb (Yzer and Southwell 2008) but also more prosaic technologies such as the washing machine (Lynd and Lynd 1929) and the fax machine (Light 2006).",
                        "Some early studies of Internet use suggested that time spent online reduces face-to-face social interactions (Nie and Hillygus 2002) or increases rates of depression and isolation (Kraut et al. 1998). These early findings of negative social impacts have been either overturned (Kraut et al. 2002) or broadly challenged (Katz and Rice 2002; Wang and Wellman 2010).",
                        "Scholarly debate about the Internet's social impacts has been hampered by a lack of nationally representative data on how (or whether) people use the Internet to meet new friends or partners. In this context, we mean friends or partners whose relationships exist in the physical rather than solely the virtual world. While we acknowledge Putnam's (2000) argument that face-to-face relationships have important advantages over virtual relationships, we demonstrate that relationships can start in the virtual world and move to the real, or face-to-face, world, a phenomenon that scholars have previously demonstrated primarily with convenience samples of individuals who are active online (Kendall 2002; Parks and Roberts 1998; but see also Madden and Lenhart 2006).",
                        "In studying whether Internet access helped unemployed Americans find jobs, Fountain (2005) found that Internet access was only an advantage in the early Internet era, before 2000 (see also Kuhn and Skuterud 2004). Fountain explained her negative findings for the benefits of Internet search by arguing that Internet job listings produced too many applications from unknown applicants for companies to properly screen, so that the supposed efficiency of Internet search was largely wasted. Fountain argued that the process of finding a job in the Internet era was similar to the way the job search process worked before the Internet: people found jobs through personal connections (Granovetter 1974).",
                        "If the Internet has failed to transform the market for matching jobs to job applicants, that would be consistent with the broader consensus that the Internet complements, rather than displaces, existing behavior patterns (DiMaggio et al. 2001). Our analysis of how Americans meet their partners is based on more detailed data on the matching process (coded first-person stories combined with closed-ended questions) than has previously been available. The more detailed data allow us to document how the Internet appears to be displacing, to a certain extent, the more traditional ways of meeting partners, such as through friends, through family, in school, or in the neighborhood. Furthermore, the types of relationships formed online differ somewhat from relationships formed offline, meaning that the rise of the Internet may have some effect on the pattern of who mates with whom."
                    ]
                }
            ]
        },
        {
            "title": "The Internet, Neighborhood, and Race",
            "subsections": [
                {
                    "title": null,
                    "paragraphs": [
                        "Observers of Internet trends have long noted how the Internet transcends some of the limitations of physical space (Anderson 2006; Wellman 2001).2 Geographic proximity still matters in online dating, to the extent that a face-to-face relationship is the goal, but online searches for local romantic partners generally have a greater geographic radius than the small radius of walkability that defines a neighborhood. In the United States before World War II, mate selection was dominated by family and the pool of potential mates available in the neighborhood, the church, and the primary or secondary school (see Figure 1). Some scholars argue that the dominant influence of family and neighborhood over mate selection in the past is one reason there were so few interracial and same-sex unions (Rosenfeld 2007), but this earlier scholarship was limited to indirect measures of family influence. We measure family's direct influence over mate selection outcomes in the United States for the first time.",
                        "The rise of individual search and choice in Internet dating does not imply that all forms of segregation (previously promoted by family and neighborhood geography) in mating markets will disappear. The Internet has its own forms of racial segregation (Hargittai 2008), and the literature on online dating shows that preferences exist for mates and partners who share a respondent's race and religion (Hitch, Hortacsu, and Ariely 2010; Robnett and Feliciano 2011). Furthermore, the great variety of political vantage points and cultures available online allows people to find voices that closely mimic their own (Adamic and Glance 2005), which can reinforce biases and create cyberbalkanization."
                    ]
                }
            ]
        },
        {
            "title": "Hypotheses",
            "subsections": [
                {
                    "title": null,
                    "paragraphs": [
                        "We begin with an observation about a fundamental aspect of the Internet:",
                        "Axiom: Internet search for romantic partners is potentially more efficient than pre-Internet search.",
                        "Searching personal advertisements in the pre-Internet era meant thumbing through the newspaper classified section by hand. Print advertisements could only be examined one issue at a time. Perhaps that is why only 4 out of 3,009 couples in the dataset reported meeting through newspaper classifieds (even though a majority of the sample met before the Internet era). In contrast to the inefficiencies of searching paper documents, online search makes the archive of old issues just as accessible as the current issue. Online, it is as easy to search across a million records as to search across a hundred.",
                        "The rise of the Internet and its potential efficiency for partner search should lead to a rise in Americans meeting their partners online:",
                        "Hypothesis 1: In the Internet era (i.e., post-1995), a steadily increasing percentage of Americans will meet their partners online.",
                        "If more and more Americans are meeting online, then fewer and fewer Americans might be meeting in traditional ways (through family, friends, church, or in the neighborhood), but the rise of the Internet need not necessarily be associated with the decline of traditional ways of meeting. The Internet could be a complement to traditional ways of meeting; friends can and do meet their friends' friends through Facebook, for instance. If, on the other hand, the Internet partly displaces traditional ways of meeting, we would expect all traditional ways of meeting to decline during the Internet era:",
                        "Hypothesis 2: In the Internet era, all traditional ways of meeting romantic partners will decline because of displacement by the Internet.",
                        "The Internet's displacement of traditional ways of meeting can only occur to the extent that the Internet reduces the necessity or the primacy of third-person intermediation in the dating market. This leads to a corollary:",
                        "Corollary 2: In the Internet era, more Americans will meet their partners without the active brokerage of third persons.",
                        "If the way Americans meet their romantic partners is changing, it is important to establish how different meeting venues might affect outcomes of the mate selection process. Prior scholarship on the relationship between couples and their families of origin argues that the family as an institution promotes heterosexual marriage with partners of the same race, religion, and social class:",
                        "Hypothesis 3: Respondents who meet their partners through family are more likely to be heterosexual couples and more likely to have the same race, religion, and social class as their partner.",
                        "Conversely, scholars of the Internet who take a positive or even utopian view of the Internet's social influence argue that the Internet will make ascriptive personal characteristics such as race, and family background characteristics such as religion and social class, less important (Barlow 1996):",
                        "Hypothesis 4: Respondents who meet their partners online are more likely to have partners of different race, religion, or social class origin.",
                        "If search efficiency is the main advantage of finding partners online, then individuals looking for a type of partner that is harder to find should be most likely to find that partner online:",
                        "Hypothesis 5: Efficiencies of Internet search for romantic partners should be especially important to individuals who are in a thin market for romantic partners.",
                        "An analogy to Hypothesis 5 is what Anderson (2006) refers to as the long tail of Internet marketing. Brick and mortar stores only have room for the most popular items, so esoteric items were difficult to find in the pre-Internet era. In the Internet era, it became as easy to find information about low-selling esoteric items as about popular items, leading esoteric and niche items to more readily find their markets.",
                        "If Internet search has indeed increased the efficiency for romantic partner search, then Americans with Internet access at home should be more likely to have a romantic partner:",
                        "Hypothesis 6: The partnership rate will be higher for individuals who have Internet access at home, all else being equal.",
                        "Finally, as Internet access becomes more prevalent in U.S. households, the partnership rate for Americans should increase. That is, Internet access should lead to greater overall efficiency in the dating market, and greater efficiency in the dating market should lead to more matches being made and fewer people remaining single:",
                        "Hypothesis 7: The Internet era will increase partnership rates and reduce the unmatched proportion of the adult population.",
                        "Hypothesis 7 is necessarily a speculative hypothesis, because the adult partnership rate is a function of many social, cultural, and demographic factors besides Internet search efficiency. Even though changes in the societal partnership rate cannot be causally linked to the Internet, it is worth examining whether the partnership rate has changed during the Internet era in the way Hypothesis 7 predicts."
                    ]
                }
            ]
        },
        {
            "title": "Data",
            "subsections": [
                {
                    "title": null,
                    "paragraphs": [
                        "This article uses data from waves I and II of the How Couples Meet and Stay Together (HCMST) survey (Rosenfeld and Thomas 2010). HCMST is a nationally representative longitudinal survey of 4,002 English literate adults, of whom 3,009 had a spouse or romantic partner. Data, codebooks, frequencies, and documentation are publicly available at http://data.stanford.edu/hcmst. HCMST has new and better data on how Americans met their romantic partners, and it also replicates relevant questions from the 1992 National Health and Social Life Survey (Laumann et al. 1994).",
                        "The HCMST survey is an Internet survey, implemented by Knowledge Networks (KN). Unlike most Internet surveys whose participants are composed of a self-selected or opt-in sample of volunteers, KN panel participants were initially recruited into the panel through a nationally representative random digit dialing (RDD) telephone survey, so the KN sample is nationally representative. Respondents with Internet access at home used their own computer to answer the surveys. Respondents who did not have Internet access at home were offered Internet access and a WebTV in exchange for participating regularly in surveys. Research has found that the quality of data derived from representative Internet surveys such as the KN panel is equal to or exceeds the quality of data derived from the previous industry standard RDD surveys (Baker et al. 2010:743; Chang and Krosnick 2009; Fricker et al. 2005).",
                        "Among KN panelists contacted for the HCMST survey, 71 percent consented to participate. Including the initial RDD phone contact and agreement to join the panel (participation rate 32.6 percent), and respondents' completion of the initial demographic survey (56.8 percent completion), the composite overall response rate is a much lower .326 x .568 x .71 = 13 percent (Callegaro and DiSogra 2008). The very substantial issue of attrition bias can be controlled, however, because KN gathers information from subjects at each survey stage (Couper 2000). Among the 3,009 partnered respondents who participated in HCMST wave I, 2,520 (84 percent) completed the first follow-up survey one year later. The follow-up survey was brief and was mainly used to ascertain whether the couples identified in wave I were still together.",
                        "Respondents who previously had answered \"yes\" to the question, \"Are you yourself gay, lesbian, or bisexual?\" were oversampled for the HCMST survey. Of the 3,009 partnered adults in the survey, 474 had a same-sex partner.",
                        "\"How did you meet\" is a simple sounding question that turns out to be quite difficult because of the ambiguity of \"how\" with respect to where, when, and with whom. In in-depth interviews that preceded the main survey, we discovered that people have stories--usually well rehearsed and oft-repeated--about how they met their spouse or partner, but they may not be able to pigeonhole those stories into predefined categories. In addition, the number of possible venues where couples meet, and the types of different intermediaries, are too numerous for a closed-ended question to effectively cover all the possibilities. For this reason, HCMST gathered respondents' stories of how they met their spouse or partner in an open-ended text box (average response length was 342 characters), as well as respondent answers to closed-ended questions. Data from different kinds of overlapping questions allow for inconsistent responses to be corrected in the analysis."
                    ]
                }
            ]
        },
        {
            "title": "Results",
            "subsections": [
                {
                    "title": "How Heterosexual Couples Meet",
                    "paragraphs": [
                        "Figure 1 shows the changing pattern, smoothed by local lowess regressions (Cleveland 1979), of how heterosexual and same-sex couples have met over time in the United States. Data in Figure 1 are relationships that were in place during the 2009 HCMST survey, which could be subject to a variety of biases. We document below the potential biases we can measure and their seemingly modest effects. HCSMT recorded information only about each respondent's current relationship in 2009, because in-depth interviews that supplemented HCMST demonstrated that much more reliable information could be obtained about current relationships than about past relationships.",
                        "Because heterosexual couples (we code all male-female couples as heterosexual couples regardless of individual sexual preferences) make up 98 percent of all couples in the United States (and an even higher percentage in the past), we begin our discussion with the heterosexuals. For most of the late-twentieth century, meeting through friends was the most common way heterosexual respondents met their partners. The percentage of heterosexual couples whose first meeting was brokered by friends rose from about 21 percent in 1940 to almost 40 percent in 1990, before going into decline and dipping below 30 percent for the most recently formed couples. The pattern of heterosexual couples meeting through or as co-workers is similar to the pattern of meeting through friends (although co-workers have always been less influential than friends), with a steady rise from 1940 and a peak around 1990 (at about 20 percent), followed by a steep decline after 1990.",
                        "According to Figure 1, several of the most traditional ways of meeting heterosexual partners had monotonic declines from 1940 to 2009. Meeting through family was actually the most common way that elderly respondents, who met almost 70 years prior to the survey in 2009, recalled meeting (although the sample size of couples who met prior to 1950 is only 66). By the early 1940s, friends had already overtaken family as the primary way male-female couples met. The steady decline of family as a broker in relationship formation in the United States continued over the next seven decades, declining from 25 percent of all heterosexual couples who met in 1940 to less than 10 percent of heterosexual couples who first met in 2007 to 2009. The decline of family of origin as a relationship broker in the late-twentieth-century United States is consistent with the reported decline of parental control over young adults for the same historical period (Rosenfeld 2007). Along with the steady decline of family of origin as a relationship broker, primary and secondary school declined monotonically as a first meeting place for couples who eventually become romantically involved, from 21 percent of relationships around 1940 to less than 5 percent most recently.",
                        "As family and grade school have become less influential in the mate selection process of U.S. heterosexuals, so too have residential neighborhoods and the church declined in their influence over the market for romantic partners. Declines of neighborhood and church are not as monotonic as declines for family and grade school. From about 1960 to 1990, Figure 1 shows that neighborhood and church had a roughly steady influence over how heterosexual couples met, with about 10 percent of heterosexual couples meeting as neighbors and about 7 percent meeting in or through houses of worship. After 2000, neighborhood and church went into steep decline, along with most of the other traditional ways of meeting romantic partners. The post-1995 declines seen in Figure 1 for heterosexual couples in meeting through friends, co-workers, family, school, the neighborhood, and church are all statistically significant declines.",
                        "Meeting in college was rare in 1940, because few Americans went to college. From 1940 to 2000, the percentage of heterosexual couples who met in college rose steadily from 5 percent to about 11 percent. As the influence of primary and secondary school declined precipitously for heterosexuals during the entire period, college (the college category in Figure 1 includes college, graduate school, and professional school) crossed paths with and overtook primary and secondary school in the early 1990s. Given reports of rising educational endogamy (Schwartz and Mare 2005; but see also Rosenfeld 2008), one might expect the percentage of Americans who meet in college to rise monotonically, but even the influence of college flattens out and appears to decline slightly after 2000.",
                        "The Internet is the one social arena that is unambiguously gaining in importance over time as a place heterosexual couples meet.4 For couples who met in 1990 or before, the percentage who met online was essentially zero.5 Between 1995 and 2005, there was exponential growth in the proportion of respondents who met their partners online, reaching what appears to be a plateau at approximately 22 percent. For heterosexual couples who met in 2009, the Internet was the third most likely way of meeting,6 after the intermediation of friends, and approximately tied with bars, restaurants, and other public places.7 With the rise of the Internet as a way couples meet in the past few years, and the concomitant decline in the central role of friends, it is possible that the Internet could eventually eclipse friends as the most influential way Americans meet their romantic partners. Hypothesis 1 predicted a sharp rise in the percentage of couples who meet online, and Hypothesis 2 predicted an Internet-era decline in the traditional ways of meeting; both predictions find support in Figure 1.",
                        "It is important to note that the categories in Figure 1 are not mutually exclusive. Every relevant category was coded from respondents' stories. If the Internet were merely reinforcing existing ways of finding partners, we would expect the Internet to rise but other previously stable ways of meeting (through friends, in college, or in the workplace) to remain unchanged. The fact that nearly all other ways of meeting have been in decline during the Internet era suggests the Internet is displacing rather than simply complementing the traditional ways of meeting a partner.",
                        "Of the couples in HCMST, 96 percent are either married or are unmarried couples with intimate physical relationships. The relationships, in other words, are not virtual or online-only relationships. By meeting online, or meeting through the Internet, we mean that a couple's relationship began with an online interaction and then developed into a personal and physical relationship. We coded couples as having met online only if the online interaction was crucial to their having met, regardless of how the couple communicated once they had met. Online meetings include meeting through web dating sites, through Internet classifieds, through online chat, while playing Internet games, and through social networking websites. If the couple first met decades earlier, fell out of touch, and then rediscovered each other through Facebook, that would be \"meeting online\" for our purposes. Many couples who first meet and develop their relationship offline also communicate online, but we do not count these couples as meeting through the Internet. For instance, if a friend provides the respondent with a potential partner's e-mail address, that would be \"meeting through a friend\" but not \"meeting online,\" because the partner was not first found online (and the friend could just as easily have provided a phone number). If the friend was searching a dating website, discovered the partner's profile, and then e-mailed the profile to the respondent, the respondent and partner would be coded as \"meeting through a friend\" and \"meeting online,\" because the friend first located the partner online. Some online meetings are brokered by friends, but most couples who meet online, as we show below, are the result of one-to-one interactions without the active brokerage of any third person."
                    ]
                },
                {
                    "title": "How Heterosexual Couples Meet",
                    "paragraphs": [
                        "The right-hand panel in Figure 1 shows the changing way same-sex couples have met in the United States, from 1985 to the present. Whereas the left-hand panel of Figure 1 (for heterosexual couples) extends back to 1940, the figure for same-sex couples extends only to 1985 because there are only one-fifth as many same-sex couples as heterosexual couples in the dataset. We therefore know less about how same-sex couples met in the past. If we extended the figure for same-sex couples further into the past, where the data is admittedly sparse, we would find that bars and restaurants seemed to be the leading way same-sex couples met in the early 1970s and before. Meeting in bars, restaurants, and other public places was always significantly more common for gay men than for lesbians; 26.7 percent of gay men in HCMST met their partner at a bar or restaurant, compared to only 11.4 percent of lesbians. Because the gender gap is small and insignificant for most ways of meeting, we combine respondents by gender in Figure 1 and report the few gender differences in Table S1 of the online supplement.",
                        "The most striking difference between the way same-sex versus heterosexual couples meet is the dominance of the Internet among same-sex couples who met after 2000, with over 60 percent of same-sex couples meeting online in 2008 and 2009. Meeting online has not only become the predominant way that same-sex couples meet in the United States, but meeting online is now dramatically more common among same-sex couples than any way of meeting has ever been for heterosexual or same-sex couples in the past. To an even greater extent than for heterosexual couples, the Internet seems to be displacing all other ways of meeting for same-sex couples.",
                        "The rise of the Internet as a virtual community with its own rules (Correll 1995), outside of traditional family supervision and the historical constraints of geographic propinquity (Wellman 2001), constitutes a special benefit for certain individuals. Efficiencies of Internet search are especially important for individuals searching for something uncommon. Same-sex couples make up less than 2 percent of all couples in the United States, and outside big cities the percentage is substantially lower (Gates and Ost 2004); gays and lesbians are nearly always in thin dating markets. The especially high rate at which same-sex couples meet online supports Hypothesis 5, that people in thin dating markets should be especially likely to meet online.",
                        "In addition to being dramatically more likely to meet online, same-sex couples have always been dramatically less likely than heterosexual couples to meet through family or to find their partners in primary or secondary school. The number of same-sex couples who meet through family or primary or secondary school has never been as high as 5 percent, whereas 17 percent of heterosexual couples met through family in 1985, and as many as 25 percent of heterosexual couples met through family in the 1940s. Social and geographic distance from the family of origin has long been theorized as one of the fundamental factors in same-sex couple formation (Berube 1990; Weston 1991)."
                    ]
                },
                {
                    "title": "How Heterosexual Couples Meet",
                    "paragraphs": [
                        "Couple dissolution bias is one potential alternative explanation for some of the patterns in Figure 1. If couples who met through family connections remain coupled longer, it would imply that couples who met in other ways are more likely to break up and drop out of the dataset of existing couples. Couple dissolution bias could explain why existing heterosexual couples who met in the past are more likely to report having met through family. The couple dissolution bias explanation of Figure 1 patterns only works if couple longevity is strongly associated with how couples met. In this section we look at the evidence of a correlation between couple longevity and how couples met.",
                        "One way to assess whether couples who meet in traditional ways are likely to have longer couple longevity is to examine whether respondents' reported relationship quality varies by how they met their partners. Table 2 shows that the weighted relationship quality for all couples does not seem to depend much on how couples met. The average relationship quality (on a scale of 1 to 5 with 5 being \"excellent\" and 1 being \"very poor\") is 4.47 for all couples (with a standard deviation of .75). Couples who met through family connections have a slightly lower than average reported mean relationship quality of 4.40. Couples who met online have a mean relationship quality of 4.48, which is indistinguishable from the overall average of 4.47. Couples who met in primary or secondary school or in church are the only groups whose relationship quality is significantly higher than average after regressions control for couples' demographic profiles.",
                        "The last column of Table 2 shows the effect of each way of meeting on relationship quality, while controlling for relationship duration, race, coresidence, and parental approval via a series of multivariate regressions. With or without controls, there is only a modest correlation between self-reported relationship quality and how couples met, which is evidence against a dissolution bias explanation of Figure 1.",
                        "Table 3 shows that weighted breakup rates (i.e., whether a couple identified in wave I was still together at wave II, a year later) are not strongly influenced by how couples met. Consistent with their slightly above average relationship quality described in Table 2, the one-year breakup rate for couples who met online was slightly below average, compared to other couples who met during the 2000 to 2009 period. Couples who had been together longer, especially couples who were married and coresident, were much less likely to break up in the one-year interval between wave I and wave II; the couple breakup rate for couples who met in 2000 to 2009 is thus substantially higher than the rate for couples who had been together longer. In Table 3, raw odds ratios are a function of the weighted breakup rates directly, and adjusted odds ratios are derived from separate logistic regressions controlling for marital status at wave I, coresidence at wave I, respondent race, respondent religion, the presence of children in the respondent's household at wave I, and length of respondent's relationship with their partner.",
                        "According to Table 3, couples who met through friends had slightly higher than average breakup rates (9.6 percent broken up after one year, compared to 8.1 percent for couples who did not meet through friends). The greater breakup rate of couples who met through friends becomes statistically significant when potential confounding factors are controlled for.",
                        "As was the case with relationship quality, most differences in couple dissolution rates described in Table 3 are not consistent with a couple dissolution bias explanation of changing ways Americans meet their partners shown in Figure 1. Only the last two categories--met in primary or secondary school and met in church--have substantially lower couple dissolution rates that could partly explain their greater prevalence among heterosexual couples who met further in the past in Figure 1. Although differences in one-year breakup rates are mostly small and insignificant, even a small difference in the annual breakup rate could create substantial differences over decades.",
                        "Table 4 presents a further effort to assess whether the way couples meet has changed over time. Table 4 compares weighted nationally representative data from question 33 of wave I of the 2009 HCMST to results from an identically worded question (also weighted and nationally representative) from the 1992 National Health and Social Life Survey (NHSLS) (Laumann et al. 1994). Column 1 presents NHSLS data on how respondents met their current or most recent cohabiting partner as of 1992, and column 2 presents HCMST data for couples living together in 1992 (i.e., living together for at least 17 years prior to the 2009 HCMST survey). Subjects in the 1992 NHSLS were 18 to 59 years old, so column 2 includes only subjects from the 2009 HCMST who were ages 18 to 59 in 1992. Except for the \"met through friends\" category (33.1 percent among long-term HCMST cohabiters, compared to 40.3 percent in the NHSLS), columns 1 and 2 are reasonably close to each other, which is what we would expect if couple longevity is not much affected by how couples meet. The similarity of columns 1 and 2 (despite the additional 17 years of couple duration in HCMST), and the increasing gap between the NHSLS in column 1 and the more recently formed couples in HCMST columns 3 and 4 (especially the decline in meeting through family or classmates and the rise in self-introduction), reinforces the period explanation we offered for Figure 1.",
                        "Table 3 suggested that couples who meet through friends have an especially high breakup rate, which is consistent with Table 4's finding that HCMST underestimates the percentage of couples who met through friends in the past. If HCMST does underestimate \"meeting through friends\" in the past, then the real decline over time in the role of friends in the dating market may be even steeper than the decline shown in Figure 1.",
                        "The rise in self-introduction, from 31.7 percent in the 1992 NHSLS, to 36 percent in the 2009 HCMST, to 43.1 percent for HCMST couples who met after 1999 is consistent with a decline in the intermediation of others (e.g., family) and the rise of the Internet, which favors self-introduction. Corollary 2 predicted that the Internet era would be accompanied by an increase in the percentage of Americans who meet without the active brokerage of third persons; Table 4 supports this corollary."
                    ]
                },
                {
                    "title": "How Heterosexual Couples Meet",
                    "paragraphs": [
                        "The literature on mate selection has always assumed, without direct evidence, that the context of how couples meet is an important determinant of what kinds of couples will exist. Hypothesis 3, based on prior literature, predicted that families' intermediation would be associated with more traditional types of couples. Figure 1 already demonstrated that same-sex couples were substantially less likely to meet through family intermediation. Table 5 shows that 18.2 percent of all heterosexual couples in the United States met at least in part through the intermediation of some member of the respondent's family or their partner's family, compared to only 3.5 percent of same-sex couples. The odds ratio for the difference in meeting through family is .16, meaning the odds of having met through family were about one-sixth as high for same-sex couples as for heterosexual couples, and the odds ratio remains significantly less than one after respondent age and couple longevity are controlled for.",
                        "As the literature and Hypothesis 3 predicted, interracial and interreligious couples were also less likely to have met through family intermediation, although family suppresses interracial and interreligious unions less dramatically than it suppresses same-sex unions. For interracial couples, the odds of having met through family were .56 times as high as for same-race couples; for interreligious couples (most of whom are unions of persons raised as Protestants with partners raised as Catholics), the odds of meeting through family were .77 times as high as for couples in which both partners were raised in the same religion. Family's negative effect on interreligious and interracial couple formation remains significant after respondent age and couple longevity are controlled for.",
                        "Meeting through family connections is associated with a particularly traditional type of couple formation--heterosexual couples and couples that are uniform by race and religion--but Table 5 shows that meeting through family is not significantly associated with class homophily for romantic couples. Neither the couple's nor their mothers' educational gap, nor the age gap between partners, is significantly lower for couples who met through family.",
                        "Whereas the family is an institution that promotes the formation of traditional types of unions, couples who met online tended to be less traditional in several important respects. First, as we have already shown, meeting online was much more common among same-sex couples than among heterosexual couples, and Table 5 shows that the higher rate of online meeting for same-sex couples (41 percent of same-sex couples formed in the past 10 years met online, compared to 17 percent of heterosexual couples) remains significant after controlling for Internet access at home, respondent age, and couple longevity. Interreligious couples were more likely to have met online (22 percent compared to 15 percent of same-religion couples), and the odds ratio for this comparison remained greater than one even after background variables were controlled for, supporting Hypothesis 4 (that the Internet would be associated with the formation of more nontraditional couples).",
                        "According to Table 5, interracial couples were slightly less likely than same-race couples to have met online (16 versus 19 percent), but the difference is not statistically significant. The fact that online meeting was not more common for interracial couples is somewhat surprising and is contrary to Hypothesis 4. Early, more utopian scholarship on effects of the Internet argued that online participation might undermine the importance of race or other ascriptive characteristics (Barlow 1996; Katz and Rice 2002) because early Internet social networking was text rather than browser based (Kendall 2002). In text-only interactions, interlocutors' race, gender, and background characteristics are difficult to discern, but in a web dating environment, users are expected to post photographs of themselves, so race and gender (although not necessarily religion) are highly visible. Of the 280 HCMST respondents who met their partners online, only 18 met their partner through online gaming, where participants' race is obscured. The majority of HCMST couples who met online met through online dating websites, where participants' race is either stated or can be inferred from their portrait photograph."
                    ]
                },
                {
                    "title": "How Heterosexual Couples Meet",
                    "paragraphs": [
                        "Hypothesis 5 predicted that individuals in thin dating markets would find the greater efficiency of Internet search to be especially important. Single heterosexuals in their 30s and 40s face a thin dating market, because most people in their 30s and 40s are already partnered. Figure 2 shows that for heterosexual men and women, the partnership rate peaks for respondents in their late 30s. For heterosexuals in their late 30s, the partnership rate is over 80 percent, meaning that fewer than 20 percent of individuals are single.",
                        "Even though we might expect comfort with technology to be greatest among the most recent birth cohorts, the youngest respondents were not the most likely to meet their partners online. For heterosexual men, the shape of the age dependency of meeting online was similar to the shape of the age dependency of women's partnership rate (see the left side of Figure 2), with a somewhat later peak.",
                        "The heterosexual male partnership rate also peaked for men in their late 30s, but unlike the female partnership rate, the male partnership rate remained high (around 80 percent) as men aged (see the upper-right quadrant of Figure 2). The rate of Internet use for meeting partners peaked for women in their early 40s and then declined. Women's rate of using the Internet to meet men roughly paralleled men's partnership rate up to about age 50, when women's use of the Internet to meet men declined, but the men's partnership rate remained high. One reason older women were less likely to meet partners online is that older women were much less likely than older men to have Internet access at home. In HCMST, 37 percent of men in their 60s had Internet access at home compared to 21 percent of women, and 40 percent of men in their 70s had Internet access at home compared to 21 percent of women. Among older Americans, the digital divide has a strong gender component (Katz and Rice 2002:63), which may be one constraint on the ability of older women (who are in a thin dating market) to find partners.",
                        "To what extent is the partnership rate of heterosexual women of a certain age a reasonable measure of the lack of availability of partners for single men of the same age group (and vice versa)? Despite the existence of age discrepant couples, age homophily is the dominant pattern among couples. Among heterosexual couples in the United States (according to weighted data from HCMST), the median absolute value age gap is three years, the 75th percentile age gap is six years, and the 90th percentile age gap is ten years. Most couples are similar in age, and most individuals prefer a potential partner to be similar in age (Hitch et al. 2010), although research shows men's preference for women younger than themselves increases for men who marry later in life (England and McClintock 2009). Furthermore, meeting online is not associated with more age discrepancy between partners (see Table 5).",
                        "The way the age-specific Internet meeting rate parallels the age-specific partnership rate for heterosexuals (with the exception of older women's Internet use) supports Hypothesis 5, which predicted that the Internet's search efficiency would be especially useful to individuals in thin dating markets. Heterosexual men were significantly more likely to have met their partner online when women in the same age group were especially unavailable (regression results available in Table S8 of the online supplement), and the same was true for women meeting men online as a function of men's relative unavailability, even after controlling for couple longevity, Internet access at home, race, and education. Other subgroups who can be presumed to be in thin dating markets (e.g., religious minorities such as Jews or sexual minorities such as gays and lesbians in the South or in rural areas) are not present in the HCMST in sufficient numbers to allow for additional tests of Hypothesis 5.",
                        "The age-specific Internet meeting pattern for same-sex couples was quite different (not shown in Figure 2) from the pattern for heterosexual couples, in part because gays and lesbians are always in a thin dating market, regardless of age. Previous literature shows that online dating is especially common among gays, lesbians, and middle-aged heterosexuals (Lever et al. 2008).8"
                    ]
                },
                {
                    "title": "How Heterosexual Couples Meet",
                    "paragraphs": [
                        "One of the key questions relating to the Internet as a social intermediary is whether the Internet fosters new social connections between people who otherwise would have been strangers, or whether the Internet is simply a medium for more efficient communication between individuals who already know each other (boyd and Ellison 2008; Putnam 2000). HCMST data are especially well suited to analysis of this question because the HCMST main survey included not only multiple-choice questions about how and when respondents met their partner, but also extended text answers from each respondent telling the story of how they met their spouse or partner.",
                        "Among respondents in HCMST who met their partner online, Table 6 shows that 74 percent of the partnerships were between perfect strangers (to be nationally representative, results are weighted). Typical stories from this group include respondents who posted or answered online personal classified ads, respondents who posted or answered profiles on matchmaking websites, respondents who had partners recommended to them by matchmaking websites, respondents who met through online chat, respondents who met their partners while gaming online, and respondents who met through interest- or church-based online communities. Only 14.1 percent of respondents who met their partners online had these meetings mediated in any way by friends, family, or others with whom they already had a personal relationship. Typical stories of mediated Internet meetings include friends forwarding links to promising online profiles, or respondents whose friends sat them down in front of a computer with a chat window already opened. Slightly less than 10 percent of all couples who met online first knew each other, or knew of each other, in a different context and then reconnected, usually through social networking websites such as Facebook or Classmates.com."
                    ]
                },
                {
                    "title": "How Heterosexual Couples Meet",
                    "paragraphs": [
                        "Because the Internet is an important facilitator of new romantic relationships in the United States, Hypothesis 6 predicted that individuals with Internet access at home would be more likely to be partnered and less likely to be single. Table 7 excludes respondents who met their partner before 1995; this captures only respondents who could have met their partners online. With pre-Internet couples excluded, the partnership rate is 35.9 percent for individuals who did not have their own Internet access prior to joining the KN panel, and 71.8 percent for respondents who did have their own Internet access at home prior to joining the KN panel. After we control for respondent age, gender, education, GLB status, race, and religion via logistic regression, the adjusted odds ratio for having a partner is still 1.78 times higher (and significantly greater than one) for respondents who had Internet access before joining the KN panel. We obtain similar results when the dependent variable is coresident or married partners, with or without multivariate controls. Having Internet access at home is strongly associated with having a partner.",
                        "Because of KN's provision of Internet access to non-Internet households, non-Internet households in this comparison have more access to the Internet than those in the general population. The comparison of Internet to non-Internet households in the HCMST dataset probably understates differences between Internet and non-Internet households in the general population. On the other hand, the timing of when respondents obtained Internet access at home is not clear, so there is the possibility of reverse causality, which we control somewhat by excluding couples who met before the Internet era. Regardless of the controls or the dependent variable, Internet access at home is a powerful and significant predictor of having a romantic partner, confirming our prediction in Hypothesis 6."
                    ]
                },
                {
                    "title": "How Heterosexual Couples Meet",
                    "paragraphs": [
                        "Although the association between Internet access at home and having a romantic partner is a strong and statistically significant association, several important caveats apply. First, as we mentioned earlier, there could be reverse causality: partnered adults might be more likely to have Internet access at home as a result of being partnered. The second caveat has to do with the implications of the Internet's effect on romantic partnerships in the United States. If the Internet fundamentally increases efficiency for partner search, following Hypothesis 7 we should expect an increase during the Internet era in the romantic partnership rate for adults, particularly for same-sex couples (who are most likely to have met online) but also for middle-aged heterosexuals.",
                        "Table 8 shows an apparent increase in the number of same-sex couples in the United States, with especially strong growth between 1990 and 2000 (Smith and Gates 2001). Comparison of same-sex couples from the U.S. Census and American Community Survey (ACS) are bedeviled by changes in the way the Census deals with people who report being married to someone of the same gender (Gates 2009). We report same-sex couple data in the most comparable way, with marital status recodes excluded. It is impossible to know how much of the apparent increase in the number of same-sex couples is due to an increase in the partnering rate of gays and lesbians. One factor that certainly contributes to the increasing number of same-sex couples registered in the Census is a changing social climate that leads previously existing couples to be increasingly willing to \"out\" themselves to the Census Bureau.",
                        "Unlike the partnership rate of gays and lesbians, overall adult partnership appears not to have changed during the Internet era. We examined data from the Current Population Survey (CPS) 1995 to 2009 and the National Survey of Family Growth (NSFG) 1982 to 2008, and we found no sign of a change in the overall partnership rate (see Tables S4a and S4b in the online supplement). CPS data show partnership rates stable between 72 and 73 percent (including married respondents and respondents with unmarried coresident partners) for adults ages 30 to 49 years from 1995 to 2009. NSFG data show that the percentage of women age 30 to 44 years who had a husband or boyfriend (whether coresident or not) was stable between 87 and 89 percent from 1982 to 2008. Whereas the increasing number of same-sex couples could be construed as being consistent with the hypothesis of increasing partnership rates for same-sex couples since the advent of the Internet era, there appears to be no such evidence for Americans in general, even in the age group in which heterosexuals are most likely to meet partners online."
                    ]
                }
            ]
        },
        {
            "title": "Discussion",
            "subsections": [
                {
                    "title": null,
                    "paragraphs": [
                        "The efficiency benefit of Internet search has had some interesting effects on the market for romantic partners in the United States. As a more efficient market, the Internet tends to displace other markets for partners. Since 1995, the percentage of Americans meeting their partners online has risen dramatically, and the percentage meeting through almost all of the traditional ways has fallen. Family of origin and primary and secondary school (the traditional institutions based around place of origin) had already declined in importance as institutions that brought heterosexual couples together, long before the arrival of the Internet, but the Internet's arrival accelerated these origin-based traditional institutions' declining influence. Friends and the workplace, two social institutions associated with later life stages, grew in influence during the second half of the twentieth century, and these institutions, too, have become less common as places Americans meet their romantic partners in the Internet era.",
                        "No one denies the Internet's efficiency benefits, but argument remains over the social costs of the new efficiencies. If one believes that society's health depends on the strength of local traditional institutions of family, church, primary school, and neighborhood (see, e.g., Putnam 2000), then one might be reasonably concerned about the Internet's partial displacement of these traditional institutions. Connecting young people with potential opposite-sex, same-race, and same-religion partners has always been one of the core functions of the family. The rise in recent decades in the number of same-sex and interracial couples in the United States undoubtedly owes something to the declining influence of family over the mate selection process.",
                        "Some critics of the new technologies' social impacts claim that the efficiency of Internet communication leads to superficial relationships that cannot compare with the richness of face-to-face relationships (Putnam 2000; see also the comment on Putnam in Wellman 2001). As the relationships in the HCMST data are almost entirely face-to-face, we cannot comment on the relative merits of purely online relationships. We did, however, test whether face-to-face relationships that were originally formed online were of lower quality or more fragile than relationships formed in more traditional ways. We found no differences: romantic relationships originally formed online were no different in quality than any other relationships, and relationships originally formed online were no more fragile than relationships formed offline during a similar period.",
                        "In large part because of the Internet, the proportion of American couples who introduce themselves to each other, that is, who meet without the active brokerage of any third person, has risen sharply. Among couples who met online, 74 percent had previously been perfect strangers. The Internet flattens the social world (Friedman 2005) and allows people to search for, to find each other, and to meet entirely without the intervention of friends, family, neighbors, or co-workers.",
                        "Although the Internet seems to be crowding out other social intermediaries to a certain extent, traditional social institutions will never disappear as intermediaries in the dating market. Young heterosexual adults, who are presumably among the most technologically savvy people in society, are among the least likely to meet partners online. Young adults have single others all around them, which renders the Internet's search advantages mostly irrelevant. In environments rich with potential partners, old fashioned face-to-face socializing still trumps online search. Furthermore, even when one meets a partner online, one still needs friends and family to integrate that new partner into one's social life.",
                        "The power of Internet search is especially important in identifying potential partners for individuals who face a thin dating market. Gays, lesbians, and middle-aged heterosexuals all face thin dating markets, and these are the groups most likely to rely on the Internet to find their partners. Additionally, traditional relationship brokerage institutions of family, the church, and the workplace were never remotely as useful to gays and lesbians as they were to heterosexuals.",
                        "In in-depth interviews conducted to supplement the HCMST survey, interviewees explained how the Internet became important in their search for partners. One lesbian woman living in the South knew of no way to find other gay women nearby. She had tried the one gay bar and the one gay church that she knew of, with disappointing results. When she discovered America Online and realized she could search personal ads in her own zip code, she was able to identify a new pool of potential partners she would not otherwise have met. The gay bar plays a large role in the social history of lesbians and gays in the United States (Chauncey 1994; D'Emilio 1998; Kennedy and Davis 1993), but gay bars have not always been safe or pleasant, and bars inevitably reach only a small percentage of the local gay and lesbian communities. Compared to the gay bar, the Internet provides a substantially safer, potentially more discreet, and more anonymous way to meet people (Brown, Maycock, and Burns 2005).",
                        "Finally, because the Internet is such an important social intermediary for romantic couple formation, individuals with Internet access at home are substantially more likely to have a romantic partner. We hypothesized that efficiencies of Internet search for romantic partners should lead to a higher partnership rate in the United States, but aside from same-sex couples, the data show no change in the partnership rate of U.S. adults. We suspect one reason the partnership rate in the United States has not risen is that older heterosexual women, who number in the millions and face a decidedly thin dating market, are constrained by a lack of Internet access. As more technologically savvy generations of women age into late adulthood, Americans' overall partnership rate, which seems to have been flat for some time, may rise."
                    ]
                }
            ]
        }
    ],
    "references": [
        "Adamic, Lada A., Glance, Natalie. 2005. \u201cThe Political Blogosphere and the 2004 U.S. Election: Divided They Blog.\u201d Proceedings of the Third International Workshop on Link Discovery pp. 36\u201343.",
        "Anderson, Chris. 2006. The Long Tail: Why the Future of Business is Selling Less of More. New York: Hyperion.",
        "Baker, Reg, Blumberg, Stephen J., Brick, J. Michael, Couper, Mick P., Courtright, Melanie, Dennis, J. Michael, Dillman, Don, Frankel, Martin R., Garland, Philip, Groves, Robert M., Kennedy, Courtney, Krosnick, Jon, Lavrakas, Paul J., Lee, Sunghee, Link, Michael, Piekarski, Linda, Rao, Kumar, Thomas, Randall K., Zahs, Dan. 2010. \u201cResearch Synthesis: AAPOR Report on Online Panels.\u201d Public Opinion Quarterly 74:711\u201381.",
        "Barlow, John Perry. 1996. \u201cA Declaration of the Independence of Cyberspace.\u201d Retreived Sseptember 6, 2011 (https://projects.eff.org/~barlow/Declaration-Final.html).",
        "Becker, Gary S. 1991. A Treatise on the Family. Cambridge, MA: Harvard University Press.",
        "B\u00e9rub\u00e9, Allan. 1990. Coming Out Under Fire: The History of Gay Men and Women in World War Two. New York: The Free Press.",
        "Bossard, James H. S. 1932. \u201cResidential Propinquity as a Factor in Marriage Selection.\u201d American Journal of Sociology 38:219\u201324.",
        "boyd, danah m., Ellison, Nicole B. 2008. \u201cSocial Network Sites: Definition, History, and Scholarship.\u201d Journal of Computer-Mediated Communication 13:210\u2013230.",
        "Bozon, Michel, Heran, Francois. 1989. \u201cFinding a Spouse: A Survey of How French Couples Meet.\u201d Population 44:91\u2013212.",
        "Brown, Graham, Maycock, Bruce, Burns, Sharyn. 2005. \u201cYour Picture Is Your Bait: Use and Meaning of Cyberspace among Gay Men.\u201d Journal of Sex Research 42:63\u201373.",
        "Callegaro, Mario, DiSogra, Charles. 2008. \u201cComputing Response Metrics for Online Panels.\u201d Public Opinion Quarterly 72:1008\u20131032.",
        "Castells, Manuel. 2000. The Rise of the Network Society, 2nd ed. Oxford, UK: Blackwell.",
        "Chadwick Martin Bailey. 2010. \u201cRecent Trends: Online Dating.\u201d Retrieved August 27, 2010 (http://cp.match.com/cppp/media/CMB_Study.pdf).",
        "Chang, Linchiat, Krosnick, Jon A. 2009. \u201cNational Surveys via RDD Telephone Interviewing versus the Internet: Comparing Sample Representativeness and Response Quality.\u201d Public Opinion Quarterly 73:661\u201374.",
        "Chauncey, George. 1994. Gay New York: Gender, Urban Culture and the Making of the Gay Male World, 1890\u20131940. New York: Basic Books.",
        "Cleveland, William S. 1979. \u201cRobust Locally Weighted Regression and Smoothing Scatterplots.\u201d Journal of the American Statistical Association 74:829\u201336.",
        "Correll, Shelly. 1995. \u201cThe Ethnography of an Electronic Bar: The Lesbian Cafe.\u201d Journal of Contemporary Ethnography 24:270\u201396.",
        "Couper, Mick P. 2000. \u201cWeb Surveys: A Review of Issues and Approaches.\u201d Public Opinion Quarterly 64:464\u201394.",
        "D\u2019Emilio, John. 1998. Sexual Politics, Sexual Communities: The Making of a Homosexual Minority in the United States, 1940\u20131970, 2nd ed. Chicago: University of Chicago Press.",
        "DiMaggio, Paul, Hargittai, Eszter, Neuman, W. Russell, Robinson, John P. 2001. \u201cSocial Implications of the Internet.\u201d Annual Review of Sociology 27:307\u2013336.",
        "England, Paula, McClintock, Elizabeth Aura. 2009. \u201cThe Gendered Double Standard of Aging in U.S. Marriage Markets.\u201d Population and Development Review 35:797\u2013816.",
        "Fischer, Claude S. 1985. \u201cStudying Technology and Social Life.\u201d Pp. 284\u2013300 in High Technology, Space, and Society, edited by Castells, M. FischerBeverly Hills, CA: Sage Publications.",
        "Fischer, Claude S. 1994. America Calling: A Social History of the Telephone to 1940. Berkeley: University of California Press.",
        "Fountain, Christine. 2005. \u201cFinding a Job in the Internet Age.\u201d Social Forces 83:1235\u201362.",
        "Fricker, Scott, Galesic, Mirta, Tourangeau, Roger, Yan, Ting. 2005. \u201cAn Experimental Comparison of Web and Telephone Surveys.\u201d Public Opinion Quarterly 69:370\u201392.",
        "Friedman, Thomas L. 2005. The World is Flat: A Brief History of the Twenty-First Century. New York: Farrar, Straus and Giroux.",
        "Gale, David, Shapley, Lloyd S. 1962. \u201cCollege Admissions and the Stability of Marriage.\u201d American Mathematical Monthly 69:9\u201315.",
        "Gates, Gary J. 2009. \u201cSame-Sex Spouses and Unmarried Partners in the American Community Survey, 2008.\u201d Los Angeles, CA: The Williams Institute.",
        "Gates, Gary J., Ost, Jason. 2004. The Gay and Lesbian Atlas. Washington, DC: Urban Institute Press.",
        "Granovetter, Mark S. 1974. Getting a Job: A Study of Contacts and Careers. Cambridge, MA: Harvard University Press.",
        "Hargittai, Eszter. 2008. \u201cWhose Space? Difference Among Users and Non-Users of Social Network Sites.\u201d Journal of Computer-Mediated Communication 13:276\u201397.",
        "Harris Interactive. 2009. \u201ceHarmony Marriage Metrics Study.\u201d Retrieved August 27, 2010 (http://download.eharmony.com/pdf/Harris-09-Executive-Summary.pdf).",
        "Hitch, G\u00fcnter J., Horta\u00e7su, Ali, Ariely, Dan. 2010. \u201cMatching and Sorting in Online Dating.\u201d American Economic Review 100:130\u201363.",
        "Kalmijn, Matthijs, Flap, Henk. 2001. \u201cAssortative Meeting and Mating: Unintended Consequences of Organized Settings for Partner Choices.\u201d Social Forces 79:1289\u20131312.",
        "Katz, James E. 1997. \u201cThe Social Side of Information Networking.\u201d Society 34:9\u201312.",
        "Katz, James E., Rice, Ronald E. 2002. Social Consequences of Internet Use. Cambridge, MA: MIT Press.",
        "Kendall, Lori. 2002. Hanging Out in the Virtual Pub: Masculinities and Relationships Online. Berkeley: University of California Press.",
        "Kennedy, Elizabeth Lapovsky, Davis, Madeline D. 1993. Boots of Leather, Slippers of Gold: The History of a Lesbian Community. New York: Routledge.",
        "Kennedy, Ruby Jo Reeves. 1943. \u201cPremarital Residential Propinquity and Ethnic Endogamy.\u201d American Journal of Sociology 48:580\u201384.",
        "Kraut, Robert, Kiesler, Sara, Boneva, Bonka, Cummings, Jonathon, Helgeson, Vicki, Crawford, Anne. 2002. \u201cInternet Paradox Revisited.\u201d Journal of Social Issues 58:49\u201374.",
        "Kraut, Robert, Patterson, Michael, Lundmark, Vicki, Kiesler, Sara, Mukopadhyay, Tridas, Scherlis, William. 1998. \u201cInternet Paradox: A Social Technology That Reduces Social Involvement and Psychological Well-Being?\u201d American Psychologist 53:1017\u20131031.",
        "Kuhn, Peter, Skuterud, Mikal. 2004. \u201cInternet Job Search and Unemployment Durations.\u201d American Economic Review 94:218\u201332.",
        "Laumann, Edward O., Gagnon, John H., Michael, Robert T., Michaels, Stuart. 1994. The Social Organization of Sexuality: Sexual Practices in the United States. Chicago: University of Chicago Press.",
        "Lever, Janet, Grov, Christian, Royce, Tracy, Gillespie, Brian Joseph. 2008. \u201cSearching for Love in all the \u2018Write\u2019 Places: Exploring Internet Personals Use by Sexual Orientation, Gender, and Age.\u201d International Journal of Sexual Health 20:233\u201346.",
        "Light, Jennifer S. 2006. \u201cFacsimile: A Forgotten \u2018New Medium\u2019 from the 20th Century.\u201d New Media & Society 8:355\u201378.",
        "Lynd, Robert Staughton, Lynd, Helen Merrell. 1929. Middletown, a Study in Contemporary American Culture. New York: Harcourt, Brace and Company.",
        "Madden, Mary, Lenhart, Amanda. 2006. \u201cOnline Dating: Americans Who Are Seeking Romance Use the Internet to Help Them in their Search, but there is still Widespread Public Concern about the Safety of Online Dating.\u201d Washington, DC: Pew Internet & American Life Project.",
        "Nie, Norman, Hillygus, D. Sunshine. 2002. \u201cThe Impact of Internet Use on Sociability: Time-Diary Findings.\u201d IT & Society 1:1\u201320.",
        "Parks, Malcolm R., Roberts, Lynne D. 1998. \u201c\u2018Making Moosic\u2019: The Development of Personal Relationships On Line and a Comparison to their Off-Line Counterparts.\u201d Journal of Social and Personal Relationships 15:517\u201337.",
        "Putnam, Robert D. 2000. Bowling Alone: The Collapse and Revival of American Community. New York: Simon and Schuster.",
        "Qian, Zhenchao, Lichter, Daniel T. 2007. \u201cSocial Boundaries and Marital Assimilation: Interpreting Trends in Racial and Ethnic Intermarriage.\u201d American Sociological Review 72:68\u201394.",
        "Robnett, Belinda, Feliciano, Cynthia. 2011. \u201cPatterns of Racial-Ethnic Exclusion by Internet Daters.\u201d Social Forces 89:807\u2013828.",
        "Rosenfeld, Michael J. 2007. The Age of Independence: Interracial Unions, Same-Sex Unions, and the Changing American Family. Cambridge, MA: Harvard University Press.",
        "Rosenfeld, Michael J. 2008. \u201cRacial, Educational, and Religious Endogamy in Comparative Historical Perspective.\u201d Social Forces 87:1\u201332.",
        "Rosenfeld, Michael J., Thomas, Reuben J. 2010. \u201cHow Couples Meet and Stay Together, Wave 2 version 2.04.\u201d Machine Readable Data File. Stanford, CA: Stanford University Libraries (http://data.stanford.edu/hcmst).",
        "Ruggles, Steven, Alexander, J. Trent, Genadek, Katie, Goeken, Ronald, Schroeder, Matthew B., Sobek, Matthew. 2010. Integrated Public Use Microdata Series: Version 5.0 [machine-readable database]. Minneapolis: University of Minnesota (http://www.ipums.org).",
        "Sautter, Jessica M., Tippett, Rebecca M., Morgan, S. Philip. 2010. \u201cThe Social Demography of Internet Dating in the United States.\u201d Social Science Quarterly 91:554\u201375.",
        "Schwartz, Christine R., Mare, Robert D. 2005. \u201cTrends in Educational Assortative Marriage From 1940 to 2003.\u201d Demography 42:621\u201346.",
        "Smith, David M., Gates, Gary J. 2001. \u201cGay and Lesbian Families in the United States: Same-Sex Unmarried Partner Households.\u201d Washington, DC: Human Rights Campaign. Retrieved March 26, 2011 (http://www.urban.org/publications/1000491.html).",
        "Todd, Peter M., Miller, Geoffrey F. 1999. \u201cFrom Pride and Prejudice to Persuasion: Satisficing in Mate Search.\u201d Pp. 287\u2013308 in Simple Heuristics that Make Us Smart, edited by Gigerenzer, G., Todd, P.M. and ABC Research Group. New York: Oxford University Press.",
        "U.S. Bureau of the Census. 2009. \u201cChanges to the American Community Survey between 2007 and 2008 and Their Potential Effect on the Estimates of Same-Sex Couple Households.\u201d Washington, DC: U.S. Bureau of the Census. Retrieved March 22, 2011 (http://www.census.gov/population/www/socdemo/files/changes-to-acs-2007-to-2008.pdf).",
        "U.S. National Telecommunications and Information Administration. 2010. \u201cDigital Nation: 21st Century America\u2019s Progress Toward Universal Broadband Internet Access.\u201d Washington, DC: U.S. Department of Commerce. Retrieved March 15, 2011 (http://www.ntia.doc.gov/reports/2010/NTIA_internet_use_report_Feb2010.pdf).",
        "Wang, Hua, Wellman, Barry. 2010. \u201cSocial Connectivity in America: Changes in Adult Friendship Network Size from 2002 to 2007.\u201d American Behavioral Scientist 53:1148\u201369.",
        "Wellman, Barry. 2001. \u201cPhysical Place and Cyberplace: The Rise of Personalized Networking.\u201d International Journal of Urban and Regional Research 25: 227\u201352.",
        "Weston, Kath. 1991. Families We Choose: Lesbians, Gays, Kinship. New York: Columbia University Press.",
        "Yzer, Marco C., Southwell, Brian G. 2008. \u201cNew Communication Technologies, Old Questions.\u201d American Behavioral Scientist 52:8\u201320."
    ],
    "title": "Searching for a Mate",
    "issue": "4",
    "volume": "77",
    "year": 2012,
    "issn": "0003-1224",
    "journal": "American Sociological Review",
    "authors": [
        "Michael J. Rosenfeld",
        " Reuben J. Thomas"
    ]
}