{
    "doi": "http://dx.doi.org/10.1093/esr/jcv085",
    "abstract": "Using European Union Labour Force Survey data from 1998 to 2004, this research explores how the decrease in the positional value of education associated with educational expansion has affected occupational returns to education in Spain. The positional value of education is measured by taking the percentage of labour market entrants with at least the same level of education as the respondent for every year of entry into the labour market since 1959. We control for the effects of the economic cycle, of economic sectors, and of the different educational reforms that have affected nine successive cohorts of labour market entrants. Our analysis reveals, first, that a higher percentage of entrants with at least the same credential as the respondent is associated with lower occupational prestige; second, we find that this loss of occupational prestige is higher for general than for technical education, supporting the hypothesis that technical fields of education transmit a clearer signal of workers\u2019 skills to employers. The exception is health and welfare fields in higher education. The possibility that educational or occupational segregation by gender explains the relative occupational loss in this particular field is not supported by our findings.",
    "sections": [
        {
            "title": "Introduction",
            "paragraphs": [
                " In 1993 Shavit and Blossfeld provided empirical evidence that educational expansion over the 20th century had not led to a decrease in the inequalities of educational opportunities by social origin; on the contrary, of the thirteen countries included in the project they coordinated, there were signs of redistribution of opportunities of educational attainment across individuals from different social origins only in two of them ( Shavit & Blossfeld, 1993 ). ",
                " Resorting to a different method (ordinal logistic regression), more recent data and larger national samples, Breen et al . recently challenged Shavit and Blossfeld's conclusions. Their results point to a 'clear decline in educational inequality in several countries over the 20th century' (  Breen et al. , 2009  : 1477). At the end of their article, though, Breen et al . acknowledged that the relevance of the reduction in educational inequalities is conditional on education keeping its human capital value. If education had increasingly become a 'positional good'--they argue--the 'value of an educational qualification [would have dropped] in proportion to the number of people who acquire it' (1515). ",
                " The current work is inspired by that possibility. If education had lost part of its value as an investment in human capital and had increasingly become a positional good, the real importance of 'nonpersistent inequality' could have been overstated. There is already some evidence that such a 'trade-off scenario' could exist nowadays ( Bernardi and Ballarino, 2012 ). ",
                "This article intends to answer the following question: has there been any trend towards education becoming a positional good?; in particular, is there any evidence that a decline in the occupational returns to education is associated with an increasing percentage of labour-market entrants with at least the same level of education as themselves? After revising different theories on the association between educational expansion and occupational attainment, we justify the selection of the Spanish case for the analysis. Next, we introduce the data and methods used for testing our hypotheses. Then, the results of the analyses are presented. In the final section, we discuss the relevance of our results."
            ]
        },
        {
            "title": "Educational Expansion and Occupational Returns to Education",
            "paragraphs": [
                " Breen et al .'s work opens the way to consider two possible values of educational attainment: an absolute or intrinsic value , which provides individuals with skills that allow them to carry out tasks associated with a given job; and a positional value , conferred to an educational credential by its position in the hierarchy of educational titles. Let us define the positional value of a level of education as the percentage of individuals whose educational attainment is at least as high as that level in a given labour-market entry cohort. The higher this percentage is, the lower will be the positional value of education. This is coherent with the idea that having a university degree may not convey the same value if university graduates are 5 per cent of the active population in a given labour-market-entry cohort as if they are 30 per cent. Unfortunately, with some exceptions ( Ultee, 1980 ), studies on social stratification, social mobility, and sociology of education have only considered the intrinsic value of education, not its positional one ( Goldthorpe, 2014 : 21). And the few exceptions that have contemplated this positional value have not considered the possibility that educational expansion may have different effects across types or levels of education (see below) ( van de Werfhorst, 2011 ; Bol, 2015 ). In this article we are explicitly interested in this positional value; more specifically, in the effect that its changes may have on occupational attainment. ",
                " The effect of educational expansion on the positional value of education and occupational attainment can be investigated from different perspectives. For Human Capital Theory (HCT) educational expansion is irrelevant for setting the value of educational credentials. This view is represented in Figure 1 . The x axis represents the percentage of individuals in the same labour-market-entry cohort with at least the same level of education. The y axis represents some continuous measure of occupational attainment [e.g., International Socio-Economic Index of Occupational Status (ISEI)]. We display the occupational returns to three levels of education (compulsory, secondary, and tertiary) as the percentage of individuals with at least that level increases over time, which is the expected outcome under a scenario of educational expansion. HCT envisions a premium in occupational attainment for higher levels of education owing to the higher skills associated with them, not because more people have access to these skills; that is, not in terms of the percentage of people in each cohort who have attained at least these levels of education. The premium enjoyed by tertiary education relative to secondary education is represented with the segment q at time 0, which is identical to the segment q' at time 1; the premium enjoyed by secondary education, relative to compulsory education, is represented with the segment z and z' at time 0 and time 1, respectively. As shown in figure 1 , these premiums are expected to remain constant, regardless of the change in the percentage of individuals with at least secondary or compulsory education. Hypothesis 1: The occupational returns to education will not be affected by the loss of positional value of educational credentials associated with educational expansion.",
                " Other theoretical approaches contemplate educational expansion as having some effect, either positive or negative, on occupational returns to education. Thus, skill-biased technical change (SBTC) considers educational expansion as a function of the need of higher skills and qualifications associated with the introduction of new information technologies ( Machin, 2003 ; Manning, 2004 ). If there is any change over time in the occupational returns to education, SBTC would predict that it takes the form of an increase owing to a persistent excess of demand of skilled workers. This excess of demand would push employers to hire less skilled ones and provide them with further on-the-job training so as to meet their needs. STBC expects the returns to a given level of education to increase as the percentage with at least that level increases, but nothing in this theory makes it necessary that the premium of that level relative to lower ones changes with educational expansion. In graphical terms ( Figure 2 ), for tertiary education, q is still equal to q', and z is equal to z'. Hypotheses 2: The occupational returns to education will be positively associated with the loss of the positional value of education that comes with educational expansion, but this positive association will be constant across levels of education.",
                " According to the 'polarization' hypothesis, the massive, widespread introduction of computerization has complementary or substitutive effects on occupations depending on the importance of routine work inside their jobs (  Autor et al ., 2003  ; Autor and Handel, 2013 ). Computerization is likely to replace routine work, either cognitive or manual, and complement non-routine one. But routine work is not necessarily concentrated at the bottom of the occupational structure; on the contrary, in many countries, routine work can be found mostly in the occupations classified in the middle quintiles of a distribution of occupations ranked according to their median wage ( Goos and Manning, 2007 ; Oesch and Rodriguez 2011 ). ",
                " David Autor and other authors in this perspective have recently extrapolated their view of a polarized change of the occupational structure to changes in the occupational returns to education (  Autor et al ., 2003  ; Autor and Handel, 2013 ). According to Autor and others, intermediate educational attainment (what they call 'middle education') would be more adversely affected by the polarizing change in the occupational structure driven by technological change, as it is in 'middle occupations' where computerization has a more clear substitution effect. ",
                " In terms of educational expansion, the polarization hypothesis would lead us to expect that the labour market niches traditionally occupied by intermediate levels would decrease, and that those with the corresponding educational titles would progressively move down along the occupational structure. This bleak perspective for 'middle education' is expressed graphically in Figure 3 . Hypotheses 3: The occupational returns to intermediate levels of education will be negatively associated with the loss of their positional value, both in relation to higher education and to compulsory education.",
                " Opposite to SBTC, Credentialism considers that a general increase in educational attainment would devaluate all educational credentials ( Spence, 1973 ; Thurow, 1975 ; Hartog 2000 ). As more individuals graduate from lower secondary education (owing to, for instance, a rise in the age of compulsory education) the supply of such graduates in the market will increase, leading to lower wages and higher unemployment rates, and eventually compelling some of them to accept less prestigious jobs. However, the expansion is also likely to push many individuals to seek further education, expanding the number of graduates at higher levels and similarly devaluating these credentials. By over-educating themselves, individuals would contribute to put down the real value of their titles and diplomas. As more and more people get a university degree, and the value of university education worsens, the value of lower titles and diplomas should deteriorate in parallel. Employers may not regard a university degree as well as they used to, but they may not regard an upper secondary diploma as well as they used to either. Hence, the premium in terms of occupational prestige associated with educational credentials should remain stable, even if the positional value of education worsens. In graphical terms ( Figure 4 ), the loss in the value of education as we move from left to right along the x axis would be homogeneously distributed across levels: q would be equal to q', and z would be equal to z'. Hypotheses 4: The occupational returns to education will be negatively associated with the loss of positional value of education generated by educational expansion, but this negative association will be constant across levels of education.",
                " With few exceptions ( Gebel, 2009 ), the possibility that any eventual effect (either positive or negative) of educational expansion differs across types of education has not been much explored yet. However, there are reasons to believe that an eventual credential inflation dynamics may be manifested with different intensity across types of education. Ianelli and Raffe (2007) formulate two alternative hypotheses on the value of vocational education, relative to general one. Vocational education may have a higher value than general education because it provides employers with a more precise signal of the skills of the individuals who have gained the degree (a welder is a welder, regardless of how many welders there are in the labour market). Alternatively, vocational training may have a lower value than general education because individuals with lower academic abilities tend to choose the vocational track instead of the general academic one ( Ianelli and Raffe, 2007 ). ",
                "Applying Ianelli and Raffe's argument to the association between educational expansion and the evolution of occupational returns to education, two alternative hypotheses can be formulated. Owing to its more specific nature, vocational training might not be as vulnerable as general education to the possible signal deterioration associated with educational expansion, given the more diverse, heterogeneous pool of abilities and motivations that general education brings about. In other words, the strength of the signal provided by technical training would make it more resistant to the adverse effects of educational expansion. Alternatively, technical/vocational training may be more adversely affected by educational expansion because it is associated with poorer academic performance at lower stages of the educational trajectory. The general loss of signalling for skills and competences would be particularly acute for this type of education, as it is associated with lower marks and poorer academic performance at compulsory education.",
                "Figure 5 only represents the first of these two alternative hypotheses. An eventual loss owing to a credential inflation dynamics would be smaller for vocational/technical titles than for general ones. Hypothesis 5: The decrease in the occupational returns to education derived from an eventual loss of positional value of education will be higher for general than for vocational/technical education.",
                " Owing to the increase in female labour market participation over the past decades, some of the dynamics considered above may be strongly gendered. First, the expansion of higher education is positively associated with increasing gender segregation by fields of study ( Charles and Bradley, 2009 ). Women are over-represented in some fields of studies because the working conditions of occupations associated with them are more promising, for instance, in terms of the conciliation of work and family life ( Begall and Mills, 2012 ). Some of these fields, like teaching, may happen to be more general in nature and more liable to a loss of signal as education expands. Second, the occupational returns that women draw from the same type/field of education may not be equal to men's ( Shauman, 2006 ). Women may be over-represented in occupations that allow intermittent labour force participation (  Almquist et al. , 1980  ; Kleinert and Matthes, 2009 ). A more irregular labour market trajectory, especially in some employment or welfare regimes, may curtail female opportunities for on-the-job or in-career training ( Tam, 1997 ). Occupational segregation by gender may lead female graduates to occupations with a lower status than the occupations filled by male graduates in the same level and/or field of study. Hypothesis 6a: Any decrease in the occupational returns to education apparently associated with a loss of its positional value can be explained by female over-representation in the fields of study more adversely affected by such a loss of positional value.Hypothesis 6b: Any decrease in the occupational returns to education apparently associated with a loss of its positional value can be explained by lower female returns to education owing to gender occupational segregation."
            ]
        },
        {
            "title": "Case of Study",
            "paragraphs": [
                " Owing to higher skill requirements associated to post-industrial societies, educational expansion has been generalized across OECD countries, but this expansion has not been equal across countries. Spain has been one of the OECD countries where this expansion has been most remarkable. In 2007, the difference in population with at least upper secondary education between people with 25-34 years of age and people with 55-64 years of age was of 38 percentage points; the same difference was just of 23 percentage points for the whole OCDE ( OECD, 2007 ). As regards college graduation, for instance, the ratio of 25-34 years old with ISCED 5A (and of 30-39 years old with ISCED 6) to 55-64 years old with the same educational attainment in 1999/2000 was 4.7, much higher than the ratio of 2.3 for the whole OECD (REFLEX). ",
                " Ballarino et al . (2009)  show evidence that such an educational expansion has indeed brought about a reduction of inequality of educational attainment by social origins. But recent cross-national research on over-education has also confirmed the existence of a credential inflation dynamics in Spain that is not present in other countries. Applying different indicators of over-education to data on university graduates of nine different countries drawn from REFLEX survey, Barone and Ortiz (2011) found that Spain was the only country with a meaningful incidence of over-education. Both the remarkable educational expansion and the evidence of over-education make the Spanish case a good one to check if education has become a 'positional good', and what are the consequence of it in terms of occupational attainment. "
            ]
        },
        {
            "title": "Data and Methods",
            "paragraphs": [
                "This research is based on data drawn from the European Union Labour Force Survey (EULFS). The EULFS is possibly the best data source for analysing labour market trends in Europe. It goes back in time long enough to capture secular trends, and national sample sizes are large. This is particularly important if university graduates and their fields of study are part of the analysis.",
                " Quite unfortunately, the EULFS does not include the first job, but the current one. First jobs are undoubtedly more suitable for investigating the effect of education on labour market entry. However, we argue that the former may be reasonably well approximated by the latter, as recent studies on occupational mobility have revealed that there is 'more stability than change in occupational category positions' along individuals' working life in Europe ( Bukody and Robert, 2007 ). Bukody and Robert found a particularly 'strong job stability' among countries belonging to the Mediterranean employment regime, like Spain or Italy. We corroborate these findings, by assessing the degree of association between current and first occupation in Spain using the 2006 Spanish Survey of Social Class and Social Structure (CIS 2634, 'Clases Sociales y Estructura Social'), in which both current and first jobs are present. Pearson's correlation between ISEI scores assigned to first and current three-digit ISCO occupations are provided in Table 1 for different age groups. While the association between first and current job is not as strong at the beginning and end as in the middle of the labour market trajectory, the results in Table 1 show that it is reasonably stable and high across all age groups, confirming that current job could be a reasonable proxy of first job in terms of occupational prestige 1 . ",
                "As noted, the dependent variable is a vector of ISEI scores assigned to individuals' current occupations. Unfortunately, the EULFS groups individuals' occupations into two-digit ISCO-88 occupational categories. Because ISEI scores are available only for three- and four-digit occupations, we had to calculate the scores corresponding to ISCO-88 two digit using other data sources. Using data from the European Social Surveys of 2002 and 2004, we calculated a weighted average of the ISEI scores assigned to the four-digit occupations comprised by each of ISCO-88 two-digit groups. These averages were then used as ISEI scores for the 27 groups included in the EULFS.",
                " The substantive variables (  X j ) in our analyses are three:  X 1  = percentage of individuals with at least the same level of education as the respondent for each year of graduation;  X 2  = level of education, and  X 3  = field of education.  X 1 is our main independent variable. It aims at capturing the loss of positional value associated with educational expansion. Higher scores in this variable indicate that there are higher numbers (ranks) of people who share at least the same educational credential, which we associate with a lower positional value of the corresponding credential. By 'positional value' we mean the relative position of an individual in a hierarchical structure of power (in this case, the educational system), i.e., the degree to which he or she monopolizes its most valuable resources. For instance, we will consider that the positional value of university education in a labour-market-entry cohort where just 20 per cent of its members graduated from college is higher (score = 0.2) than for another cohort where 40 per cent of its members became college graduates (score = 0.4). To refine the indicator, we consider the yearly positional value attached to seven levels of education. ",
                " The second substantive variable, level of education (  X 2 ), has only three categories: 'university' (graduate and post-graduate studies), 'upper secondary and upper vocational training', and 'lower secondary or less'. It is aimed at capturing some of the positive effects of educational expansion, those related to population's increase in educational attainment. The third substantive variable is fields of education (  X 3 ), with which we aim to measure the specificity of the skills acquired during education. It also has three categories. The first one includes the most general fields of education: humanities, teacher training, social sciences, services, and general education offered at the lowest levels of education. The second category includes fields of study that are more specific or technical: sciences, maths, computing, engineering, manufacturing, agriculture, and veterinary. Despite its clearly technical nature, we have set a third category for health and welfare fields on the basis of the strong feminization that has accompanied their expansion, a key factor in our theoretical discussion. Our rather collapsed classifications for levels and fields of education can be justified on several grounds: they are simple; they capture the specificity of the skills that may make educational credentials more resilient to the eventually adverse effects of educational expansion; they have internal variation regarding the positional value of education so that it can be calculated for all levels (except for the lowest, which positional value is always 100 per cent); and they help separate the level and field components of the traditional ISCED classification on which they are based, while allowing to estimate the specific effect of ISCED categories on occupational attainment via interaction effects between levels and fields. ",
                " Unfortunately, for the bottom level ('lower secondary education or less'), there was no information in the EULFS survey on fields of study, although it was possible to tell if the respondent did lower vocational education. This nested data structure makes it impossible to test the main effects of the technical and health fields of studies on occupational returns across all levels of education, or to estimate the impact of educational expansion on the positional value of education for such fields, for they are not separated at the lowest level. Our solution has been to randomly allocate all individuals at the lowest level of education who did vocational training into any of the two non-general fields (technical vs. health) on a 50-50 basis. This solution underestimates differences across fields of study in their impact on occupational attainment and in the effects of educational expansion on the positional value of the credentials. Despite such underestimation, as shown below, we still find significant differences across fields in all these respects, especially at higher levels, where our random allocation has no effect. Our solution is hence a valid instrument for testing the hypotheses raised in previous sections. 2",
                " As noted above, we include several controls (  Z k ) in the analyses, so as to obtain unbiased estimates of the effects of the substantive variables on occupational attainment: age (in groups, as provided in the EUFLS), tenure (years of experience in current job), migrant status (natives vs. migrants), sector (NACE rev. 2), and cohort of entry into the labour market. Both age and tenure aim at correcting any possible bias due to considering current rather than first occupations. Migrant status controls for migrants' tendency to hold low-status occupations, below those expected by their educational attainment, which is often not fully recognized at the host country. As for economic sector, it aims to indirectly control for changes in the demand for work requiring different qualifications. Changes in the skill demand may be driven either by fluctuations in the demand of knowing-intensive products, more likely to be produced and sold in some specific sectors, or by changes in the productivity of labour. The SBTC hypothesis specifically posits that a stronger demand for more productive labour will increase the returns to education. Thus, to test this hypothesis we must control for an eventual excess of demand for skilled labour produced by a higher aggregate demand of knowledge-intensive products. We do this by controlling for the economic sector where the work is performed. ",
                "However, our most important control is cohort of entry into the labour market. This variable is meant to grasp other effects of educational expansion beyond the loss in the positional value of education and the increase in educational attainment. Educational expansion may also produce an increase in the quality of education, as intended in the various educational reforms affecting different individuals in the sample. The variable cohort additionally captures the effects of secular modernizing trends in the occupational structure and of cyclical economic fluctuations unmeasured by other variables.",
                " Cohorts were built using the year when the 'highest level of education was successfully completed' by the respondents. We regarded this year as the year of entry into the labour market. Individuals who entered the labour market during years in which the same economic conditions and educational legislation applied were grouped into the same cohort, as these contextual aspects might potentially affect their early occupational attainment. Starting with the economic conditions, it is reasonable to expect that individuals who enter the labour market at times of high unemployment are compelled to accept jobs with lower prestige than those for that they are qualified. As for educational legislation, two reforms (Ley general de Educacion, LGE, 1970; and LOGSE 1990) were particularly important in Spain for improving the quality of education, and therefore also the skills associated with a given educational credential or title. LGE was the first reform to systematize the Spanish system of education, making education compulsory up to 14 years of age. The second reform, LOGSE, extended compulsory education up to 16 years of age and upgraded vocational training by increasing the entry requirements for lower and upper vocational training, thus extending the total number of years of education also for individuals attaining these levels. As it can be seen in Figure 6 below, we have also considered 'transition cohorts' (the ones delimited by red vertical lines), in which the first graduates of a given educational reform were accessing the labour market at the same time as the past graduates of the previous reform. Nine cohorts result from taking into account the different economic cycles and the three educational laws that were implemented during the period in which our sample of analysis completed its formal education. ",
                " A final reason to introduce cohort of labour market entry into the analysis was to control for the likely autocorrelation in the positional value of the educational credentials obtained by individuals graduating in years sharing the same demographic, economic, and regulatory conditions. This autocorrelation would increase standard errors and make it more difficult to detect a significant impact on occupational attainment of a change in the positional value of education. By controlling for cohort in our OLS analyses, we effectively control for such autocorrelation, much like we would by estimating a fixed effects model with individuals at the lower level and cohorts at the highest level of analysis. 3",
                " The extent to which cohort acts as an effective control depends on whether there is enough variability within cohorts in the positional value of education (i.e., on whether cohort and the positional value of education are not collinear) and on whether this variation is not monotonic over time (i.e., whether the positional value of education does not increase monotonically over time within each cohort). Reassuringly, as shown in supplementary analyses available on request, both conditions hold. 4",
                "All the OLS models presented below in the Results section include the full sets of substantive and control variables, but vary in the number and type of interaction effects between the three substantive variables included in the analyses. While Hypothesis 1 is simply tested by assessing the statistical significance of the impact of the loss of positional value of education on occupational attainment, all other hypotheses are tested via interaction effects. Hypotheses 2-4 are tested by adding interaction effects between individual's level of education and the positional value of education. Hypothesis 5 is tested by adding three-way interaction effects between individual's educational attainment, type of education, and the loss of positional value of each level associated to educational expansion. Finally, Hypotheses 6a and 6b are tested by adding gender into the analysis and by including three-way interaction effects between educational attainment and the positional value of education and gender, respectively",
                "To assess if the main results of this model are robust and do not change under alternative specifications, we carry out two sensitivity analyses. The first assesses if the selection into occupation has any effect on our results. It is possible that the pool of occupied individuals in our sample may not be a random sample of the cohorts of graduates exiting education with the same level of education. First, gender differences in labour market activity possibly make occupied women a 'selected group' compared with men, especially among the earliest cohorts in our analysis. Female workers of earlier cohorts might be more attached to the labour market and might achieve higher. Besides, the rate of occupation may differ across levels of education. If the likelihood of unemployment or labour market inactivity were higher at lower levels of education, occupied individuals with low levels education in our sample might differ from higher educated individuals on a number of unobserved characteristics, such as their degree of labour market attachment. If their labour attachment were higher and positively correlated with occupational attainment, this could upwardly bias our estimation of occupational returns for individuals at low levels of education. Conversely, a decline in the occupational returns to higher levels of education among recent cohorts, apparently explained by a higher supply of educated individuals, could in truth be owed to occupied individuals with higher educational attainments being negatively selected into employment due to their lower labour market attachment.",
                " To control for such possible selection biases, we apply a Heckman correction to our preferred model of occupational attainment. We estimate a simultaneous system of two equations with maximum likelihood. In the selection equation we predict participation into the labour market, which is measured with a binary variable. In the substantive equation, we replicate our preferred model of occupational attainment, now controlling for selection into labour market activity. The same set of independent variables entered in the substantive equation is entered in the selection equation, but in the latter we add two instruments--marital status and number of children--so as to make the estimates in the second equation less reliant on assumptions about the joint distribution of errors in the two equations. The instruments correlate significantly with the dependent variable in the selection equation (with participation in the labour market), but, conditional on labour market participation, they do not significantly predict ISEI status. 5 This makes the results more robust. ",
                " In a second sensitivity analysis, we add an indicator of educational supply to our preferred model of occupational attainment, so as to capture any possible unmeasured effects of educational expansion on occupational attainment within cohorts that is unrelated to a loss in the positional value of education. This indicator measures just the percentage of individuals with a given level of educational attainment at each graduation year. It differs from our indicator of positional value in that it does not capture individuals' positional advantage in a hierarchical structure such as the system of educational credentials offered in any given year. It is a simple indicator of the yearly supply of graduates at each level of education, and hence it is well suited for measuring any unmeasured effect of market fluctuations within cohorts in the demand for skills. "
            ]
        },
        {
            "title": "Results",
            "paragraphs": [
                "Figure 7 below shows the process of educational expansion in Spain during the period covered by our nine labour-market-entry cohorts. The percentage of people accessing the labour market with at least the same level of education (our indicator of a loss of positional value for educational titles) grew steadily for upper secondary and university education. As we can see in Figure 8 , this process was accompanied by an, albeit more moderate, decrease in the ISEI associated with upper secondary and university education. Together, both figures draw a preliminary picture of decreasing occupational returns to education, which contradicts the first hypothesis according to which the loss of positional value of education associated to educational expansion does not affect occupational attainment. ",
                " The multivariate analyses shown in Table 2 confirm this preliminary conclusion. Model 1 estimates the effect of the intrinsic and positional values of education for achieving occupational status. Starting with the intrinsic value, Model 1 shows that, as expected, the level of education has a positive effect on occupational status after controlling for age, tenure, ethnic origin and sector, controls whose coefficients are not shown in the table for reasons of space. Somehow, surprisingly, the results in Model 1 also show that technical fields do not produce significantly higher occupational returns across all levels of education than general fields, whereas health and welfare fields do. 6 Model 2, which introduces interaction effects between level and type of education, reveals that the non-significant coefficient of technical fields in Model 1 conceals a different effect depending on the level of education: the effect of technical studies is clearly positive, relative to general education, in tertiary education, whereas the opposite happens in intermediate levels of education. The coefficients for these two fields at the lowest level of education are similar and simply express the rewards that non-general (vocational) education provides relative to general education at this level (remember that at this bottom level all respondents with vocational education were randomly allocated into the technical and health fields). ",
                " What is more important for our argument, the results in Models 1 and 2 show that, in addition to an intrinsic effect, education also has a positional effect: an increase in the number of graduates across all educational levels and fields is negatively associated with occupational status. In other words, as the percentage of labour-market entrants with at least the same levels of education increases (loss of positional value of these levels of education), the occupation returns to them decrease 7 . ",
                "These results are inconsistent with either Hypothesis 1 or 2: neither HCT nor skill-biased technological chance (SBTC) fit our results. To test Hypothesis 3, we need to check if the adverse effect of the loss of positional value of education detected in Models 1 and 2 has been homogenous across types and/or levels of education. In Models 3 and 4, we offer preliminary evidence that this has not been the case. Model 3 shows that, relative to lower secondary education or less (the reference category), the loss of positional value has been greater for university than for upper secondary education. This is inconsistent with the polarization hypothesis (Hypothesis 3), which predicted a higher loss at intermediate levels of education. As regards to fields of education (Model 4), it seems that technical, natural, physical sciences, and health and welfare sciences have been more negatively affected by educational expansion than general education, humanities, and social sciences. We have to bear in mind, though, that this interaction effect between field and educational expansion is forced to be the same in Model 4 across all levels of education, as posited in Hypothesis 4. As we shall see next in Model 5, the effect of field is strongly mediated by the level of education.",
                "Figure 9 below shows the average marginal effect of our indicator of loss of positional value for each level and field of education, controlling for the other covariates in Model 5. A glimpse at Figure 9 confirms the generally detrimental effect on occupational attainment of an increase in the number of graduates entering the labour market with at least the same credential as the respondent. But the figure also shows that the magnitude of this penalty varies across combinations of levels and fields of education. At the university level, the negative effect of the loss of positional value is stronger for humanities and social sciences and intermediate for health and welfare; in technical university degrees (engineering, architecture ...), the loss of positional value has not been significantly associated with a loss in occupational attainment. We find here a confirmation of Hypothesis 5, according to which the loss of occupational prestige brought about by the loss of positional value associated with educational expansion is higher for general than for vocational or technical studies. 8",
                " However, interaction effects in Model 5 of Table 2 show that the advantage of technical fields is strongly reduced in upper secondary education, and it disappears vs. health fields in compulsory education, in this case as an effect of having randomly allocated all students with vocational training into these two fields in compulsory education. For intermediate and higher levels of education, this is consistent with explanations that stress the value of the signal provided by technical credentials to prevent their devaluation in terms of occupational returns as a result of educational expansion. ",
                " Gender segregation might explain why the loss of positional value differs across fields and levels of education. If women end up in fields and levels mostly affected by credential devaluation, adding gender to Model 5 would make any differences in the loss of positional value of education across levels and fields to disappear or diminish significantly. However, as shown below in Model 6 of Table 3 , the coefficients corresponding to the three-way interactions between level, field, and educational expansion are equal to the ones in Model 5 ( Table 2 ). These results refute Hypothesis 6a. ",
                "Gender may also affect the results via occupational segregation. As argued in the theoretical framework, the devaluation of educational credentials may be partly explained by the possibility that women are the group most affected by educational expansion and do not achieve the same occupational returns as men with the same credentials. This may happen either because women select themselves into occupations that enable them to get a better conciliation of work and family life but are of lower status, or because of taste or statistical discrimination by employers. A three-way interaction between gender, field, and level of education in Model 7 certainly reveals an adverse effect of gender on occupational attainment for non-general fields at the university level. Whereas health and technical fields of studies at this level clearly increase male graduates' occupational attainment relative to the humanities and social sciences, the effect is less positive for women. At intermediate levels of education, being a female graduate from a health field is associated with an absolute penalty in occupational attainment (-10.7***). However, females do better than males in technical fields at intermediate levels of education (2.75***).",
                " Yet, this does not tell us anything about the possibility that gender plays a role in the devaluation effect of educational expansion. This can only be properly tested by introducing a four-way interaction between gender, field, level, and positional value of education. Instead of showing the results of a new model with such a four-way interaction, we have graphically depicted these results in Figure 10 . This figure displays the average marginal effects of educational expansion (loss of positional value) for each level and field of education separately for men and women. The differences across gender, as we may see, are minimal except for male graduates in upper secondary education and health and welfare fields, for whom the effect of educational expansion seems to have been especially adverse. Yet, we have to bear in mind that this latter group constitutes less than 6 per cent of all upper secondary graduates in the sample. Except for this small difference, the general pattern exhibited in Figure 10 is constant across gender: technical fields of study are more resilient to the devaluating effect of educational expansion, and they are clearly more so at the university than at the upper secondary and upper vocational education. Hence, Hypothesis 6b can be rejected. ",
                "It is reasonable to think that the occupied population is selected on a number of non-observable characteristics that could affect our estimates of the occupational returns to education. If we assume that the opportunity cost of inactivity rises with human capital investment, individuals with high educational attainment would not be as selected into occupation as individuals with low educational attainment. This selection, which may occur on the basis of personality traits or, more generally, of higher labour market attachment, may upwardly bias our estimates of the returns to low levels of education, relative to higher ones. Because educational expansion increases the proportion of educated labour market entrants (not so positively selected into occupation as lowly educated ones), the effect of the loss of positional value of education on occupational prestige may be incorrectly estimated without considering selection effects.",
                " To check if our findings are robust to controlling for the selection of individuals into occupation, we have applied Heckman selection models to our analysis. As we can see in Table 4 , there is indeed a statistically significant association between the error terms in the main and selection equations, which justifies the use of the selection model. Yet, even after controlling for the likelihood of being occupied, the differences in the effects of the loss of positional education across types and levels of education are still statistically significant. ",
                " As regards to our second sensitivity analysis, we see that there is a statistically significant and positive effect of educational supply on occupational attainment. Yet, this effect does not alter the sign and statistical significance of the coefficients of the main independent variables and interactions. The positive effect of educational expansion for every year of graduation is in line with the positive effect of the cohort dummies. These had not been shown in prior tables for reasons of space; they are shown in Table 5 only for the full model in Table 2 (Model 5). As we can see in Table 5 , coefficients for cohort dummies are positive and increasing, relative to Cohort 1. These coefficients are likely capturing the general modernization experienced by the Spanish society in the past decades. This modernization accounts for a generally higher occupational attainment, as others have already found ( Oesch and Rodriguez, 2011 ). The positive and statistically significant coefficient of educational supply added in our second sensitivity analysis possibly captures intra-cohort effects of modernization that had not been covered by the cohorts themselves. Yet, such a structural change has not prevented the effect of the loss of positional value of education on occupational attainment revealed in this article. "
            ]
        },
        {
            "title": "Conclusions",
            "paragraphs": [
                "Recent findings on the decreasing inequality of educational attainment by social origin over the 20th century have made it relevant to assess the extent to which this positive trend has been projected to occupational attainment. If decreasing inequality of educational attainment by social origin had not been accompanied by a stable association between educational and occupational attainment, other mechanisms of intergenerational transmission of advantages, like cultural or social capital, could have regained importance in the association between education and occupation.",
                " In this article, we have explored the possibility that the association between educational and occupational attainment has been affected by educational expansion. To explore this possibility, we have selected the case of Spain, a society characterized by a strong educational expansion in the past decades. There is increasing evidence that educational expansion has produced in Spain a decrease of inequalities of educational attainment by social origin (  Ballarino et al ., 2009  ). However, there are also clear symptoms of over-education in the Spain's younger, more educated labour-market-entry cohorts. In other words, the positive effects of decreasing inequalities of educational attainment by social origin may have been counteracted by a negative impact of the loss of positional value of education by educational expansion. ",
                "Unlike other studies on educational expansion and occupational attainment, we have considered two unexplored possibilities: first, that the impact of educational expansion on the occupational returns to education differs across levels (low, intermediate, high) and fields (general, technical, health) of education; second, that these differences are explained, at least partly, by gender. Finally, we have contributed to the literature by developing a simple indicator of the positional value of education, based on the percentage of individuals holding at least the same level in each cohort of entry into the labour market.",
                " Our results show that the positional value of education matters, at least in the Spanish labour market. This finding contradicts simple interpretations of Human Capital theories, which see educational credentials as certifying workers' stock of skills and productivities. Our results also contradict other similarly parsimonious models, such as SBTC or Credentialism, which consider the possibility that educational expansion may have had a linear effect on the occupational returns to alternative educational levels, respectively increasing or decreasing their value. On the contrary, we have found that the positional value of education has different effects on occupational attainment across fields and levels of education. We have found evidence that technical education is less affected by educational expansion than general education, especially at higher levels of education. At the university level, technical degrees in engineering or the hard sciences stand more firmly than non-technical degrees in the social sciences and humanities against the adverse effect of educational expansion. We argued that this could be possibly due to the more precise signal about the skills of their holders that these credentials provide to employers. Such logic does not seem to apply to lower levels of education. Only at the university level do technical studies appear to enjoy all the benefits of a precise signal, without suffering from the adverse effect of diversion of poor performers towards vocational training. One alternative explanation is that at lower levels of education there is another mechanism operating by which lower-performers self-select themselves or are selected into technical (vocational) education. Another possibility is that the positional value of education is affected by the lower socio-economic origins of the individuals benefiting the most from educational expansion. Our finding that the higher resilience to devaluation of technical fields (vs. general and health/welfare education) is smaller in secondary education (where lower-class individuals are more likely to end up) is compatible with this explanation stressing the importance of social origins. Unfortunately, we did not count with information on individuals' performances or social origins to properly test these hypotheses, which shall be assessed in future work. However, note that even if the hypotheses held, they would only partly account for differences between fields, making them smaller, rather than eliminating them after considering the effects of selective performances and social origins. ",
                "The fact that graduates in the health and welfare fields were not as protected against the adverse effects of educational expansion as other technical fields of studies, especially at the tertiary level of education, led us to speculate about the possible mediating effect of gender. This effect would manifest in an increasing over-representation of women in these fields of studies and in some of the occupations that can be accessed with these credentials--those with relatively lower status. We reviewed the theoretical arguments that justify this mediating effect--a possible trade-off between occupational status and working conditions that allow women to conciliate work and family life; or the adverse impact of career interruptions on on-the-job training and career progression; or tastes and statistical discrimination on employers' side. If educational expansion had favoured relatively more women than men, and women had been segregated into the studies and occupations most affected by the devaluation of credentials, then gender would be a key mediating factor between the positional value of education and occupational attainment. While our results reveal strong gender effects, such as that technical fields do not yield as much an advantage to women as they do for men in terms of occupational attainment, we could not find any evidence suggesting that gender mediates the mostly negative impact of the loss of positional value on occupational attainment, or that it moderates or reinforces such an impact. In sum, the fact that health and welfare are more vulnerable to the devaluing impact of educational expansion than other technical fields of study does not appear to be related to gender.",
                "This research benefitted from the funding provided by the Spanish Ministry of Education through the project \"DemografUa familiar y movilidad social\" (CSO2013-43461-R) (P.I.: Gosta Esping-Andersen). We are also grateful to Clara Riba and Romain Lachat for their help and useful comments."
            ]
        }
    ],
    "references": [
        "http://dx.doi.org/10.1177/073088848000700305",
        "http://dx.doi.org/10.1086/669332",
        "http://dx.doi.org/10.1162/003355303322552801",
        "http://dx.doi.org/10.1093/esr/jcn031",
        "http://dx.doi.org/10.1007/s10734-010-9380-0",
        "http://dx.doi.org/10.1080/14616696.2012.750729",
        "http://dx.doi.org/10.1177/0001699315570918",
        "http://dx.doi.org/10.1086/595951",
        "http://dx.doi.org/10.1086/595942",
        "http://dx.doi.org/10.1162/rest.89.1.118",
        "http://dx.doi.org/10.1016/S0272-7757(99)00050-3",
        "http://dx.doi.org/10.1093/esr/jcl019",
        "http://dx.doi.org/10.1111/sjpe.2004.51.issue-5",
        "http://dx.doi.org/10.1093/ser/mwq029",
        "http://dx.doi.org/10.1016/j.ssresearch.2004.12.001",
        "http://dx.doi.org/10.2307/1882010",
        "http://dx.doi.org/10.1086/231129",
        "http://dx.doi.org/10.1080/13639080.2011.586994"
    ],
    "title": "The Positional Value of Education and its Effect on General and Technical Fields of Education: Educational Expansion and Occupational Returns to Education in Spain",
    "issue": "2",
    "volume": "32",
    "year": 2016,
    "issn": "0266-7215",
    "journal": "European Sociological Review",
    "authors": [
        "Luis Ortiz",
        "Jorge Rodriguez-Men\u00e9s"
    ]
}