{
    "doi": "http://dx.doi.org/10.1093/esr/jcy037",
    "abstract": "A number of recent studies by sociologists have sought to discover whether a person\u2019s status (typically their social class, education, or socio-economic status) is directly affected by the status of their grandparents, once the effects of parents\u2019 status are controlled. The results have been ambiguous, with some studies finding a direct effect of grandparents on their grandchildren, while others find no effect. I use causal graphical methods to demonstrate some of the methodological problems that occur in trying to identify this direct effect, and I offer some suggestions as to how they might be addressed.",
    "sections": [
        {
            "title": "Introduction",
            "paragraphs": [
                "A growing number of studies in sociology and economics seek to determine whether characteristics of grandparents affect grandchildren's outcomes, net of, or controlling for, the influence of parental factors. The outcome in question is usually a measure of occupation, such as class or socio-economic status (SES), of income or earnings, or of education. There is some scepticism among economists about whether these studies have shed much light on the question (Solon, 2018) and sociological analyses of transmission over three generations have reached conflicting conclusions, with some claiming that grandparents' characteristics have no direct effect on their grandchildren; others claiming that they do, and yet others arguing that there is an effect, but only under particular circumstances or for certain groups (see the comprehensive review by Anderson, Sheppard and Monden, 2018).",
                "In this note I argue that there are some methodological problems that have gone largely unrecognized by sociologists working in this area and which make the identification of a direct effect of grandparents on grandchildren very challenging. If we cared only about establishing an association between grandparents and their grandchildren, net of parents, the critiques I shall make would not apply. But studies in this area write of the 'effect' of grandparents on grandchildren, suggesting a desire to do more than document associations. Nevertheless, the arguments I advance here, while they mostly serve to show the problems involved in making causal claims, can also be taken as suggestions about how an association might arise and thus help in interpreting it. The three problems I discuss are collider bias in estimates of the direct effect of grandparents on grandchildren, conditioning on children in the parental generation, and conditioning on 'mechanisms' that are invoked to explain the circumstances under which grandparents directly affect their grandchildren."
            ]
        },
        {
            "title": "Graphical Models",
            "paragraphs": [
                "I use a graphical approach.1 The graphical approach has advantages of clarity, because graphs are usually more transparent than equations, and generality, in that they do not make any parametric assumptions. If a causal effect is identified in a graph, it is non-parametrically identified, and its identification does not depend on any assumptions about the functional form of the relationship between cause and effect. In the directed acyclic graphs (DAGs) used in this article, nodes (vertices) represent variables and arrows (directed edges) indicate hypothesized causal effects. DAGs can include both observed and unobserved variables: the latter are shown in circles. A variable in a box has been conditioned on.",
                "Almost all studies of grandparental effects estimate the relationship between an outcome for grandchildren and one or more measures of parents and grandparents. The simplest design of this kind is found in, for example, Erola and Moisio (2007), Chan and Bolliver (2013), and Hertel and Groh-Samberg (2014), all of whom examine the relationships between grandparental, parental, and child social class. Other studies, such as Mollegaard and Jaeger (2015) and Bol and Kalmijn (2016), consider multiple dimensions of grandparental and parental status (economic, social, and cultural capital in the former case) and their relationship to one or more grandchild outcomes. In one of the earliest studies of this kind, Warren and Hauser (1997) used multiple measures of parents and grandparents to predict grandchildren's education and occupational status. The majority of studies also include other characteristics of the parents that are not included for the grandparents: Ziefle (2016), for example, examined the relationship between the education of grandparents, parents, and children but also included controls for parental social class, occupational status, family income, and so on.",
                "The goal of these studies is to determine whether there is a direct effect of grandparental measures on grandchildren's outcomes, once parental measures are controlled for. The DAG in Figure 1 shows the simplest case. Here the direct effect of grandparents' status, X, on grandchild's outcome, Y, is the causal effect that does not go through parents' status, Z. As noted earlier, usually X and Z measure the same characteristic in the two generations. The direct effect is the estimand of interest. For ease of exposition it is labelled b in Figure 1, though, because we are concerned with non-parametric identification, it is not necessarily a single number (such as a linear regression coefficient). The indirect effect is the product of the causal paths from grandparent to parent and parent to child (a times c). The total effect is the unconditional effect of X on Y. In a linear model the total effect is the sum of the direct and indirect effects (b + a times c), but this need not hold in a non-linear model and so does not necessarily hold in the DAG. ",
                "The conditioning set defines the direct effect: in Figure 1 the conditioning set is Z and so the direct effect is the effect of X on Y that does not go through Z. The possibility that the effect of X on Y might also be mediated by another parental variable, say Z2, explains why other parental measures are sometimes included in the model, as shown in Figure 2. In this case the direct effect is the effect of X on Y that does not pass through either Z1 or Z2. ",
                "There are two problematic issues in estimating the direct effect. The first is the possibility that there are unmeasured factors, W, that are causes of X and Y: these would confound the direct grandparent-grandchild relationship. The second is the possibility of unmeasured factors, U, causing Z and Y: these would confound the direct parent-child relationship. Both are shown in Figure 3.2",
                "It is relatively easy to think of candidates for U: if Z and Y represented parental and child educational attainment, their relationship would partly depend on genes, on cultural factors such as values and beliefs that shape parental education and are passed to children, material factors such as wealth, and common environmental influences related to where parents and children live. It is less easy to think of candidates for W, since these are sources of a grandparent-grandchild correlation independent of parents. Indeed, economists commonly use grandparental status as an instrument for parental status, so assuming that no Ws exist and that there is no direct effect of X on Y. In any event, and without prejudging the issue, our attention focuses on the problems caused by unobserved factors U--not least because these seem to have largely gone unnoticed.",
                "Although U straightforwardly confounds the direct parent-child relationship, it also leads to bias in the estimate of the direct grandparent-grandchild effect. This is because, to estimate the direct effect, b, we must condition on Z, but Z is a collider on the path from X to U, as revealed by the arrows entering it from both X and U. A collider that is not controlled, or conditioned on, blocks the path between its sources, but, once a collider is conditioned on, that path is opened (Elwert and Winship, 2014). In the graph shown in Figure 3,3 conditioning on Z opens a path from X to Z to U to Y. The resulting estimate suffers from 'collider bias'.4 If there were no unmeasured confounders, W, we could estimate the total effect of X on Y without bias. But to identify the direct effect we would also have to block the biasing path through the collider, Z. We could do this by trying to measure U and then conditioning on it. Of course, since U probably represents numerous unmeasured causes of Z and Y, conditioning would have to be exhaustive to remove all the bias. Partial conditioning might or might not reduce the bias, as we can see if we consider two confounders with opposite signed effects on Y. Conditioning on only one of them could easily increase the absolute bias. Adding other parental measures (as in Figure 2) will not help unless they can be considered to be causes of Z and may even worsen the bias because these additional variables might also be colliders.",
                "Neighbourhoods provide a concrete example of a confounder that, thus far, has been omitted from studies of the direct effect of grandparents on grandchildren. The outcomes for children and the predictors measured for parents and grandparents, such as education, social class, and various forms of capital and resources, are all likely to be affected to some extent by neighbourhoods, and neighbourhood location may be transmitted from one generation to the next (for example, Sharkey and Elwert, 2011; the same argument could be applied to regions: see Chetty et al., 2014). The situation is shown in Figure 4, where G represents the neighbourhood factors relevant for X, Z, and Y. Here the path from Z <- Gp -> Gc -> Y equates to the confounding shown by U in Figure 3; the path from X <- Gg -> Gp -> Gc -> Y equates to the confounding shown by W in Figure 3. The path from X <- Gg -> Gp -> Z indicates confounding of the effect of grandparents on parents. Collider bias in the estimate of b arises from conditioning on Z, thus opening the path X -> Z <- Gp -> Gc -> Y. If X, Z, and Y represent educational attainment, and we assume that the effect of G has the same sign for parents and children, Gp positively affects Gc, and ordinary least squares is used, then the collider bias will lead the estimate of b to be downwardly biased (see the Appendix for the proof). This may help explain cases in which no direct effect of grandparents on grandchildren is found. In general however, it will be impossible to know the magnitude of such bias, and there may be offsetting biases from different sources as I show in the Appendix. But insofar as variables such as those mentioned above have not been included in studies of multigenerational mobility, there exists the likelihood that direct effect estimates are biased. "
            ]
        },
        {
            "title": "Conditioning on Children",
            "paragraphs": [
                "This extrapolation rests on two assumptions: that intergenerational transmission follows a first-order Markov process, and that the process has a constant transition rate. We have already seen that, even with data from three generations, it is difficult to determine whether the direct effect of grandparents on grandchildren is absent; thus it is difficult to test the first-order Markov assumption. To test the assumption of a constant transition rate, we might consider comparing the effect of X on Z (labelled a in Figure 1) with the effect of Z on Y (c in Figure 1). However, even putting aside the problem of unmeasured confounders of these relationships, a and c represent different effects. This is because the effect of parents on children is estimated for all children, irrespective of whether they have children. But, the effect of grandparents on parents is estimated only for those children of grandparents who are parents themselves. In other words, the estimate of a conditions on Generation 2 having children; the estimate of c does not condition on Generation 3 having children.",
                "Figure 5 shows the consequences of conditioning on parents in the middle generation. To focus on the issues that arise, the confounders, U, are omitted from Figure 5: we are therefore ignoring the biases already discussed. Figure 5 reflects the belief that Z has a causal effect on whether someone has a child, denoted by the variable Child, which, for simplicity, distinguishes between those who do (Child = 1) and those who do not (Child = 0) have children. V represents the other determinants of whether a person becomes a parent. These are assumed to be independent of X though this is not necessary for what follows. ",
                "Child is a collider and, by conditioning on it, a path is opened from X to V (shown by the dotted line in Figure 5) and thence to Z. This path biases the estimate of the direct effect of X on Z relative to what would have obtained had the parental status of the second generation not been conditioned on (and which is not done in estimating the direct effect of Z on Y).5 There are circumstances in which conditioning on Child can also bias the direct effect of X on Y. Suppose that V affected not only Child but also Y. This could occur if V included unmeasured characteristics of a spouse (such as education) that affected the likelihood of having a child and affected children's outcomes, Y (if there were any children). This is shown in Figure 6. Then there is a biasing path from Z to Child to V to Y that has been induced by conditioning on the collider, Child. Biases in estimates of either or both of the X-Z and Z-Y effects will invalidate comparisons between them. "
            ]
        },
        {
            "title": "Conditioning on Joint Survival",
            "paragraphs": [
                "Several studies have sought to show the circumstances under which grandparents will have a direct effect on their grandchildren. It has been suggested that when they live in the same household or in close proximity, grandparents will have a greater impact (Ferguson and Ready 2011; Bol and Kalmijn 2016) and that the effect will be larger when the grandparents' and grandchildren's lives overlap (Braun and Stuhler, 2016). Zeng and Xie (2014) consider both these mechanisms. Empirically these hypotheses are usually addressed by adding interaction terms: that is, conditioning on joint survival or co-residence to allow the direct effect of X on Y to differ accordingly. But conditioning on variables can sometimes create more problems that it solves.",
                "Assume that the effect of grandparents on grandchildren is proportional to the number of years they are alive together. Denote this overlap by the variable S. To test our hypothesis we condition on S. But this introduces a quite subtle bias. Grandparents and grandchildren are likely to overlap a greater number of years if the grandparents had their children when they were young, and if their children did the same. We denote age at first childbirth by E. But age at first childbirth depends on social class or SES (the things that typically make up X and Z). And we also know that the age at which a mother had her first child is consequential for the education (and probably other outcomes) of her children (McLanahan, 2004). Putting all this together leads to the DAG in Figure 7. ",
                "Figure 7 shows that S is a collider on the path between Eg and Ep. Eg and Ep depend on X and Z, respectively. Eg is consequential for Z and Ep for Y. Because S is a collider, conditioning on it opens the path linking Eg and Ep (shown as a dotted line), and this opens a path from X to Eg to Ep to Y. This is a further source of bias in the estimate of the direct effect of X on Y.",
                "To make things more concrete: imagine X, Z, and Y all represent socio-economic status. Lower SES women tend to start having children when they are younger, and so conditioning on joint survivorship will bias the sample towards lower SES families. If the fertility-SES relationship were to change, estimates of the direct effect would likely also change, but this would not be because the true effect itself had changed but because we would be estimating the effect on a sample with a different distribution of SES.6"
            ]
        },
        {
            "title": "Limitations",
            "paragraphs": [
                "I have focused on studies that measure characteristics of grandparents, parents, and children. I have not addressed an alternative, though less common, approach that exploits the difference in the correlation of an outcome among siblings and among cousins to infer the existence and magnitude of a grandparental (or even great-grandparental) effect (Jaeger, 2012; Hallsten, 2014; Knigge, 2016). These studies are reviewed and criticized by Lundberg (2018).",
                "Even among the multi-generational mobility studies of the kind I have considered, the problems discussed here are not exhaustive. Economists have different criticisms (Stuhler, 2012; Solon, 2018), and there are well-known issues concerning such things as which parent and which grandparents should be included and, if more than one, how the information about them should be combined. I have ignored other problems too, such as measurement error, despite the possibility that they are also present.7",
                "A potential problem that has not been discussed here or anywhere else is the following. Analyses of grandparental effects are often motivated by testing claims made in other papers about whether such an effect exists. But the data in the different studies may have been collected using different sampling schemes. For example, Chan and Bolliver (2013) motivate their test of grandparental effects by referring to Warren and Hauser's (1997) finding, using US data, that there are none; Chan and Bolliver, using British data, arrive at the opposite conclusion. But, even putting aside the country differences, the data used by Warren and Hauser (the Wisconsin Longitudinal Study (WLS)) samples individuals born in a specific year and collects information about them, their parents, and their children, whereas the National Child Development Study (NCDS), used by Chan and Bolliver, samples individuals born in a specific month and year and collects information about them, their parents, and their grandparents. So, in this design, compared with the WLS design, there is no variation in birth years of the child generation but greater variation in birth years of parents and much greater variation in the birth years of grandparents.8 This may or may not be consequential for the determination of whether there is a direct grandparental effect, but it seems never to have been considered."
            ]
        },
        {
            "title": "Solutions",
            "paragraphs": [
                "A first and important step towards dealing with the problems I have discussed is to consider how the relationship between grandparent and grandchild might have come about--including explanations that do not assume the relationship is causal. Not only will this suggest a range of interpretations of the relationship it may also point to ways in which, through conditioning or otherwise, some of these interpretations may be tested. DAGs provide an efficient and intuitive way of doing this.",
                "In some specific cases, solutions are available. The bias that arises in Figure 7, for example, could be dealt with by controlling for age at first birth among grandparents and/or parents. Eg and/or Es would thus be observed and, since neither is a collider, controlling for one or both would block the path from X to Eg to Ep to Y. Figure 7 is a particular case of the situation in which a variable (S in this case) is believed to mediate the grandparental effect. It will normally be helpful to include in the model variables that are determinants of both the mediator and the outcome, just as, in many circumstances, we control for variables that are determinants of 'treatment' and outcome.",
                "Whether the second problem considered here, namely, the different samples used to estimate the grandparent-parent and parent-child relationships, can be addressed depends on the structure of the data. If, as in the Warren and Hauser (1997) study, information is collected on one or more specific birth cohorts, some members of which become parents, it may be possible to estimate the relationship between grandparents and their children as well as between grandparents and their children who also became parents. In this way estimates of the relationship would be made more comparable to those involving parents and children.9 However, if, as in Chan and Bolliver's (2013) study, children are sampled and information is added on their parents and grandparents, it is difficult to see any adequate solution. Because the parents are drawn from a range of birth cohorts, it will be difficult to establish who the equivalent non-parents should be and, even if this could be done, we would still have no data about them and their parents.",
                "The first problem discussed here, of collider bias in the estimation of direct effects, involves unobserved variables, and so it is impossible to know the magnitude or direction of the bias (if any) in any specific study. We can say something about the bias under certain assumptions, but these include assumptions about unobserved relationships and so cannot be tested. For example, in a linear model specified according to Figure 3, and assuming all the arrows (including those from unobserved variables) had the same sign, confounding and collider bias would have different signs and so would offset each other. Confounding would impart upward bias, while conditioning on the collider, Z, would lead to downward bias (see the Appendix for the proof). But this is not necessarily the case in general (for example, in non-linear models).",
                "There are two main approaches to the issue, primarily found in the epidemiological literature. The first is tests of the sensitivity of estimates of a direct effect to different degrees of collider bias: Tingley et al (2014) have developed an R package for this purpose. The second is an instrumental variable (IV) approach. Consider a linear model based on Figure 3 but ignoring the confounder W. Define Z^ as the predicted value of Z from a regression of Z on X and R, where R is an instrument for Z. Assuming that X has a constant (non-heterogeneous) effect, a regression of Y on X, conditioning on Z^, will yield consistent and asymptotically unbiased estimates of that direct effect. The IV approach was used by Robins and Greenland (1992) and has recently been developed by, among others, Frolich and Huber (2017). Given an instrument, R, for Z one could also adopt a control function approach (Wooldridge, 2015). In this case, let U^ be the residual from the regression of Z on X and R; U^ is then included as a control variable in the regression of Y on X and Z that is used to estimate the direct effect."
            ]
        },
        {
            "title": "Conclusion",
            "paragraphs": [
                "I have discussed three problems that seem to have gone unrecognized in the burgeoning literature on the analysis of grandparental effects. Indeed, one of these problems--bias in the estimation of a direct effect by conditioning on a mediator variable that may be a collider--seems not to be recognized in the wider community of quantitative sociologists, even those who are aware of how causal estimates can be confounded by unobserved variables. Yet the problem is likely to occur in a wide range of settings where sociologists want to decompose the effect of a variable of interest into direct and indirect effects (for example, in mobility studies that seek to separate the effect of social origins on destination into the indirect effect, mediated by education, and the direct effect, net of education). It is impossible to know the extent of bias in estimates of the direct effect of grandparents on grandchildren in the published literature, but, insofar as these studies have omitted variables that affect both parents and children, such as genes, culture, ethnic group, neighbourhood or region, and so forth, it seems highly probably that they suffer from collider bias.",
                "I have suggested some solutions to the problems I identified, but perhaps the most valuable approach, in these as in any other analyses, is to consider possible biases and interpret one's results in the light of them. ",
                "Richard Breen is a Professor of Sociology at the University of Oxford and a Fellow of Nuffield College. He is a Fellow of the British Academy, a Member of the Royal Irish Academy, a Member of Academia Europaea, and a Fellow the European Academy of Sociology. His research interests are social stratification and inequality, the application of formal models in the social sciences, and quantitative methods. Recent publications have appeared in American Journal of Sociology, Demography, and Sociological Science.",
                "The author thanks the ESR editor and reviewers for their comments. Thanks to John Ermisch, Ian Lundberg, Kenneth MacDonald, and participants at workshops in Nuffield College in 2017 and 2018 for their helpful suggestions.",
                "Bias in direct grandparental effects in a linear model of three-generation mobility.",
                "In a linear model version of the DAG shown in Figure 3, in which all the arrows have the same sign, confounding and collider bias will have different signs and so will offset each other. To see this, consider Figure A1. U is an unmeasured variable that affects the mediator, Z, and the outcome, Y, and W is an unmeasured variable that affects X and Y. We want to know the bias in the estimate of the direct effect if X on Y (that is, conditioning on Z). ",
                "Here b is the true direct effect of X on Y, and b^YX indicates an estimated coefficient from the regression of Y on X.",
                "The bias in the conditional estimate is thus equal to confounding bias (from W) given by rs and collider bias (due to U) and equal to-apq1-a2. So, in this case, the two forms of bias will offset each other. However, we cannot know the extent of this offsetting, of course, because we cannot estimate p, q, r, or s. Indeed, the only parameter in Figure A1 that is identified is a."
            ]
        }
    ],
    "references": [
        "http://dx.doi.org/10.15195/issn.2330-6696",
        "http://dx.doi.org/10.1086/298118",
        "http://dx.doi.org/10.1016/j.ssresearch.2015.09.011",
        "http://dx.doi.org/10.1111/ecoj.12453",
        "http://dx.doi.org/10.1177/0003122413489130",
        "http://dx.doi.org/10.1093/qje/qju022",
        "http://dx.doi.org/10.1146/annurev-soc-071913-043455",
        "http://dx.doi.org/10.1093/esr/jcl027",
        "http://dx.doi.org/10.1016/j.ecresq.2010.10.001",
        "http://dx.doi.org/10.1111/rssb.2017.79.issue-5",
        "http://dx.doi.org/10.1016/j.rssm.2013.09.002",
        "http://dx.doi.org/10.1016/j.rssm.2013.09.007",
        "http://dx.doi.org/10.1177/0003122412464040",
        "http://dx.doi.org/10.1007/s13524-016-0486-6",
        "http://dx.doi.org/10.1177/0003122418759651",
        "http://dx.doi.org/10.1353/dem.2004.0033",
        "http://dx.doi.org/10.1016/j.rssm.2015.06.004",
        "http://dx.doi.org/10.1097/00001648-199203000-00013",
        "http://dx.doi.org/10.1086/660009",
        "http://dx.doi.org/10.1111/ecoj.2018.128.issue-612",
        "http://dx.doi.org/10.1007/s13524-016-0515-5",
        "http://dx.doi.org/10.18637/jss.v059.i05",
        "http://dx.doi.org/10.1146/annurev-publhealth-032315-021402",
        "http://dx.doi.org/10.2307/2657426",
        "http://dx.doi.org/10.3368/jhr.50.2.420",
        "http://dx.doi.org/10.1007/s13524-013-0275-4",
        "http://dx.doi.org/10.15195/issn.2330-6696"
    ],
    "title": "Some Methodological Problems in the Study of Multigenerational Mobility",
    "issue": "6",
    "volume": "34",
    "year": 2018,
    "issn": "0266-7215",
    "journal": "European Sociological Review",
    "authors": [
        "Richard Breen"
    ]
}