{
    "doi": "http://dx.doi.org/10.1177/0022146514568669",
    "abstract": "Social engagement is theorized to promote health, with ages 55 to 75\u2014what some call \u201cencore\u201d adulthood\u2014potentially being a time for ongoing engagement or social isolation. We use the American Time Use Survey (N = 11,952) and a life course perspective to examine associations between paid work, resources, relations, and healthy time use for men and women in the first (55\u201364) and second (65\u201374) halves of the encore years. Work limits sufficient sleep (full-time working men) and television watching (all workers) but also time spent in physical activity (full-time workers). College-educated and healthy encore adults\u2014across age and gender divides\u2014are more likely to exercise and watch less television. Marriage and caregiving encourage socializing and limit television watching, despite differential effects on physical activity and sleep. These findings fit well with a gendered life course perspective suggesting socially patterned (by work, resources, relationships, gender, age) health behaviors.",
    "sections": [
        {
            "title": "Introduction",
            "subsections": [
                {
                    "title": null,
                    "paragraphs": [
                        "Understanding patterns of daily life among contemporary retirement-age Americans (ages 55-75) is of heightened scientific and social significance as growing numbers of the large Boomer cohort (born 1946-1964) and those in the cohort preceding them move through this life phase, even as conventional retirement templates (such as moving lock-step from full-time paid work to full-time leisure at certain ages) are being dismantled. We have argued elsewhere (Moen and Flood 2013; Moen and Lam 2015) that these trends, combined with extended healthy life expectancy, are producing a new life stage--an encore phase of adulthood. While typically located in the years around 55 to 75, encore adulthood (also called the third age) is less a specific age than a transitional time between the traditional career- and family-building stage of conventional adulthood and the frailties associated with conventional old age (Laslett 1987, 1989; see also Gilleard and Higgs 2007; Karisto 2007; McCullough and Polak 2007; Moen and Altobelli 2007; Sadler 2006; Silva 2008). A moving platform of intertwined social forces--increases in life expectancy, the aging Boomer cohort, declines in disability, deteriorations of pension security, delays in the age of full Social Security eligibility, early retirement incentives, long-term unemployment of older workers, delays in retirement timing, the blurring of the retirement transition through bridge or postretirement jobs, more women retiring, and the rise in adult care obligations--point to the need for understanding the health behaviors of older Americans in this transitionary and often uncertain period of the life course that falls neither in the \"prime\" working years nor under the rubric of \"old age.\" Moreover, how people spend their time is increasingly seen as a key risk factor for health and well-being, one that is especially vital because it is potentially modifiable (Berkman and Kawachi 2000; House 2002; Krieger 2011; Oakes and Kaufman 2006).",
                        "This paper begins to fill the void in our understanding of healthy time use during encore adulthood--the stage of life beginning around age 55, when most Americans are employed full time and ending around age 75, when most are out of the workforce (Moen and Flood 2013; Warner, Hayward, and Hardy 2010). With the leading edge of the large Boomer cohort (born 1946-1954) moving through their 60s and the trailing edge (born 1955-1964) following close behind, the health-related time use of this large segment of the population is of considerable interest.",
                        "We draw on data from the American Time Use Survey (ATUS) to examine the interface between engagement (in paid work, volunteering, family care work) and health behaviors as it is potentially modified by age and gender. First, we document the time spent in health-related behavior by encore adults with varying labor force attachments separately for men and women ages 55 to 64 and 65 to 74. Second, we examine the time contemporary men and women ages 55 to 75 allocate to health-promoting and health-detracting behaviors, considering similarities and differences by age, health status, education, and gender. Third, we examine how another form of social engagement--relationships with others--is associated with healthy time use for women and men in this age group.",
                        "While research on health behaviors typically examines smoking, exercise, diet, and alcohol use, we consider a different and somewhat broader set of health-related activities and, importantly, the time contemporary older Americans allocate to them: time spent in meal preparation, exercise, sleep, watching television, and being with others. Meal preparation matters because it is more time intensive to prepare healthy meals than to microwave prepackaged meals, purchase fast food, or eat at restaurants, all of which have been linked to obesity (e.g., Jeffrey and French 1998; Jenkins and Fultz 2008; Kolodinsky and Goldstein 2011). There is also evidence of an inverse relationship between preparing meals and body mass index (BMI) for women, such that women who spend more time preparing meals have lower BMIs (Zick, Stevens, and Bryant 2011). Exercise is clearly a health-promoting behavior, encouraged by the World Health Organization (2010) and the U.S. Department of Health and Human Services (2008). Evidence also documents the importance of social contacts for health and well-being, with older populations being especially at risk of social isolation (e.g., Berkman and Breslow 1983; Berkman and Kawachi 2000; Berkman and Syme 1979; Cornwell and Waite 2009; Thomas 2011, 2012). Time spent watching television is a health-detracting behavior given its sedentary nature and is associated with poorer health and higher BMI (Jeffrey and French 1998; Tucker and Bagwell 1991; Tucker and Friedman 1989; Zick et al. 2011). And while sleep is increasingly seen as a prerequisite for good health, either more or less than the recommended amount (7-9 hours) may lead to poor health outcomes (Buxton and Marcelli 2010; Patel 2007; Patel et al. 2006), though a meta-analysis of associations between sleep duration and mortality shows that evidence is mixed (Kurina et al. 2013)."
                    ]
                }
            ]
        },
        {
            "title": "Background",
            "subsections": [
                {
                    "title": "A Gendered Life Course Approach",
                    "paragraphs": [
                        "We bring together several strands of scholarship to theorize gender- and age-specific patterns of healthy time use for Americans in the encore years, using a gendered life course perspective (Moen 2001; Moen and Spencer 2006) in combination with the concepts of health lifestyles (Cockerham 2005) and constrained choice (Bird and Rieker 2008). Men and women move through the life course following different temporal rhythms, with enormous implications for gender inequality. Our gendered life course approach encourages a view of both labor force participation and healthy time use in the later life course not simply as reflective of individual choices but as socially patterned--by age and gender as well as by other markers of stratification (Moen 2001; Moen and Spencer 2006), by relations with others (Cockerham 2005), and by the historical time period in which Americans come to these transitionary years (Warner et al. 2010). Key life course themes shaping time allocated to health-related activities include the structure/agency interface, interdependent trajectories shaping resources, and linked lives (Elder, Johnson, and Crosnoe 2003).",
                        "This theoretical framing highlights the importance of considering the intersection of agency and structure (including gender and age) in explaining variation in patterned health behaviors. While encore adults can choose whether to participate in health-promoting or health-detracting activities, these choices are constrained by gendered and age-related circumstances, including health conditions and labor market ties.",
                        "The circumstances of women and men in this new life stage reflect institutionalized constraints and resources throughout the life course (Moen 2013). For example, \"retirement\" is a transition historically more typical of men than women, given that women have had a more limited attachment to the workforce throughout adulthood (Han and Moen 1999; Harrington Meyer and Herd 2007). But contemporary women increasingly have jobs from which they are retiring, and growing numbers of couples now confront decisions about both partners' degree of labor force engagement.",
                        "Still, gender and age norms shape whether or not women and men work for pay and the ways they spend time in other activities, with men more likely than women to remain in paid work, whether by continuing the career mystique (Moen and Roehling 2005) of full-time engagement or else by shifting to self-employment or scaling back to fewer hours and eventually exiting the labor force altogether. At age 55, four in five men (80%) and two-thirds (68%) of women in the United States are still working for pay, while most Americans have left even part-time employment by age 75 (Moen and Flood 2013; Warner et al. 2010). But the gendered life course continues to operate in exacerbating gender disparities in resources (Pleau 2010). For example, women come to and move through these encore years with fewer economic (including pension) resources and more disrupted employment histories than men (Harrington Meyer and Herd 2007). Despite these gender differences and disparities, we theorize that paid work time and age (and other conditions, such as poor health and the absence of a college education) will similarly constrain both women's and men's health behaviors. By contrast, we theorize social ties--marriage, caring for (grand)children or older relatives--differently affect the time women and men allocate to health behaviors.",
                        "We are addressing a fundamental question about gender, health, and age. Does the healthy time use of encore adults vary because of gender and age or because they are in or out of integrative roles such as working or volunteering? This is of enormous importance as policy makers have postponed the age of eligibility for full Social Security to encourage those in encore adulthood to work longer and are considering more extreme measures."
                    ]
                },
                {
                    "title": "A Gendered Life Course Approach",
                    "paragraphs": [
                        "Our gendered life course framing suggests three key drivers of the time older Americans allocate to healthy behaviors--time scarcity related to paid work, health and educational resources, and interlocking social relations or \"linked lives\" (Elder et al. 2003)",
                        "Goode's (1960) classic role strain theory combined with the (very real) ceiling on time imposed by the 24 hours in each day suggest that the more time older Americans spend on paid work, the less time they allocate to health-related activities. This is the time scarcity hypothesis. This may be both beneficial--by shortening time available for potentially harmful health behaviors (such as television watching)--and unfavorable--by limiting time that could be spent in healthy activities such as physical activity (exercising, walking, etc.), preparing (healthy) meals, and getting adequate sleep. Indeed, research suggests that employment status, which limits time for other activities, rather than age, is the key driver of differences in time use among Americans 55 and older (Krantz-Kent and Stewart 2007). Corollary to the time scarcity hypothesis is time availability (Blood and Wolfe 1960). Since full-time jobs occupy approximately half (8) of the waking hours of employees on work days (Bureau of Labor Statistics 2011), shifts to self-employment or part-time work as well as labor market exits could enable encore adults to allocate greater time to health-promoting activities, though there is limited research on how less than full-time employment shapes healthy time use.",
                        "In addition to influencing time available for healthy behaviors, paid work may facilitate set routines, organizing the day in ways that might promote health-related time use. The absence of routinized expectations associated with work may limit older nonemployed adults' ability or inclination to establish regular patterns for sleeping, physical activity, socializing, or preparing meals and may, in fact, exacerbate negative health behaviors, such as sleeping excessively (more than nine hours a night) and watching long hours of television (Gauthier and Smeeding 2003; Rosenkoetter, Gams, and Engdahl 2001), especially at older ages (Gauthier and Smeeding 2010). On the other hand, contemporary jobs are often highly demanding, fostering a sense of time strain (Moen, Kelly, and Lam 2013; Moen, Lam, et al. 2013) that might exacerbate negative health behaviors, such as relaxing by watching television, as ways to ease the stresses of work.",
                        "A college education and good health--fundamental resources ensuing from earlier life course paths--also shape behavior during encore adulthood through processes of cumulation of advantage or disadvantage (Dannefer 2011). Education and health are key drivers of health-related behaviors, both directly, in terms of shaping lifestyle choices (Cockerham 2005), and indirectly, through opportunities, risks, and preferences for employment (Belgrave 1988; Choi 1994; Quinn and Kozy 1996). College-educated older Americans maintain their ties to full-time employment longer (Cahill, Giandrea, and Quinn 2006) and spend more time in paid work (Moen and Flood 2013). Employment is both a cause and a consequence of better health (see Bird and Rieker 2008; Luoh and Herzog 2002). Therefore, a college education and a high subjective health rating should predict more time spent in healthy behaviors for men and women during encore adulthood, both through labor market participation (reducing time available for health-detracting behaviors) and lifestyle preferences (increasing time spent in health-promoting behaviors). We propose that encore adults with less than a college education and poor/fair health watch more television, the dominant form of leisure in the United States, and exercise less (see also Ashe et al. 2009; Grzywacz and Marks 2001; Shaw and Spokane 2008).",
                        "There is some support for this. Rosenkoetter and colleagues' (2001) study of a small sample of recent retirees shows that men and women in their 60s and 70s in good health tend to exercise more and spend more time with others than the less healthy. However, they find no differences by health status in time spent watching television. Other studies show short- and long-hour sleep (less than seven and more than nine hours) is more typical among individuals in poor health compared to good health (Buxton and Marcelli 2010; Hale 2005; Patel 2007; Patel et al. 2006).",
                        "Based on this evidence, we offer a resource hypothesis emphasizing the role of health and educational resources (in combination with institutionalized gendered and age-graded labor market and retirement expectations) in shaping time allocations. We propose that health and educational resources operate similarly for encore women and men regardless of age but that these resources are differentially allocated by gender and age. Reminiscent of Rosow's (1974) classic \"roleless role\" hypothesis about the absence of institutionalized obligations and expectations for retirees, those who are older (and not working) may engage more in health detracting activities. Increases in television watching with age (Gauthier and Smeeding 2003) may be symptomatic of the absence of both commitments and routine associated with socially integrative roles like paid work or volunteering.",
                        "The third key driver of health behaviors is other people. The life course theme of linked lives (Elder et al. 2003; Moen and Hernandez 2009) suggests that social ties shape time use. Encore adulthood is associated with the end of active parenting of young children (and even marriage for some) but often with increased commitments to caring for grandchildren (e.g., Fuller-Thomson and Minkler 2001; Minkler 1999) and/or ailing parents, spouse, or other infirm relatives (e.g., Altergott 1988; Arber and Timonen 2012; Lima et al. 2008; Marks 1996; Moen and Flood 2013). Given the significance of social relations for behavior (e.g., Umberson, Crosnoe, and Reczek 2010) and the gendered nature of caregiving, we examine the links between gender, marital status, caring for infirm adults, and caring for (grand)children on the one hand and time spent in healthy behaviors on the other. Although women do not \"retire\" from care work and are less likely than men to have their time structured by work obligations (especially if they are providing spousal care--see Dentinger and Clarkberg 2002; Pavalko and Artis 1997), caregiving may constrain time available for health behaviors.",
                        "The evidence on caregivers' time use suggests that caregiving may both encourage and detract from healthy behaviors. Caregivers are more likely to volunteer than noncaregivers (Burr et al. 2005; Choi et al. 2007; Moen and Flood 2013). While those caring for grandchildren spend less time with friends and spouses and feel more pressed for time, grandparents also find meaning in this role (Jendrek 1993) and may experience other health benefits, such as getting more exercise (Hughes et al. 2007).",
                        "Marriage may also shape time use in terms of both spending time with others and other health behaviors (e.g., Umberson 1987). Evidence shows that unmarried people are more likely to experience short-hour sleep than married individuals (Hale 2005). Mattingly and Bianchi (2003) found married women spend about an hour less in leisure than unmarried women, while men experience no difference in leisure time by marital status.",
                        "Our linked lives hypothesis acknowledges that women in the encore years are especially prone to having their days organized around caring for children or grandchildren as well as for parents, spouses, or other ailing relatives (e.g., Austen and Ong 2010; Bird and Rieker 2008; Elder et al. 2003; Folbre 2012; Moen and Spencer 2006). We propose analogous gendered time allocations to health behaviors, with men spending more time in both physical activity and television watching and women devoting more time to meal preparation and being with others. Individuals whose lives are linked to others--spouses, parents, grandparents, caregivers, coworkers--obviously spend more time engaged in social activities, net of other factors, than those with fewer of such ties, but it is unclear whether such ties are associated with more or less time in other health-related behaviors.",
                        "To summarize, little is known about how Americans spend their time during what is coming to be seen as an encore adulthood, a bonus period (roughly between ages 55 and 75) resulting from increased healthy life expectancy typically past family and career building but before the infirmities associated with old age (Freedman 2011; Laslett 1987, 1989; Moen and Flood 2013; Moen and Lam 2015). We propose that a complex set of forces shape the time Americans allocate to healthy behaviors during these years of labor market transition, through both their choices and the constraints and facilitators structuring these choices. We test three hypotheses. First is the time scarcity hypothesis--that the time constraints of full-time paid work mean that encore adults working full time spend less time in health-related behaviors. This is especially consequential for men's lives since men more than women in this age group are more likely to be in the labor force. We do not theorize the way part-time employment or self-employment may be related to time allocated to health activities, but clearly these may be less time constraining than full-time employment. Second is the resource hypothesis, emphasizing the role of health and educational resources in shaping the ways encore adults allocate their time, with women typically having fewer such resources. And third is the linked lives hypothesis, positing that women's but not men's healthy time use is related to their marital and caregiving activities."
                    ]
                }
            ]
        },
        {
            "title": "Data and Methods",
            "subsections": [
                {
                    "title": "Data",
                    "paragraphs": [
                        "ATUS respondents reported the activities they engaged in during a 24-hour period from 4:00 a.m. of a specified day until 4:00 a.m. of the following day. Activities were coded using a three-tier, six-digit coding scheme that represents more than 400 activities. All responses were recorded using computer-assisted telephone interview procedures. Data were collected all days of the week, with weekends oversampled. Weights corrected for the survey design such that aggregating across different days of the week resulted in a representative picture of average time use among the population. Because health is such an important predictor of employment (e.g., Moen and Flood 2013; Warner et al. 2010) and of time use more generally, we restricted our sample to years in which self-reported health data were collected (2006 to 2008 and 2010).",
                        "Our dependent variables captured contemporary encore adults' engagement in health-related activities on the ATUS diary day. Specifically, we examined time sleeping, preparing meals, in physical activity (such as exercising and participating in sports as well as walking or biking as a mode of transportation), watching television, and socializing outside of paid work. We treated sleep as a categorical variable, indicating whether respondents get the recommended seven to nine hours of sleep, less than seven hours, or more than nine hours of sleep per 24-hour period. Watching television and socializing (outside of paid work and--in the descriptives only--during paid work) indicate the number of minutes on the ATUS diary day in the activity and may range from as few as zero minutes to an entire one-day period (1,440 minutes). We used two measures of physical activity and preparing meals: an indicator of whether the respondent engaged in the activity on the diary day and, conditional upon participation, minutes per day spent in the activity. Activity codes for each dependent variable are available in Appendix A (available at http://hsb.sagepub.com/supplemental).",
                        "Based on our gendered life course framing we modeled time use separately by age and gender, including as independent variables respondents' employment status, health, social-locational context (education and race), volunteer status, and the nature of their linked lives (such as marital, parental, and caregiving status). Employment status indicates whether respondents are working full time, are working part time, are self-employed, or are not working for pay (reference category). Though self-employment can be either full or part time, time allocated to work is presumed to be more discretionary for the self-employed compared to those working for someone else. Evidence indicates that significant numbers of encore adults moving through the retirement years engage in a period of self-employment (Zissimopoulos and Karoly 2007, 2009). Furthermore, self-employment has been found to be more satisfying than organizational employment because it provides greater degrees of autonomy, variety, flexibility, and job security (Hundley 2001). Another form of engagement that might shape time use in encore adulthood is volunteer work. Volunteer is a binary indicator of participation in formal volunteer activities for a nonprofit organization on the ATUS diary day.",
                        "Health is self-reported with five response categories ranging from poor to excellent (good is the reference category). Variables capturing social-locational context include gender, age (10-year age groups--55-64 and 65-74), college degree (binary, indicating whether the respondent received a bachelor's degree or higher; reference is high school degree or less), and race (coded as non-Hispanic white [reference], non-Hispanic black, non-Hispanic other race, and Hispanic).",
                        "Our linked lives measures included whether the respondent is married (yes/no), whether the respondent cares for infirm adults (reference is not caring for adults) or cares for (grand)children (reference is not caring for children) on the ATUS diary day, and whether there is a child (or grandchild) under 18 in the home (reference is no child under 18 in the home). Few in encore adulthood (5% of men and 2% of women) co-reside with children under 18, and most of those who do have co-resident grandchildren (76%). We also controlled for weekday versus weekend (reference) diaries and survey year (2006 [reference], 2007, 2008, and 2010)."
                    ]
                },
                {
                    "title": "Data",
                    "paragraphs": [
                        "We used three approaches to model encore adults' healthy time use. First, we estimate multinomial logit models for hours of sleep on the ATUS diary day, differentiating between the daily recommended amount of sleep (seven to nine hours), less than seven hours, and more than nine hours. Second, we used ordinary least squares (OLS) regression to model minutes spent watching television and socializing on the ATUS diary day. Unlike in the case of television watching and socializing with others (where there are very few zeroes--no one doing them), physical activity and meal preparation activities were less commonly reported on the dairy day. Because estimates from two-part models are less biased than estimates from Tobit models (Daunfeldt and Hellstrom 2007; Stewart 2013), we used logit models to estimate diary day participation in physical activity and meal preparation and OLS models to estimate minutes spent in these activities (conditional on participation). Our decision to analyze age and gender subgroups was generally supported by model-level Chow tests showing significant differences in OLS age- and gender-specific models and significant age and gender coefficients in pooled nonlinear models (available on request)."
                    ]
                }
            ]
        },
        {
            "title": "Results",
            "subsections": [
                {
                    "title": "Time Allocation Profiles of Encore Adult Men and Women",
                    "paragraphs": [
                        "Table 1 shows age- and gender-specific sample characteristics of encore adults (ages 55 to 75) and their time use patterns. (Bivariate relationships between individual characteristics of respondents and their participation in as well as time allocated to various health-related behaviors are available in Appendix B [available at http://hsb.sagepub.com/supplemental]). We theorized that full-time workers would be the most constrained in their engagement in both health-promoting and health-detracting behaviors or alternatively that full-time work might organize the day, including time for physical activity regardless of age or gender, though women and the older age group would be less likely to work full time. As expected, full-time work is substantially lower among 65- to 74-year-olds compared to 55- to 64-year-olds (12% vs. 47% for men and 6% vs. 41% for women in Table 1). Full-time workers spend less time than others preparing meals and engaging in physical activity (see Appendix B). On the other hand, also as expected, full-time work provides opportunities for social interaction on the job, with full-time workers (not surprisingly) spending more time with coworkers than part-timers or the self-employed. Part-time and self-employed workers spend less time watching television than nonworkers but more time doing so than full-time workers (see Appendix B). Time spent sleeping, television watching, and socializing outside of work is higher among the older (compared to younger) age group (see Table 1).",
                        "As theorized, resources and relationships also shape time use in encore adulthood. Lower levels of health, often accompanying increases in age (see Table 1), are associated with more time sleeping and watching television and less physical activity for men and women in both age groups (see Appendix B). Educational differences are especially pronounced, with college-educated men and women engaging more in physical activity and watching less television (see Appendix B). In terms of linked lives, marriage appears to be protective against both too much sleep and television watching for men and women; married individuals also spend more time with others. Those providing adult care are less likely to engage in physical activity compared to those not caring for an infirm adult (women care providers also watch less television). By contrast, physical activity is more common among caregivers of (grand)children.",
                        "We next turn to multivariate models to better understand these patterns, estimating the effects of work, resources, and linked lives on women's and men's participation in health-related behaviors. Note that while we test central tendencies (means), there is considerable variability (see standard deviations) in healthy time use among encore adults. To capture at least some of this heterogeneity, we estimate models separately for four distinct age and gender subgroups."
                    ]
                },
                {
                    "title": "Time Allocation Profiles of Encore Adult Men and Women",
                    "paragraphs": [
                        "We first estimate the odds of less and more than optimal sleep time (compared to seven to nine hours--see Table 2). Results (shown as relative risk ratios [RRR], with numbers greater than 1 indicating higher relative risk and less than 1 indicating lower relative risk) show that working predicts sleep time in gendered ways. Full-time work is protective against too much sleep for men but also doubles their risk of sleeping less than recommended hours compared to nonworking men (RRR = 1.825 for 55- to 64-year-old men, and RRR = 2.708 for 65- to 74-year-old men). There are age differences as well in the sleep effects of part-time work; men 55 to 64 working part-time are protected against too much sleep (RRR = .522), but part-timer men 65 to 74 are 2.59 times as likely not to get enough sleep relative to nonworking men. For women ages 55 to 64, all forms of paid work limit long-hour sleep (more than nine hours), but dissimilar to men, work does not increase women's risk of getting too little sleep. Among 65- to 74-year-old women, working part-time is protective against too much sleep (RRR = .614).",
                        "Self-reported health has independent--and important--effects on sleep in addition to any indirect effects (through different levels of employment) in the encore years. Men and women reporting poor health are at greater risk of sleeping more than the recommended nine hours per night, while excellent health is protective against sleeping too much (except among women ages 65-74, though the coefficient is in the same direction). Note, however, that good health could well be a consequence of consistently getting optimal amounts of sleep.",
                        "Linked lives in the form of social relations reveal only scattered associations with average sleep time for men and women in this encore stage. For men ages 55 to 64 marriage is protective against too much sleep (RRR = .780), and for women ages 65 to 74 marriage is protective against too little sleep (RRR = .678) compared to the recommended amount (see Table 2). Women 65 to 74 who provide adult care are 2.5 times as likely to sleep less than the recommended amount per night. So too do men ages 65 to 74 who provide (grand)child care have double the odds of not getting sufficient sleep (RRR = 2.08). By contrast, caring for (grand)children protects women 55 to 64 against too much sleep (RRR = .701).",
                        "Watching long hours of television, the dominant sedentary activity in contemporary life, has been linked to greater mortality risks (Matthews et al. 2012; Wijndaele et al. 2011). We find Americans ages 55 to 75 spend large amounts of time watching TV and that engagement in both paid work and formal (organizational) volunteering is associated with less time watching television (see Table 3). Comparing men and women ages 55 to 64, we find that self-employed and full-time working men spend more time watching television than similarly situated women (Chow tests, p < .05). Men and women who volunteer spend roughly one hour less per day watching television compared to nonvolunteers.",
                        "Self-reported health status also matters. Net of other factors (including employment status), encore adult men and women in excellent health spend approximately 30 fewer minutes watching television than those in good health (see Table 3); moreover, those in good health watch about an hour less television than those in poor health. The health status/TV watching relationship is most pronounced among women ages 55 to 64 and men.",
                        "Social relationships relate more to women's than men's time watching television. Married women watch less television than their unmarried counterparts, with women 65 to 74 benefitting more from marriage than their male counterparts (Chow test, p < .05). And adult care is protective against television watching for women ages 55 to 64, who watch 33 minutes less television than women not providing such care.",
                        "Paid work and volunteering are associated with men's and women's socializing (see Table 3). All forms of employment constrain the time encore adults have for socializing outside of paid work. Effects are especially pronounced for men who work full time and for younger men (55-64) who are self-employed. Volunteering also promotes socializing with others outside of paid work for younger (55-64) but not older (65-74) women.",
                        "Not surprisingly, men and women ages 55 to 64 in poor health spend about an hour less socializing than do those in good health (see Table 3); otherwise health is not significantly associated with time spent with others. Both child and adult caregivers--regardless of age or gender--spend more time in social engagement than noncaregivers. Married men and women spend more time socializing, with larger effects for older (65-74) compared to younger (55-64) encore adults (Chow tests, p < .05). This reinforces the buffering effect of marriage against social isolation (e.g., Cornwell 2011).",
                        "Consistent with previous research documenting the gendered division of unpaid housework (e.g., Bianchi et al. 2000), preparing meals remains largely women's work, regardless of age group (p < .05 for gender coefficient in pooled models); moreover, women spend more time cooking than do men who prepare meals (Chow tests, p < .05) (see Table 4). Older women (65-74) working full time have lower odds of preparing meals compared to women ages 55 to 64 working full-time (p < .05 for age/full-time work interaction). Not surprisingly, given that married women in encore adulthood are more likely to prepare meals than unmarried women (odds ratio [OR] = 1.21 for women 55-64, and OR = 1.5 for women 65-74), married men have lower odds of meal preparation than their unmarried counterparts (OR = .524 and OR = .497 for men 55-64 and 65-74, respectively).",
                        "Employment and gender (but not age group) are also related to differences in physical activity. Men and women (in both age groups) employed full time spend less time exercising than their nonworking counterparts. Women, however, have lower odds of exercising than do men (p < .05 for gender coefficients in age-specific models) and spend less time exercising (including walking and biking for transportation) when they do (Chow tests, p < .05).",
                        "Even net of employment, resources in the form of subjective health and educational attainment matter for physical activity. There is a clear health gradient: excellent health compared to good health is associated with more exercise, and those in good health engage in more physical activity than those in poor health across both age and gender (see Table 4). Of course the directions of these effects operate both ways; those who exercise may be healthier as a result of their more active lifestyle. The direction of the relationship between education and physical activity is clearer cut since educational credentials are typically accrued earlier in the life course. College-educated men and women have higher levels of physical activity (see Table 4) than those without college degrees.",
                        "Relationships between caregiving and participation in physical activity during the encore years are somewhat scattered. (Grand)child care increases the odds that women ages 65 to 74 exercise (OR = 1.717), especially compared to younger (55-64) women (p < .05 for age coefficient in women's model). Men providing (grand)child care, however, exercise fewer minutes than non-care providers. Similarly, women ages 55 to 64 who give care to adults have lower odds and time in physical activity compared to women not providing adult care."
                    ]
                }
            ]
        },
        {
            "title": "Discussion",
            "subsections": [
                {
                    "title": null,
                    "paragraphs": [
                        "The large Boomer cohort (born 1946-1964) is moving to and through a new life stage, the bonus years of vitality we call encore adulthood (Moen and Flood 2013; Moen and Lam 2015), coming after the career- and family-building years but before the infirmities associated with old age. A key concern of both policy makers and individuals at this life course stage is maintaining health or at least managing chronic health conditions. Little is known about how time is spent by those in this new encore stage, yet more time in health-promoting activities and limited time in health-detracting activities will be key to the health of this growing segment of the population (along with corollary health care costs). This is a transitionary time of life, replete with exits (out of full-time work, as well as widowhood) and entrances (starting one's own business, caring for grandchildren, volunteering) as well as, for some, the onset of chronic health problems. Do engagement in paid work or volunteering, health and educational resources, and/or social relations promote healthy time use? And does this differ by age and gender? Recognizing the heterogeneity of this life stage, we estimated models separately by both gender and age (dividing the sample into age groups 55-64 and 65-74). We find that men and women in the early and later years of encore adulthood differ in their degree of employment and subjective health ratings but that in many ways the relationships between employment, health, and health behaviors tend to be similar. Nonetheless, we find some important age and gender differences in healthy time use during the encore years.",
                        "We tested three hypotheses: that roles (especially full-time paid work but also volunteering) produce time scarcity and limit health behaviors, that resources (subjective health rating and a college degree) promote positive and reduce time spent in negative health behaviors, and that family relationships (or linked lives) are related to health behaviors in gendered ways. Consistent with the time scarcity hypothesis, we find that paid work limits encore men's and women's time in both health-promoting and health-detracting behaviors. Effects are most pronounced for those working full time paid work limits the time they spend sleeping--protecting them from getting too much sleep--but also puts men at risk of getting too little sleep, not exercising, and not preparing meals. Women who work also spend less time in physical activity than nonworking women. We find time constraints can be beneficial as well, with full-time work and volunteering limiting time watching television. Those not working have more discretionary time and allocate it to health-promoting activities as well as to large amounts of television watching.",
                        "But work is not the only factor that keeps even the busiest individuals from exercising, preparing healthy meals, or getting enough sleep. Our results also support the resource hypothesis, showing that those with high subjective health ratings and a college degree seem to develop health lifestyles perpetuating their health advantage. For the men and women in this encore adulthood stage, a college education, which has been associated with cumulative advantages in health (Mirowsky and Ross 2005, 2008), tends to mean less--yet still substantial--time watching television, even among healthy, college-educated, full-time workers. Encore men and women in the best health are the most protected against health-detracting behaviors, while those in the worst health spend the least time in physical activity and social engagement (only for men) and the most time sleeping and watching television. Education and subjective health--resources that both directly and indirectly (through selection into paid work) affect time spent in healthy time use--are each positively associated with health-promoting behaviors and negatively associated with health-detracting behaviors.",
                        "Relations with others, what life course scholars call linked lives, also predict health behaviors, as proposed in our third hypothesis. Marriage encourages health-promoting socializing for men and women of all ages and limits television time (for women only, which is related to gender disparities in leisure time, a positive outcome in this case, given the sedentary nature of watching television). Providing care to others is also conducive to healthy time use across age and gender lines, promoting socializing and restricting time adults in the encore years spend watching television. On the other hand, caregiving is associated with an increased risk of insufficient sleep among 65- to 74-year-old men providing care to (grand)children and women in both age groups caring for infirm adults. This could be because of the stress of caring for others, and/or sleep could be interrupted by caregiving obligations.",
                        "To conclude, this study is pathbreaking in terms of shedding light on those in a new transitionary encore adult stage, focusing on time spent in specific (and potentially modifiable) health behaviors and developing and testing hypotheses about factors associated with healthy time use. In particular, is work related to healthy time use in encore adulthood? The answer appears to be yes, but the story is more complicated. Full-time work can mean less than the recommended hours of sleep, especially for men ages 65 to 74. Caregiving responsibilities both limit the odds of women's working (Moen and Flood 2013) and reduce the time women spend watching television and being physically active even if increasing their tendency to exercise (ages 65-74). Future studies need to address whether part-time work, self-employment, and volunteering may promote overall healthy time use, since the benefits of working full time (less time watching television and sleeping long hours) may be attenuated by less physical activity and less than adequate sleep time.",
                        "Our findings are further enhanced by the recency, representativeness, and size of the ATUS sample. But there are a number of limitations. Our health-related measures are not exhaustive; those we consider are only a subset of the universe of health behaviors, and future research could examine other activities (e.g., visiting doctors, self-care, and vacations). Because the data are only collected for a single day per respondent, examination of within-person variation in healthy time use over the course of a week, for example, is not possible. The single-day limitation also means that we may not observe individuals doing activities they perform regularly but not daily (e.g., exercise). Similarly, we are unable to observe how time allocations differ following a change in status--such as transitioning out of paid work or taking on care responsibilities. Neither do we know whether employment or nonemployment (or providing care to grandchildren or infirm relatives) is voluntary or involuntary. In addition, because the ATUS is cross-sectional, we are unable to establish causal ordering. For example, subjective health status is very likely to be both a precursor and a product of healthy time use, creating a cycle of advantage or disadvantage. Finally, because the ATUS samples the noninstitutionalized population, the least healthy members of this 55 to 74 age group are likely missing from our sample.",
                        "Nevertheless, this study documents the distribution of and heterogeneity in healthy time use among the growing population of 55- to 75-year-old American men and women, those traversing an encore adult phase characterized by eventual exits from full-time jobs into self-employment, part-time work, volunteering, caregiving, or the total leisure typically associated with retirement. It also indicates patterned subgroup differences--by age group and gender, but also by employment, educational attainment, health status, marriage, and caregiving responsibilities. As the Boomers move through this encore stage, ways of encouraging health-promoting behaviors will increasingly be on both research and policy agendas."
                    ]
                }
            ]
        }
    ],
    "references": [
        "Altergott, Karen. 1988. \u201cSocial Action and Interaction in Later Life.\u201d Pp. 117\u201346 in Daily Life in Later Life: Comparative Perspectives, edited by Altergott, K. London, England: Sage.",
        "Arber, Sara, Timonen, Virpi, eds. 2012. Contemporary Grandparenting: Changing Family Relationships in Global Contexts. Bristol, England: Policy Press.",
        "Ashe, Maureen C., Miller, William C., Eng, Janice J., Noreau, Luc. 2009. \u201cOlder Adults, Chronic Disease, and Leisure-time Physical Activity.\u201d The Gerontologist 55(1):64\u201372.",
        "Austen, Siobhan, Ong, Rachel. 2010. \u201cThe Employment Transitions of Mid-life Women: Health and Care Effects.\u201d Ageing and Society 30(2):207\u201327.",
        "Belgrave, Linda Liska. 1988. \u201cThe Effects of Race Differences in Work History, Work Attitudes, Economic Resources, and Health on Women\u2019s Retirement.\u201d Research on Aging 10(3):383\u201398.",
        "Berkman, Lisa, Breslow, Lester. 1983. Health and Ways of Living: The Alameda County Study. New York: Oxford University Press.",
        "Berkman, Lisa, Kawachi, Ichiro. 2000. Social Epidemiology. New York: Oxford University Press.",
        "Berkman, Lisa F., Syme, S. Leonard. 1979. \u201cSocial Networks, Host Resistance and Mortality: A Nine-year Follow-up Study of Alameda County Residents.\u201d American Journal of Epidemiology 115(5):684\u201394.",
        "Bianchi, Suzanne M., Milkie, Melissa A., Sayer, Liana C., Robinson, John P. 2000. \u201cIs Anyone Doing the Housework? Trends in the Gender Division of Household Labor.\u201d Social Forces 79(1):191\u2013228.",
        "Bird, Chloe E., Rieker, Patricia P. 2008. Gender and Health: The Effects of Constrained Choices and Social Policies. New York: Cambridge University Press.",
        "Blood, Robert O., Wolfe, Donald M. 1960. Husbands and Wives. New York: Free Press.",
        "Bureau of Labor Statistics. 2011. American Time Use Survey\u20142010 Results. Retrieved November 12, 2011 (http://bls.gov/news.release/pdf/atus.pdf).",
        "Burr, Jeffrey A., Choi, Namkee, Mutchler, Jan E., Caro, Francis G. 2005. \u201cCaregiving and Volunteering: Are Private and Public Helping Behaviors Linked?\u201d Journal of Gerontology 60B(5):S247\u201356.",
        "Buxton, Orfeu M., Marcelli, Enrico. 2010. \u201cShort and Long Sleep Are Positively Associated with Obesity, Diabetes, Hypertension, and Cardiovascular Disease among Adults in the United States.\u201d Social Science & Medicine 71(5):1027\u201336.",
        "Cahill, Kevin E., Giandrea, Michael D., Quinn, Joseph F. 2006. \u201cRetirement Patterns from Career Employment.\u201d The Gerontologist 46(4):514\u201323.",
        "Choi, Namkee G. 1994. \u201cRacial Differences in Timing and Factors Associated with Retirement.\u201d Journal of Sociology and Social Welfare 21(3):31\u201352.",
        "Choi, Namkee G., Burr, Jeffrey A., Mutchler, Jan E., Caro, Francis G. 2007. \u201cFormal and Informal Volunteer Activity and Spousal Caregiving among Older Adults.\u201d Research on Aging 29(2):99\u2013124.",
        "Cockerham, William C. 2005. \u201cHealth Lifestyle Theory and the Convergence of Agency and Structure.\u201d Journal of Health and Social Behavior 46(1):51\u201367.",
        "Cornwell, Benjamin. 2011. \u201cAge Trends in Daily Social Contact Patterns.\u201d Research on Aging 33(5):598\u2013631.",
        "Cornwell, Erin York, Waite, Linda J. 2009. \u201cSocial Disconnectedness, Perceived Isolation, and Health among Older Adults.\u201d Journal of Health and Social Behavior 50(1):31\u201348.",
        "Dannefer, Dale. 2011. \u201cAge, the Life Course, and the Sociological Imagination: Prospects for Theory.\u201d Pp. 3\u201316 in Handbook of Aging and Social Sciences, edited by Binstock, R., George, L. New York: Academic.",
        "Daunfeldt, Sven-Olov, Hellstrom, Jorgen. 2007. \u201cIntra-household Allocation of Time to Household Production Activities: Evidence from Swedish Household Data.\u201d Labour 21(2):189\u2013207.",
        "Dentinger, Emma, Clarkberg, Marin. 2002. \u201cInformal Caregiving and Retirement Timing among Men and Women: Gender and Caregiving Relationships in Late Midlife.\u201d Journal of Family Issues 23(7):857\u201379.",
        "Elder, Glen H., Johnson, Monica Kirkpatrick, Crosnoe, Robert. 2003. \u201cThe Emergence and Development of the Life Course.\u201d Pp. 3\u201319 in Handbook of the Life Course, edited by Mortimer, J., Shanahan, M. J. New York: Plenum.",
        "Folbre, Nancy. 2012. For Love and Money: Care Provision in the United States. New York: Russell Sage.",
        "Freedman, Marc. 2011. The Big Shift: Navigating the New Stage beyond Midlife. New York: Public Affairs.",
        "Fuller-Thomson, Esme, Minkler, Meredith. 2001. \u201cAmerican Grandparents Providing Extensive Child Care to Their Grandchildren: Prevalence and Profile.\u201d The Gerontologist 41(2):201\u2013209.",
        "Gauthier, Anne H., Smeeding, Timothy M. 2003. \u201cTime Use at Older Ages.\u201d Research on Aging 25(3):247\u201374.",
        "Gauthier, Anne H., Smeeding, Timothy M. 2010. \u201cHistorical Trends in the Patterns of Time Use of Older Adults.\u201d International Studies in Population 8(5):289\u2013310.",
        "Gilleard, Chris, Higgs, Paul. 2007. \u201cThird Age and the Baby Boomers: Two Approaches to the Social Structuring of Later Life.\u201d International Journal of Ageing and Later Life 2(2):13\u201330.",
        "Goode, William J. 1960. \u201cA Theory of Role Strain.\u201d American Sociological Review 25(4):483\u201396.",
        "Grzywacz, Joseph G., Marks, Nadine F. 2001. \u201cSocial Inequalities and Exercise during Adulthood: Toward an Ecological Perspective.\u201d Journal of Health and Social Behavior 42(2):202\u201320.",
        "Hale, Lauren. 2005. \u201cWho Has Time to Sleep?\u201d Journal of Public Health 27(2):205\u201311.",
        "Han, Shin-Kap, Moen, Phyllis. 1999. \u201cClocking Out: Temporal Patterning of Retirement.\u201d American Journal of Sociology 105(1):191\u2013236.",
        "Harrington Meyer, Madonna, Herd, Pamela. 2007. Market Friendly or Family Friendly? The State and Gender Inequality in Old Age. New York: Russell Sage.",
        "Hofferth, Sandra L., Flood, Sarah M., Sobek, Matthew. 2013. American Time Use Survey Data Extract System: Version 2.4 [MRDF]. College Park: Maryland Population Research Center, University of Maryland. Minneapolis: Minnesota Population Center, University of Minnesota.",
        "House, James S. 2002. \u201cUnderstanding Social Factors and Inequalities in Health: 20th Century Progress and 21st Century Prospects.\u201d Journal of Health and Social Behavior 43(2):125\u201342.",
        "Hughes, Mary Elizabeth, Waite, Linda J., LaPierre, Tracey A., Luo, Ye. 2007. \u201cAll in the Family: The Impact of Caring for Grandchildren on Grandparents\u2019 Health.\u201d Journal of Gerontology: Social Sciences 62B(2):S108\u201319.",
        "Hundley, Greg. 2001. \u201cWhy and When Are the Self-employed More Satisfied with Their Work?\u201d Industrial Relations 40(2):293\u2013316.",
        "Jeffrey, Robert W., French, Simone A. 1998. \u201cEpidemic Obesity in the United States: Are Fast Foods and Television Viewing Contributing?\u201d American Journal of Public Health 88(2):277\u201380.",
        "Jendrek, Margaret Platt. 1993. \u201cGrandparents Who Parent Their Grandchildren: Effects on Lifestyle.\u201d Journal of Marriage and Family 55(3):609\u201321.",
        "Jenkins, Kristi Rahrig, Fultz, Nancy H. 2008. \u201cThe Relationship of Older Adults\u2019 Activities and Body Mass Index.\u201d Journal of Aging and Health 20(2):217\u201334.",
        "Karisto, Antti. 2007. \u201cFinnish Baby Boomers and the Emergence of the Third Age.\u201d International Journal of Ageing and Later Life 2(2):91\u2013108.",
        "Kolodinsky, Jane M., Goldstein, Amanda B. 2011. \u201cTime Use and Food Pattern Influences on Obesity.\u201d Obesity 19(12):2327\u201335.",
        "Krantz-Kent, Rachel, Stewart, Jay. 2007. \u201cHow Do Older Americans Spend Their Time?\u201d Monthly Labor Review 130(5):8\u201326.",
        "Krieger, Nancy. 2011. Epidemiology and the People\u2019s Health: Theory and Context. New York: Oxford University Press.",
        "Kurina, Lianne M., McClintock, Martha K., Chen, Jen-Hao, Waite, Linda J., Thisted, Ronald A., Lauderdale, Diane S. 2013. \u201cSleep Duration and All-cause Mortality: A Critical Review of Measurement and Associations.\u201d Annals of Epidemiology 23(6):361\u201370.",
        "Laslett, Peter. 1987. \u201cThe Emergence of the Third Age.\u201d Ageing and Society 7(2):133\u201360.",
        "Laslett, Peter. 1989. A Fresh Map of Life: The Emergence of the Third Age. Cambridge, MA: Harvard University Press.",
        "Lima, Julie C., Allen, Susan M., Goldscheider, Frances, Intrator, Orna. 2008. \u201cSpousal Caregiving in Late Midlife versus Older Ages: Implications of Work and Family Obligations.\u201d Journal of Gerontology Social Sciences 63(4):S229\u201338.",
        "Luoh, Ming-Ching, Herzog, A. Regula. 2002. \u201cIndividual Consequences of Volunteer and Paid Work in Old Age: Health and Mortality.\u201d Journal of Health and Social Behavior 43(4):490\u2013509.",
        "Marks, Nadine F. 1996. \u201cCaregiving across the Lifespan: National Prevalence and Predictors.\u201d Family Relations 45(1):27\u201336.",
        "Matthews, Charles E., George, Stephanie M., Moore, Steven C., Bowles, Heather R., Blair, Aaron, Park, Yikyung, Troiano, Richard P., Hollenbeck, Albert, Schatzkin, Arthur. 2012. \u201cAmount of Time Spent in Sedentary Behaviors and Cause-specific Mortality in US Adults.\u201d American Journal of Clinical Nutrition 95(2):437\u201345.",
        "Mattingly, Marybeth J., Bianchi, Suzanne M. 2003. \u201cGender Differences in the Quantity and Quality of Free Time: The U.S. Experience.\u201d Social Forces 81(3):999\u20131030.",
        "McCullough, Michael F., Polak, Emily. 2007. \u201cChange and Stability during the Third Age: Longitudinal Investigations of Self-rated Health and Religiousness with the Terman Sample.\u201d Pp. 175\u201392 in The Crown of Life: Dynamics of the Early Postretirement Period, edited by James, J., Wing, P. New York: Springer.",
        "Minkler, Meredith. 1999. \u201cIntergenerational Households Headed by Grandparents: Contexts, Realities, and Implications for Policy.\u201d Journal of Aging Studies 13(2):199\u2013218.",
        "Mirowsky, John, Ross, Catherine E. 2005. \u201cEducation, Cumulative Advantage, and Health.\u201d Ageing International 30(1):27\u201362.",
        "Mirowsky, John, Ross, Catherine E. 2008. \u201cEducation and Self-rated Health: Cumulative Advantage and Its Rising Importance.\u201d Research on Aging 30(1):93\u2013122.",
        "Moen, Phyllis. 2001. \u201cThe Gendered Life Course.\u201d Pp. 179\u201396 in Handbook of Aging and the Social Sciences, 5th ed., edited by George, L., Binstock, R. H. San Diego, CA: Academic.",
        "Moen, Phyllis. 2013. \u201cConstrained Choices: The Shifting Institutional Contexts of Aging and the Life Course.\u201d Pp. 175\u2013216 in New Directions in the Sociology of Aging, edited by Waite, L. J., Plewes, T. J. Washington, DC: National Academies Press.",
        "Moen, Phyllis, Altobelli, Joyce. 2007. \u201cStrategic Selection as a Retirement Project: Will Americans Develop Hybrid Arrangements?\u201d Pp. 61\u201381 in The Crown of Life: Dynamics of the Early Postretirement Period, edited by James, J., Wink, P. New York: Springer.",
        "Moen, Phyllis, Flood, Sarah. 2013. \u201cLimited Engagements? Women\u2019s and Men\u2019s Work/Volunteer Time in the Encore Life Course Stage.\u201d Social Problems 60(2):206\u201333.",
        "Moen, Phyllis, Hernandez, Elaine. 2009. \u201cSocial Convoys: Studying Linked Lives in Time, Context, and Motion.\u201d Pp. 258\u201379 in The Craft of Life Course Research, edited by Elder, G., Giele, J. New York: Guilford.",
        "Moen, Phyllis, Kelly, Erin L., Lam, Jack. 2013. \u201cHealthy Work Revisited: Do Changes in Time Strain Predict Well-being?\u201d Journal of Occupational Health Psychology 18(2):157\u201372.",
        "Moen, Phyllis, Lam, Jack. 2015. \u201cRetirement and Encore Adulthood: The New Later Life Course.\u201d International Encyclopedia of the Social and Behavioral Sciences, 2nd ed. Amsterdam, The Netherlands: Elsevier.",
        "Moen, Phyllis, Lam, Jack, Ammons, Samantha, Kelly, Erin L. 2013. \u201cTime Work by Overworked Professionals: Strategies in Response to the Stress of Higher Status.\u201d Work & Occupations 40(2):79\u2013114.",
        "Moen, Phyllis, Roehling, Patricia. 2005. The Career Mystique: Cracks in the American Dream. Boulder, CO: Rowman and Littlefield.",
        "Moen, Phyllis, Spencer, Donna. 2006. \u201cConverging Divergences in Age, Gender, Health, and Well-being: Strategic Selection in the Third Age.\u201d Pp. 127\u201344 in Handbook of Aging and the Social Sciences, edited by Binstock, R., George, L. Burlington, MA: Elsevier Academic.",
        "Oakes, J. Michael, Kaufman, Jay S. 2006. \u201cIntroduction: Advancing Methods in Social Epidemiology.\u201d Pp. 3\u201320 in Methods in Social Epidemiology, edited by Oakes, J. M., Kaufman, J. S. San Francisco: Jossey-Bass.",
        "Patel, Sanjay R. 2007. \u201cSocial and Demographic Factors Related to Sleep Duration.\u201d Sleep 30(9):1077\u201378.",
        "Patel, Sanjay R., Malhotra, Atul, White, David P., Gottlieb, Daniel J., Hu, Frank B. 2006. \u201cAssociation between Reduced Sleep and Weight Gain in Women.\u201d American Journal of Epidemiology 164(10):947\u201354.",
        "Pavalko, Eliza K., Artis, Julie E. 1997. \u201cWomen\u2019s Caregiving and Paid Work: Causal Relationships in Late Midlife.\u201d Journal of Gerontology: Social Sciences 52B(4):S170\u201379.",
        "Pleau, Robin L. 2010. \u201cGender Differences in Postretirement Employment.\u201d Research on Aging 32(3):267\u2013303.",
        "Quinn, Joseph F., Kozy, Michael. 1996. \u201cThe Role of Bridge Jobs in the Retirement Transition: Gender, Race, and Ethnicity.\u201d The Gerontologist 36(3):363\u201372.",
        "Rosenkoetter, Marlene M., Gams, John M., Engdahl, Richard A. 2001. \u201cPostretirement Use of Time.\u201d Activities, Adaptation, and Aging 25(3/4):1\u201318.",
        "Rosow, Irving. 1974. Socialization to Old Age. Los Angeles: University of California Press.",
        "Sadler, William A. 2006. \u201cChanging Life Options: Uncovering the Riches of the Third Age.\u201d LLI Review 1(1):11\u201320.",
        "Shaw, Benjamin A., Spokane, Linda S. 2008. \u201cExamining the Association between Education Level and Physical Activity Changes During Early Old Age.\u201d Journal of Aging Health 20(7):767\u201387.",
        "Silva, Luna Rodrigues Freitas. 2008. \u201cFrom Old Age to Third Age: The Historical Course of the Identities Linked to the Process of Ageing.\u201d Hist\u00f3ria, Ci\u00eancias, Sa\u00fade\u2014Manguinhos 15(1):155\u201368.",
        "Stewart, Jay. 2013. \u201cTobit or Not Tobit?\u201d Journal of Economic and Social Measurement 38(3):263\u201390.",
        "Thomas, Patricia A. 2011. \u201cTrajectories of Social Engagement and Limitations in Late Life.\u201d Journal of Health and Social Behavior 52(4):430\u201343.",
        "Thomas, Patricia A. 2012. \u201cTrajectories of Social Engagement and Mortality in Late Life.\u201d Journal of Aging and Health 24(4):1\u201322. doi:10.1177/0898264311432310.",
        "Tucker, Larry A., Bagwell, Marilyn. 1991. \u201cTelevision Viewing and Obesity in Adult Females.\u201d American Journal of Public Health 81(7):908\u201311.",
        "Tucker, Larry A., Friedman, Glenn M. 1989. \u201cTelevision Viewing and Obesity in Adult Males.\u201d American Journal of Public Health 79(4):516\u201318.",
        "Umberson, Debra. 1987. \u201cFamily Status and Health Behaviors: Social Control as a Dimension of Social Integration.\u201d Journal of Health and Social Behavior 28(3):306\u201319.",
        "Umberson, Debra, Crosnoe, Robert, Reczek, Corrine. 2010. \u201cSocial Relationships and Health Across the Life Course.\u201d Annual Review of Sociology 36(1):139\u201357.",
        "U.S. Department of Health and Human Services. 2008. 2008 Physical Activity Guidelines for Americans. Washington, DC: U.S. Department of Health and Human Services. Retrieved January 7, 2015 (http://www.health.gov/paguidelines/guidelines/default.aspx).",
        "Warner, David F., Hayward, Mark D., Hardy, Melissa A. 2010. \u201cThe Retirement Life Course in America at the Dawn of the Twenty-first Century.\u201d Population Research and Policy Review 29(6):893\u2013919.",
        "Wijndaele, Katrien, Brage, Soren, Besson, Herve, Khaw, Kay-Tee, Sharp, Stephen J., Luben, Robert, Wareham, Nicholas J., Ekelund, Ulf. 2011. \u201cTelevision Viewing Time Independently Predicts All-cause and Cardiovascular Mortality: The EPIC Norfolk Study.\u201d International Journal of Epidemiology 40(1):150\u201359.",
        "World Health Organization. 2010. \u201cGlobal Recommen\u2013dations on Physical Activity for Health.\u201d Retrieved January 7, 2015 (http://whqlibdoc.who.int/publications/2010/9789241599979_eng.pdf).",
        "Zick, Cathleen D., Stevens, Robert B., Bryant, W. Keith. 2011. \u201cTime Use Choices and Healthy Body Weight: A Multivariate Analysis of Data from the American Time Use Survey.\u201d International Journal of Behavioral Nutrition and Physical Activity 8(84):1\u201314.",
        "Zissimopoulos, Julie M., Karoly, Lynn A. 2007. \u201cTransitions to Self-employment at Older Ages: The Role of Wealth, Health, Health Insurance, and Other Factors.\u201d Labour Economics 14(2):269\u201395.",
        "Zissimopoulos, Julie M., Karoly, Lynn A. 2009. \u201cLabor-force Dynamics at Older Ages: Movements into Self-employment for Workers and Nonworkers.\u201d Research on Aging 31(1):89\u2013111."
    ],
    "title": "Healthy Time Use in the Encore Years",
    "issue": "1",
    "volume": "56",
    "year": 2015,
    "issn": "0022-1465",
    "journal": "Journal of Health and Social Behavior",
    "authors": [
        "Sarah M. Flood",
        " Phyllis Moen"
    ]
}