{
    "doi": "http://dx.doi.org/10.1093/esr/jct002",
    "abstract": "This article uses multilevel network analysis to identify an extended and latent opportunity structure for actors dually positioned in both intra-organizational and inter-organizational networks. This extended opportunity structure combines actors\u2019 direct ties with indirect ties that they can add to their own network by \u2018borrowing\u2019 some of their boss\u2019s two-path contacts. We call \u2018dual alters\u2019 contacts that can be reached through this multilevel path with help (or absence of obstruction) from such \u2018embedded brokers\u2019. We test the specific effect of this extension on actors\u2019 performance using a data set derived from a multilevel study of the elite of French cancer researchers (1996\u20132005). We find a significant effect of this extension on members\u2019 performance when dual alters provide complementary resources, thus providing proof of a \u2018network lift from dual alters\u2019 presence in the focal actor\u2019s network. Network lift allows sociologists to measure the extent to which performance measured at the individual level depends in a complex way on the multilevel and combined characteristics of the intra- and inter-organizational context in which individuals belong. We believe that this measurement of latent and extended opportunity structures will help meso-level sociologists in their approach to social processes and inequalities in the organizational society.",
    "sections": [
        {
            "title": "Introduction",
            "paragraphs": [
                "The fundamental question of the influence of social structure on behavior and performance of actors has been examined with renewed interest in recent decades owing to the development of structural sociology and the analysis of social and organizational networks, particularly from a multilevel perspective (Snijders and Bosker, 1999; Kozlowski and Klein, 2000). Network data help model opportunity structures in new ways (White et al., 1976; Burt, 2005). In particular, new approaches to 'duality' in social life, i.e. co-constitution of individuals and groups initially measured by bipartite or two-mode networks (Breiger, 1974), have enriched this multilevel perspective. These approaches complement rather than compete with more established hierarchical linear modeling (Bryk and Raudenbush, 1992), especially by taking into account new elements in the definition of opportunity structures. They usually observe two or more systems of superposed and partially interlocked interdependencies, at the same time inter-individual and inter-organizational, and provide several formalisms (Wilson, 1982; Fararo and Doreian, 1980; Snijders and Baerveldt, 2003; Lubbers, 2003; Robins et al., 2005; Van Duijn, 2006; Wang et al., 2012) that craft a formal theory of interpenetration of distinct entities such as individuals and groups. Various modes of articulation for the different levels have thus opened new avenues for research in that area, exploring, for example, meso-level networks (Hedstrom et al., 2000) or 'linked design' networks (Lazega et al., 2008).",
                "In this article, we further explore the possibilities offered by multilevel network analysis. We argue that it can develop sociologists' understanding of opportunity structures. As each level of agency constitutes a system of exchange between different resources that has its own temporality, logic and processes (Lazega, 2012), it is important to examine both levels separately and jointly. Joint study allows us to identify opportunity structures and the actors that benefit from relatively easy access to the resources that circulate at each level, and also to measure their relative performance; in addition, it allows us to identify situations in which the interplay between the levels has less positive effects for the actors. We suggest that the knowledge of multilevel interdependencies, and additionally of the manner in which actors manage theses interdependencies at each level, adds an original dimension to multilevel reasoning and to meso-level exploration in sociology.",
                "We use the 'linked design' approach because we think that dual-positioning individual actors (in the network of their inter-individual relationships and in the network of relationships between the organizations to which they belong, i.e. in which they are affiliated) facilitates identification and measurement of 'extended' opportunity structures. This in turn leads to specific hypotheses concerning the relationship between position in these complex multilevel structures, strategy, and performance (measured at the individual level). The term 'strategy' refers here to the fact that actors manage their interdependencies at different levels by appropriating, accumulating, exchanging, and sharing resources, both with peers and with hierarchical superiors or subordinates.",
                "Determinants of performance are widely examined in the social network literature (see Flap et al., 1998, or Quintane et al., 2012, for example). Our way of presenting the problem of contextualizing action and actors' performances echoes the preoccupations of organizational sociologists who reason in terms of individual and collective social capital (Leenders and Gabbay, 1999; Hsung et al., 2009). Our purpose is equivalent to addressing the difficult question of the integration of different levels of analysis in which they situate social capital. For this, we extend Burt's (1992, 2005) work on 'borrowing' social capital in a new way. With respect to the link between individual social capital and performance, Burt's theory is that, in social settings in which individuals compete, performance increases when actors have dense ties within their workgroup and high brokerage scores beyond the group. In particular, his work shows that members benefit from brokerage and structural holes, unless they are in a highly dependent and dominated situation, in which case they can try to borrow someone else's (a champion's, a mentor's) relationships to reach the same levels of performance as their average competitors. Borrowing social capital can be an efficient strategy for members who suffer from a lack of legitimacy (e.g. women in a male-dominated organization): it consists of benefiting from a colleague's or a superior's support through a use of the latter's network, a kind of support that leads to an increase in work performance.",
                "Based on this perspective, we propose to observe extended opportunity structures, as defined above, by focusing on actors' multilevel relational strategies of borrowing contacts from their boss's network. We identify a specific kind of borrowing effect on performance, an effect originating in the multilevel dimension of the structure, and we call it 'network lift'. This borrowing can be considered an outcome of a specific mechanism of 'embedded brokerage' in the sense that it is provided by hierarchical superiors who act as bridges embedded in the inter-organizational networks. For embedded brokers, embeddedness in a relatively closed inter-organizational network lowers the risks of building bridges between subordinates compared with the risks taken by brokers, for example, in open markets. We measure the role of specific kinds of actors' indirect and potential contacts provided by such embedded brokers. We call these contacts 'dual alters' and argue that they have an important and specific role in shaping this lift effect, i.e. in creating a focal actor's latent, multilevel, and extended opportunity structure.",
                "We carry out this approach using a data set, collected by Lazega et al. (2008), in the sociology of sciences that measures the networks of an 'elite' of French cancer researchers in 1999-2000, examined at both the inter-individual and the inter-organizational levels. In itself, the study of 'elites' is not new in the sociology of science or in network analysis (see for example, Zuckerman, 1977, or Hargens et al., 1980). In particular, several studies about complete networks of scientists or laboratories have been presented before, beginning with the pioneering work of Mullins et al. (1977). Jansen (2004) provides a literature review. But this data set is particularly suitable for the purpose of analyzing performance in relationship with extended opportunity structures.",
                "The article is organized as follows: we first discuss the notion of extended opportunity structure and the role of hierarchical superiors and dual alters in shaping it. We then hypothesize that the richer members' dual alters are in complementary resources, the higher these members' performance. The data set used in the analyses is then presented: it is focused on tacit learning networks among scientists and the complex determinants of their performance. A model is fitted to measure the effect of access to such dual alters on actors' performance. New descriptive analyses are provided to illustrate and interpret these results. Finally, we explore the limitations of our approach and suggest further developments."
            ]
        },
        {
            "title": "Borrowing Social Capital from Hierarchical Superiors as Embedded Brokers",
            "paragraphs": [
                "Extending Burt's idea of borrowing social capital, we focus specifically on the actor's own hierarchical superior as the strategic partner who can sponsor, in our case indirectly, the actor's access to resources. Here, actors and ties are nested within organizational units, but the ties can also be among actors of different organizational units. From this perspective, borrowing relational capital is seen as a complex social process that provides performance with a collective dimension even when it is measured at the individual level. Actors have a complex inter-individual network at the personal level combined with an equally complex inter-organizational network at the collective level; the latter is based on affiliation ties or personal ties with managers (hierarchical superiors) who themselves have ties in other organizations across the boundaries of their organization. We aggregate the two networks and treat the 'extended' network as a latent, meso-level structure adding actual and indirect relational capital for the focal individual members. The linked-design allows analysts to look at the extent to which the extended relational context adds an extra effect on performance by providing this indirect potential social capital for these individual members. This extended context can either increase, i.e. lift, or maintain, or decrease members' individual performance. The expression 'lift' is meant to signify that an increase is partly traceable to the multilevel dimension of the system.",
                "We call dual 3-path (or tetradic) the chain of ties that creates, at the aggregate level, this extended context. Figure 1 visualizes this chain. ",
                "We call i actors (i.e. respondents in the empirical research), their observed direct contacts j, and dual alter k their indirect potential contacts accessible through the embedded brokerage by their managers. Dual alters are the induced, indirect contacts that are part of a focal actor i's relational capital via such substructures. This organizationally extended network is constructed by adding to the observed network of actors i all the indirect ties k that i can access through their manager and through the manager's ties to other managers at the inter-organizational level. We assume that this potential can be more easily realized than creation of ties from scratch by individual actors, provided that members and managers get along reasonably well within the context of cooperation in their organization, and provided also that managers see the value for their organization of helping their members in accessing new resources through their inter-organizational ties. Realizing this potential is equivalent to closing a complex and multilevel 3-path, thus reaching potential collaborators leading to complementary resources. Closing this dual 3-paths means adding dual alters that one can reach through one's boss's network. Dual alters are thus equivalent to Burt's borrowed contacts generated by Breiger's duality.",
                "Borrowing relational capital, however, is a complex social process that provides performance with a collective dimension even when it is measured at the individual level. In that sense, this complex process adds a new effect to the effects already taken into account in the literature on social capital based on measurement of the relationship between networks and performance. First, variations in kinds of contacts are important. Thus, it may be relevant to identify indirect contacts k that vary in terms of wealth: some have many resources to share, as distinguished from others who are poorer contacts with less resources to share.",
                "Second, variations in kinds of resources exchanged also matter for identifying such effects. The value of the observed and potential relational capital depends on the nature of the task to be performed. This presupposes that the expanded network must be specified resource by resource. In an environment in which actors behave strategically, the issue of the relative utility of their contacts' resources is also an appropriate one. The expanded network may or may not provide each member with access to complementary sources of resources. The network lift effect is relative to the utility of the resources of the indirect contact. These complementary sources may be useful or not useful with respect to providing resources that ego does not already have. In the case of social capital that is managed in a tightly organized environment, it may thus be relevant to distinguish resources of rich contacts k that are complementary to that of i from resources of rich contacts k that are redundant with resources already available to i. Network lift can thus be thought to be provided by complementary resources borrowed from rich dual alters. Given this link between relative utility and network lift, a network of indirect ties that provides non-complementary resources, i.e. 'more of the same' in terms of resources, should be an inter-organizational network that does not provide lift in the sense that it does not carry the individual and increase his/her performance."
            ]
        },
        {
            "title": "Hypothesis",
            "paragraphs": [
                "Based on this discussion of social capital focusing on dual alters as indirect and potential sources of performance in the extended network accessible through the inter-organizational level of agency, we expect the following in terms of shaping a latent extended opportunity structure: Controlling for the effect of direct contacts, the richer members' dual alters are in complementary resources, the higher these members' performance. Assuming that members get along with their hierarchical superiors who will broker their access to indirect contacts, and assuming that these indirect contacts are willing to share their complementary resources, these contacts' help should be identified as a specific source of members' performance increase over time, i.e. network lift.",
                "The hypothesis that actors may benefit from such a network lift by access to dual alters is not a surprise in itself for social scientists who have long argued that position in the structure has an effect on behaviour and performance. But our approach adds a new multilevel dimension to opportunity structure, as well as methodology and data for their measurement. We can thus measure, for example, the specific effect of indirect social capital potentially provided by hierarchical superiors embedded in inter-organizational networks."
            ]
        },
        {
            "title": "A Case of Tacit Learning Networks among Scientists across Laboratories",
            "paragraphs": [
                "We explore the value of this extended network for individual performance under these conditions in a study of 'elite' cancer researchers in France (1999-2000). A detailed presentation of this data set can be found in Lazega et al. (2008) who measure the critical importance of resources directly provided by the organizations to their members in explaining the latter's performance. Evidence for the existence of a 'network lift from dual alters' effect is based on measurement of the multilevel networks and performance levels of these scientists over 10 years (1996-2005). This data set is well suited for measurement of the extended opportunity structure because it includes and combines inter-laboratory networks, inter-individual networks within a specific subpopulation of scientists in that field, and performance variations. Performance is measured by impact factor scores (IF)--a measure of a scientific journal's impact, based on citations to its articles. Each researcher's performance was measured at the individual level by assigning to each of his/her publications the IF score of the journal in which it was published, and then by summing across all publications.",
                "Respondents belonged to five broad specialties: first, diagnostic, screening, prevention, and epidemiology (a set of disciplines, which will be pooled below under the label 'epidemiology'); second, clinical research without fundamental research; third, clinical and fundamental research in hematology-immunology; fourth, fundamental research focused on pharmacology; and fifth fundamental research in molecular/cellular biology or genetics. At the time of the study, hematology-immunology was the dominant specialty in cancer research in France, following generations of investments in the study of leukemia by French researchers who were among the first to learn and apply collectively the methodologies of molecular biology, with a visible effect in their performance measurements. However, if the latter specialty had the highest IF scores, at the time, its scores were no longer increasing. At the same time, another specialty was making new progress: diagnostic, screening, prevention, and epidemiology had increasing IF scores, a sufficiently strong collective development for a visible effect in their performance measurements.",
                "The networks of interdependencies among laboratories and among scientists in France at the time were reconstituted during face-to-face interviews. First, the inter-organizational networks between the majority of laboratories engaged in cancer research; second, the advice networks, i.e. networks of access to tacit knowledge, constructed by members of the 'elite'. This was done in the following manner. At the individual level, each researcher is considered a 'scientific entrepreneur' who needs resources that may be social or monetary. From the individual researcher's point of view, scientific research may be analytically broken down into a sequence of five steps, each characterized by a strong degree of uncertainty: selecting a line of research, finding institutional support, finding sources of financing, recruiting personnel, and publishing articles. At each step, one must suppose that the researchers depend on their relational capital and that they seek advice from other members of the research community to handle these uncertainties. In this competitive and uncertain environment, access to advisors is an important resource because carrying out these tasks is facilitated by access to advice offered by competent colleagues who agree to help. Five advice networks were thus reconstituted, one for each of these five steps.",
                "At the inter-organizational level, systematic data about inter-laboratory networks and about laboratories characteristics were also collected. The laboratory directors indicated with which other laboratories, among those in France practicing cancer research, their laboratory exchanged different types of resources. The list of reconstituted transfers and exchanges includes the recruitment of post-docs and researchers, the development of programs of joint research, joint responses to tender offers, sharing of technical equipment, sharing of experimental material, mobility of administrative personnel, and invitations to conferences and seminars. The complete inter-organizational network examined here is the aggregated and dichotomized network of all these flows; dichotomization created a tie between two actors if there was at least one tie between them in one of the aggregated matrices.",
                "At the inter-individual level, the five advice networks are aggregated and dichotomized to reconstitute a complete network of 126 researchers and of density 0.06 with average degree 8.8. Likewise, the inter-organizational network of 82 laboratories reaches a density of 0.04 with average degree of 6. The number of cases in which the director of the laboratory and the researcher i answered the organization-level questionnaire and the individual-level questionnaire respectively, is 93. We use the characteristics of i, j, and k over two periods: four years before the measurement of the networks (1999-2000) and five years after these measurements. The effect we are mostly interested in is the effect of characteristics of indirect ties k on i's performance. Specifically, we create two kinds of articulation between the individual's network and the organizational network.",
                "First, we measured the status of the actor and the importance of their organization using his/her centrality in the advice network of this population. Centralities used here are indegrees (incoming ties) and outdegrees (outgoing ties). This provides a uniform basis for the interpretation of our results. The status of the organization is measured by three criteria: its indegree centrality in inter-organizational networks, the indirect resources to which its members declare having access (its outdegree), and its size. This produces an endogenous partition of the population into four classes that are baptized metaphorically for a more intuitive understanding of this dual positioning. Class 1 actors cluster the Big Fish in the Big Pond (BFBP), class 2 the Big Fish in the Small Pond (BFSP), class 3 the Little Fish in the Big Pond (LFBP), and class 4 the Little Fish in the Small Pond (LFSP). The construction of the four classes positioning actors at the meso level used the following median values thresholds: to be considered a BFBP, the researcher's indegree centrality must be higher than 5.2, that of the laboratory higher than 2.75; the laboratory's outdegree must be higher than 2 and its size higher than 26 researchers. The same thresholds are used for the three other categories (Big Fish in a Small Pond, etc.). Given the high number of internationally visible publications used to select this population, even the researchers that we call LFSP are researchers at an exceptional level. Consistent with Lazega et al. (2008), performances are not considered as simply floating on the extended networks of individuals, but as supported also by the status of their organizations.",
                "We then create a second combination of the individual network and the organizational network by identifying for each individual actor: (i) His/her contacts j who are both his own personal direct contacts and persons who belong to the organizations with which his/her own organization has inter-organizational ties and (ii) His/her dual alters k who are reachable through the managers of their organizations who could provide access to new and complementary resources.",
                "The dependent variables used here to test our hypothesis are IF scores in period 2. Independent variables include, for each actor i, j, and k their specialty as identified above and class derived from centralities (BFBP, etc.) and size. In this case, k's centralities are measurements of k's wealth with respect to various resources: k is rich if his/her centrality is above the mean of outdgrees of j, which is very selective."
            ]
        },
        {
            "title": "Results",
            "paragraphs": [
                "To test our hypotheses, we look at the effect of rich k contacts.1 All members do not benefit in the same way from indirect ties and managers' ties do not represent all the relational possibilities offered by the organization; peers can also broker ties to new contacts. However, sharing relational capital is part of a manager's job and observing this potential represents a good start for specifying network lift as a specific organizational effect on members' performance. For the purpose of this article, we will remain at the level of the structure and average across all members to look at the pattern of the new extended network and its effect on members' performance.",
                "Table 1 presents the results of the final regression models computed for this purpose. The dependent variable is the researcher's performance in time T2. Researchers' characteristics are measured in time T1 and may have an effect on performances in time T2. In these models, we only look at researchers i who have dual alters in Model 1 (N = 93) and at researchers who have rich dual alters in Model 2 (N = 58). Effects are sorted based on characteristics of i, j, and k. Recall that, based on our hypotheses, all researchers with dual alters do not necessarily have a high performance. Here, epidemiology includes diagnostic, screening, prevention, and epidemiology proper; clinical research is separated from fundamental research; clinical and fundamental research are mainly combined within hematology-immunology (at the time of the study); and fundamental research can be either focused on pharmacology or use molecular/cellular biology or genetics. ",
                "Results show that rich indirect contacts k matter in our population's performance levels. After selection of the richest dual alters k, i.e. taking out of the analysis all dual alters that are below the threshold level (i.e. the mean of j's outdgrees), the usefulness of these k contacts for researchers' performance level comes to light--at least for the actors/researchers who can take advantage of the existence of these indirect contacts. In this Model, the more actors have LFBP in their direct contacts, the less they have BFLP in their direct contacts, the more they have rich indirect contacts in epidemiology, the higher their performance in period 2. LFBP have low performance levels during the first period, but these levels increase during period 2 owing to these dual alters whose performance is high and can be shared in co-publications. This confirms that for actors' performances to improve, they need to count on rich potential resources (dual alters) that are complementary to their own and to that of their direct contacts.",
                "Performances of j during the second period, as independent variables, are never significant perhaps because their resources were already used in the previous period. In contrast, dual alters' performances do lift members' performances controlling for variables that routinely explain variations in returns on investment in relational capital. As will be shown by Figure 2 later in the text, researchers i with access to high performing dual k are not necessarily those whose performances are the highest. Interpreting this result seems to require a closer look at the evolution of the performances of these researchers so as to provide interpretations that are different for different sub-populations. In the next section, we identify six groups researchers for whom these lifting effects from dual alters, whenever present, can have different explanations. ",
                "Reintroducing the content of the network to explain the relative contribution of each network is thus highly illuminating because it helps with differentiating extended networks and dual alters that provide new and complementary resources from networks that provide redundant 'more of the same' resources."
            ]
        },
        {
            "title": "Interpretation and Illustration: Rebounds from Dual Alters' Resource Complementarity",
            "paragraphs": [
                "Here, we measure complementarity as the result of two requirements: first, focal actor's resources in a group that are below the mean; and second, alters' resources for this group must be above the mean; if they are not, resources are considered redundant and unhelpful in terms of providing network lift. In other words, as measured here, complementarity is not a purely individual variable but a measure of redundancy or non-redundancy of resources at the level of performance groups. In addition, the value of this complementarity--and with it the specific effect of the mechanism of embedded brokerage on performance--is contingent upon the compound of researchers' specialties involved. For example, in this case and at that time, performance levels increased when focal actors were clinical researchers contributing to fundamental research in hematology, directly in contact with fundamental researchers specialized in molecular biology, as well as indirectly in contact with researchers in epidemiology (including diagnostics, screenings, and prevention--the hot specialties at the time of the study, i.e. making real progress in terms of IF scores at the end of the 1990's).",
                "The importance of complementarity of resources can be teased out of the data by identifying different performance groups in the population and by looking at the relative utility of resources provided by j and k in such groups. Analyzing the evolution of performances at the individual level for all researchers in our population, we are able to cluster these researchers into six groups of performance, i.e. six categories of evolution of such performances over 10 years. In effect, to better understand the effects identified in the models above, we calculated for each researcher his/her 'career' of IF score between 1996 and 2005 and his/her position compared with the annual average of all IF scores. We also calculated the evolution of this score as compared with the evolution of this mean in the first and the second periods. Figure 2 presents these evolutions for the six groups of performance identified by this analysis.",
                "Group 1, the 'top of the top' in terms of performance, is always above average and progressing towards the top over time. Group 2 is also above average during the two periods, but it does not make much progress. Group 4's performances decrease: it starts above the mean in period 1 and is below in period 2. Group 3 starts below the mean in period 1 but is in the amazing position to try to catch up with Group 1 in the second period. Group 5, although it remains below the mean in both periods, makes progress during the second period. Group 6 performances are below the mean in period 1 and decrease even further during period 2.",
                "In the following Figure 3a-c, we compare outdegree centralities, resource by resource, of the members of each performance group with that of their direct contacts and that of their dual alters. We focus on three contrasted groups--Groups 1, 3 and 4--to illustrate the effects of the latent and expanded network that is accessible through dual alters that are rich indirect k contacts, i.e. dual alters with high indegrees and high outdegrees (i.e. at least as high as the average j contact). ",
                "Selecting among dual alters only those with indegrees and outdegrees equal or superior to that of the mean values for direct j contacts shows, for example, that Groups 1 (the top performers) had dual alters that are not complementary in the resources they provide. Group 1 members are atypical. Resources of their indirect contacts k are redundant, almost always below the mean. However, there is strong complementarity between their resources and that of their direct contacts, suggesting that they already did rebound after having transformed their dual alters k into direct alters. Members of this group are not always very central overall but strongly supported and compensated by their direct ties. They select and use their direct contacts 'perfectly'. They seem to have 'filled up' already in the past in terms of contacts and resources that they need to carry out their work. Here, those who make progress are not the most central but those who have direct access to complementary social resources.",
                "In contrast, Group 3 members, the 'catchers up', who are not central, do have a few rich indirect contacts that are more resourceful and prestigious than they themselves and their direct contacts are. Weak centralities of i can be compensated by their j and k in two networks out of five. These indirect contacts can provide them with complementary resources with respect to Project, Funding, Recruitment, and Manuscript reading. Group 3 members, mostly LFBP, are thus particularly helped by the centrality of their laboratory. Access to these dual alters is thus likely to have helped them rebound in the second period with respect to their performance increase. These are 'mixed' results: when they need it to start off up again, these actors may count on a certain level of complementarity in the resources of their direct and indirect contacts. This tends to show that those who make most progress start low and have access to such complementary resources to compensate for the lack of their own.",
                "For Group 4, however, who have decreasing IF scores and among the lowest performance levels in the second period, lack of access to rich dual alters (with respect to Discussion, Project support, Recruitment, and Manuscript reading) may have slowed down their progress. When Group 4 needed complementary resources, neither its actual contacts nor its dual alters could provide them. This Group counts on itself exclusively and thus do not benefit from network lift. Their extended network will not give them access to BFBPs who share, but perhaps access to BFBP who exploit. The case of Groups 4 and 6 shows that our multilevel approach does not focus necessarily on situations in which the interplay between inter-organizational and inter-individual networks have a joint positive effect. It is complementarity between resources of the focal actors and resources provided by their dual alters that creates the joint positive effect for which we have found evidence.",
                "In sum, the contribution of the extended network of dual alters is thus relative to the nature of resources that the actor already has to perform his/her tasks. To provide lift, the multilevel network must provide both dual alters and complementarity of the resources that they make available. Examining centralities in each detailed kind of advice network at the inter-individual level helps in specifying the relative utility or contribution of the extended network. Figure 3a-c illustrates how an extended network including dual alters and providing complementary resources provides network lift and increases its members' performance levels. In contrast, an extended network providing non-complementary resources, more of the same resources, does not provide network lift. We do not have enough observations in each performance group (12, 10, and 22, respectively) to replicate the aforementioned regression models (Table 1) for each one of them. With the aforementioned qualifications in mind, however, especially those related to relative utility and complementarity of resources, these descriptions are sufficient to identify and specify the network lift effect in the learning process among colleagues. The implication is that the network lift effect is unevenly distributed because actors have access, owing to their hierarchical superior, to different kinds of dual alters providing either complementary or non-complementary resources."
            ]
        },
        {
            "title": "Conclusions",
            "paragraphs": [
                "In this article, we have outlined a new, multilevel network approach to social capital that identifies an extended intra- and inter-organizational opportunity structure. This extended opportunity structure is created by a mechanism of embedded brokerage. We show that it produces a 'network lift' effect on the performance of members of organizations in an inter-organizational system. Actors have a complex inter-individual network at the personal level combined with an equally complex inter-organizational network at the collective level; the latter is based on affiliation ties or personal ties with managers (hierarchical superiors) who themselves have ties in other organizations across the boundaries of their organization. We aggregate the two networks and treat the extended network as a latent structure adding actual and indirect relational capital. Our analyses found empirical evidence confirming our hypothesis about the role of members' dual alters.",
                "This is not a latent and extended opportunity structure that individual actors can always take advantage of on their own, without help from their hierarchy. Our multilevel approach thus confirms the existence of a relationship between 'borrowing' relational capital by any individual members, sharing relational capital by hierarchical superiors, and performance. Further analyses of this network lift effect also shows that it is unevenly distributed. It works under specific conditions of levels of resources of dual alters and complementarity of their resources in terms of relative utility for the focal actor. Even if individual performance is thus even less individual than previously thought, borrowing seems more complicated for some groups than for others, and the same kind of borrowing does not always have the same lift effects. For some, dual alters make a difference (suggesting the existence of a 'rich get richer through embedded borrowing' effect); for others, they do not. The advantage of the proposed approach is that it specifies and measures an organizational dimension of what has become a rather complex network determinant of performance.",
                "Several limitations of our study of network lift can be reported at this point. First, the conditions under which, and the extent to which, individuals can rely on such a lift effect is still a matter of debate. As already called for by Snijders and Baerveldt (2003), the simple presence of a sufficient number of multilevel sub-structures in such complex dual opportunity structures will be tested only when adapted instruments are made available by statistical research (Wang et al., 2012) and when more knowledge is gathered about the intra-organizational relationships between members and managers of the organizations--i.e. unpacking the affiliation tie. Our purpose is not to put a positive twist on the old story about French science as a system of 'mandarins' in which powerful directors of laboratories control the access of their members to other researchers and to the environment, especially prevent their subordinates from going directly to someone working with or under another mandarin. Indeed, further work should test the extent to which researchers go directly to colleagues (who happened to be dual alters) in whom they are interested, or whether managers introduce dual alters to their members, or whether the latter would have to go up to their own mandarin and he/she could (or not) put them in contact with the dual alter. Consistent with considering each level as a full-fledged level of collective action, our next hypothesis would be that, even when this system does not keep each researcher dependent upon his/her mandarin (which is usually thought to stifle progress and innovative thinking), the inter-organizational network of the laboratory opens up opportunities that many individual members would not perceive, access or seize on their own (Lazega et al., 2008). Second, empirical analyses and interpretations of the relationship between extended networks and performance need to be further refined. For example, the richness of direct contacts in complementary resources might also be a factor that should be controlled for in further research explaining the differences observed. Third, indirect ties and access to rich dual alters has an effect that is measurable over time only. This raises the question of the actual dynamics of such multilevel opportunity structures and its specific impact on network lift effects.",
                "This kind of analysis could prove particularly well adapted to certain types of questions that sociologists explore in complex meso-level processes. Further use of this approach could test the generality of this method of extension of opportunity structures in other areas of interest to sociologists. It will hopefully prove to be useful in measuring the dynamics of multilevel opportunity structures in contemporary organizational societies (Perrow, 1991) and in revisiting old substantive and theoretical questions addressing social inequalities.",
                "The empirical research on which this article is based was funded by the Association pour la Recherche sur le Cancer, a French non-profit organization. The authors are grateful to Ronald Breiger, Ronald Burt, David Dekker, David Lazega, Marijtje van Duijn, the members of the Multilevel Network Modelling Group led by Mark Tranmer, as well as to the members of the Multi-Level Social Network project at the Observatoire des Reseaux Intra- et Inter-Organisationnels funded by the French Agence Nationale de la Recherche for stimulating discussions. They are also grateful to two anonymous reviewers and to the Editors of ESR for supplying them with constructive comments that helped improve this manuscript.",
                "Supplementary data are available at ESR online."
            ]
        }
    ],
    "references": [
        "http://dx.doi.org/10.2307/2576011",
        "http://dx.doi.org/10.1016/0378-8733(84)90015-7",
        "http://dx.doi.org/10.1023/A:1009675906926",
        "http://dx.doi.org/10.1177/030631278001000103",
        "http://dx.doi.org/10.1086/303109",
        "http://dx.doi.org/10.1016/j.socnet.2008.02.001",
        "http://dx.doi.org/10.1016/S0378-8733(03)00013-3",
        "http://dx.doi.org/10.2307/2094554",
        "http://dx.doi.org/10.1007/BF00678095",
        "http://dx.doi.org/10.1086/427322",
        "http://dx.doi.org/10.1080/00222500305892",
        "http://dx.doi.org/10.1027/1614-2241.2.1.42",
        "http://dx.doi.org/10.1086/226141",
        "http://dx.doi.org/10.1016/0378-8733(82)90028-4"
    ],
    "title": "Network Lift from Dual Alters: Extended Opportunity Structures from a Multilevel and Structural Perspective",
    "issue": "6",
    "volume": "29",
    "year": 2013,
    "issn": "1468-2672",
    "journal": "European Sociological Review",
    "authors": [
        "Emmanuel Lazega",
        "Marie-Th\u00e9r\u00e8se Jourda",
        "Lise Mounier"
    ]
}