{
    "doi": "http://dx.doi.org/10.1177/0003122414529585",
    "abstract": "This article draws on more than 15 years of research to analyze \u201cBlack Mexicans,\u201d phenotypically \u201cMexican-looking\u201d youth who identified as Black during adolescence, used this identity to become upwardly mobile, and then abandoned it in early adulthood. Black Mexicans are potentially iconic cases among emerging varieties of U.S. ethnic and racial life, given Mexicans\u2019 status as a key, usually negative, case in assimilation theory. Most such theory posits that assimilation into Black, inner-city culture leads to downward mobility. To explain how and why this did not happen for Black Mexicans, I propose a sensitizing framework using the concepts of conjunctural ethnicity, emphasizing analysis of racial and ethnic identity in local, historical, and life course contexts; and operating identity, which analyzes identities in interactions and can accommodate slippage in informants\u2019 understanding or use of ethnic and racial categories. Some Mexicans used a Black culture of mobility to become upwardly mobile in the late-1990s and early-2000s in New York, adopting a socially advantaged operating identity that helped them in ways they felt Mexicanness could not in that historical conjuncture, especially given intra-ethnic competition between teen migrants and second-generation youth. This article uses case-based ethnographic analysis and net-effects analysis to explain why and how Blackness aided upward mobility among Black and non-Black Mexicans, but was left behind in early adulthood.",
    "sections": [
        {
            "title": "Introduction",
            "subsections": [
                {
                    "title": null,
                    "paragraphs": [
                        "\"I am Black,\" Valerio calmly repeats to his parents. Disbelievingly, they answer, \"No you're not. Go look in the mirror!\" Frustrated, they turn to me, \"Tell him. . . . He's Mexican, not Black.\" I witnessed similar scenes among other \"Black Mexicans\" I came to know during more than 15 years of research with children of Mexican immigrants in New York. \"Black Mexicans\" describes phenotypically \"Mexican-looking\" (brown skin, high cheekbones, straight black hair) youth who publicly self-identify as Black in adolescence, although not as young adults. This article seeks to understand how and why these adolescents began to, and then stopped, seeing themselves this way, how Black identification facilitated upward mobility, and what this means for sociological understandings of assimilation, race/ethnicity, and mobility.",
                        "Claiming and relinquishing Black identity by upwardly mobile children of Mexican immigrants, who are unlikely to be identified as Black by others, is sociologically important for two reasons. First, it contradicts most assimilation theory and public opinion that expect integration into Black, inner-city culture to cause downward mobility. Understanding how such theory does not accommodate upwardly mobile Black Mexicans deepens our theoretical knowledge. Second, in analyzing how, why, and in what contexts Black Mexicans identify as such, and how non-Black Mexicans also use Blackness in upward mobility, I develop two new concepts for studying race and ethnicity among children of immigrants, especially in new destinations with distinct local racial and ethnic hierarchies. Conjunctural ethnicity is a loosely jointed framework and sensitizing concept (Blumer 1954) that considers three key conjunctures or contexts: (1) local contexts (e.g., local racial and ethnic hierarchies, neighborhoods, and schools); (2) historical contexts (e.g., evolving meanings of intra/intergroup membership and immigrant settlement processes); and (3) life course contexts or phases. Operating identities are mental constructs enacted and communicated via symbolic interaction that prime specific categories (Collins 1991), including ethnic, racial, and gender images. Historical and local contexts affect which operating identities gain traction and how much flexibility people have in choosing identities (Brubaker, Loveman, and Stamatov 2004; Giddens 1984). Neither concept relies mainly on group-level meanings to ethnicity (e.g., Mexican \"reactive ethnicity\"), but instead also analyzes intragroup variation. Focusing on meanings emerging in localities, intra/intergroup relations, and interactions, I analyze emerging ethnicity for children of immigrants in New York, a new destination for Mexican immigrants.",
                        "The article also illustrates longitudinal ethnography's utility in developing theory, using three types of data. Primarily, I use ethnographic case data on three Black Mexicans whose Blackness facilitated upward mobility: Carla, the cosmopolitan striver, whose Blackness helps her reach Elite University and a professional career; Valerio, the self-described thug, whose Blackness helps him avoid self-perceived complications of being Mexican and succeed in school and work; and Linda, whose \"good girl\" Blackness led to college graduation and work.1 Second, I present data from the whole 98-person dataset for the New York Children of Mexican Immigrants Project (NYCOMP), showing that Black friends, practices, and institutions also promoted upward mobility for Mexican-origin youth who did not identify as Black. Finally, I analyze larger social conditions of Mexican incorporation in New York in the late-1990s to early-2000s, using data describing the population (e.g., Census data) or larger social processes occurring within it (e.g., teen migrants and second-generation competition)."
                    ]
                }
            ]
        },
        {
            "title": "Black Mexicans as Unanticipated Cases for Assimilation Theory",
            "subsections": [
                {
                    "title": null,
                    "paragraphs": [
                        "Black Mexicans provide insight into contemporary thinking about how racial and ethnic identity and assimilation relate to mobility. Most assimilation theories view Mexicans as a critical, negative case (Chavez 2008; Portes and Rumbaut 2001; Portes and Zhou 1993; Waters and Jimenez 2005), due to the group's large size, low levels of human capital (Borjas 1999; Perlmann 2005; Perlmann and Waldinger 1997), and racialized incorporation (Ogbu 1987; Telles and Ortiz 2008), which yield stagnated long-term incorporation.2 Many theories link assimilation into U.S. Black culture with downward mobility. Waters (1994, 1999), for example, finds second-generation West Indian youths' life chances improve with ethnic/immigrant West Indian identification, but decline with American Black identification (Gans 1992).",
                        "Segmented assimilation, a main theory of immigrant integration for two decades, explicitly theorizes how identity and mobility relate for Mexicans and inner-city minority culture (Lopez and Stanton-Salazar 2001; Portes and Rumbaut 2001; Zhou 1999). Moving beyond prior theory that posits upward mobility via White mainstream assimilation (Gordon 1964; Warner and Srole 1945), segmented assimilation theory argues that variations in human capital, context of reception, family structure, and community coherence determine whether immigrant parents attain middle-class status. These factors set later generations on what we can call \"identity-mobility paths\": upward mobility via White mainstream acculturation; segmented upward assimilation wherein ethnicity aids mobility, insulating against discrimination; or acculturation into a Black, or rainbow, underclass with oppositional culture. As the largest group facing the longest continued discrimination, children of Mexican immigrants acquire oppositional, \"reactive ethnicity\" (Portes and Rumbaut 2001:283-85; see also Fordham 1996; Ogbu 1987; Willis 1981) that promotes downward mobility. Mexicans incorporating into either Mexican American or native Black culture should thus face dismal futures. Upwardly mobile native minorities are theoretical exceptions.3 Segmented assimilation theory makes key contributions, describing how structural factors, social capital, and non-White ethnicity can foster upward mobility (see, e.g., Portes and Fernandez-Kelly 2008), but it creates a blind spot in positing an apparently unitary rainbow underclass culture. Here, it theorizes culture as working too much at the whole-group level, independent of context, and as persisting too unchanged through adolescence into early adulthood, hindering the theory's ability to accommodate some varieties of racial and ethnic experience.",
                        "That Blackness promoted upward mobility for these youth in ways they did not believe Mexicanness could in the late-1990s and early-2000s, although unanticipated by much assimilation theory, can be understood using other research linking race and mobility. Neckerman, Carter, and Lee (1999) argue that a \"Black/minority culture of mobility\" promotes achievement by recognizing racial obstacles and offering tools (e.g., critical achievement ideology, persistence, and cultural bridging [Carter 2008; Carter 2005]) to overcome them and related identity threats.4 This culture emerges over time, responding to discrimination and disseminating information, such as which public schools are best.5 Such a culture was seen in the pre-civil-rights era in African American high achievement in historically Black colleges and Department of Defense, religious, and independent schools, which offered counter-hegemonic narratives and institutional practices to support Black children's identities as achievers while acknowledging racism (Perry, Steel, and Hilliard 2003).",
                        "A minority culture of mobility has grown in the post-civil-rights era, aided by affirmative action and institutional policy to end discrimination and promote minority mobility, especially helping children of immigrants (Alba 2009; Massey 2008). A positive relationship between Black racial identity and schooling is also promoted through choosing supportive peer groups, relating well to less successful peers (Akom 2003; Conchas and Noguera 2004; Gibson, Gandara, and Koyama 2004; Horvat and Lewis 2003), and fostering a positive ethnic image and community support (Waters 1994, 1999). School success appears \"White\" only where race closely tracks educational inequality (Horvat and O'Connor 2006; Tyson, Darity, and Castellino 2005). It was this Black culture of mobility that Black Mexicans and other Mexican youth contrasted with emerging meanings of Mexicanness and used for upward mobility in the late-1990s and early-2000s.",
                        "This article engages prior theory, explicitly considering how ethnic identity evolves through the life course (Erikson 1968; Waldinger and Feliciano 2004) and challenging theories that seemingly presume adolescent stances endure, Peter Pan-like (Myers 2006; Smith 2008). Segmented assimilation posits a harshly negative institutional context for inner-city minorities, whereas this article and other research (e.g., Portes and Fernandez-Kelly 2008) report positive institutional effects via \"second chance mechanisms\" (Kasinitz et al. 2008:20; Smith 2008:272) and affirmative action programs. Similarly, using the key insight of Alba and Nee's (2003) \"remade assimilation theory,\" that institutional contexts and cognitive category changes affect assimilation, I explain how and why such categories are adopted and challenged via specific processes. Moreover, most research theorizes group-level ethnicity and uses mainly cross-sectional data, whereas I use case-specific data and analyze how ethnic and racial identity can vary by life course and group-settlement stage, and by specific context, even during a single day. Many assimilation theories pay gender scant attention, but here, I depict operating identities refracted through gender within different contexts. I also analyze a non-White dominant group engaged in establishing a status hierarchy (Jimenez and Horowitz 2011; Lee and Zhou 2014). Finally, I offer original data on how legal status affects Mexican ethnicity in the interaction between first-generation teen migrants and second-generation Mexican Americans."
                    ]
                }
            ]
        },
        {
            "title": "Contextual Ethnicity, Operating Identities, and New Varieties of Racial/Ethnic Experience",
            "subsections": [
                {
                    "title": "Conjunctural Ethnicity",
                    "paragraphs": [
                        "Black Mexicans emerged from Mexicans' conjunctural ethnicity in New York during the late-1990s and early-2000s. Conjunctural ethnicity recognizes that ethnicity emerges in historical and social conjunctures and contexts (Nagel 2003; Patterson 1977; Wimmer 2008), and it focuses on the local, historical, and life course contexts of children of immigrants, seeking to capture dynamic and sometimes unanticipated processes that affect racial and ethnic experiences.",
                        "The first conjuncture, or context, is the life course phase: ethnicity moves from urgent center-stage in adolescence--youth try on identities during Erikson's (1968) \"moratorium\" period--to a more equal place among other identities in early adulthood (Phinney 1985; Settersten, Furstenberg, and Rumbaut 2005; Suarez-Orozco, Suarez-Orozco, and Todorova 2008). Hence, although teens feel compelled to reject meanings of Mexicanness different from their own, young adults usually accept other meanings more readily (Quintana, Castaneda-English, and Ybarra 1999). Second, ethnicity can recede as young adults enter contexts (e.g., work) where teen ethnic and racial expressions are less appropriate, or ethnicity seems less tied to future prospects or co-worker relations (Dannefer 2013).6 Long-term ethnographies can document changes in ethnic and racial identity over time (Weisner 1996).",
                        "The second context--local racial and ethnic hierarchies, population compositions, and institutions (e.g., schools, police, and housing)--and third context--a group's place in settling and establishing itself as a recognized group (Nagel 2003; Lareau 2003; Takenaka 2003; Wimmer 2008)--are covered jointly because they interact. How local contexts and the conjuncture of Mexican immigration to New York produced Black Mexicans and a positive association with Blacknesss can be made clearer via contrast with prior southwestern research. Jimenez (2010; see also Ochoa 2004) shows how new Mexican immigrants replenish and challenge the authenticity of established, later-generation Mexican American ethnicity, creating intra-ethnic fault lines. Simultaneously, Mexican Americans are \"foreignized\" by Whites, especially darker-skinned individuals and men; women and lighter-skinned Mexican Americans have more \"flexible ethnicity\" (Vasquez 2010).",
                        "Mexicans in New York experienced similar intra-ethnic conflicts in different contexts, with a different population composition and settlement stage. In New York, the sudden, simultaneous emergence of teen and first-generation migrants, alongside a New York-born second generation, as publicly identifiable groups with distinct trajectories, caused conflict over who and what would embody Mexicanness. New York's Mexican population increased from about 40,000 in 1980 to about 300,000 in 2000. Family reunification and related, undocumented immigration after the 1986 amnesty caused a decade-long spike in the teen migrant population. These teens were concentrated in English as a Second Language (ESL) programs, making them the main public face of Mexicans in public schools. At the same time, the first sizeable second-generation cohort started coming of age, often feeling they were \"the only Mexican\" in their grade schools, but encountering more Mexicans in high school. In 2000, there were more foreign-born (12,108) than native-born (2,694) Mexican Americans age 16 to 19 years in New York. U.S.-born youth did better academically than Mexico-born youth and lived in higher- income households (see Table 1).7Table 1 also shows there are now roughly even ratios of U.S.-born and migrant youth. The former have fared increasingly well between 2000 and 2010, with increasing high school and college attendance rates (Smith forthcoming).",
                        "Competition about which group would publicly embody Mexicanness fed another \"how\" micro-mechanism of conjunctural ethnicity. Teen migrants \"stepped up\" to (i.e., confronted, sometimes literally blocking their way) Mexican Americans they saw as \"thinking they were better\" than them (Smith 2006), while Mexican Americans rejected dominant negative images (Collins 1991) of new Mexican immigrants as powerless green-grocery workers, \"ESLs,\" or \"illegals\" who would leave school. Most recent Mexican immigrants in New York were and are still undocumented, directly reflecting public policies regulating access to legal status. Indeed, the rate of undocumented status falls sharply for individuals in New York only after more than 20 years residence--around the time of the 1986 \"amnesty\"--compared to those with up to 20 years in New York, reflecting immigration policies making it harder to legalize.8",
                        "This simultaneous public emergence created conflicts, leading many second-generation youth to seek more positive images and operating identities. Some became Black Mexicans because they saw school success as part of being Black but not part of being Mexican (Carter 2008). Becoming Black also signaled they were not \"illegal.\" That U.S. immigration policy has largely blocked legalization for 25 years threatens to make this Mexicanness-illegality link a caste-like status.",
                        "New York's larger racial/ethnic context also fosters this conjunctural ethnicity. Most New York youth do not inhabit the White-dominated social worlds presumed in most research. Rather, New York's global diversity means most groups not only feel like minorities, but numerically are minorities in their neighborhoods. In Sunset Park, a \"little Mexico,\" Mexicans were 13 percent of the population in a \"Puerto Rican\" neighborhood (22 percent Puerto Rican [Census 2000]). The compositions of my informants' neighborhoods varied, but their schools were mainly Black and Latino, because some groups (e.g., Orthodox Jews and wealthy Whites) largely avoid public schools. Students can thus move between starkly different racial and ethnic contexts within their day. Differences between Black and Latino lives can seem less consequential than similarities, fostering pan-minority identities.9 Finally, because high schools draw from beyond their zones, they do not integrate neighborhoods as they once did, but are still primary sites for forming adolescent friendships. In this context, Mexican Americans' phenotype did not matter mainly vis-a-vis Whites, as in most research. Rather, how \"Mexican\"10 they looked or acted--a function of phenotype, dress, interactional demeanor and friendships--determined if they got stepped up to, mostly by other Mexicans (Smith 2006, 2013).",
                        "New York City's school-choice system affected how Mexican ethnicity and educational mobility relate (Kasinitz et al. 2008; Sattin-Bajaj forthcoming; Smith 2002, 2006). At this time, New York students attended zoned schools, which had to take anyone in their zone, and hence often concentrated weak students who did not apply or get in elsewhere; more competitive schools that drew beyond zones; or elite schools where entrance was governed by competitive exam. Many informants were funneled into their zoned high school, the first school they attended with many other Mexicans. Mexican gangs often confronted each other in and around these schools (Smith 2002, 2004, 2006), enacting a Mexican ethnicity tied tightly to gangs and poor school performance. Step-ups often involved undocumented, teen migrants confronting second-generation Mexican Americans. The resulting \"hyper-accessibility effect\" (Brubaker et al. 2004:44) made it seem most Mexican youth, especially teen migrants, were in gangs, crowding out more pro-school enactments of Mexicanness (Smith 2002, 2004, 2006, 2008; Suttles 1968).11",
                        "Some Mexican parents saw Blacks as the main threat, sending their children to high schools with their Mexican cousins--the \"safety in numbers\" strategy. Others saw Mexicans as more dangerous and used the \"avoid Mexicans\" strategy, choosing better, distant schools to escape Mexican middle school friends. Avoiding cousins was especially important, because teen migrants who cut school often drew on home-based relationships (relationships unlikely to emerge in school because cousins were in different programs--ESL versus regular or special programs) and invited their New York-born cousins to cut with them and attend hooky parties."
                    ]
                },
                {
                    "title": "Conjunctural Ethnicity",
                    "paragraphs": [
                        "Being a Black Mexican was a socially advantaged operating identity for Carla, Valerio, and Linda. I previously used the term \"socially neutral operating identity\" to describe upwardly mobile Mexican youth who sought to avoid drawing excess attention to avoid challenges while succeeding academically (Smith 2008:279). Youth who adopt a socially advantaged operating identity take on social habits and identities that enable them to enter higher status and higher achievement peer groups. Carter (2005:52; see also Dance 2002) notes Black youth must \"'do' or 'act' Blackness appropriately\" to be seen as legitimately Black. The cognitively oriented concept operating identity does not treat ethnicity as an ontological reality--something existing in itself--but as an epistemological one, something perceived by people to exist, and then enacted, or not (Brubaker et al. 2004; Giddens 1984; Swidler 1986). Operating identities are mental constructs enacted and communicated via symbolic interaction (Goffman 1959, 1963), priming specific categories and images.12 Black Mexicans primed in others and internalized in themselves a cognitively dissonant ethnic identity. They code-switched13 in very local contexts and cultures (e.g., schools and neighborhoods), jumping symbolic boundaries between groups (Lamont and Molnar 2002). These teens adopted Black practices in public but could leave them aside at home.",
                        "That Blackness could promote upward mobility indicates these youth understood the concept more broadly than its normal sociological usage. \"Black\" was both a racial descriptor and a broader social category, associated in this period with hip hop, gangster rap, and certain clothes (e.g., Timberland boots). Being Black did not mean others believed one literally had African heritage, but implied belonging within a school's hegemonic Black youth culture, which accommodated upward mobility. These youth worked toward Blackness as prior immigrants worked toward Whiteness (Kasinitz 2008; Roediger 2005). \"Mexicanness\" was similarly a racial descriptor and social category related to the larger presentation of self, including clothes (e.g., Paco jeans), language, haircuts (no shape up14), and the vulnerability of undocumented status. Black Mexicans \"worked away\" from the stigmatized meaning associated with Mexicanness.15",
                        "Black Mexican operating identities were also gendered enactments of race and dominant images (Collins 1991; Connell 1995; Schrock and Schwalbe 2009; Vasquez 2010; West and Zimmerman 1985). Such images are manifestations of people's mental constructs, their ethnic and gender \"map of and for the world\" in Geerts's (1973) phrase.16 All Black Mexican boys in the NYCOMP data adopted some version of Black thug identity, seeking the respect they felt Mexicans did not get; girls all adopted smart or good Black girl identities. As I will discuss, these images did things for them they felt being Mexican could not."
                    ]
                },
                {
                    "title": "Conjunctural Ethnicity",
                    "paragraphs": [
                        "Black Mexicans emerged, unanticipated, in specific local contexts and a specific historical conjuncture. Different conditions elsewhere predict other unanticipated variations of conjunctural ethnicity, \"theoretical cousins\" to Black Mexicans (Marrow 2011; Massey 2008). Jimenez and Horowitz (2013), for example, document how middle-class Whites became the stigmatized minority in high-achieving, predominantly Asian suburban schools, contrasting \"White fails\" (Fs) with \"Asian fails\" (an A minus). In contrast to theories that would anticipate high-achieving Asians would become \"honorary Whites,\" Asian predominance and achievement gave them social power to set the social and academic hierarchy (Lee and Bean 2004; Lee and Zhou 2014). Similarly, where prior theory would anticipate Black association leading downward, an upwardly mobile meaning attached to Blackness in this time and place that led to Black Mexicans, a perhaps iconic variety of the racial/ethnic U.S. experience."
                    ]
                }
            ]
        },
        {
            "title": "Dataset, Methods, and Strategy",
            "subsections": [
                {
                    "title": "Ethnographic and Case-Based Analysis",
                    "paragraphs": [
                        "Carla, Valerio, and Linda were among about 15 Mexican American informants who identified in high school as Black in ethnographic interactions. I developed five of these into full, longitudinal cases in the NYCOMP dataset. NYCOMP is a three-stage ethnographic project. For Stage 1 (1987 to 1994), I worked with migrants and their children in Puebla (two months per year from 1990 to 1993) and New York (one to two days per week; every day when needed), doing about 100 interviews. In Stage 2 (1997 to 2002), my research assistants and I interviewed more than 100 children of immigrants and did regular fieldwork with 25 to 30 informants, including returning to Mexico with them and school shadowing. In Stage 3 (2005 to 2013), we re-interviewed about 80 of the Stage 2 informants. In Stage 1, I worked alone. In Stage 2, I introduced assistants into the community, then piggybacked on their relationships. In Stage 3, two researchers returned, doing about 20 interviews; I did the rest. I have known many informants since childhood, some since birth. In 2013 to 2014, I was in touch with all three informants; I have been re-interviewing all DACA (Deferred Action for Childhood Arrivals) eligible informants. 17",
                        "The full NYCOMP dataset of children of immigrants was theoretically stratified when research began in Stage 2, including informants who were U.S. versus Mexican born, had or lacked citizenship or legal status, were in or out of gangs, boys versus girls, and other categories. Black Mexicans emerged as a category during research. We picked these cases because they were Black Mexicans and because their apparent prospects in high school varied: Carla's future seemed bright, Linda's uncertain, and Valerio's worrisome. We followed cases with different starting points and watched, surprised, as all three lives unfolded into successful young adulthood.",
                        "We did about two weeks of ethnography with each student in New York in Stage 2. We shadowed Valerio and Carla in school for three to four days. We went to Mexico with Carla and Linda for two weeks for two or more years. In Stage 3, we interviewed Linda for four hours, Carla five hours, and Valerio 10 hours. We also interviewed Linda's brother and parents, whom I have known for more than 20 years; two of Valerio's siblings, and briefly, his mother, whom I have known 10 years; and Carla's sister and parents whom I have known almost 20 years. I have known these informants since at least their early teens, have kept in regular contact, and become friends. Other Black Mexicans in the dataset include Valerio's brothers. (Other Black Mexicans who were Valerio's friends, and those in three other networks, are not in the longitudinal dataset, so there is no outcome data).18",
                        "This case-based, longitudinal ethnographic approach gleans insights that would be less likely using other methods. I documented, via direct observation and multiple interviews (offering related histories and accounts from informants and their friends and family), how racial and ethnic identities were experienced in situ across contexts, during adolescence and as early adults, and how these identities related to mobility (Black 2009; Duneier 2012; Weisner 1996). Hence, I reminded Carla, Linda, and Valerio of their Black adolescent selves when their successful early-adult selves initially remembered this less clearly than I had documented it. Shadowing Carla led me to note she did not interact with her neighbors but cultivated Black friendships. These data helped me develop coherent biographical accounts over time, triangulating my contemporaneous and retrospective data and accounts with those of Valerio, Linda, Carla, and their friends and family. The claim to validity is strengthened by the fact that Linda and Carla barely know each other and do not know Valerio. The patterns and meaning-making recurred in parallel lives, not because people told each other the same story.",
                        "Valerio, Linda, and Carla, as Black Mexicans, are theoretically unexpected cases for segmented assimilation theory, which oriented this research at its outset. Here, Black Mexicans were an \"inconvenience sample\" (Duneier 2012) of nonconforming cases. Explicating how these cases did not fit that theory yielded a retrodictive analysis describing the mechanisms by which Black Mexicans emerged (Duneier 2000; Knight and Winship 2012; Ragin, Nagel, and White 2004; Reskin 2003). I use a case-based logic of analysis (often used in ethnographic and historical research), describing complex causality via case explication.19 Case-based analysis seeks to consider simultaneously the combined effects of various factors, whereas net-effects analysis seeks to hold other influences constant to measure each factor's net effect (Abbott 2001; Ragin 2008). Although there were relatively few Black Mexicans, Blackness's larger positive impact was demonstrated throughout the NYCOMP dataset, which I will discuss next using net-effects analysis."
                    ]
                }
            ]
        },
        {
            "title": "Net-Effects Analysis: Blackness, Mexicanness, and Effects of Related Processes on Outcomes",
            "subsections": [
                {
                    "title": null,
                    "paragraphs": [
                        "Case-based ethnographies often use unusual cases because they can expose usually hidden social processes. Even when analyzing \"typical\" cases, ethnographies usually highlight just a few cases, which is sometimes criticized as theorizing from outliers (Hammersley 1992; Smith 2010a). Setting that debate aside for now, this article advances a larger effort to develop methods to simultaneously analyze all ethnographic cases in a dataset. I use variable-oriented net-effects analysis (Abbott 2001; Ragin 2008) to determine how Black and Mexican practices and identities correlate with outcomes in the entire NYCOMP dataset.",
                        "The NYCOMP dataset has four outcome categories, listed in descending order here (see Table 2):20 (4) 17 percent attended competitive universities and graduate school, or were self-employed and earned high incomes (i.e., over $65,000; the highest income was $360,000); (3) 30.7 percent became college graduates/equivalents, with middle-class trajectories (incomes under $45,000); (2) 20.5 percent did not finish college but gained stable lives (incomes between $25,000 and $45,000); and (1) 31.8 percent earned less than $25,00021 and had fewer than 12 years of education and poor prospects. This latter group also typically had undocumented status. These trends mirror Census data showing improving educational statistics among U.S.-born Mexicans in New York (see Table 1). Carla fits between the top two categories; Valerio and Linda fit into the mid/lower-end of the college graduate or equivalent category. All long-term undocumented informants fell into the bottom two outcome groups.",
                        "To determine how Blackness and Mexicanness relate to mobility, I coded all 98 cases for the presence (0 = no; 1 = yes) of Black/Mexican identity and practices identified in ethnographic data as possibly affecting mobility.22 Furthermore, I recoded data into two outcome categories, college graduate+ (3 and 4, above) and non-college graduate (1 and 2, above), to help discern and concisely explain statistically significant relationships.23Table 2 shows that all of the few Black Mexicans were college graduates (p = .019). The table also shows that many ethnic and racial strategies and practices promoting Black Mexican mobility--Reskin's (2003; see also Elster 1978) \"how\" mechanisms--were widespread in the dataset for non-Black Mexicans, correlating with high outcomes. Hence, 47.2 percent of the college graduate+ group had Black friends or used Black institutions (so understood by informants) to advance, whereas only 8.3 percent of non-college graduates did so (p = .000). No one moved downward via immersion in Black culture--by joining a Black gang, dropping out of school, or cutting classes with Black friends--as predominant theory would predict. Blackness here was strongly associated with better outcomes.",
                        "Mexicanness related to mobility and to Blackness in a more complex manner, as per Mexican conjunctural ethnicity in the late-1990s and early-2000s. Having non-Mexican friends at school was the norm for the whole dataset (77.1 percent) but linked more strongly (p = .000) with the college graduate+ group (94.7 percent) than with non-college graduates (56.2 percent). This is in line with Hamm, Brown, and Heck (2005) who report that cross-ethnic friendships help Black and Latino students academically. Conversely, having mainly Mexican friends at both home and high school was uncommon (28.2 percent), but only 5.3 percent of the college graduate+ group did so, compared to 54.2 percent of non-college graduates. Moreover, choosing a high school to be with your Mexican friends was uncommon (14.3 percent) and lowered outcomes (2.9 percent of college graduates+ versus 27.6 percent of non-college graduates). Purposefully avoiding high schools your Mexican friends attended was somewhat more common (33.3 % p = .009) and increased outcomes (46.9 percent of college graduates+ versus 17.9 percent of non-college graduates). These statistics reflect contemporaneous conjunctural ethnicity: many informants saw Mexicanness as negatively associated with school success. Hence, some academically inclined Mexican youth, often U.S.-born, selected high schools to avoid their Mexico-born, less successful co-ethnics, or their cousins, fearing pressure to cut classes or join gangs. Conversely, many Mexican teen migrants attended zoned schools for protection against Blacks or Puerto Ricans, and then cut school or stepped up to non-gang member Mexicans. These different meanings to Mexicanness help explain how it can be modestly related to both upward (p = .108) and downward (p = .000) mobility. Case data indicate the former meaning involved keeping the immigrant bargain; the latter usually involved gangs.",
                        "This nonrandom dataset cannot generalize to the U.S. population, but effects are statistically significant for all but two measures (p < .05). This illustrates the utility of using net-effects analysis within a larger, case-oriented ethnographic study to assess dataset-wide correlations. The numbers tell the same story as ethnographic analysis of the conjunctural state of Mexican ethnicity at the time, wherein Mexican youth sought Black mobility practices and post-civil-rights programs partly because contemporary Mexicanness had negative meanings. A publicly recognized Mexican culture of mobility had not yet emerged. Yet the theoretically anticipated association between downward mobility and Blackness failed to appear. This was not for lack of negative \"Black\" practices or images to adopt, because such existed. But these were mostly rejected because a key group (beyond legal status) linked to downward mobility--Mexican gangs--was itself premised on the idea of protecting Mexicans against Black or Puerto Rican aggression (even while fighting mainly other Mexicans [Smith 2006]). Rather, these Mexican students chose Blackness because it offered chances they did not think being Mexican would at that time."
                    ]
                }
            ]
        },
        {
            "title": "CASE-BASED ANALYSIS. Black Mexicans: Upwardly Mobile Thugs, Cosmopolitan Strivers, and Good Girls",
            "subsections": [
                {
                    "title": null,
                    "paragraphs": [
                        "I analyze how each Black Mexican's negotiation of ethnicity and race figured into school success and overall mobility, evolved over time, and engages theory. Valerio's Blackness helped him embrace a \"thug\" identity while picking supportive contexts and avoiding the negative images of Mexicanness. Carla and Linda picked good schools and embraced positive images of good/smart Black girls. Supportive contexts and images reinforced a minority culture of mobility.",
                        "Conjunctural ethnicity theory posits that ethnicity can differ by context, which can vary throughout the day, neighborhood, and institution (e.g., school). Table 3 displays informants' starkly different school and home contexts. Linda and Carla lived in Community District 12, whose 2000 population was 65 percent White (largely Orthodox and foreign born), 14 percent Asian, 13 percent Hispanic, and 3 percent African American. Mexicans were 5.7 percent of the foreign born, behind China (15 percent), Russia (7.7 percent), Poland (7.4 percent), and Ukraine (6.2 percent). Languages spoken at home included Chinese (20 percent), Spanish (19 percent), Yiddish (16 percent), Russian (16 percent), and Polish (5 percent). Informants experienced their neighborhoods as Babylonian, parallel linguistic and cultural islands with few cross-group friendships. Girls were further restricted by parental limits on their spending time \"on the street.\" This made schools the primary site of non-family socialization; informants had few neighborhood friends.",
                        "In contrast to her neighborhood, Linda's school was 86 percent Black, 9 percent Latino, 4 percent Asian, and 0 percent White. Carla's school was 35 percent Black, 42 percent Latino, 16 percent Asian, and 7 percent White. Valerio lived in Community District 3--77 percent Black, 18 percent Latino, 1 percent Asian, and 1 percent White--but his Manhattan high school was 28 percent Black, 40 percent Latino, 23 percent Asian, and 8 percent White. As a boy, he could hang out at both places. Table 3 shows most students in all three schools were eligible for free or reduced lunch, suggesting minimal class differences. These statistics show that informants passed through dramatically different racial and ethnic contexts every day. Informants adapted their operating identities to these recurrent contexts, within the larger process of Mexicans establishing themselves."
                    ]
                }
            ]
        },
        {
            "title": "Valerio: Black Mexican, Thug, U.S. Serviceman",
            "subsections": [
                {
                    "title": null,
                    "paragraphs": [
                        "Valerio's negotiation of race and ethnicity embodies theories of conjunctural ethnicity and operating identity. He was a walking set of contradictions who ultimately succeeded. His Blackness emerged from his Black and Puerto Rican neighborhood friends (engaging the local context), his aversion to compromised Mexicanness (engaging the stage of settlement and meaning of Mexicanness), and the positive social options being Black gave him that being Mexican would have denied him: an operating identity that was respected, cool, a \"thug\" (his term). Valerio's thug identity led him to be arrested \"six or seven times\"; he fought an off-duty cop; and he transferred schools after hitting a teacher. He graduated high school and attended college briefly. He then landed undercover government work, partly due to his thug look. Now in the military, his wife had their first child in 2010. His father's education (some college in Mexico) and good income from restaurant work ($65,000 in 2006) helped him avoid conviction. At age 23 in 2006 (and still in 2012), he no longer felt Black: \"I'm straight Mexican now.\"",
                        "Valerio's use of Blackness/Mexicanness reflects Mexicans' early stage of settlement and public group recognition in New York, with his adopting different operating identities by context. Blackness was a street identity (Anderson 1999); Mexicanness a private/family identity. \"I could be Black on the streets but culturally Mexican in my house. . . . [Mexicans] eat different things . . . talk Spanish . . . do prayers . . . the good part about being Mexican . . . they believe in God.\" He worked briefly at his family's Catholic church in high school. Nominally public, church was private for Valerio because he attended with his parents. But at school or on the street, he felt Black, and enjoyed its advantages while avoiding Mexican limits:",
                        "[I] don't consider myself being Mexican because I don't . . . hang out with Mexicans.",
                        "What do you consider yourself?",
                        "Black . . . because I only hang out with Black people and Puerto Rican people . . . like being cool with other people . . . people don't get along with Mexican people . . . because (they) act like they're big . . . get into a fight, they always back down. . . . Mexicans (are) Herbs (wanna-bes).24",
                        "Valerio used Blackness as an adolescent street identity to navigate what he saw as a dangerous world, where being Mexican was stigmatized and invited attack. (Valerio and his brother fought students in grade school who teased them for being Mexican.) Valerio's descriptions of Mexicans and Blacks burst with reverse-accentuation effects (Brubaker et al. 2004; Tajfel 1978), exaggerating the similarity of things within category and differences to things outside it.",
                        "Valerio's mother vetoed his interest in Presidential High when a Mexican student Valerio's sister knew was followed home from the school and killed by a Mexican gang. The effect of Valerio attending Comercio High instead of his zoned school (Presidential High, into which many Mexicans were funneled in the late-1990s and early-2000s) can be seen by comparing experiences of informants who attended other schools. I shadowed Valerio at Comercio and Federico at Graves High.25 Federico was less tough than Valerio, and Graves High had few Mexicans. But gang friends awaited him outside school.26 His social world seemed utterly bounded by being Mexican. To avoid Mexican gang problems, he walked around the school, rather than through the hallways, to some classes. Conversely, Valerio walked freely in Comercio High, greeting many friends. Federico lived in a parallel social universe where only other Mexicans mattered, whereas Valerio lived in Comercio's full social universe.",
                        "I asked Valerio what would have happened had he gone to Presidential High. His answer highlighted the contemporaneous meanings of Mexicanness and Blackness in the local, institutional context: \"At Presidential High I woulda been hanging out with Black people because I don't like to hang out with Mexican people, because they . . . try to make people join gangs. . . . I woulda gotten into . . . fights . . . because I was not part of them (their gang). . . . I woulda (been) . . . expelled, kicked out.\" Valerio's imagined counterfactual sequence is confirmed by Esteban, who in his first two years at Presidential High hung out with Asian friends (he does not know Valerio). Esteban said: \"Allota Mexicans didn't like me because I wasn't hanging out with them . . . immigrants in ESL classes . . . they'd look at me--with disgust--because they think I think I'm better than them because I didn't have Mexican friends.\" These students \"grilled\" (stared at) Esteban. He avoided fights by looking down. Conversely, Valerio said he never looked down. Indeed, when we first met he had 26 stitches in his arm from a knife attack by an \"illegal . . . (who) looked at me.\" Valerio and others present reported this attack as an \"illegal\" stepping up to U.S.-born Mexican guys. Valerio believed he could learn better at Comercio: \"At Presidential I would . . . get into a fight . . . because I'm not in a Mexican gang.\"",
                        "Valerio contrasted social and academic possibilities opened by being Black in Comercio with being Mexican in Presidential High: \"People don't make fun of you in your classes. If you act like you cool, like you're a Black person, no one bothers you. But if you act . . . Mexican, you're all big, some little kid steps up to you . . . you just back down . . . not good.\" For Valerio, being Mexican meant beginning behind and having to prove himself. Being Black meant he did not have to prove anything:",
                        "Being Mexican is more . . . stressful . . . you hafta . . . be in a gang . . . rob people.",
                        "To be Black? You have to . . .",
                        ". . . Relax, just talk to people.",
                        "Valerio saw himself as a popular kid who \"knows a lot of people.\" Being Black was a socially advantaged operating identity that helped him fit in and removed the need to fight to prove his coolness. Mexicans' need to prove themselves reflects their conjunctural ethnicity, wishing to establish themselves publicly, but wary of stronger Black or Puerto Rican gangs (Smith 2006). The knife attack echoes theories of intra-Black violence and ethnic replenishment: the most vulnerable--here, undocumented Mexican teens--closely policed ethnic boundaries (Carter 2005; Jimenez 2010; Waters 1999).",
                        "Counterfactual cases cannot prove Valerio would have done badly at Presidential High, but we can strengthen the case by presenting a contemporaneous, roughly socially equivalent person--a proxy, a Mexican who hung out with non-Mexicans in the school Valerio avoided--whose experience echoes what Valerio thought would have happened. Esteban identified the same trigger--the \"hard look\"/\"grill\"--that caused the attack on Valerio and the same motivation: teen migrants perceived him as thinking he was better because he did not hang with Mexicans. Esteban avoided conflicts by looking down, which Valerio did not do. Moreover, Valerio's causal theory that attending Comercio helped him prosper must be taken seriously, because the belief he would be constantly challenged at Presidential High was one cause of his later actions, including choosing a high school where he was not continuously stepped up to. This belief helped him pick a better school context, and it embodies the Thomas Theorem that a situation defined as real \"is real in its consequences\" (Merton 1995:380; Thomas and Thomas 1928). Esteban's account suggests he was right. Similarly, Federico looked back (not down), and faced constant challenge at Graves High. A gang-inflected Mexican ethnicity was hyper-accessible at Presidential and Graves high schools, and constantly primed by looking back (Brubaker et al. 2004; Smith 2008). Valerio and his mother rightly anticipated that, as a Mexican with Black friends at Presidential High, he would have attracted challengers like electric charges attract their opposites.",
                        "At Comercio High, Valerio inhabited his Blackness without challenge, a socially advantaged operating identity. The friends we saw him interacting with at Comercio High and in his neighborhood were mainly African Americans, with some Latinos. They used \"Yo, nigga\" as a greeting or exclamation point: \"Nigga, you gotta work at getting a 40!\" on a test. Valerio called his friends \"My niggas\" in the same way other Mexican Americans we studied called friends \"my boys\" or \"mis cuates.\" Some friends were in the African American Bloods gang, which Valerio did not join. In Valerio's classes, African Americans were a majority or plurality (17 of 19 students in one class; 7 of 18 in another, with 5 Latinos, 4 Asians, and 2 others; 11 of 16 in another). Just using \"nigga\" does not indicate Blackness. But Valerio's embracing it, in this school, intimates its power for him.",
                        "Valerio's Black thug persona nearly derailed his upward mobility. He and his friends planned on attending college, but they were casually oppositional, putting heads down on their desks. He did no homework. He sat in the back, talking, doing class work in his head, saying answers so only his neighbors could hear. Sitting in the back of the room, he and his friends intelligently discussed constitutional issues in the 2000 election, while the teacher scolded the class.",
                        "Valerio's Black thug identity led him and his parents to choose Comercio High, enacting a minority culture of mobility by choosing a better public school and avoiding a school where they believed he would face constant step-ups. This choice saved him from himself: a dedicated guidance counselor transferred him to Alternative High School (rather than expulsion) after he hit a teacher. He graduated.",
                        "Valerio laughed when I reminded him, at age 23, of his prior Black identity. Looking back from early adulthood, he said: \"Now I'm just straight Mexican . . . then I had this kid mentality that Black people were . . . so cool . . . rap videos . . money. . . . I grew up with Black people. . . . We were . . . the only Mexicans on the block. . . . I would talk . . . act just like them . . . fighting (and) drinking. . . . I realized . . . that was not . . . who I am. I evolved . . . because I seen Black people are worse.\" Valerio first saw Blackness as opening a thug identity to him, but then decided to become a self-described \"Mexican thug.\" He exchanged out-group for in-group accentuation effects, marking Mexicans as better. This moment shows one of long-term ethnography's strengths: I drew on shared experiences to prompt Valerio's reflection on at-first unremembered parts of his prior life.",
                        "Ethnicity's meaning changed in early adulthood for Valerio. Soon after I stopped shadowing him, he reoriented his social life toward Mexicans. He and his brother delivered food with recent Mexican immigrants: \"It taught us what it meant to be Mexican . . . hard work, low pay, no respect, people scream at you . . . Mexican school, Mexican 101. . . . We didn't even know what 'De que barrio?' meant [laughs].\"27 Valerio formed Los Catorce (The Fourteen), fighting mainly other Mexicans. Los Catorce anchored his life until his mid-20s. Mexicanness was highlighted in his fighting an off-duty cop, a Puerto Rican, who reportedly cursed \"fucking Mexicans,\" helping Valerio's attorney get the charges dismissed. His parents pursued a minority culture of mobility by hiring a private lawyer--rather than depend on an overworked public defender--keeping Valerio conviction-free and his options open.",
                        "The salience and role of ethnicity in Valerio's life evolved further after high school. He says being Mexican never hurt him at work, and speaking Spanish helped. His thug appearance--short pony tail and neat shape-up--led to undercover work. Government officials hiring him said, \"you could be anything . . . Latino, Arab, Black.\" Valerio earned over $70,000 in 2006. Interestingly, Valerio's Mexican thug identity still pervades how he talks about ethnicity and race when recalling his life, but he less frequently enacts it as a young adult.",
                        "Valerio joined the military to break with his old life. \"Tired of the fighting,\" he did not want to seriously hurt someone or \"go to jail.\" Joining the military changed him \"from being nothing to being something.\" Valerio's Mexicanness does not govern daily military life as it did in Los Catorce. While some superiors \"are racial . . . only help people like them . . . I have higher ups that like me. It's not always about color.\" Ironically, Valerio became a military policeman (\"I used to be a criminal!\"). He likes the responsibility and discipline in the military, carrying a gun, and getting respect. \"Many people fear cops . . . I am always respectful . . . I like it.\" He agrees when asked if his desire to join an elite unit stems from the same impulse that led him to form Los Catorce--going from \"street elite\" (Katz 1988) to military elite. Mexican American fellow soldiers from California joke he is Puerto Rican, because he is tall, \"from New York . . . they say I talk . . . Puerto Rican.\"28 For these soldiers, Valerio falls between ethnic categories, his Mexicanness conflicting with his other traits."
                    ]
                }
            ]
        },
        {
            "title": "Carla: Cosmopolitan Striver",
            "subsections": [
                {
                    "title": null,
                    "paragraphs": [
                        "Carla's Blackness stemmed from her desire to succeed and the settings and institutions into which this ambition brought her. She wanted to be a \"smart, cool Black girl,\" in middle school. In high school, she became a career-oriented cosmopolitan with the goal of going to a good college; ethnicity was only part of her identity. Carla's Blackness and Mexicanness evolved as she matured and entered new contexts (college and work). She graduated from Elite University, works in a nonprofit helping poor women find work, and is engaged to her long-time, financially successful, Mexican American boyfriend.",
                        "Carla entered the United States in 1989, the undocumented six-year-old daughter of undocumented parents with six (father) and two (mother) years of education. Her father legalized himself via the 1986 Immigration Reform and Control Act, and his family later, in 1996. Carla was 13 years old, so her status did not affect her thinking about college.29",
                        "Carla became Black in middle school to be \"popular, be smart, and be top of the class academically.\" Despite speaking no English when she immigrated, Carla did so well in grade school she was recruited into a special middle school where students did 6th through 9th grades in three years, entering high school as sophomores. Here, \"Black kids\" were the smart \"cool girls . . . and cool boys.\" Seeing herself as Black was an adolescent identity experiment: \"because you're a kid . . . it . . . becomes part of you . . . your identity. . . . I thought I was Black. . . . I learned to jump double Dutch . . . talking a certain way . . . stereotypical . . . Black.\" She would tell her parents: \"These [Blacks] are my people [laughs]. My mother would get upset--'Your people are Mexican! . . . Don't say that.'\" Carla's desire to succeed led her to embrace the Black culture of her peers in this accelerated program.",
                        "Carla answered my question, \"Could [you] be a cool Mexican kid? Or did you have to be a Black kid?\" by saying: \"I didn't really know what my identity as a Mexican was. It was . . . religion, church, God . . . being hard working. My mother always said 'Your only responsibility is school--it's your job . . . be good at it.' Looking back, what actually saved us (was) my mother['s] . . . awful stories about her childhood . . . no shoes, no school.\" Like Valerio, Carla's Mexican identity in middle school was expressed mainly at home and church, while her emerging, public, adolescent identity, embodying her ambition to succeed, was Black. Valerio's Black thug identity helped him succeed, but it also challenged his parents, whereas Carla's Black identity helped her keep the \"immigrant bargain\" (Louie 2012; Smith 2006), succeeding to redeem her migrant parents' sacrifice, per her mother's stories. Keeping the immigrant bargain as a \"smart, cool Black girl\" engages segmented assimilation theory by contradicting it. These dual operating identities--a Mexican immigrant's daughter who succeeds by working hard, and a cool, smart Black girl--reinforce each other. Carla's identity was Black and Mexican; she experienced each in different contexts through adolescence into early adulthood.",
                        "Carla's operating identity changed in high school. Being popular was \"too much drama.\" With help from an assistant principal, Carla got into a Manhattan high school where few classmates applied. Carla wanted to attend a good college and get a good job. Given this emphasis on end goals, and a new high school context, the salience of different operating identities changed (Jerolmack 2007; McKay 1982; Okamura 1981). Carla's Black identity receded as being cool mattered less: \"I didn't have to act Black. I just had to act smart.\" But she used Blackness to develop friendships with the \"smartest people . . . mostly Black people . . . [if] I needed help.\" In Carla's school career, most students were Black or Latino, with few Asians until high school. Her high school had more Whites (7 percent) than Linda's school (0 percent), similar to Valerio's (8 percent).",
                        "In high school, Carla primarily identified with \"the special group\" of students in honors classes. She thinks the school scheduled honors classes so \"we never got to see the other kids, only during gym and lunch. But I never went to lunch.\" Instead, she attended a program run in the library by a local university, because \"I wanted to be somebody.\" She began to \"dress for the job you want, not the job you have . . . appearance is so important.\" She recalled happily how the police stopped her for using her student MetroCard, thinking she was an adult using a student's card for free subway rides. Her mother gave her a travel mug, making her feel even more like the professional woman she hoped to become.",
                        "Simultaneously, Carla's Mexican identity began ranging beyond religion and home. She started socializing with her first explicitly Mexican friendship group who were not family. Like many co-ethnics (Smith 2006), her social life segmented in high school. An aspiring career woman with multi-ethnic friends on weekdays in school, on weekends \"I was all about . . . [Mexican] parties . . . [with] my crew.\" To protect her grades, she only saw \"her crew\" on weekends.30",
                        "Carla's high school was cosmopolitan. Shadowing her, I saw she was well-liked, and ethnicity was not the main mental category for organizing teacher-student or student-student relations. Carla's teachers did not know she was Mexican, only \"Hispanic.\" She and her friends did not discuss ethnicity much, talking more about school work, college admissions, music, and gossip. The school had many international students, and Carla's friends included Blacks, Latinos, and children of immigrants (from Egypt, former USSR, and the Balkans). Teacher-student and student-student interactions were more respectful and friendly compared to other high schools we worked in. More class time was spent on demanding academic tasks and discussion, and teachers focused on training the mind and fostering imagination of positive futures via hard work (Mehan et al. 1996). Miron and Lauria (1998) show practices in such schools do not racialize students and obstruct education, compared to typical practices in bad schools. In this context, Carla's ethnicity was secondary to her identity as a striving student.",
                        "Carla got several college scholarships. Living at college, she faced a world of White privilege, feeling everyone else had read all the great books. To catch up, she shut herself \"into my room . . . reading Plato.\" Lonely, doubting herself, she faltered academically for the first time. Believing her elite college treated minorities as less capable (Garcia 2004; Massey et al. 2003), she felt stigmatized, \"special\" in the opposite way as in high school. She avoided Mexican parties, only seeing her boyfriend. I saw a stark difference in her demeanor. As a 12th grader, she had advocated vigorously and publicly for Mexicans to the New York City Health Commissioner, but she became waiflike speaking publicly to college officials.",
                        "Carla also became more fully a young-adult child of immigrants by taking on adult roles. During her first 18 months of college, she successfully defended her family from eviction by a new landlord; found a house and did the mortgage and closing; and advocated for her little brother at school. Family work and academic challenges wore Carla out, but she persevered, graduating with good grades.",
                        "Today, Carla counsels poor women reentering the workforce. She lives with her family and fiance on Staten Island. Her neighbors are mainly Italian, with some Blacks and Puerto Ricans. She, her sister, and their parents share the mortgage. She rarely attends Mexican parties. Her social life focuses on family and church.",
                        "For Carla, the cosmopolitan striver, Blackness was a socially advantaged operating identity. Cosmopolitans value their ethnic and racial identities but do not see them as life determining. Rather, race and ethnicity matter more in some contexts or life stages, and become tied to family and religious life in adulthood. Retrospectively, Carla's Black identity was clearly an early adolescent adaptation to context, in pursuit of academic success. She became Black because her school's smart, cool kids were Black. That she later ceased to hold Blackness as a core identity, but in high school used it as a set of behavioral practices to facilitate her friendships with smart kids, highlights its utility as an operating identity. These uses of Blackness demonstrate the existence of an inner-city, Black/minority culture of mobility in mainly Black-Latino schools that can support an upwardly mobile, academically engaged student culture. Carla's authentic, then instrumental, use of Blackness, and later abandonment of it, underlines the view of ethnic and racial identity as evolving with the life course and adaptive to context."
                    ]
                }
            ]
        },
        {
            "title": "Linda: Good Girl \u201cTrying Out\u201d Blackness and Succeeding",
            "subsections": [
                {
                    "title": "Summary",
                    "paragraphs": [
                        "Conjunctural ethnicity considers how individuals' racial and ethnic operating identities change over time and by context. Contexts can vary starkly within a single day, and navigating the life course moves one habitually into different contexts (Dannefer 2013). Table 4 shows how Valerio's, Linda's, and Carla's ethnic and racial identities evolved from childhood to early adulthood in core content and salience by context and relative to other identities. Valerio was picked on for being Mexican in grade school, then embraced a tough Blackness and \"avoiding Mexicans\" strategy in picking a good high school. In 12th grade, he worked with recent Mexican-immigrant men--\"Mexican school, Mexican 101\"--and formed a gang, converting, he says, from a Black to a \"Mexican thug.\" His thugness then facilitated undercover work in early adulthood. In the military, he is seen as a \"New York Mexican.\" Black Mexicanness was an adolescent phase Valerio outgrew, later adopting other kinds of ethnicity in new contexts and life phases.",
                        "Carla's U.S. life began as an undocumented child whose Mexicanness was linked to home and church. Wanting academic success, she became a \"cool, smart, Black girl\" who could negotiate Black high school culture and Mexican parties on weekends. In college, she struggled briefly, disliked being a \"minority\" (Garcia 2004), but succeeded. Her Mexicanness was reinforced by advocating for her family in housing court. Her young-adult home life is Mexican, but her work identity is the professional woman she dreamed of becoming.",
                        "Ethnicity mattered little to Linda in grade school. Her Blackness developed in Central Brooklyn High via her mother's \"avoid Mexicans\" strategy. The \"only Mexican,\" she befriended \"good Black girls\" who helped her succeed. Her Mexicanness developed in adolescent Mexican parties (Smith 2006). At High End Department Store, she identified as a young-adult professional who expressed ethnicity outside work. For each informant, the salience of ethnicity and race increased notably in adolescence and coexisted more equally with other identities in early adulthood.",
                        "Meanings of Blackness were also refracted through gender, and these identities had possible corresponding Mexican images. Why these other possible identities and images were not embraced is a useful counterfactual question. (I do not discuss alternative \"White\" images, because informants had few relationships with Whites and did not discuss them.) The Black thug image resonates with some dimensions of \"cholo\" or \"ranchero\" masculinities in emphasizing men's ability to physically defend themselves and inspire fear in rivals (Bourgois 1995; Smith 2006; Vasquez 2010). But these Mexican masculinity images were delegitimized for Valerio by perceptions of contemporaneous Mexican weakness. As with Blackness, the lived reality of thugness is surprisingly flexible. Valerio identified as a thug, but purposefully chose a high school that reduced the likelihood of fights. Using this Black minority culture of mobility tool, he chose a context that enabled him to inhabit the thug image without it derailing his future, as it likely would have at Presidential High. Valerio succeeded not because he sought to become \"smart and good,\" like the girls, but because avoiding Mexican powerlessness and seeking Black thug power led him into better schools, contexts, and outcomes.",
                        "Similarly, Linda and Carla both rejected available images of Mexican girls--at risk for dropping out of school and early pregnancy--to embrace locally accessible images of good and smart Black girls (Guerrero-Rippberger 2000; La Union 2010; Ochoa 2004; Smith 2006). They chose schools and friends that supported success more than Presidential High would have. Moreover, their Black girl friends' freedom was restricted--like Mexican \"lock down girls\" (Smith 2006; Suarez-Orozco et al. 2008)--so socialization centered around going to and from the library. While they became smart Black girls partly due to lack of a ready peer group of such Mexican girls, their success made them Mexican success stories, keeping the immigrant bargain with their parents. These dynamics show operational identities as contextual, strategic, ethnic/racial choices affecting mobility."
                    ]
                }
            ]
        },
        {
            "title": "Discussion and Conclusions",
            "subsections": [
                {
                    "title": "Conceptual Portability",
                    "paragraphs": [
                        "Are Black Mexicans an exceptional New York story? Will conjunctural ethnicity and operating identities help us understand emerging varieties of ethnic experience in other new destinations? Migration to new destinations with different local racial and ethnic systems offers opportunities to learn more about how newcomers and natives learn to recognize each other as group members (Nagel 2003; Wimmer 2008). The absence of \"Mexicans\" as a ready mental category held by non-Mexicans (Brubaker et al. 2004; Gil-White 2001), and contested negative images of Mexicanness among Mexicans, were part of Mexican conjunctural ethnicity in the late-1990s and early-2000s. Such youth embraced the category Black for its readier traction and more positive meanings (Carter 2008). These concepts are tools to analyze how new groups become publicly recognized in new destinations and their ethnicity assigned meaning.",
                        "The stance of local government critically affects what ethnicity and race mean. Compare New York City and Suffolk County, Long Island: During summer 2010, 13 hate-crime attacks on Mexicans by Black youth were met with NYPD police and detectives swarming the area, meeting local Black leaders, finding the perpetrators, and calming rising intergroup tensions. Conversely, Latinos' decade of complaints to Suffolk County police about attacks were often met with inquiries on the Latino victim's legal status (Holthouse 2009). Local youth went \"beaner jumping\"--beating Mexicans--for sport, murdering Ecuadoran immigrant Marcelo Lucero in 2008. At minimum, ethnicity and race will have more enduring meaning where the state delays or refuses to prosecute such crimes, especially in new destination areas with many vulnerable undocumented immigrants.",
                        "Black Mexicans could emerge in other places with sizeable minority middle classes or an established Black/pan-minority culture of mobility, fostering a conjunctural ethnicity to accommodate new immigrants and the second generation. Indeed, pan-minority youth culture, resonant with Black youth culture, promoted upward mobility among second-generation youth in New York (Kasinitz et al. 2008; Ocampo 2011): cross-ethnic friendships link to more academic orientations among Black and Latino students (Hamm et al. 2005). Minority cultures of mobility should emerge in places offering more opportunity. Black Mexicans benefit from living in New York's mainly Black and Latino social worlds that offer some successful youth and supporting social institutions (Alba and Nee 2003; Kasinitz et al. 2008; Mollenkopf 1999; Smith 2004, 2008, 2010a, 2010b). Conversely, upwardly mobile Mexicans in the rural South are sometimes resented by Blacks (Marrow 2011). Mexicans moving into cities with fewer middle-class than poor minorities (e.g., Philadelphia) could be more influenced by the latter, while the more successful could seek opportunities as Black Mexicans via a minority culture of mobility. Surprising cross-cultural communities have emerged elsewhere. For example, common segregation and religion fostered generations of \"Mexipino\" culture (Mexican/Filipino) in San Diego (Guevarra 2012).",
                        "We can view Black Mexicans as one surprising example of newly emerging varieties of the U.S. ethnic and racial experience from the recent great migration, kin to Jimenez and Horowitz's (2013) high-achieving Asians who established themselves as top status holders relative to lower-achieving White, middle-class youth. With more New York-born Mexicans coming of age and succeeding academically, a New York Mexican culture of mobility is emerging--for example, Carla's little brother attends an elite public high school, and high school and college attendance rates for New York-born Mexican youth rose from 2000 to 2010 (as per Table 1)--although explicating it is beyond the scope of this article (see Smith forthcoming)."
                    ]
                }
            ]
        }
    ],
    "references": [
        "Abbott, Andrew. 2001. Time Matters: On Theory and Method. Chicago: University of Chicago Press.",
        "Akom, A. A. 2003. \u201cReexamining Resistance as Oppositional Behavior: The Nation of Islam and the Creation of a Black Achievement Ideology.\u201d Sociology of Education 76:305\u2013325.",
        "Alba, Richard. 2009. Blurring the Color Line: New Chances For a More Integrated America. Boston: Harvard University Press.",
        "Alba, Richard, Nee, Victor. 2003. Remaking the American Mainstream: Assimilation and Contemporary Immigration. Boston: Harvard University Press.",
        "Anderson, Elijah. 1999. Code of the Street. New York: Norton.",
        "Bean, Frank D., Stevens, Gillian. 2003. America\u2019s Newcomers and the Dynamics of Diversity. New York: Russell Sage.",
        "Bergad, Laird. 2010. Mexicans and Education in New York. Latino Data Project. CUNY, New York.",
        "Bergad, Laird. 2011. \u201cMexicans in New York City, 1990\u20132009.\u201d Latino Data Project. Report 41. CUNY Graduate Center.",
        "Black, Timothy. 2009. When the Heart Turns Rock Solid. New York: Pantheon.",
        "Blumer, Herbert. 1954. \u201cWhat Is Wrong with Social Theory?\u201d American Sociological Review 19:3\u201310.",
        "Borjas, George J. 1999. Heaven\u2019s Door: Immigration Policy and the American Economy. Princeton, NJ: Princeton University Press.",
        "Bourgois, Philippe. 1995. In Search of Respect. New York: Cambridge University Press.",
        "Brubaker, Rogers, Feischmidt, Margit, Fox, Jon, Grancea, Liana. 2008. Nationalist Politics and Everyday Ethnicity in a Transylvanian Town. Princeton, NJ: Princeton University Press.",
        "Brubaker, Rogers, Loveman, Mara, Stamatov, Peter. 2004. \u201cEthnicity as Cognition.\u201d Theory and Society 33:31\u201364.",
        "Burawoy, Michael. 1998. \u201cThe Extended Case Method.\u201d Sociological Theory 16:4\u201333.",
        "Burawoy, Michael. 2003. \u201cRevisits: An Outline of a Theory of Reflexive Ethnography.\u201d American Sociological Review 68:645\u201379.",
        "Butterfield, Sherri-Ann. 2004. \u201c\u2018We\u2019re All Just Black\u2019: The Racial and Ethnic Identities of Second-Generation West Indians in New York.\u201d Pp. 288\u2013312 in Becoming New Yorkers: Ethnographies of the New Second Generation, edited by Kasinitz, P., Mollenkopf, J. H., Waters, M. C. New York: Russell Sage Foundation.",
        "Carter, Dorinda. 2008. \u201cAchievement as Resistance: The Development of a Critical Race Achievement Ideology among Black Achievers.\u201d Harvard Educational Review 78:466\u201397.",
        "Carter, Prudence. 2005. Keepin\u2019 It Real. Oxford: Oxford University Press.",
        "Cerulo, Karen. 2002. Culture in Mind. New York: Routledge.",
        "Chavez, Leo. 2008. The Latino Threat. Stanford: Stanford University Press.",
        "Collins, Patricia Hill. 1991. Black Feminist Thought. New York: Routledge.",
        "Conchas, Gilberto, Noguera, Pedro. 2004. \u201cUnderstanding the Exceptions: How Small Schools Support the Achievement of Academically Successful Black Boys.\u201d Pp. 317\u201327 in Adolescent Boys, edited by Way, N., Chu, J. New York: NYU Press.",
        "Connell, Robert. 1995. Masculinities. Berkeley: University of California Press.",
        "Crocker, Jennifer, Quinn, Diane. 2004. \u201cPsychological Consequences of Devalued Identities.\u201d Pp. 124\u201342 in Self and Social Identities, edited by Brewer, M., Hewstone, M. Oxford: Blackwell.",
        "Dance, Jannelle. 2002. Tough Fronts: The Impact of Street Culture on Schooling. New York and London: Routledge Falmer.",
        "Dannefer, Dale. 2013. \u201cAge and Sociological Explanation: Expanding Horizons in the Study of Aging and the Life Course.\u201d Contemporary Sociology 42:793\u2013800.",
        "DiMaggio, Paul. 1997. \u201cCulture and Cognition.\u201d Annual Review of Sociology 23:263\u201387.",
        "Duneier, Mitchell. 2000. Sidewalk. New York: Farrar, Strauss and Giroux.",
        "Duneier, Mitchell. 2012. \u201cHow Not to Lie with Ethnography.\u201d Sociological Methodology 41:1\u201311.",
        "Glen, Elder , ed. 1985. Life Course Dynamics: Trajectories and Transitions, 1968\u20131980. Ithaca, NY: Cornell University Press.",
        "Elster, John. 1978. Logic and Society. New York: Wiley & Sons.",
        "Erikson, Eric. 1968. Identity and the Life Cycle. New York: Norton.",
        "Fordham, Signithia. 1996. Blacked Out: Dilemmas of Race, Identity and Success at Capital High. Chicago: University of Chicago Press.",
        "Gans, Herbert. 1992. \u201cSecond Generation: Decline Scenarios for the Ethnic and Economic Futures of Post-1965 American Immigrants.\u201d Ethnic and Racial Studies 15:173\u201392.",
        "Garcia, Alma. 2004. Narratives of Mexican American Women. Walnut Creek, CA: AltaMira Press.",
        "George, Alexander, Bennett, Andrew. 2005. Case Studies and Theory Development in the Social Sciences. Boston: MIT Press.",
        "Geertz, Clifford. 1973. The Interpretation of Cultures: Selected Essays. New York: Basic Books.",
        "Gibson, Margaret A., Gandara, Patricia C., Koyama, Jill Peterson. 2004. School Connections: U.S. Mexican Youth, Peers, and School Achievement. New York: Teachers College.",
        "Giddens, Anthony. 1984. The Constitutions of Society. Berkeley: University of California Press.",
        "Gil-White, Francisco. 2001. \u201cAre Ethnic Groups \u2018Biological Species\u2019 to the Human Brain? Essentialism in Our Cognition of Some Social Categories.\u201d Current Anthropology 42:515\u201354.",
        "Goffman, Erving. 1959. The Presentation of Self in Everyday Life. New York: Anchor Books.",
        "Goffman, Erving. 1963. Stigma. New York: Prentice Hall.",
        "Gonzales, Roberto G. 2011. \u201cLearning to Be Illegal: Undocumented Youth and Shifting Legal Contexts in the Transition to Adulthood.\u201d American Sociological Review 76:602\u2013619.",
        "Gordon, Milton. 1964. Assimilation in American Life. New Haven, CT: Yale University Press.",
        "Guerrero-Rippberger, Sara. 2000. But For the Day of Tomorrow. Undergraduate thesis. Sociology Department, Barnard College, New York.",
        "Guevarra, Rudy. 2012. Becoming Mexipino: Multiethnic Identities and Communities in San Diego. New Brunswick, NJ and London: Rutgers University Press.",
        "Hamm, Jill V., Brown, B. Bradford, Heck, Daniel J. 2005. \u201cBridging the Ethnic Divide: Student and School Characteristics in African American, Asian-Descent, Latino and White Adolescents\u2019 Cross-Ethnic Friend Nominations.\u201d Journal of Research on Adolescence 15:21\u201346.",
        "Hammersley, Martin. 1992. What\u2019s Wrong With Ethnography? London: Routledge.",
        "Heimer, Carol. 2001. \u201cCases and Biographies: An Essay on Routinization and the Nature of Comparison.\u201d Annual Review of Sociology 27:47\u201376.",
        "Holthouse, David. 2009. \u201cClimate of Fear: Latino Immigrants in Suffolk County.\u201d Special Report of the Southern Poverty Law Center Report, Montgomery, AL (http://www.splcenter.org/sites/default/files/downloads/publication/splc_suffolk_report.pdf).",
        "Horvat, Erin M., Lewis, Kristine S. 2003. \u201cReassessing the \u201cBurden of \u2018Acting White\u2019\u201d: The Importance of Peer Groups in Managing Academic Success.\u201d Sociology of Education 76:265\u201380.",
        "Horvat, Erin, O\u2019Connor, Carla. 2006. Beyond Acting White. Lanham, MD: Rowan/Littlefield.",
        "Institute for Digital Research and Education. 2014. \u201cWhich Statistical Analysis Should I Use in SPSS?\u201d University of California-Los Angeles. Retrieved February 25, 2014 (http://www.ats.ucla.edu/stat/spss/whatstat/whatstat.htm).",
        "Jerolmack, Colin. 2007. \u201cAnimal Practices, Ethnicity, and Community: The Turkish Pigeon Handlers of Berlin.\u201d American Sociological Review 72:874\u201394.",
        "Jimenez, Tomas. 2010. Replenished Ethnicity: Mexican Americans, Immigration and Identity. Berkeley: University of California Press.",
        "Jimenez, Tomas R., Horowitz, Adam L. 2013. \u201cWhen White Is Just Alright: How Immigrants Redefine Achievement and Reconfigure the Ethnoracial Hierarchy.\u201d American Sociological Review 78:849\u201371.",
        "Kasinitz, Philip. 2008. \u201cBecoming American, Becoming Minority, Getting Ahead.\u201d Annals of the American Academy of Political and Social Science 620:253\u201369.",
        "Kasinitz, Philip, Mollenkopf, John H., Waters, Mary C. 2004. Becoming New Yorkers: Ethnographies of the New Second Generation. New York: Russell Sage Foundation.",
        "Kasinitz, Philip, Mollenkopf, John H., Waters, Mary C., Holdaway, Sarah. 2008. Inheriting the City: The Second Generation Comes of Age. New York: Russell Sage.",
        "Katz, Jack. 1988. Seductions of Crime. New York: Basic Books.",
        "Katz, Jack. 1997. \u201cEthnography\u2019s Warrants.\u201d Sociological Methods and Research 25:391\u2013423.",
        "Katz, Jack. 2001. \u201cFrom How to Why: On Luminous Description and Causal Inference in Ethnography, Part 1.\u201d Ethnography 2:443\u201373.",
        "Katz, Jack. 2002. \u201cFrom How to Why: On Luminous Description and Causal Inference in Ethnography, Part 2.\u201d Ethnography 3:63\u201390.",
        "Knight, Carly, Winship, Christopher. 2013. \u201cThe Causal Implications of Mechanistic Thinking: Specification Using Directed Acyclic Graphs.\u201d Pp 275\u201399 in Handbook of Causal Analysis for Social Research. Springer (http://link.springer.com/chapter/10.1007/978-94-007-6094-3_14).",
        "La Union. 2010. Nowhere to Turn: A Report on the Reality of Mexican-American Students in New York City\u2019s Public Schools (http://la-union.org/wp-content/uploads/2010/10/NowhereToTurnReport_v2.pdf).",
        "Lamont, Michele, Molnar, Virag. 2002. \u201cThe Study of Boundaries in the Social Sciences.\u201d Annual Review of Sociology 28:167\u201395.",
        "Lareau, Annette. 2003. Unequal Childhoods. Berkeley: University of California Press.",
        "Lee, Jennifer, Bean, Frank. 2004. \u201cAmerica\u2019s Changing Color Lines: Immigration, Race/Ethnicity and Multiracial Identification.\u201d Annual Review of Sociology 30:221\u201342.",
        "Lee, Jennifer, Zhou, Min. 2014. \u201cThe Success Frame and Achievement Paradox: The Costs and Consequences for Asian Americans.\u201d Race and Social Problems 6:38\u201355.",
        "Lopez, David, Stanton-Salazar, Ricardo. 2001. \u201cMexican Americans.\u201d Pp. 57\u201390 in Ethnicities. Berkeley: University of California Press.",
        "Louie, Vivian. 2012. Keeping the Immigrant Bargain. New York: Russell Sage.",
        "Lu, Wei-Ting. 2013. \u201cConfucius or Mozart? Community Cultural Wealth and Upward Mobility among Children of Chinese Immigrants.\u201d Journal of Qualitative Sociology 36:303\u2013321.",
        "Marrow, Helen. 2011. New Destination Dreaming: Immigration, Race and Legal Status in the Rural American South. Stanford: Stanford University Press.",
        "Douglas, Massey , ed. 2008. New Faces in New Places: The Changing Geography of American Immigration. New York: Russell Sage.",
        "Massey, Douglas, Charles, Camille, Lundry, Garvey, Fischer, Mary. 2003. The Source of the River: The Social Origins of Freshman at America\u2019s Selective Colleges and Universities. Princeton, NJ: Princeton.",
        "McKay, James. 1982. \u201cAn Exploratory Synthesis of Primordial and Mobilizationist Approaches to Ethnic Phenomena.\u201d Ethnic and Racial Studies 5:395\u2013420.",
        "Mehan, Hugh, Villanueva, Irene, Hubbard, Lea, Lintz, Angela. 1996. Constructing School Success: The Consequences of Untracking Low Achieving Students. New York: Cambridge University Press.",
        "Menjivar, Cecilia. 2008. \u201cEducational Hopes, Documented Dreams: Guatemalan and Salvadora Immigrants\u2019 Legality and Educational Prospects.\u201d Annals of the American Academy of Political and Social Science 620:177\u201395.",
        "Merton, Robert. 1995. \u201cThe Thomas Theorem and the Matthew Effect.\u201d Social Forces 74:379\u2013424.",
        "Miron, Louis F., Lauria, Mickey. 1998. \u201cStudent Voice as Agency: Resistance and Accommodation in Inner-City Schools.\u201d Anthropology and Education Quarterly 29:189\u2013213.",
        "Mollenkopf, John. 1999. \u201cUrban Political Conflicts and Alliances: New York and Los Angeles Compared.\u201d Pp. 412\u201322 in The Handbook of International Migration. New York: Russell Sage.",
        "Myers, Dowell. 2006. Immigrants and Boomers. New York: Russell Sage.",
        "Nagel, Joanne. 2003. Race, Ethnicity, and Sexuality: Intimate Intersections and Forbidden Frontiers. New York: Oxford University Press.",
        "Neckerman, Kathryn, Carter, Prudence, Lee, Jennifer. 1999. \u201cMinority Cultures of Mobility.\u201d Ethnic and Racial Studies 22:945\u201365.",
        "New York State Accountability Status Reports. https://reportcards.nysed.gov/.",
        "New York State School Report Card. https://reportcards.nysed.gov/.",
        "Ocampo, Anthony. 2011. \u201cAre Second Generation Filipinos Becoming Asian or Latino? Historical Colonialism, Culture and Panethnic Identity.\u201d Ethnic and Racial Studies 37:425\u201345.",
        "Ochoa, Gilda. 2004. Becoming Neighbors in a Mexican American Community. Austin: University of Texas Press.",
        "Ogbu, John. 1987. \u201cVariability in Minority School Performance: A Problem in Search of an Explanation.\u201d Anthropology and Education Quarterly 18:312\u201334.",
        "Okamura, Jonathan Y. 1981. \u201cSituational Ethnicity.\u201d Ethnic and Racial Studies 4:452\u201365.",
        "Patterson, Orlando. 1977. Ethnic Chauvinism. New York: Stein and Day.",
        "Perlmann, Joel. 2005. Italians Then, Mexicans Now. New York: Russell Sage.",
        "Perlmann, Joel, Waldinger, Roger. 1997. \u201cSecond Generation Decline? Children of Immigrants, Past and Present\u2014A Reconsideration.\u201d International Migration Review 31:893\u2013922.",
        "Perry, Theresa, Steel, Claude, Hilliard, Asa. 2003. Young, Gifted and Black: Promoting High Achievement among African American Students. Boston: Beacon.",
        "Phinney, Jean. 1985. \u201cA Three Stage Model of Ethnic Identity Development in Adolescence.\u201d Pp. 61\u201379 in Ethnic Identity: Formation and Transmission among Hispanics and other Minorities. Albany: SUNY Press.",
        "Portes, Alejandro, Fernandez-Kelly, Patricia. 2008. \u201cNo Margin for Error.\u201d ANNALS of the American Academy of Political and Social Science 620:12\u201336.",
        "Portes, Alejandro, Fernandez-Kelly, Patricia, Haller, William. 2005. \u201cSegmented Assimilation on the Ground: The New Second Generation in Early Adulthood.\u201d Ethnic and Racial Studies 28:1000\u20131040.",
        "Portes, Alejandro, Rumbaut, Ruben. 2001. Legacies. Berkeley: University of California Press.",
        "Portes, Alejandro, Zhou, Min. 1993. \u201cThe New Second Generation: Segmented Assimilation and Its Variants.\u201d Annals of the American Academy of Political and Social Science 22:217\u201338.",
        "Quillian, Lincoln. 2006. \u201cNew Approaches to Understanding Racial Prejudice and Discrimination.\u201d Annual Review of Sociology 32:299\u2013328.",
        "Quintana, Stephen M., Castaneda-English, Patricia, Ybarra, Ver\u00f3nica C. 1999. \u201cRole of Perspective-Taking Abilities and Ethnic Socialization in Development of Adolescent Ethnic Identity.\u201d Journal of Research on Adolescence 9:161\u201384.",
        "Ragin, Charles. 2008. ReDesigning Social Inquiry. Chicago: University of Chicago Press.",
        "Ragin, Charles, Becker, Howard. 2002. What Is a Case? New York: Cambridge University Press.",
        "Ragin, Charles, Nagel, Joane, White, Patricia. 2004. Workshop on the Scientific Foundations of Qualitative Research. National Science Foundation, Social and Behavioral Sciences Directorate, Sociology Program.",
        "Rampton, Ben. 1995. \u201cCrossing: Language and Ethnicity among Adolescents.\u201d London: Longman.",
        "Reskin, Barbara. 2003. \u201cMotives and Mechanisms in Modeling Inequality.\u201d American Sociological Review 8:1\u201321.",
        "Roediger, David. 2005. Working towards Whiteness: How America\u2019s Immigrants Became White. New York: Basic Books.",
        "Rumbaut, Ruben. 2005. \u201cTurning Points in the Transition to Adulthood: Determinants of Educational Attainment, Incarceration, and Early Childbearing among Children of Immigrants.\u201d Ethnic and Racial Studies 28:1041\u201386.",
        "Salsburg, David. 2002. The Lady Tasting Tea: How Statistics Revolutionized Science in the Twentieth Century. New York: Holt.",
        "Sattin-Bajaj, Carolyn. Forthcoming. Unaccompanied Minors: Immigrant Youth, School Choice, and the Pursuit of Equity. Cambridge, MA: Harvard Education Press.",
        "Schrock, Douglas, Schwalbe, Michael. 2009. \u201cMen, Masculinity and Manhood Acts.\u201d Annual Review of Sociology 35:277\u201395.",
        "Settersten, Richard, Furstenberg, Frank, Rumbaut, Ruben G. 2005. On the Frontier of Adulthood. Chicago: University of Chicago Press.",
        "Small, Mario. 2009. \u201c\u2018How Many Cases Do I Need?\u2019: On Science and the Logic of Case Selection in Field-Based Research.\u201d Ethnography 10:5\u201338.",
        "Smith, Robert Courtney. 2002. \u201cRace, Ethnicity and Gender in the School Outcomes of Second Generation Mexican Americans in New York.\u201d Pp. 110\u201325 in Latinos in the 21st Century, edited by Suarez-Orozco, M., Paez, M. Berkeley: University of California Press.",
        "Smith, Robert Courtney. 2004. \u201cRacialization and Mexicans in New York City.\u201d Pp. 220\u201343 in New Destinations for Mexican Migration, edited by Leon, R. Hernandez, Zuniga, V. New York: Russell Sage.",
        "Smith, Robert Courtney. 2006. Mexican New York: Transnational Worlds of New Immigrants. Berkeley: University of California Press.",
        "Smith, Robert Courtney. 2008. \u201cHoratio Alger Lives in Brooklyn: Extra-Family Support, Intra-Family Dynamics and Socially Neutral Operating Identities in Exceptional Mobility among Children of Mexican Immigrants.\u201d Annals of the American Academy of Political and Social Science 620:270\u201391.",
        "Smith, Robert Courtney. 2010a. \u201cAssimilation and Transition to Early Adulthood.\u201d National Science Foundation Grant, Social and Behavioral Sciences Directorate, Sociology Program.",
        "Smith, Robert Courtney. 2010b. \u201cIncreasing Concrete Knowledge and Community Capacity: How CUNY and other Institutions Can Help Re-shape Mexican Educational Futures.\u201d Pp. 345\u201371 in Helping Young Immigrants Succeed, edited by Sonnert, G., Holton, G. New York: Palgrave.",
        "Smith, Robert Courtney. 2013. \u201cRacial Science on the Street: The Sociology of the Step Up.\u201d Unpublished manuscript. Baruch College School of Public Affairs and Sociology Department, Graduate Center, CUNY.",
        "Smith, Robert Courtney. Forthcoming. Horatio Alger Lives in Brooklyn... But Check His Papers. Berkeley: University of California Press.",
        "Smith, Robert Courtney, Team, Seguro Popular. 2012. Estudio del nivel de informaci\u00f3n sobre el Seguro Popular con que cuenta la poblaci\u00f3n migrante mexicana de la Ciudad de Nueva York, EE.UU. Final Report to the Centro de Investigacion y Docenia Economica, Mexico City and Seguro Popular. Baruch College, School of Public Affairs.",
        "Snow, David, Morrill, Calvin, Anderson, Leon. 2003. \u201cElaborating Analytic Ethnography: Linking Fieldwork and Theory.\u201d Ethnography 2:181\u2013200.",
        "Suarez-Orozco, Carola, Suarez-Orozco, Marcelo M., Todorova, Irina. 2008. Learning a New Land: Immigrant Students in American Society. Boston: Harvard University Press.",
        "Suttles, Gerald. 1968. The Social Order of the Slum. Chicago: University of Chicago Press.",
        "Swidler, Ann. 1986. \u201cCulture in Action: Symbols and Strategies.\u201d American Sociological Review 51:273\u201386.",
        "Swidler, Ann, Arditi, Jorge. 1994. \u201cThe New Sociology of Knowledge.\u201d Annual Review of Sociology 20:305\u2013329.",
        "Takenaka, Ayumi. 2003. \u201cAsian-Latinos: Japanese-Peruvians\u2019 Ethnic Adaptation and Social Mobility in New York and Los Angeles.\u201d Pp. 65\u201380 in Immigrants in America, edited by Gabaccia, D., Leach, C. New York: Routledge.",
        "Tajfel, Henri. 1978. Differentiation between Social Groups. London: Academic Press.",
        "Edward, Telles, Ortiz, Vilma. 2008. Generations of Exclusions. New York: Russell Sage.",
        "Thomas, W. I., Thomas, Dorothy Swaine. 1928. The Child in America: Behavior Problems and Programs. New York: Knopf.",
        "Tyson, Karolyn, Darity, William A., Castellino, Domini R. 2005. \u201cIt\u2019s not \u2018a Black Thing\u2019: Understanding the Burden of Acting White and Other Dilemmas of High Achievement.\u201d American Sociological Review 70:582\u2013605.",
        "Vasquez, Jessica M. 2010. \u201cBlurred Borders for Some but Not \u2018Others\u2019: Racialization, \u2018Flexible Ethnicity,\u2019 Gender, and Third-Generation Mexican American Identity.\u201d Sociological Perspectives 52:45\u201372.",
        "Vaughan, Diane. 2004. \u201cTheorizing Disaster: Analogy, Historical Ethnography, and the Challenger Accident.\u201d Ethnography 5:313\u201345.",
        "Waldinger, Roger, Feliciano, Cynthia. 2004. \u201cWill the Second Generation Experience \u2018Second Generation Decline\u2019? Segmented Assimilation Reassessed.\u201d Racial and Ethnic Studies 27:376\u2013402.",
        "Warner, W. Lloyd, Srole, Leo. 1945. The Social Systems of American Ethnic Groups. New Haven, CT: Yale University Press.",
        "Waters, Mary. 1994. \u201cEthnic and Racial Identities of Second Generation Black Immigrants in New York City.\u201d International Migration Review 28:795\u2013820.",
        "Waters, Mary. 1999. Black Identities: West Indian Immigrant Dreams and American Realities. New York: Russell Sage.",
        "Waters, Mary, Jimenez, Tomas. 2005. \u201cAssessing Immigrant Assimilation: New Empirical and Theoretical Challenges.\u201d Annual Review of Sociology 31:105\u201325.",
        "Weisner, Tom. 1996. \u201cWhy Ethnography Should Be the Most Important Method in the Study of Human Development.\u201d Pp. 305\u2013324 in Ethnography and Human Development, edited by Jessor, R., Colby, A., Shweder, R. Chicago: University of Chicago Press.",
        "West, Candace, Zimmerman, Don. 1985. \u201cDoing Gender.\u201d Gender and Society 1:125\u201351.",
        "Whyte, William Foote. [1943] 1999. Street Corner Society. Chicago: University of Chicago Press.",
        "Willis, Paul. 1981. Learning to Labour. New York: Columbia University Press.",
        "Wimmer, Andreas. 2008. \u201cMaking and Unmaking of Ethnic Boundaries.\u201d American Journal of Sociology 113:970\u20131022.",
        "Zhou, Min. 1999. \u201cSegmented Assimilation: Issues, Controversies, and Recent Research on the New Second Generation.\u201d Pp. 196\u2013211 in The Handbook of International Migration, edited by Hirschman, C., Kasinitz, P., DeWind, J. New York: Russell Sage.",
        "Zhou, Min, Lee, Jennifer, Vallejo, Jody Agius, Faoya-Estrada, Rosaura, Xuiong, Yan Sao. 2008. \u201cSuccess Attained, Deterred and Denied: Divergent Pathways to Social Mobility in Los Angeles\u2019s New Second Generation.\u201d Annals of the American Academy of Political and Social Science 620:37\u201362.",
        "Zuniga, Victor, Leon, Ruben Hernandez. 2006. New Destinations in Mexican Migration. New York: Russell Sage."
    ],
    "title": "Black Mexicans, Conjunctural Ethnicity, and Operating Identities",
    "issue": "3",
    "volume": "79",
    "year": 2014,
    "issn": "0003-1224",
    "journal": "American Sociological Review",
    "authors": [
        "Robert Courtney Smith"
    ]
}