{
    "doi": "http://dx.doi.org/10.1093/esr/jcp044",
    "abstract": "Recent studies of fertility in Europe indicate a changing cross-country correlation between total fertility and fertility-related behaviour. Fertility now tends to be lowest in countries that are traditional, catholic, and family-oriented, while it is highest in countries with high divorce rates, high rates of cohabitation, and high levels of extra-marital births. In this article we provide support to the argument that the change in the cross-country correlation between fertility and fertility-related behaviour may indicate a change in social context of this fertility-related behaviour that has helped to uncover cross-country differences in social norms, culture, and institutional settings. We apply pooled time series analysis and show that time and country heterogeneity in the association between fertility and fertility-related behaviour can explain the change in the cross-country correlation. Our results also indicate that further postponement of marriage and motherhood leads to less pronounced declines in fertility.",
    "sections": [
        {
            "title": "Introduction",
            "paragraphs": [
                "Cross-country differentials in period fertility rates around Europe are commonly explained by cross-country differentials in socio-economic, demographic, cultural, and institutional settings. Such a perspective is in accordance with Reher (1998), Mayer (2001), and Billari and Wilson (2001). As these authors stress, the importance of cultural, historical, and institutional path dependencies is fundamental in determining different social and demographic outcomes and hindering convergence in family systems and fertility behaviour across countries. As Reher argues, the concept of path-dependency 'refers to a simple but important reality. No matter how nearly universal the factors of modernization may be, once they enter into contact with different historical, cultural, geographical, or social realities, the end result will necessarily be different in each context' (Reher, 1998, p. 221). Therefore, even though changes in family formation and fertility across Europe have moved in the same direction, the intertwinement of these changes with different social, cultural, economic, and institutional contexts has contributed to persistent cross-country heterogeneity in the relation between fertility and its socio-demographic correlates.",
                "Recent studies have indicated '... a reversal of many well-known relationships that have been used to explain cross-country differences in fertility patterns' (Billari and Kohler, 2004, p. 172). Fertility now tends to be lowest in countries that are traditional, catholic, and family oriented, while it is highest in countries with high divorce rates, highest rates of cohabitation, and highest levels of extra-marital births (EXMBs; Monnier and de Guibert-Lantoine, 1996). As Castles (2002, p. 22) argued, '[i]n a world where socio-economic and cultural patterns are usually slow to change, there has been a radical reversal in traditional factors that influence levels of fertility'.",
                "In our article we focus on the aggregate relationship between fertility, on the one hand, natality and nuptiality measures, on the other. Our set up is inspired by the findings presented in Engelhardt and Prskawetz (2004), namely that the trend of these indicators is compatible with the trend in total fertility over the last four decades of the past century. As the authors argue, mean age at first birth (MAFB), marriage, and divorce are still valid indicators of fertility behaviour, since the overall decline in the total fertility rate (TFR) since the 1970s was generally accompanied by a decline in first marriage rates and an increase in divorce rates and ages at first births, despite cross-country differences in the intensity and timing of these events. However, as shown in Billari and Kohler (2004), from a cross-sectional viewpoint, the association between fertility and fertility-related behaviours has changed during the period 1975-1999. In the European countries the cross-sectional correlation with total fertility changed from negative to positive for the total first marriage rate, the proportion of extramarital births, and female labour force participation. In this article, we argue that changes in the cross-country correlation should not be attributed to the developments in individual countries over time. We expect that the postponement of first birth and first marriage, increasing divorce rates, and proportion of EXMBs are still associated with lower fertility, as it was in the 1970s and 1980s, when we view them from a time series perspective within each country. However, increases in the age at first birth and first marriage and the percentage of EXMBs might have a progressively less negative association with fertility over time.",
                "The aim of the current article is to provide an econometric study of the hypotheses laid out in Engelhardt and Prskawetz (2004) as well as Billari and Kohler (2004). We investigate whether (a) unmeasured country-specific factors and (b) country heterogeneity in the magnitude of the negative time series association between fertility and measures of natality and nuptiality can explain the change in the cross-country correlation coefficients of these indicators and TFR. Figure 1 illustrates these points by choosing Greece and Sweden, two countries considered representative for the different development of the total divorce rate (TDR) and TFR in the EU. In both cross-sections (1975 and 2001) the TDR was higher in Sweden than in Greece [supporting hypothesis (a)] and the increase in TDR was associated with a much stronger decline of the TFR in Greece than in Sweden, which brings evidence for element (b). "
            ]
        },
        {
            "title": "Fertility and Fertility-Related Behaviour: Previous Research",
            "paragraphs": [
                "The change in the cross-country correlation between fertility and key fertility-related indicators, such as the TDR, the extramarital births, and female labour force participation, has inspired many researchers in the socio-economic and population sciences. To this regard, one of the most studied phenomena is the change in the cross-country correlation between the TFR and female labour force participation, which turned from a negative value before the 1980s to a positive value thereafter (cf. Esping-Andersen, 1999; Brewster and Rindfuss, 2000; Ahn and Mira, 2002; Pampel, 2001; Rindfuss et al., 2003). However, studies by Engelhardt et al. (2004) and Kogel (2004) have shown that neither the causality nor the time series association between total fertility and female labour force participation have changed over time. Theories that explain the change in the cross-country correlation have been advocated by Benjamin (2001), Pampel (2001), Ahn and Mira (2002), Castles (2002), Adsera (2004), Engelhardt and Prskawetz (2004), and de Laat and Sevilla-Sanz (2007).",
                "As the study by Engelhardt and Prskawetz (2004) indicates, trends in the labour market (male labour participation rate, male and female unemployment rate, gender wage gap) and demographic indicators (female first marriage rate, TDR, MAFB) are compatible with the overall drop in total fertility since the 1970s, supporting the theories of the New Home Economics. Trends in the variables that would be representative for the role incompatibility hypothesis and the ease in combining work and childrearing (working hours, proportion of females employed part time, or gross enrolment ratio of kids in pre-primary education) are not related to fertility trends according to the study by Engelhardt and Prskawetz (2004). In summary, their analysis indicates that the fact that fertility declined most in countries with low female participation in the labour market can partly be explained by three variables that show a specific pattern for these countries. These are (i) female unemployment rate, (ii) the MAFB, and (iii) the family allowance for first children. Many of the variables considered by these authors show parallel trends for low, medium, and high participation countries, but the changes induced a more pronounced drop in total fertility in countries with low labour force participation rates for women, where adherence to family values is stronger and social norms that see women as main providers of childrearing activities prevail.",
                "De Laat and Sevilla-Sanz (2007) set up a model of household production that focuses on the heterogeneity in attitudes towards women's home time and the externalities associated with a man's willingness to participate in home production. Within their framework, they are able to explain the negative association between female labour force participation and total fertility at the micro-level as well as the positive association between female labour force participation and total fertility at the macro-level. More specifically, they show that households with less egalitarian attitudes have a more unequal division of household tasks, lower female labour force participation, and more children. They call this relation the 'household attitude effect'. However, at the macro-level, the social externality effect works: households living in less egalitarian countries have, ceteris paribus, a more unequal division of household tasks, lower female labour force participation, and also fewer children. The interaction of the household attitude and the social externality effect can cause the change in the cross-country correlation. In particular, de Laat and Sevilla-Sanz show that when relative female wages rise in egalitarian countries, men's contribution to the household production increases, allowing the social externality effect to dominate. To summarize, the paper by de Laat and Sevilla-Sanz is the first to provide a unified theoretical underpinning of the negative micro-level correlation, the positive macro-level correlation, as well as the change in the correlation between total fertility and female labour force participation over time. Their basic argument is that changes in socio-economic trends, such as the increase of female labour force participation, may have revealed the underlying differences in attitudes, social norms, and culture across countries. Put differently, changes in the socio-economic context may help uncover long-term cultural and institutional differences across countries. Since the socio-economic context may change faster than the underlying cultural and social norms, the cross-country correlation between total fertility and female labour force participation changes.",
                "A key argument in the paper by de Laat and Sevilla-Sanz are the micro-macro interactions, i.e. individual choices, opportunities, and constraints interact with social context (cf. also Billari, 2004). Several authors have emphasized the importance of social interactions for fertility choices (Bongaarts and Watkins, 1996; Montgomery and Casterline, 1996; Bernardi, 2003). A recent contribution that underlines the relevance of social interactions in the context of low fertility is Kohler et al. (2002 and 2006). Social interactions (either impersonal, e.g. via the labour market or personal interactions, e.g. via peer groups) may induce multiplier effects, multiple equilibria, status-quo enforcement and path dependence (Billari, 2004). Similarly, Aberg (2003) found positive effects of the proportion of peers married on the marriage rate, indicating that social interaction is, in part, driving individuals' marital decisions.",
                "A further, indeed rather similar, interpretation of the reversal in the association between fertility and fertility-related behaviour is given by McDonald (2000). The author postulates that current low fertility in advanced societies is 'the outcome of a conflict or inconsistency between high levels of gender equity in individual-oriented social institutions and sustained gender inequity in family-oriented social institutions' (p. 427). The author focuses on the progress towards gender equity in (i) family-oriented institutions and (ii) individual-oriented institutions. The fertility transition from high to low levels is primarily associated with women acquiring rights within the family and, in particular, the possibility to adapt the number of births to their desires. However, the extraordinary increase of gender equity in individual-oriented institutions during the twentieth century, i.e. the opportunity for women to access formal education and participate in the labour market, produced a conflict with women's roles as wives and mothers because of continuing low levels of equity in the family sphere. 'But in a context of persistent relatively low gender equity in family-oriented institutions, high gender equity in individual-oriented institutions results in very low fertility. [...] In a context of high gender equity in individual-oriented institutions, higher gender equity in family-oriented institutions will tend to raise fertility' (p. 438).",
                "To sum up, previous evidence suggests that the effect of the traditional fertility determinants, such as marriage, divorce, female employment, acts together with the influence of different social, cultural, institutional, and economic characteristics (or path dependencies) which have to be taken explicitly into account when analysing fertility dynamics."
            ]
        },
        {
            "title": "Data and Methodology",
            "paragraphs": [
                "In the empirical analysis, we assembled annual time series of the TFR, the MAFB, the percentage of EXMBs, the mean age at first marriage (MAFM) and the TDR from 1960 to 2003 for 23 EU countries, for which the series were complete. While the latter two indicators (MAFM, TDR) represent indicators of nuptiality, the former two indicators (MAFB, EXMB) denote indicators of natality. Our main data source was the Council of Europe (2005). The data are based on computations of primary data on events by age and population structure using procedures that were standardized for all countries by the European Demographic Observatory. Where data were not available for some years, we relied on Eurostat data after controlling for compatibility and continuity of the data between the two sources.",
                "The total period fertility rate is defined as the average number of children that would be born alive to a woman during her lifetime if she were to experience a given set of age-specific fertility rates observed in a population during a given year. The MAFB and MAFM for a given year are defined as weighted averages of the different ages, with weights being the age-specific rates. The TDR is defined as the probability of divorce for a married person if he or she were to pass through his/her marriage years according to the duration-specific divorce rates of a given year. The rate refers to a synthetic marriage cohort. The percentage of EXMBs is calculated as the ratio between the number of children born out-of-wedlock and the total number of live births.",
                "Figure 2a-e summarize the time patterns of the TFR and the measures of natality and nuptiality during the period 1960-2003 in four major regions in Europe that differ with respect to welfare state and gender regimes: Western Europe (Austria, Belgium, France, Germany, Ireland, Luxembourg, Netherlands, UK), Northern Europe (Denmark, Finland, Sweden), Southern Europe (Greece, Italy, Portugal, Spain), and Central/South-Eastern Europe (Czech Republic, Hungary, Poland, Slovak Republic, Slovenia, Estonia, Latvia, Lithuania).1",
                "We can observe a pronounced drop in fertility from values well above the level necessary for generational replacement in the 1960s to below replacement fertility levels in the late 1990s in all the 23 EU countries, (Figure 2a). The Northern European countries were the forerunners in these developments and fertility already declined below an average number of two children per woman in the late 1960s in this region. Western Europe followed this trend with a delay of about 7 years, and countries in Southern Europe joined the low-fertility levels in the early 1980s. Countries in Central/South-Eastern Europe are amongst the latest in terms of fertility drops below replacement levels. While fertility in countries in Western and Northern Europe stabilized, on average, at values above 1.5, countries in Southern and Central/South-Eastern Europe have been among the lowest-low fertility countries (cf. Kohler et al., 2006) since the late 1990s.",
                "As discussed in detail in Kohler et al. (2006), there are important differences in fertility-related demographic behaviour between the two groups with lowest-low fertility. The Southern European pattern is characterized by late home leaving, a low prevalence of cohabitation, and extra-marital fertility (Figure 2c), and the centrality of marriage and low levels of divorce (Figure 2e). The pattern of late home leaving combined with the centrality of marriage for family formation results in rather high ages at first birth (Figure 2b) and first marriage (Figure 2d) for countries in the south of Europe. The pattern for countries in Central and South-Eastern Europe is more diverse and characterized by earlier home leaving, lower rates of marriage and higher rates of divorce (Figure 2e), and extra-marital fertility (Figure 2c). Earlier home-leaving results in rather low ages at first birth (Figure 2b) and first marriages (Figure 2d) for these countries.",
                "However, later childbearing and changing family contexts of childbearing are not necessarily responsible for the lowest-low fertility levels. Countries in Northern Europe also have high ages at first birth (Figure 2b) and at first marriage (Figure 2d), high levels of divorce rates (Figure 2e) and by far the most pronounced share of EXMBs (Figure 2c). Nevertheless, fertility in northern Europe is amongst the highest in the EU. Countries in Western Europe show a similar pattern of postponing first births and first marriages and increasing divorce rate. However, the share of EXMBs is more in the order of the values observed for countries in Central/South-Eastern Europe (Figure 2c).",
                "In order to take into account the relationship over time between fertility and various measures of natality and nuptiality, we next focus on the cross-country correlation between the TFR and natality and nuptiality indicators. A preliminary analysis showed a positive correlation between the total fertility and the MAFB and MAFM in the 1960s and first half of the 1970s. Countries with relatively higher age at the onset of union formation and childbearing showed also higher fertility levels (Southern and Western Europe). Higher fertility in these countries might be explained, from a purely demographic point of view, since union formation and motherhood have been brought forward in age in many of these countries thereby producing an increase in the period TFR.",
                "However, in this period higher fertility levels and later family formation are not to be linked with increasing women's education, their higher participation in the labour market, on the one hand, and friendlier family policies, more flexible working arrangements, easier reconciliation between work and family, on the other. It is only later on that the effect of these changes will become visible. As soon as first marriage and first birth started to be postponed around the mid 1970s, the association with total fertility became negative. Northern European forerunners delayed union formation and motherhood with an inevitable negative impact on total fertility and were followed later on by other European countries. In the same period extramarital births and divorce were already negatively correlated with total fertility.",
                "Starting in the mid 1980s we observe a change in the correlation coefficients from negative to positive for all the indicators (Figure 3). For TDRs and EXMBs, this change already occurred in the mid to late 1980s. For the MAFM and MAFB, the change occurred in the first half of the 1990s. These results indicate a pronounced shift in the relationship between fertility and various measures of natality and nuptiality starting in the 1980s. The age at first marriage and first birth, TDRs and the share of EXMBs are no longer signs of lowest-low fertility in a cross-sectional comparison. ",
                "The relatively recent positive cross-country correlation between fertility rates and age at first birth and first marriage requires clearly a different conceptual framework from the one that could explain the positive correlation in the 1960s and the first half of the 1970s. Since we are interested in the reversal of the correlation, from negative to positive, between total fertility and natality and nuptiality measures, during the last 30 years, we restrict the analysis to the period 1975-2001 (Figure 3).",
                "To sum up, in our analysis we run the fixed country effects model to account for unobserved country-specific heterogeneity. Moreover, in order to detect country and time-specific heterogeneity in the association between total fertility and natality and nuptiality measures, we include in the models an interaction term between these indicators and country and time, respectively."
            ]
        },
        {
            "title": "Empirical Results",
            "paragraphs": [
                "We empirically estimated the association of the MAFB, EXMBs, MAFM and TDR with the TFR focusing on the period 1975-2001 (2000 for the MAFM). From our initial set of 23 EU countries we also had to exclude some of the other countries in our different analyses. This was due to incomplete time series data and, as regards the TDR, to the changing definitions of our main indicators that produced peaks and troughs not necessarily related to changes in the underlying behaviour. Our study of the relation between the MAFB and the TFR includes 16 countries: Czech Rep., Denmark, Estonia, Finland, France, Germany, Greece, Hungary, Ireland, Netherlands, Poland, Slovak Republic, Slovenia, Spain, Sweden, and the United Kingdom. When considering the relation between EXMBs and fertility, we excluded Belgium. Concerning the MAFM, we excluded Ireland. Regarding the TDR, we included 13 countries in the analysis: Austria, Denmark, France, Greece, Hungary, Lithuania, Luxembourg, Netherlands, Poland, Portugal, Slovak Republic, Slovenia, and Sweden.",
                "We first estimated fixed effects models (i.e. controlling for heterogeneity in the intercept) and controlled for possible autocorrelation. Then we considered time and country heterogeneity in the slope coefficients.",
                "Table 1 summarizes the estimated coefficients of the bivariate analyses focusing respectively on the relation between TFR and the MAFB, EXMBs, MAFM, and TDR using Prais-Winsten models with panel-corrected standard errors and AR(1) disturbances. The association is significantly negative for all variables. Additional estimates (data not shown here) yield that the estimated association is independent of the estimation procedure. As the value of the R2 statistic indicates, the model fit is extremely good for all indicators.",
                "Multiplying the coefficients (Beta) in each bivariate analysis with the range in the independent variable observed for the 23 EU countries during the period 1975-2001 (i.e. the range of MAFB, the range of EXMB, etc.) and comparing these values to the range of the TFR values, gives an estimate of how much the independent variable contributes to explaining the variations in the dependent variable (Table 2; cf. Pampel, 2001, p. 102). The results of these calculations show that the cross-country variation in EXMBs and the MAFB explains up to 51 and 43%, respectively of the cross-country variation in TFR. The cross-country variation in the MAFM and TDR contributes much less to the variation in total fertility: 33% in case of the MAFM and 22% in case of TDR. Recalling Figure 2b-e, these results can be explained by the fact that the trend in the MAFB and EXMBs show rather distinct patterns for Central/South-Eastern European countries (in case of the MAFB) and Northern European countries (in case of EXMBs). ",
                "Since the coefficients in Table 1 represent a cross-country average of the longitudinal association of the independent variable, important country and time heterogeneity in these coefficients is ignored. In the next two sections, we investigate the existence of significant country and time heterogeneity in measures of natality and nuptiality.",
                "Accounting for country heterogeneity, we found clear differences between the Central/South-Eastern and Southern European countries and the countries in Northern and Western Europe. Figure 4a plots the relation between the MAFB and the TFR controlling for country heterogeneity based on the estimations in  Appendix Table A1.  Appendix Table A1 shows the main and country-specific effects of the MAFB, EXMBs, MAFM and TDR on fertility. By summing up in panel 2 of  Appendix Table A1 the main effect of the MAFB of -0.1962 and the estimates on the interaction between the MAFB and country, we may summarize the effect of MAFB on total fertility for single countries. For instance, the effect of the MAFB in Germany is above the average (-0.1962 + 0.1465), while it is below the average in Spain (-0.1962 -0.0923). ",
                "As can be seen in Figure 4a, except for Ireland, the increase in the MAFB is related to a much smaller decline of the TFR in Western and Northern European countries than in Central/South-Eastern and Southern Europe. Though the increase in the MAFB reflected a change in the social context (e.g. increasing female education and female labour force participation rates) in all the countries, this change translated into a much stronger negative impact on the TFR in Central/South-Eastern and Southern European countries. An explanation can be found in the comparatively worse economic conditions in Central/South-Eastern and Southern European countries, which reinforced the negative impact of economic conditions on fertility through fertility postponement. Moreover, the cultural and social norms prevailing in these countries, particularly in the Southern European countries, imply that fertility postponement often shows that social change is incompatible with family formation. Hence, it is not only the increase in the MAFB per se, but rather the change in the social context that induced an increase in the MAFB that explains the drop of the TFR in these countries.3",
                "We found similar results for the MAFM (Figure 4c). An increase in the MAFM is related to a much more pronounced decrease in the TFR for Central/South-Eastern and Southern European countries. Such a result supports the idea that marriage and fertility in these countries are intertwined.4 Note that Poland and the Slovak Republic are the countries where increases in the MAFB and MAFM had the strongest negative impact on the TFR. As argued in Olah and Fratczak (2004), there is clear evidence that women's increasing economic independence (through higher education and labour force participation) has delayed the transition to motherhood in Poland and, similarly, marriage commitments have been postponed. However, in Poland there seems to be a strong influence of socially defined age deadlines on the timing of childbearing (Mynarska, 2007). Furthermore, while gender equality has been supported in the public sphere, the division of family responsibilities has remained rather traditional (cf. McDonald, 2000). As a result, the delay in fertility often implies forgoing fertility in these countries. Moreover, during the past decade changes in patterns of union formation (such as decline in marriage rates and increase in cohabitation) were observed in many Central/South-Eastern European countries. These changes still seem to influence reproductive behaviour decisions and make people postpone marriage. In Western and Northern Europe the social context that induced an increase in the MAFM and the spread of new forms of family formation was rather independent of the fertility decision, as indicated by our results in Figure 4c.",
                "Country heterogeneity is also prevalent when considering the TDR (Figure 4d) and the share of EXMBs (Figure 4b). Again, increases in both indicators are associated with a more pronounced decrease in TFRs in Central/South-Eastern and Southern European countries. The results for Southern Europe are rather straightforward. Strong family values and social norms, combined with the centrality of marriage and a low prevalence of divorce and EXMBs, imply that an increase in the TDRs and EXMBs goes along with a decline in TFR. However, in Central/South-Eastern Europe, divorce and extra-marital fertility had always been pronounced (Figure 2c-e) The fact that a further increase in these indicators is related to a decline in fertility may therefore indicate that factors, which induced these changes in TDRs and EXMBs (e.g. increasing economic uncertainty and changing values, norms, attitudes; cf. Philipov, 2002) may also induce a decline in fertility, and, in addition, that these dimensions (i.e. TDRs and EXMBs, on the one hand, and total fertility, on the other hand) are not linked as directly as it seems to be the case in Southern Europe.",
                "So far, our results indicate that it is important to control for unobserved country heterogeneity in the intercept (Table 1) as well as slope (Figure 4a-d) of the relation between fertility-related demographic indicators and the TFR. We next study whether time heterogeneity in the negative association between TFR and measures of natality and nuptiality is prevalent as well. Due to numerical instability of the estimation procedures, we refrain from models of three way interaction (i.e. country and time heterogeneity in the slope coefficient), and only concentrate on time heterogeneity in the slope coefficient.",
                "To test explicitly for a time change in the association between the MAFB (or EXMBs, MAFM, TDRs) and fertility, we estimated a model with interaction effects between the independent variables and time. To account for a flexible relation over time, we applied 2-year time dummies which capture the change in the correlation correctly enough without loosing in parsimony. The result of the Prais-Winsten estimation ( Appendix Table A2) is graphically displayed in Figure 5. ",
                "Considering time heterogeneity in the negative time series association, we found that the negative association between TFR and its correlates declined over time for all indicators and even turned positive during the past periods. These results indicate that changes in the social context that underlie the trends in the demographic indicators are less negatively correlated to fertility levels over time. This reflects a certain acceptance of the new social context in reproductive behaviour decision making. Nevertheless, it clearly remains to be seen whether this acceptance definitely implies low fertility in countries where the negative relation is stronger or whether there is some room for recovery."
            ]
        },
        {
            "title": "Conclusions",
            "paragraphs": [
                "The change in the socio-economic context (e.g. labour markets, educational systems, sexual revolution, etc.) combined with rather rigid patterns of cultural norms, values and institutional settings, and multiplier effects via social interaction mechanisms may explain the change in the cross-country correlation between fertility and key fertility-related demographic behaviour.5 Referring to the argument in de Laat and Sevilla-Sanz (2007), the change in the cross-country correlation between total fertility and fertility-related behaviour may indicate a change in the social context of the latter that has helped to uncover cross-country differences in social norms, culture, and institutional settings. To reveal the change in the social context we tested for time heterogeneity in the association of natality and nuptiality measures and the TFR. To show cross-country differences we tested for country heterogeneity in the association of natality and nuptiality measures and the TFR. It should be noted that by testing for time and country heterogeneity in the effect coefficients of the independent variables we transcend the standard fixed effects modelling approach, which ignores heterogeneity in the effect coefficients and only controls for time invariant country effects.",
                "A recent article by Giuliano (2006) on living arrangements in Western Europe indicates that the sexual revolution of the 1970s might indeed have constituted such a change in the social context of a key fertility-related demographic behaviour, namely the age at leaving the parental home. As Giuliano argues in her article, 'the sexual revolution of the 1970s--by liberalizing parental attitudes--had a differential impact on living arrangements in Northern and Southern Europe ...' (Giuliano, 2006, p. 2). The argument is that Southern Europe's culture of a 'strong family' (Dalla Zuanna and Micheli, 2004) was uncovered by the sexual revolution that decreased the privacy costs of staying at home. On the other hand, the cultural norm for Northern Europe had always been the independence of generations. Hence, the sexual revolution had a negligible impact on living arrangements for the Northern European family type.",
                "Regarding cross-country differences, in our analysis we found that, once we controlled for country heterogeneity, i.e. different social contexts across countries (Table 1), increases in the MAFB and MAFM, TDR and EXMBs have been associated with decreases in total fertility. Our analysis therefore supports, at the macro-level, the negative association at the micro-level between overall fertility and the postponement of key demographic events that are related to the formation of new households and families (such as the MAFM and MAFB) as well as the increasing instability of marriages (TDR, EXMBs).",
                "The extent to which total fertility declines are linked to changes in fertility-related demographic indicators is, however, rather different across countries (Figure 4a-d). In Northern and Western European countries, increases in the MAFB and MAFM, TDR, and EXMBs are rather modestly related to declines in total fertility. In these countries, developments of fertility-related indicators are a sign of more liberal partnerships and women's increasing opportunities in education and on the labour market. These changes in the social context did not accelerate the drop in total fertility since prevailing social norms, values, and attitudes made this changing social context compatible with family formation behaviour. On the other hand, in Central/South-Eastern and Southern European countries, trends in fertility-related indicators were closely linked with changes in economic conditions (also including the housing sector) in addition to changes in the social context (higher education and labour force participation of women) and increasing uncertainty about future economic and social development. The factors that induced the increase in the MAFB and MAFM, TDR and EXMBs were also related to the drop in total fertility in those countries. Moreover, social norms, values, and attitudes additionally restricted the process of family formation in these countries, because they are not compatible with trends in key fertility-related demographic variables.",
                "Though our analysis confirms the negative relation between total fertility and postponement of marriage and motherhood, further investigations that also included time heterogeneity in the negative association (Figure 5) indicate that further postponement of demographic events leads to less pronounced declines in fertility. These findings support the conclusion that the postponement of family formation might have a declining negative impact on fertility at the macro-level, in particular in those countries that have adjusted their social, family, and labour market policies to the new individuals' needs and preferences, e.g. by facilitating the reconciliation between work and family through generous parental leaves, childcare facilities, different working arrangements.",
                "Finally, identifying potential explanations for the change in the cross-country correlation between the TFR and measures of natality and nuptiality serves a further important clarification (besides identifying underlying differences in cultural and social norms across countries and changes of the social context over time). In our empirical analysis we choose the MAFB and the percentage of EXMBs as period indicators of natality. Among nuptiality indicators we choose the MAFM and the TDR. Most of the recent demographic literature argues that, at the individual level, the postponement of key demographic events that are linked to forming new households and families (e.g. the MAFM and MAFB) as well as the increasing instability of marriages (TDR) may be related to lower overall fertility (Kohler et al., 2006). However, there is evidence for France (cf. Bhrolchain and Toulemon, 2005) that the postponement of the first child may not have these negative effects on total fertility. A change in the cross-country correlation between total fertility and these indicators from negative to positive may indicate a weakening of these relationships in several countries and possibly, over time, for all countries. The explanatory power of such a hypothesis can be investigated within our proposed econometric framework.",
                "To conclude, our study demonstrated the importance of controlling for time and country heterogeneity to understand the impact of postponement of demographic events and increasing instability of marriage on fertility. The next step will be to identify the factors underlying these heterogeneities.",
                "The authors would like to thank two anonymous referees whose suggestions essentially helped to improve the paper. For language editing, they would like to thank Sylvia Trnka."
            ]
        }
    ],
    "references": [
        "http://dx.doi.org/10.1007/s00148-003-0166-x",
        "http://dx.doi.org/10.1007/s001480100078",
        "http://dx.doi.org/10.1023/B:POPU.0000020892.15221.44",
        "http://dx.doi.org/10.1080/0032472042000213695",
        "http://dx.doi.org/10.2307/2137804",
        "http://dx.doi.org/10.1146/annurev.soc.26.1.271",
        "http://dx.doi.org/10.1080/0032472032000167715",
        "http://dx.doi.org/10.1023/B:EUJP.0000014543.95571.3b",
        "http://dx.doi.org/10.3917/pope.203.0447",
        "http://dx.doi.org/10.1007/s00148-003-0180-z",
        "http://dx.doi.org/10.1111/padr.2002.28.issue-4",
        "http://dx.doi.org/10.1111/padr.2000.26.issue-3",
        "http://dx.doi.org/10.1023/B:POPU.0000020877.96401.b3",
        "http://dx.doi.org/10.2307/2807972"
    ],
    "title": "On the Relation Between Fertility, Natality, and Nuptiality",
    "issue": "6",
    "volume": "26",
    "year": 2010,
    "issn": "0266-7215",
    "journal": "European Sociological Review",
    "authors": [
        "Alexia Prskawetz",
        "Marija Mamolo",
        "Henriette Engelhardt"
    ]
}