{
    "doi": "http://dx.doi.org/10.1177/0003122418761857",
    "abstract": "Current theories of occupational status conceptualize it as either a function of cultural esteem or the symbolic aspect of the class structure. Based on Weber\u2019s definition of status as rooted in either cultural or class conditions, we argue that a consistent operationalization of occupational status must account for both of these dimensions. Using quantitative measures of cultural sentiments for occupational identities, we use affect control theory to model the network deference relations across occupations. We calculate a measure of the extent to which one occupational actor deferring to another is incongruent with cultural expectations for all possible combinations of 304 occupational titles. Because high-status actors are less likely to defer to low-status actors, the degree to which these events violate cultural expectations provides an indicator of the relative status position of different occupations. We assess the construct validity of our new deference score measure using Harris Poll data. Deference scores are more predictive of status rankings from poll data than are occupational prestige scores. We establish criterion validity using five theoretically relevant workplace outcomes: subjective work attachment, job satisfaction, general happiness, the importance of meaningful work, and perceived respect at work.",
    "sections": [
        {
            "title": "Introduction",
            "subsections": [
                {
                    "title": null,
                    "paragraphs": [
                        "Occupational status remains a long-standing enigma. On the one hand, status is central to structural inequality. It transforms conflict over situational control of resources and power into essentialized group differences (Tilly 1998). It fuels symbolic assessments of class location (Bourdieu 1984; Chan and Goldthorpe 2007) and provides an independent base of power above and beyond control of resources (Ridgeway 2014). On the other hand, there is disagreement on how best to conceptualize and measure it.",
                        "Weber (1946, 1978) theorized that class, status, and party are three related but independent bases of power pertaining to economic, social, and political spheres of society, respectively. He defined status as symbolic social power derived from cultural evaluations of esteem, worthiness, and value to society. Based on the logic that economic power (i.e., control over scarce and valued resources) leads to privilege, which in turn leads to prestige, occupational prestige scores (Goldthorpe and Hope 1972; Treiman 1977) became the predominant method of operationalizing occupational status. To construct these prestige scores, survey participants ranked occupational titles according to their social standing (for methodological details, see Nakao and Treas 1994). With a focus on material resources and an implicit assumption that occupations are structurally rather than culturally determined, instead of asking respondents to rate prestige, the survey instrument uses the academic terminology of social standing. This seemingly minor substitution fundamentally undermines prestige scores defined by rankings of social standing as a valid measure of status.",
                        "Because an occupation's standing is largely conditioned on prerequisites and rewards, typically education and income, GSS prestige scores perform as subjective estimates of objective occupational features. This fact led Featherman and Hauser (1976:405) to famously conclude that prestige scores do not reflect \"prestige in the classical sense of deference/derogation,\" but instead perform as \"error-prone estimates\" of socioeconomic characteristics of occupations. Subsequent research reinforced this conclusion, and stratification scholars largely abandoned the use of subjective measures in favor of objective occupational features (Bukodi, Dex, and Goldthorpe 2011). We believe this is a mistake because status, in a Weberian sense, is inherently a subjective, cultural construct.",
                        "Chan and Goldthorpe (2004, 2007) contend that class and status are two qualitatively different forms of stratification, with status expressed in informal lifestyle distinctions among loose networks of status equals who \"eat together and sleep together\" (Goldthorpe 2012:205). This is seen in today's cultural and political polarization, where Donald Trump won 76 percent of the counties with a Cracker Barrel Old Country Store in the 2016 presidential election, but only 22 percent of counties with a Whole Foods Market, a 54 percent gap (Allott 2017). As egalitarian principles of democratic citizenship clash with the reality of rising inequality, individuals viewed as status inferiors will resist demands for public displays of deference (Chan and Goldthorpe 2007). Rather than regarding highly-educated, well-paid professionals like lawyers and executives with esteem, as GSS prestige scores would predict, segments of the public are increasingly deriding them as self-centered, out-of-touch elites (Murray 2013). As social divisions grow along cultural and ideological lines (Bishop 2009; Jacoby 2014), new, culturally informed measures are needed to operationalize the symbolic status order and to develop non-individualistic theories of behavior (Huckfeldt 2014).1",
                        "Using Bukodi and colleagues' (2011) review of occupational hierarchy measures as a guide, this article develops and validates a new, generalizable method of quantifying occupational status, which we call deference scores. We integrate relational methods found in organizational research with affect control theory, a formal mathematical theory of social action and cultural meaning (Heise 2007; MacKinnon and Heise 2010; Smith-Lovin and Heise 1988).",
                        "Bukodi and colleagues contend that the fundamantal flaw with GSS prestige scores is that they lack construct validity (i.e., they do not measure what they claim to measure) and subsequently lack criterion validity. Given Bukodi and colleagues' emphasis on construct validity, we structure this article in three parts. First, we revisit Weber's definition of status to identify the salient elements to be operationalized, paying particular attention to theoretical distinctions between class and status. Next, we demonstrate how affect control theory can be used to operationalize status. Based on the idea that status can be conceptualized as a network of deferential exchanges from one person to another, we compute the likelihood that one occupational actor will defer to another based on quantitative measures of cultural sentiments for a representative list of occupational titles.",
                        "Finally, we examine construct and criterion validity of the newly defined deference scores. Because some scholars believe GSS prestige scores lack construct validity,2 we begin validity testing using an alternative measure, Harris public opinion polls, which ask respondents to rate prestige rather than social standing (Corso 2009). To the best of our knowledge, this is the first systematic comparison between GSS prestige scores and public opinion polls. To differentiate these similar measures, in the following we refer to prestige scores as found in the General Social Survey (GSS) as GSS prestige scores, and those based on Harris Poll data as Harris prestige scores.",
                        "After establishing construct validity, we assess criterion validity using five subjective workplace outcomes found in the GSS: workplace attachment, job satisfaction, happiness, respect at work, and the importance of meaningful work (net of sociodemographic background controls). To preview the results, deference scores significantly predict Harris prestige scores: both rank society-serving occupations, such as firefighters, doctors, nurses, and teachers, high in status. In contrast, GSS prestige scores do not significantly correlate to Harris prestige scores. In addition, our new deference scores significantly predict all five workplace outcomes net of sociodemographic controls for age, gender, race, education, and income."
                    ]
                }
            ]
        },
        {
            "title": "Status and Deference",
            "subsections": [
                {
                    "title": "Sources of Status Differences",
                    "paragraphs": [
                        "Weber (1978:305) theorized status as a distinct source of inequality based on the ability to make \"an effective claim to social esteem.\" In contrast to the class structure defined by labor market relations, the status order is based on cultural beliefs about the relative superiority, equality, and inferiority of members of social groups (Berger, Ridgeway, and Zelditch 2002; Ridgeway and Erickson 2000; Shils 1982). These beliefs provide a form of symbolic social power shaping life outcomes via relations of deference, acceptance, and derogation (Goldthorpe and Hope 1972).",
                        "Where do these relations come from? Ridgeway and colleagues (Ridgeway 1991; Ridgeway et al. 2009; Ridgeway and Correll 2006) theorize that when members of nominal social categories interact to achieve shared goals, structural conditions, such as resource differences, can shape interactions, resulting in the creation of influence and deference hierarchies. Some participants will associate differences in worthiness and competence experienced during an interaction with others' nominal social categories; via repeated interactions, these status beliefs will spread until they become largely consensual.",
                        "Cultural sentiments, and the deferential exchanges they foster, are thus central to status processes, because they provide the \"symbolic means by which appreciation is regularly conveyed to a recipient of this recipient\" [emphasis in original] (Goffman 1956:477). Deference cannot be seized from others but must be willingly granted based on shared beliefs of relative superiority (Ridgeway 1984). Status is a multilevel process in which position-level meanings in a culture serve to structure individual-level interaction patterns."
                    ]
                },
                {
                    "title": "Sources of Status Differences",
                    "paragraphs": [
                        "Given the shortcomings of GSS prestige scores, researchers within organizational and economic sociology developed an institutional lens that centers on the structural features of hierarchies and the processes that influence status evaluations (for reviews, see Piazza and Castellucci 2014; Sauder, Lynn, and Podolny 2012). A key insight of this approach is the relational nature of status. Not only are status evaluations conditioned on relational features such as authority relations (Zhou 2005), organizational affiliations (Benjamin and Podolny 1999), and strategic alliances (Stuart, Hoang, and Hybels 1999), but status itself can be conceptualized as a network of deference relationships. For instance, consistent with Podolny and Lynn's (2013:547) definition of status as \"accumulated acts of deference,\" Burris (2004) models the prestige order of academic departments by mapping the network of deferential exchanges in which lower-ranked departments i show deference to higher-ranked departments j by hiring PhDs trained by j.",
                        "The institutional approach has produced many insights, but its utility as a general framework for operationalizing status is limited, because organizational features may be industry or occupation specific. Intended purpose and historical context can condition organizational formation, leading to an ad hoc list of salient processes. In outlining the institutional logic of GSS prestige scores, Zhou (2005) lists a half dozen features (authority, centrality, formality, organizing capabilities, accessibility, and visibility) that may influence prestige perceptions to varying degrees depending on the industry. A generalizable approach must provide a method of ranking actors across domains operating under different conditions by operationalizing status at a more fundamental level."
                    ]
                },
                {
                    "title": "Sources of Status Differences",
                    "paragraphs": [
                        "While a valid measure of status must be based on cultural sentiments and reflect cultural expectations of deference, structural and institutional approaches implicitly treat cultural sentiments as unidimensional constructs reflecting a single status hierarchy based largely on class resources. However, a Weberian status order and the resulting symbolic meaning structure are multidimensional constructs reflecting both social and class power.",
                        "Class situation is one basis for status, but Weber (1978:932) was clear that status is not solely economically determined and \"propertied and propertyless people can belong to the same status group.\" Prestige can be viewed as the component of status based on cultural values and goodness, independent of economic conditions (Goldthorpe and Hope 1972).",
                        "Early research exploring the multidimensionality of prestige assessments found that these fell into two dimensions: a power dimension reflecting economic conditions, such as education and income, and a second evaluative dimension reflecting perceptions of \"service to humanity\" (Reiss et al. 1961), \"service to the country, the community, or mankind in general\" (Tiryakian 1958), and \"importance to the community\" (Taft 1953). When respondents rated prestige rather than social standing, the resulting status order was predicted by the evaluative \"value to society\" dimension, not the economic dimension (Grasmick 1976).",
                        "The significance of this evaluative dimension was largely lost as macro stratification and neo-Marxist approaches supplanted the status attainment paradigm. As research shifted from subjective to objective measures, status became increasingly defined by the power dimension, due, in part, to its greater explanatory power--class resources condition life chances more than prestige. Bourdieu's (1984) circumscription of status to the symbolic aspect of the class structure left little room for cultural assessments of social worthiness not traceable to class location.",
                        "Organizational approaches further limited the study of status solely to its material component. Conceptualized as a subjective proxy for an objective measure of relative superiority, status is only a useful sociological concept to the degree that the correlation between status and quality is imperfect (Sauder et al. 2012). Of central concern, therefore, are features affecting information transmission and processing, such as industry niches and uncertainty (Podolny 2001; Podolny, Stuart, and Hannan 1996), location within the occupational structure (Lynn and Ellerbach 2017), or other factors decoupling status from quality (Lynn, Podolny, and Tao 2009). Treated in market terms, the rewards of status are likewise economic in nature, such as greater sales and reduced costs (Benjamin and Podolny 1999; Podolny 1993).",
                        "However, if prestige rests primarily on evaluative dimensions reflecting cultural assessments of honor, goodness, and value to society, these approaches provide limited insight into status processes that are not rooted in the class domain. A multidimensional approach is needed to independently assess processes relevant to assesments of \"good\" in the honorific sense--for example, that firefighters risk their lives in the service of others--from the meaning of \"good\" as it applies to influential corporations or product brands.",
                        "Furthermore, to construct a single useful and valid scale for status, these dimensions must be synthesized into a single score. A prominent method of operationalizing these dimensions, and the one used in this study, is the semantic differential scale developed by Osgood and colleagues (Osgood, May, and Miron 1975; Osgood, Suci, and Tannenbaum 1957; Osgood and Tzeng 1990). In cross-cultural research, Osgood and colleagues (1975) determined that social concepts evoked affective responses along three universal dimensions of evaluation (good versus bad), potency (powerful versus weak), and activity (active versus quiescent).",
                        "The first two dimensions, evaluation and potency, are of particular importance to this study, because they reflect two fundamental dimensions of microinteraction. Evaluation captures feelings of esteem, goodness, and warmth that provide the basis for acts of voluntary compliance. Potency reflects power, competence, and strength, which enable actors to compel behaviors from others (Kemper and Collins 1990). Therefore, a valid measure capturing the full spectrum of a status must be able to assess the effects of evaluation and potency separately, demonstrate that status is mainly driven by potency, and then synthesize this into a uniform status measure.",
                        "Status research has focused primarily on the two dimensions of potency and evaluation, but if activity is a universal dimension of meaning, then its inclusion may provide additional insights about status processes. For instance, in comparing affect control theory to the stereotype content model, a two-dimensional model consisting of warmth and competence, Rogers, Schroder, and Scholl (2013) demonstrate that both models largely describe the same semantic content, but the addition of activity improves group reaction predictions.",
                        "Integrating insights from prior approaches with Weber's (1978:932) definition of status as \"a specific, positive or negative, social estimation of honor\" suggests that a valid status measure should be cultural, relational, and multidimensional. In other words, it should use cultural sentiments to model the expected likelihood that one occupational actor will show deference to another while accounting for both social and class power (i.e., evaluation and potency). In the following section, we demonstrate how affect control theory can be used to achieve these goals."
                    ]
                }
            ]
        },
        {
            "title": "Affect Control Theory and Deference Scores",
            "subsections": [
                {
                    "title": "Basics of Affect Control Theory",
                    "paragraphs": [
                        "Affect control theory (ACT) is a formal, mathematical theory of social action stating that individuals interpret events (consisting of actors, behaviors, and object-persons) and act to confirm cultural meanings for themselves and others within the interaction event (Heise 2007; MacKinnon and Heise 2010; Smith-Lovin and Heise 1988).",
                        "Using the semantic differential scale (Osgood and Tzeng 1990), cultural sentiments for interaction elements, including actors, behaviors, emotions, and settings, are quantified along three universal affective dimensions--evaluation (good versus bad), potency (powerful versus weak), and activity (active versus passive)--on a bi-polar scale from -4.3 to 4.3 with zero being neutral. The compilation of ratings for these three dimensions constitutes a concept's EPA profile or rating. Meanings can take the form of fundamental sentiments reflecting widely shared, enduring affective meanings, themselves serving as references for understanding events, anticipating actions, and performing social roles. Alternatively, meanings can result from transient impressions that are situation-specific and produced in interaction events.",
                        "ACT specifies the process of meaning maintenance using empirical impression change equations. The theory predicts how events alter transient impressions occurring within the interaction from fundamental sentiments toward the actor's identity (A), the behavior (B), and the object-person's identity (O). To develop the equations, survey respondents are first asked to rate concepts in isolation; the average of these out-of-context ratings across individuals correspond to fundamental sentiments (on the EPA dimensions) toward the identities and behaviors in the events. The fundamental sentiments associated with an actor-behavior-object (ABO) event is represented as a nine-dimensional vector, f :",
                        "",
                        "where Ae represents the out-of-context rating for the actor (A) on the evaluation (e) dimension (e.g., Ae = 2.72 for doctor), and so on. Other survey respondents rate their impressions of the actor, behavior, or object-person within the context of a simple ABO event description. For example, respondents would rate doctor in a situation in which a doctor (A) treats (B) a patient (O). The average of the in-context ratings represents the transient impressions of the identity or behavior within that situation.",
                        "The transient impression for doctor in our example event will be reasonably close to the fundamental sentiment for doctor, because treating a patient is consistent with social expectations of a doctor. An event like grandfather molests child will produce very different ratings in- and out-of-context, because it is so culturally inappropriate (and therefore affectively disturbing). The resulting nine-dimensional vector is called the transient impressions, t:",
                        "",
                        "In an impression-change study, transient impressions are measured for events with a wide range of positive and negative values for each of the three EPA dimensions for each event element (ABO). Statistical models then predict in-context ratings (transient impressions) from out-of-context ratings (fundamental sentiments) for all event elements (ABO). A set of nonlinear (polynomial) features are computed from the fundamental sentiments f to create a 20-dimensional vector, t(f ), as follows:",
                        "",
                        "In ACT analyses, the transient impressions expected after a social event are calculated by multiplying the feature vector t by a matrix of coefficients M determined through regression analysis relating t to t, as shown in Equation 4:",
                        "",
                        "The coefficients in M are thus what allows the prediction of transient impressions from any combination of fundamental sentiments, that is, how events alter cultural sentiments.3 For example, in the event that a doctor (2.72, 2.95, .23) examines (.78, .95, -1.22) a patient (.64, -1.47, -1.28), the post-event transient impression for the doctor becomes (1.39, 1.82, .22). The evaluation and potency of the doctor drops because the behavior examine is lower in evaluation and potency than the fundamental sentiment for doctors.4",
                        "Deflection is the squared difference between the transient impression produced by the event, as calculated using impression formation equations, and the fundamental sentiments for the event elements (Heise 1979) (see Equation 5). It is inversely proportional to the likelihood of an event (Heise and MacKinnon 1987). In other words, events that generate greater deflection are perceived to be less likely to occur, given cultural sentiments.",
                        "",
                        "For example, the event that a mother (A) caresses (B) a baby (O) produces a low deflection of 1.6, implying that a mother is likely to perform this behavior on a baby. In contrast, if she punches or kills the baby, this produces large deflections of 6.1 and 11.0, respectively, because these behaviors are incongruent with the cultural meanings held for mothers and babies."
                    ]
                },
                {
                    "title": "Basics of Affect Control Theory",
                    "paragraphs": [
                        "By applying this mathematical specification to occupational identities and deference behavior, ACT can be used to compute the deflection created when one occupational actor defers to another. For example, the deflection created in the event that a surgeon (3.09, 3.14, -.13) defers to (-.15, .45, -.44) a coal miner (.78, .01, .47) is 7.2, whereas the converse event in which a coal miner defers to a surgeon produces a lower deflection of 5.9.",
                        "If deferential action is an expression of the underlying status order, then deflection provides a quantitative indicator of occupational status. Because deflection is an inverse function of event likelihood, the greater deflection created when a surgeon defers to a coal miner implies that a surgeon is expected not to defer to a coal miner, and therefore surgeons possess greater status than coal miners, per the cultural meanings of each occupational actor.",
                        "An occupational status scale, which we call deference scores, can then be calculated by computing the mean deflection for all possible combinations of occupations for a representative list of occupational identities. For example, the deference score for surgeons begins by computing the deflection created in the event that a surgeon-defers-accountant. This is repeated for all occupational objects of deference in the data. Deflection scores are the average deflection across all such interactions.",
                        "Note that status as defined by deference scores is conceptualized not as a characteristic resource of an occupation, but as a result of the occupation's position within a multidimensional meaning space in relation to other occupations and the action in question. The computation of deference scores may appear unidimensional in summarizing multidimensional relations with a single scalar value. However, we contend deference scores are summary statistics helping describe these complex structural relationships. This parallels Burris's (2004) use of scalar (eigenvector) centrality scores to describe the position of universities within an academic network.",
                        "The construction of new summary statistics is useful for two reasons. First, accurate description is a critical first step in understanding complex social phenomena and informing further research. Our model of status rests not on deference scores themselves, but on the impression formation equations and the mathematical definition of deflection that underlies them. The impression formation equations combined with EPA ratings describe our conceptualization of status, but it is far too difficult to glean meaning from multiple simultaneous equations across thousands of combinations of relations. Instead, a summary statistic is required to make sense of this complexity.",
                        "Second, despite providing only a summary of a complex network of interactions, cultural heuristics provide the proximate means for enacting social structures on a day-to-day basis. Culture scholars contend that action based solely on rational calculus is too information-intensive and too cognitively costly (Swidler 2003; Vaisey 2009). Instead of deeply internalizing the social environment in great detail, people inherit from their environment \"a set of heuristics, hunches and shallow (but useful because they work most of the time) practical skills\" (Lizardo and Strand 2010:206)."
                    ]
                }
            ]
        },
        {
            "title": "Analytic Approach",
            "subsections": [
                {
                    "title": "Data",
                    "paragraphs": [
                        "The first dataset, used to construct deference scores, comes from a newly collected dictionary of affective meanings. As the measurement model for affect control theory, previous dictionaries were compiled in 1976 and 2002-2004 at the University of North Carolina at Chapel Hill and the University of Indiana, respectively (Heise 2016b). The data for this study come from a collaborative project between a large public university and a private university in the South.5",
                        "Acting as cultural informants, 848 participants rated 2,400 social concepts, including identities, behaviors, modifiers, and settings along the three EPA dimensions, with the mean value for each dimension representing a concept's EPA profile. Surveys were administered using a computer survey program that randomized the order that concepts and affective dimensions were presented. The median number of raters for each concept in this study was 62, with a standard deviation of 4.5. Reliabilities exceeding .90 can be achieved with 30 raters, and 50 raters can exceed .95 reliability across the three dimensions and .98 on the evaluation dimension (Heise 2010).6",
                        "We extracted a representative list of occupations from this large corpus of concepts for inclusion in the present study. We used a three-step procedure to ensure we selected a representative list of occupational titles. First, we selected high-, middle-, and low-income occupations from each of the 12 major occupational groupings of the 2010 SOC occupational schema (U.S. Bureau of Labor Statistics 2014a). Next, for historical comparability, we added the 30 core occupations from the GSS prestige module (Nakao, Hodge, and Treas 1990), if they were not already present. Third, to examine meaning change over time, we selected occupational identities included in previous sentiment dictionaries, if they were not chosen in the two previous selections. The selection process created a final list of 304 occupation-related identities, shown in Part C of the Appendix.",
                        "The second dataset, used for initial construct validity testing, comes from public opinion polls conducted by Harris Interactive. Weberian status rests on widely held beliefs of prestige or cultural esteem. However, GSS prestige scores measure social standing, not prestige. Therefore, an alternative benchmark is required, one that specifically surveys the central theoretical construct of prestige. In 1977, Harris Interactive began polling the public on their opinion of occupational prestige. This study uses five years of data, 2005 to 2009, because the list of occupations and question wording remained consistent throughout this period (Corso 2009).7",
                        "Harris polls were administered by telephone to approximately 1,000 adults (age 18 and over) in each annual sample. However, only approximately 500 people were asked about each occupation. Proportional weights were used to maintain representativeness based on age, gender, race, education, region, size of place, and number of adults and number of voice/telephone lines in the household. Harris Interactive reports a sampling error of 3 percent for a 95 percent confidence interval, but other methodological details, such as nonresponse rates, are unavailable.",
                        "Although Harris Poll data have their limitations, they are a reasonable benchmark for several reasons. First, and most important, an instrument that surveys a large, representative sample about their opinions of prestige consistently over several years provides a reasonable measure of the underlying theoretical referent, widely held opinions of prestige. Second, although standing may be related to prestige, preference should be given to instruments that measure constructs most directly. Third, the status order produced by Harris prestige scores is more consistent with overt cultural displays of honor. In the United States, parades commonly honor firefighters and soldiers; counter to GSS prestige scores, there are few parades for business executives and engineers.",
                        "The third set of data comes from the General Social Survey (GSS). These data provide measures of demographic characteristics and workplace outcome measures used in criterion validity testing, as well as GSS prestige score ratings. The GSS is a general-use survey, using a full-probability sample design, administered by the National Opinion Research Center (NORC), that biannually collects data on core background, behavioral, and attitudinal questions with additional topical modules administered in specific years (NORC 2014). The data used for this study are limited to adults (18 years of age and older) for the years 1990 to 2010. This time frame provides a sufficiently large pool of cases while being recent enough to reflect current occupational conditions. Response rates have been over 70 percent, higher than other major social science surveys (Smith 2016).",
                        "We linked EPA ratings from the affective dictionary to GSS data based on occupation. During the years of the study, occupations were coded using the ISCO-88 occupational classification schema. When possible, we appended EPA ratings to GSS data using the Bureau of Labor Statistics (BLS) 2010 SOC crosswalk (U.S. Bureau of Labor Statistics 2014b). We matched titles not in the crosswalk according to job characteristics listed in the Occupational Information Network (O*NET) provided by the U.S. Department of Labor (2014). We matched codes that included multiple identities, such as 4222 receptionists and information clerks, to the identity with the greatest number of workers, in this case receptionist. We used a similar criterion to match gender-specific titles, such as waitress for 5123 waiters, waitresses, and bartenders instead of waiter. This procedure matched occupational identities to 186 unique occupation codes in the GSS sample. Part D of the Appendix shows the crosswalk of ISCO-88 occupation codes to EPA identities.",
                        "Because workers are concentrated in a limited range of occupations, we could match EPA ratings from the sentiment dictionary to 91 percent of GSS cases. We dropped from the study cases that could not be matched to EPA profiles or that were missing data on age, education, race, or occupation. This resulted in an analytic sample of 25,947 respondents. Table 1 shows variable coding and descriptive statistics."
                    ]
                },
                {
                    "title": "Data",
                    "paragraphs": [
                        "The independent variable for this study is the occupational deference score. First, for all combinations of the 304 occupational titles in the affective dictionary listed in Part C of the Appendix, we computed the deflection created for the event that one occupational actor defers to another occupational identity. (The behavior defers to has a rating of E = -.15, P = .45, and A = -.44.) We then computed deference scores as the mean deflection for each occupational identity across all interactions with all other occupational identities. Because deflection is inversely proportional to event likelihood, greater deflection implies a lower likelihood of deferring and therefore greater status.",
                        "Deflection calculations are commonly performed using the software program Interact using survey means (Heise 2016a). This study uses a new Bayesian formulation, BayesACT, that accounts for uncertainty by including information on the distribution of survey ratings in its calculations (Hoey, Schroder, and Alhothali 2016; Schroder, Hoey, and Rogers 2016). Accounting for variation across informants is important, because the use of central tendencies, or means, may mask systematic lack of cultural consensus (Lynn and Ellerbach 2017). The two primary sources of systematic variation involve the degree of dispersion, or lack of consistency, of EPA ratings and the degree to which people's social location influences their ratings.",
                        "Some occupational identities, such as police officers, are viewed very differently across raters; these occupations have greater variance in their ratings compared to other occupations, such as hairdressers. This greater variance increases the likelihood of high deflection interactions occurring given the wider distribution. BayesACT addresses this issue in a number of ways. Most importantly, BayesACT models shared cultural sentiments as probability distributions in the three-dimensional EPA space rather than as point estimates. BayesACT therefore explicitly accounts for the variance in ratings of a particular sentiment, providing a more comprehensive estimate that takes into account these differences, rather than an average that can lead to a bias toward the central tendency. Part B of the Appendix provides BayesACT parameters and further discussion of these issues.",
                        "Because ratings for most affect control dictionaries, including the one used in this study, consist of homogeneous samples (mainly college students), the degree to which stratification might affect ratings, or how these meanings are processed, is a central concern to the validity of deference scores. Like occupational prestige research, an extensive ACT literature supports the claim that meanings are generally consensual within groups (for a review, see MacKinnon and Robinson 2014).",
                        "Two recent studies have collected heterogeneous, representative samples to specifically test the consensus assumption. Wisecup (2011) uses a sample of 112 respondents in Durham, NC; Ambrasat and colleagues (2014) collected a larger sample of 2,849 respondents in Germany. Their findings support the consensus assumption in general, but like Lynn and Ellerbach (2017), they find that socioeconomic status, especially education, affects ratings. High-status individuals viewed intimate identities (wife, pal) as relatively less positive and powerful, and deviant identities (criminal, villain) as more threatening (Ambrasat et al. 2014). Nevertheless, both previous theory and evidence suggest deference scores are less sensitive to these issues than are GSS prestige scores.",
                        "Deference scores are distinct from GSS prestige scores in two critical ways. First, they are based on shared subjective criteria rather than objective features (education and income). Second, they should primarily be determined by evaluation versus potency. A mental map of the occupational landscape based on objective prerequisites and rewards requires extensive and accurate information. Not only may information access and accuracy be conditioned on class location, but class location and information may be empirically linked. If GSS prestige scores are a function of education and income, it is not surprising that persons who view education in higher regard are also those more likely to invest in education (Lynn and Ellerbach 2017). But subjective cultural beliefs are a simpler, less information-intensive process (Martin 2010). Instead of requiring respondents to make complex assessments of relative standing between a wide array of occupations, they need only know how they feel about one particular occupation. This simplicity allows interactions to readily diffuse sentiments across cultures (Berger et al. 2002; Ridgeway et al. 2009; Ridgeway and Erickson 2000).",
                        "Consistent with this conception, Wisecup (2011) finds that a respondent's socioeconomic status, especially education and income, does affect potency and activity ratings but has no significant effect on evaluation. Although Ambrasat and colleagues (2014) did find SES to affect the evaluation of some identities, they also found that, as a class, occupations are the most affectively neutral. The combination of these theoretical considerations and empirical findings supports the assertion that deference scores are less sensitive to issues of central tendencies than are GSS prestige scores.",
                        "Construct validity testing begins by analyzing the correlation of deference and GSS prestige scores to Harris prestige scores. In the Harris Poll, respondents were read a list of 23 occupations and asked: \"For each, would you tell me if you feel it is an occupation of very great prestige, considerable prestige, some prestige, or hardly any prestige at all?\" We computed the Harris prestige scores used in this study as the mean percent of respondents who selected \"very great prestige\" for each occupation in the five years of poll data. Table 2 shows the results.",
                        "The General Social Survey provides data on GSS prestige scores as well as demographic controls and workplace outcome measures used in criterion validity testing. During the years used in this study, GSS prestige scores were measured in the variable PRESTG80. Respondents were asked to evaluate 110 occupations according to their social standing by sorting cards on a nine-rung ladder (for methodological details, see Nakao and Treas 1994). The key element of this methodology is that it does not ask about \"prestige\" but \"social standing.\" Because the standing of an occupation is structured by prerequisites and rewards (primarily education and income) and not subjective cultural esteem, this substitution undermines GSS prestige scores as a valid measure of prestige.",
                        "Another methodological issue is that PRESTG80 scores may be outdated. Recognizing this, the NORC began measuring a new prestige variable, PRESTG10, beginning in the 2012 GSS (for methodological details, see Smith and Son 2014). The issue of historical change has important implications, and we will return to it in the Discussion section. To preview the discussion, PRESTG10 scores, like PRESTG80 scores, are largely predicted by two factors: education and income.",
                        "We selected five theoretically relevant subjective workplace outcome measures to test criterion validity: (1) workplace attachment, (2) job satisfaction, (3) happiness, (4) respect at work, and (5) the importance of performing meaningful work. Outcome measures are coded as dichotomous variables. We also included sociodemographic controls for age, race, gender, income, and education. Table 3 shows descriptive statistics and coding.",
                        "Subjective workplace attachment is based on the binary variable RICHWORK, which asks, \"If you were to get enough money to live as comfortably as you would like for the rest of your life, would you continue to work or would you stop working?\" Attachment is measured as a binary variable coded 1 if respondents indicated they would continue to work. Job satisfaction was measured in SATJOB, which asks, \"On the whole, how satisfied are you with the work you do?\" With 47 percent of respondents reporting very satisfied, 40 percent moderately satisfied, 10 percent a little dissatisfied, and 3 percent very dissatisfied, job satisfaction is a binary variable coded 1 if respondents reported being very satisfied. General happiness, measured in HAPPY, asks, \"Taken all together, how would you say things are these days? Would you say that you are very happy, pretty happy, or not too happy?\" Happiness is measured as a binary variable coded 1 if respondents indicated very happy (32 percent) and 0 for those responding pretty happy (58 percent) and not too happy (10 percent). Questions on job satisfaction and happiness were administered in each survey year of the dataset. Workplace respect, administered in 2002, 2006, and 2010, asked respondents to indicate the degree that they agree or disagree with the statement, \"At the place where I work, I am treated with respect.\" A binary variable for respect was coded 1 if respondents indicated that they strongly agree (40 percent) and 0 if they indicated agree (52 percent), disagree (6 percent), or strongly disagree (2 percent).",
                        "The importance of performing meaningful work was asked as part of a topical module on workplace values administered in 1990, 1991, 1993, 1994, and 2006. Respondents were presented the following five job characteristics: (1) work that is important and gives a feeling of accomplishment, (2) high income, (3) no danger of being fired, (4) short working hours, and (5) chances for advancement. They were then asked, \"Would you please look at this card and tell me which one thing on this list you would most prefer in a job? Which comes next? Which is third-most important? Which is fourth-most important?\" Work meaning is coded 1 for respondents who listed performing important work first (47 percent), and 0 otherwise. Kalleberg and Marsden (2013) found that although the relative importance of income and job security has increased over time, importance/accomplishment remained the most important job characteristic in all survey periods."
                    ]
                },
                {
                    "title": "Data",
                    "paragraphs": [
                        "The first, and most important, step is to determine whether deference scores reflect widely held perceptions of occupational prestige. To that end, we regress Harris Poll prestige scores on deference scores. For comparison, we perform a similar analysis but this time with Harris prestige scores as the main predictor of GSS prestige scores.",
                        "The next step in construct validity testing involves demonstrating the content dimensionality of deference scores. To that end, we regress the evaluation, potency, and activity ratings of each occupation on both deference scores and GSS prestige scores. As noted earlier, a coherent operationalization of Weberian status should primarily be determined by the evaluation dimension, with potency and activity ratings being less important predictors of an occupation's position in the status order. We should thus expect deference scores to be mainly predicted by the evaluation dimension. In contrast, if GSS prestige scores reflect objective class power, then they should be predicted mainly by the potency dimension.",
                        "If evaluation is the main predictor of status, why would one not simply use evaluation alone or the three EPA dimensions independently? Questions of multidimensionality have long plagued the construction of occupational scales. Status is a multidimensional construct consisting not only of evaluation but also some measure of potency and activity. Firefighters, nurses, and teachers are not only good; they also possess some degree of power and agency to actualize this goodness. However, a fundamental problem lies in determining what weight each dimension should have.",
                        "In reviewing multidimensional composite measures, Warren, Sheridan, and Hauser (1998) find that scales become an arbitrary function of the weights assigned to each dimension. Take, for example, three common occupations: social workers (2.13, 1.28, -.05), professors (1.79, 2.28, .34), and managers (1.20, 2.66, 1.30). Depending on the weighting of each dimension, any status order can be obtained. Considering evaluation alone produces the order social worker, professor, manager. If evaluation and potency have equal weights, this becomes professor, social worker, manager. And if all three EPA dimensions are treated independently with equal weighting, managers rank highest because they rate consistently high across all three dimensions.",
                        "The impression formation equations used to compute deference scores are multidimensional, involving all three dimensions; they provide a unique and non-arbitrary solution to the weighting problem. The effect of each dimension on deference behavior is determined by the coefficients of the impression formation equations, discussed above and shown in Part A of the Appendix. Impression formation coefficients are empirically determined based on how people process symbolic meaning, as previously described. The use of impression formation equations to determine each dimension's relative effect is a key innovation of the deference score approach.",
                        "In addition to evaluation, service is another theoretically relevant component of status. If prestige is based on service to others rather than objective class conditions, high-status occupations should be more evenly distributed across \"big\" classes, especially service occupations. In contrast, if a measure like GSS prestige scores mainly reflects education requirements and income, high-status occupations will be concentrated within the category of professionals characterized by high education and income. To examine the distribution of status across occupations, we explore mean standardized scores for each major occupational grouping.",
                        "We specify a series of binary linear regression models to examine the ability of deference scores to significantly predict workplace outcomes net of sociodemographic controls, including respondent's age, ethnoracial status, gender, income, and education. Because the primary purpose of this study is to develop a theoretically valid measure of Weberian status, these tests are not meant to ascertain whether deference scores have greater explanatory power than other sociodemographic factors, like education and income. Instead, our main interest is in establishing whether they perform empirically as theoretically expected, by serving as statistically significant predictors of important workplace outcomes while adjusting for other relevant factors.",
                        "Focusing on the dimension of greatest explanatory power, rather than the dimension most representative of the underlying construct, is responsible, in part, for the prominence of GSS prestige scores and conceptualizing status in terms of class position. Under some conditions, such as an occupational landscape exhibiting extensive social closure (Weeden 2002; Weeden and Grusky 2012), objective conditions may have more explanatory power than status."
                    ]
                }
            ]
        },
        {
            "title": "Results",
            "subsections": [
                {
                    "title": "Harris Prestige Scores",
                    "paragraphs": [
                        "Before exploring validity tests, it is worthwhile to examine the structure of status rankings according to Harris data, as shown in Table 2. The occupational status order reflects theoretical assertions that status is based on cultural evaluations of esteem, worthiness, and value to society (Goldthorpe and Hope 1972; Hope 1982; Wegener 1992). Several characteristics of Harris prestige scores are noteworthy. First, highly-ranked occupations, such as firefighters, doctors, nurses, and teachers, share a common orientation toward providing a service to society but, with the exception of doctors, are not among the most highly paid occupations. In contrast, occupations with the lowest prestige are those oriented toward economic services that do not provide society-oriented services, such as banker, accountant, and stockbroker.8",
                        "Second, although service-orientation is a component of status, it is not deterministic; many occupations, including real estate agents and stockbrokers, are high in service-orientation yet rank at the bottom of the list. Similarly, high-status occupations require some level of professional education but are not strictly a function of educational credentials; several occupations requiring extensive education, such as lawyers, are in the bottom half of the list.",
                        "Finally, high-status occupations such as firefighters, doctors, nurses, and teachers involve professional skills, but they also tend to involve some degree of physical activity, whereas many low-ranked occupations, like accountants and bankers, work with abstract symbols and require little physical activity. Combining these elements, public perceptions of prestige reflect Weber's conception of status characterized by actively performing a social service to others and involving some degree of professional skill, but not strictly being a matter of educational attainment. This reinforces a multidimensional conception of status as not only embodying cultural goodness and esteem, but also containing an agentic goodness accompanied by some degree of power and activity."
                    ]
                },
                {
                    "title": "Harris Prestige Scores",
                    "paragraphs": [
                        "To begin construct validity testing, we compute the Pearson product-moment correlation between GSS prestige and both deference scores and Harris prestige scores. Figure 1 shows the correlation between Harris prestige and GSS prestige scores. The bivariate correlation between these measures is .37, with a non-significant p-value of .123. The fact that GSS prestige scores exhibit no statistically significant correlation to polls about prestige reinforces the position that they do not measure what is commonly thought of as prestige. In contrast, deference scores, shown in Figure 2, exhibit a strong, significant relationship to Harris prestige scores, with a correlation coefficient of .85 (p < .001).",
                        "Model 1 in Table 3 shows the coefficient estimates from an OLS regression predicting GSS prestige scores from the mean ratings on the symbolic affective dimensions of evaluation, potency, and activity of the corresponding occupational identities. Potency (in a positive direction) and activity (in a negative direction) were the primary determinants of GSS prestige scores in terms of the effect-size metric. The potency dimension, capturing perceptions of power and competence, has the strongest effect, with a standardized coefficient of .72; evaluation has the weakest effect, with a coefficient of .12. These results mirror the findings of MacKinnon and Langford (1994), who also find evaluation to be the least important predictor of GSS prestige scores. Furthermore, the negative coefficient of -.33 for activity suggests that in contrast to opinion polls rewarding active service, high-status occupations according to GSS prestige scores are those possessing quiescent power, such as judges or lawyers. These findings further reinforce the criticism that GSS prestige scores primarily reflect occupational prerequisites and rewards (Bukodi et al. 2011).",
                        "Model 2 in Table 3 shows that unlike GSS prestige scores, the deference scores are primarily predicted by evaluation, with potency and activity having smaller positive effects; standardized regression coefficients are .76, .20, and .19, respectively. This shows that although perceptions of esteem, goodness, and worth captured by evaluation are the main correlate of deference scores, these also involve a degree of objective power, as captured in the potency dimension and a nearly equal degree of activity. This suggests that status is a multidimensional construct represented not by the quiescent power of such identities as judges, but by good, slightly powerful, and active actors like firefighters and doctors. Activity as a component of status has received little attention in prior research, and its significance illustrates how deference scores can be useful in furthering our understanding of the agentic, relational nature of status.",
                        "The comparison shown in Table 3 and the linear regression shown in Figure 2 provide support for the construct validity of deference scores as a valid indicator of occupational status order. These scores are consistent with widely held perceptions found in prestige assessments and the Weberian notion of status based on cultural evaluations of esteem/goodness.",
                        "In reviewing occupational hierarchy measures, Hauser and Warren (1997) note that prestige outliers are often the most visible occupations (farmers, secretaries, teachers, and truck drivers), suggesting that the most or least prestigious occupations act as prototypic examples of status. Therefore, before analyzing status distribution across occupational groupings, it is useful to compare features of the highest ranked occupations according to deference and GSS prestige scores.",
                        "Table 4 shows the 10 highest status occupations for each scale. Starting with GSS prestige scores, one remarkable feature is that all the highest-ranked occupations fall exclusively within the major occupational grouping of professionals characterized by high levels of professional knowledge and pay (International Labor Organization 2014).",
                        "In contrast, the highest status occupations by deference scores, also shown in Table 4, parallel Harris prestige scores in several ways. Both scales list firefighter as the highest ranked occupation. The very high scores for firefighters on both scales likely reflect the cultural esteem of a post-911 era. We further explore how history might affect esteem, and therefore ratings, in the Discussion section. In addition, the highest ranked occupations for both Harris prestige and deference scores include a mixture of professional and non-professional occupations, often characterized by an element of physical activity.",
                        "To explore the distribution of status across occupational groupings, Figure 3 shows the mean standardized scores for each major occupational grouping for all occupational titles used in this study. According to GSS prestige scores, only occupations within the first three major groupings (legislators/managers, professionals, technicians) have above-average scores, with professionals dominating. The category of professionals exhibits a strong z-score of 1.52, whereas elementary occupations, ones that perform routine tasks through physical labor, such as farming, freight handlers, and transportation, exhibit a strong negative z-score of -1.15. Also noteworthy is that the category of service workers, which includes firefighters, the highest ranked occupation according to public opinion data, has a negative z-score of -.54. This pattern parallels Chan and Goldthrope's (2004) typology of high-status occupations working with abstract symbols, mid-status working with people, and low-status performing physical labor with objects.",
                        "The mean deference scores across occupational categories exhibit several notable features. First, the range of scores is more compressed. The highest ranked category, professionals, has a mean z-score of .81; the lowest ranked category, craft/trade occupations, has a mean z-score of -.57, compared to a range of 1.52 to -1.15 for GSS prestige scores. This compressed range suggests that the ability to provide a service to others is not limited to professionals and managers. Second, service occupations rank just below professionals, with a z-score of .68, suggesting that serving others provides a positive, rather than negative, contribution to status. Finally, the category of legislators and managers, which ranked second to professionals according to GSS prestige scores, exhibits a marginally positive mean deference z-score of .04, suggesting that economic and political power is not a strong determinant of status as measured by deference scores."
                    ]
                },
                {
                    "title": "Harris Prestige Scores",
                    "paragraphs": [
                        "We test criterion validity using workplace outcome measures found in the GSS. Table 5 shows the coefficient estimates from a series of logistic regression models predicting subjective workplace outcomes from deference scores and control covariates. As previously noted, the intent of these tests is not to demonstrate that deference scores are a better predictor of these outcomes than other features, but to determine whether deference scores empirically perform as theoretically predicted, by displaying statistically significant effects net of other variables in the right direction (e.g., positive for beneficial outcomes). Deference scores, years of education, and income measures were standardized for all models.",
                        "We begin with workplace attachment (whether respondents indicated that they would continue working if they became rich). If status provides cultural value in addition to monetary returns, then workers in high-status occupations should be more likely to indicate they would keep working if they had the financial freedom to quit. The results in Table 5 support this assertion; the odds ratio of 1.07 for the deference score indicates that individuals in high-status occupations are more likely to report that they would continue working net of controls. Education and income also have statistically significant effects, suggesting that human capital and material rewards are also important correlates of workplace attachment, although deference remains a significant predictor net of other factors.",
                        "Job satisfaction is one of the most well-studied subjective workplace outcomes in the literature. Huang and Van de Vliert (2004) found that job satisfaction is not only a function of an occupation's level within a hierarchy, but the cultural orientation of the nation in which workers are embedded also has an effect. The results of the second set of models in Table 5 show that deference scores have a very strong effect on positive reports of job satisfaction, with an odds ratio of 1.21, comparable to that of income, with an odds ratio of 1.15.",
                        "Because work is a significant part of an employed individual's life, and occupational identities affect non-work interactions, if deference leads to greater satisfaction at work, it should also lead to greater respect outside the work environment, and thus should increase general happiness. This is precisely what we find; people in high-status occupations report being happier than people in low-status occupations, net of hedonic factors (such as income) and educational status.",
                        "We now turn to the factors predicting the relative importance of meaning and a feeling of accomplishment in people's work. In analyzing the relationship between status, meaning, and satisfaction, Van Ryzin (2014) found that after 9/11, government workers' job satisfaction rose 5 to 10 percent. We find that people in high-status occupations are more likely to report finding meaning and accomplishment in their work, net of educational attainment, which also has a strong positive effect, and income, which does not have a statistically significant effect.",
                        "Previous work suggests high status is linked to feelings of respect as well as deference. Accordingly, in the final set of models in Table 5 we examine the factors predicting whether people feel respected at work. Consistent with expectations, the results show deference is a strong predictor of workplace respect, with an odds ratio of 1.17."
                    ]
                }
            ]
        },
        {
            "title": "Discussion and Conclusions",
            "subsections": [
                {
                    "title": "Summary of Argument and Findings",
                    "paragraphs": [
                        "Weber (1978:932) defined status as a form of social power based on a \"positive or negative, social estimation of honor.\" Status can rest on class conditions, but it \"normally stands in sharp opposition to the pretensions of sheer property,\" implying that status is a multidimensional construct reflecting both class power and cultural esteem (Weber 1946:187). Early prestige research focused on subjective cultural beliefs regarding an occupation's esteem, goodness, and service to others, but as the status attainment paradigm waned in use, attention to the distinction between the two distinctive status components also declined. Paradigms using either institutional or neo-Marxist frameworks shifted the theoretical focus to the class component, conceptualizing status as either a symbolic reflection of an underlying class order (Bourdieu 1984) or a signal of market quality (Podolny 2010). We contend that unidimensional approaches, such as GSS prestige scores, are inadequate to capture the multidimensional structure of status, and the emphasis on the class component is particularly problematic, because cultural esteem rather than class power is the dominant component of the occupational status order.",
                        "To support these claims, we develop and test a new operationalization of status we call deference scores, based on three widespread dimensions of cultural meaning (evaluation, potency, and activity). Based on the theoretical foundation that status can best be conceptualized as a network of deference relationships based on cultural beliefs (Goffman 1956; Shils 1982), we integrate relational approaches developed in organizational research with affect control theory, a general theory of social action, to compute the likelihood that one occupation will \"defer to\" another for all possible combinations of over 300 occupations."
                    ]
                },
                {
                    "title": "Summary of Argument and Findings",
                    "paragraphs": [
                        "This study makes a number of contributions. Theoretically, we develop a multidimensional approach for conceptualizing occupational status that is consistent with Weber's definition. We highlight the cultural component reflecting evaluative dimensions of goodness and esteem, which is deemphasized in contemporary research. However, we also contend that status is not solely a function of goodness. Instead, status is an agentic goodness characterized by some power and activity in addition to high evaluation; the process (using affect control theory) described in the creation of deference scores provides a method for determining to what extent each dimension should be considered a component of status in a given societal and historical context.",
                        "Methodologically, the development of deference scores represents an important step for the long tradition of work on occupational scaling. This is for several reasons. First, because we construct deference scores using a formal theory of social action and quantitative ratings of cultural meaning, the processes determining the status ranking of occupations are relatively unambiguous. This bottom-up, generative approach contrasts with other measures where researchers first create a status ranking and then demonstrate that the ordering process is consistent with theoretical assertions (which, in the case of GSS prestige scores, was shown not to be true [Bukodi et al. 2011]).",
                        "Second, unlike other approaches to creating empirical scales, our generative approach begins with general sociological theory. Prior attempts to develop subjective scales typically involve post hoc groupings based on occupational outcomes, such as similarities in job satisfaction (Rose 2003) or a composite of multiple outcomes (Jencks, Perman, and Rainwater 1988). Because these approaches are empirically, not theoretically, grounded, it is not clear which processes or occupational features are driving differential outcomes. In contrast, deference scores provide a unique, generative approach that predicts the degree of occupational deference based on quantitative measurements of cultural sentiments without any prior knowledge of outcomes. Rather than an empirical generalization that links occupations to outcomes, it is a theoretical statement closely linked to the definition of status.",
                        "Relational measures based on friendship (Chan and Goldthorpe 2004, 2007) or marriage (Alderson, Junisbai, and Heacock 2007) ties are an important exception. As with GSS prestige scores, the resulting status order is dominated by highly paid, well-educated professional occupations. Chan and Goldthorpe (2004:389) find the status order is primarily based on an occupation's \"manuality,\" with workers manipulating abstract symbols, such as accountants and insurance brokers, in the top category, \"people processing\" occupations like nurses in the middle, and occupations involving inanimate objects, like firefighters and ambulance drivers, at the bottom. Although Chan and Goldthorpe (2004:392) argue that they are capturing \"something clearly different\" from other prestige measures, Bukodi and colleagues (2011) show this \"something\" may be some other material aspect of the occupational hierarchy. Given that their status ranking involves marketable skills, especially abstract problem-solving (Liu and Grusky 2013), Chan-Goldthorpe scales appear to be rooted in objective class value, not cultural beliefs of cultural worthiness.",
                        "Finally, although we use the behavior to defer because of its theoretical centrality in the construction of status value, the procedure developed in this study provides a flexible framework that can be applied to other actions, such as honor, respect, or serve. Future work could explore how other actions might affect occupational rank, shedding light on which other actions may be involved in status construction and whether there is a typology of status behaviors. Applying this procedure to ratings from other affective dictionaries collected over different time periods and nations (described in Heise 2010) can be used to examine how the relationship between status, occupations, and outcomes varies by time and place."
                    ]
                },
                {
                    "title": "Summary of Argument and Findings",
                    "paragraphs": [
                        "This study has immediate relevance for stratification research while helping inform scholarship beyond occupational status. As noted, researchers have identified a number of institutional factors, such as authority, that condition prestige assessments (Zhou 2005). High evaluation occupations scoring high in deference, like firefighters and teachers, also possess authority, as suggested by the significance of the potency dimension. The extensive media coverage of firefighters following 9/11 has likely contributed to their reaching top status today. Combining the approach developed in this study with organizational and economic sociology research may help explain how institutional factors influence status beliefs.",
                        "In addition, focusing on multiple meaning dimensions may help move the literature beyond economic outcomes. Because organizational approaches treat status in market terms, the rewards of status are likewise viewed in economic terms, such as greater sales and reduced costs (Benjamin and Podolny 1999; Podolny 1993). Analyzing how high-status brands, such as Apple and Ferrari, affect dimensions of affective meaning, Shank and Lulham (2017) find that they operate within the potency dimension, reflecting power and dominance, but have no significant effect on perceptions of goodness captured in the evaluation dimension. By adopting a multidimensional framework, organizations may be better able to theorize how esteem and worth evoke evaluative responses. In other words, if organizations want people to feel good as well as powerful, they must incorporate the evaluation dimension.",
                        "One notable feature of occupational status research is that high-status occupations like teachers and nurses tend to be female-dominated. The tendency for women to be sorted into high evaluation occupations (Langford and MacKinnon 2000) suggests that exploring the relationship between the multiple EPA dimensions of status, gender composition, and pay may be a fruitful line of future research. Other models based on cultural meanings, such as the stereotype content model (Cuddy, Fiske, and Glick 2008; Fiske, Cuddy, and Glick 2007), have focused on this line of occupational gender stratification inquiry. However, because dimensions of warmth and competence overlap a great deal with EPA dimensions (Rogers et al. 2013), affect control theory and deference scores may be helpful in providing new answers to some of the questions dealt with in stereotype content research. Similarly, in their analysis of friendship ties, Chan and Goldthorpe (2004) find a second dimension reflecting occupational sex segregation. One possible interpretation is that their first two dimensions may reflect much of the same semantic dimensionality found in the competence/warmth of the stereotype content model and the potency/evaluation found in this study."
                    ]
                },
                {
                    "title": "Summary of Argument and Findings",
                    "paragraphs": [
                        "We discuss several methodological issues throughout this article, but others require attention. One important issue is that of historical change. A central assertion of this study is that GSS prestige scores reflect objective class power and not status. Because the GSS prestige scores used in this study utilize a decades-old measure of prestige, described by Nakao and Treas (1994), it is possible that their structure may be due to historical changes. Several factors suggest this is not the case.",
                        "One of the most notable features of prestige scores is their remarkable stability across culture, time, and place, which Hout and DiPrete (2006) call the \"Treiman constant.\" If these scores have been resistant to past historical change, they will likely continue to resist change. Lynn and Ellerbach (2017) suggest one would find variability, but once prestige scores are recognized as measures of objective occupational features (primarily education and income), there is little reason to believe that the structural relationship between prerequisites and rewards is culturally determined. In other words, even though individuals may swap positions within the occupation structure, the Treiman constant describes the invariant structural relationship between prerequisites and rewards, education and income.",
                        "More importantly, the multidimensional nature of status demonstrated in this study implies that deference scores should vary with cultural beliefs, but GSS prestige scores should not. If cultural estimations of esteem and worthiness are reflected in the evaluation dimension, and GSS prestige scores measure objective conditions in the potency dimension, then cultural changes should have no effect on GSS prestige scores. Two prominent cultural events that occurred during the study period were the terrorist attacks on 9/11 and the Great Recession of 2008. Given the cultural energy following 9/11, we would expect a rise in the prestige of \"heroic\" occupations like the military and firefighters. Conversely, the financial crisis of 2008 should diminish the prestige of economic elites like executives and lawyers.",
                        "Preliminary analyses of the new prestige scores, PRESTG10, collected by the NORC beginning in 2012, find that prestige rankings have not substantially changed. Supplemental data from the GSS study (NORC 2017) show that judges (PREST10 = 75), chief executives (72), and lawyers (69) continue to outrank miltary (62), firefighters (59), and registered nurses (64) (Smith and Son 2014). Over 70 percent of the variance is determined by just two material factors: having at least a bachelor's degree (b = .48, p = .000) and having incomes over $45,000 (b = .40, p = .000). This provides strong support for Bukodi and colleagues' (2011) assertion that prestige scores are invalid, because they do not measure prestige but instead are subjective estimates of objective conditions. If prestige is reflected in the evaluation dimension, future research should explore whether deference scores and opinion poll rankings have changed over time along with cultural events.",
                        "Because our approach is new, data limitations are an issue that future research should address. This study includes a large number of occupational titles, but an occupation-specific dictionary of EPA ratings should be collected. Researchers should collect ratings for all occupational titles found in the GSS prestige score instrument to enable a more robust comparison between the two measures, and a more heterogeneous set of raters should be surveyed. The few ACT studies examining this issue (Ambrasat et al. 2014; Wisecup 2011) include only a limited number of occupations. Studies using GSS prestige scores, such as Lynn and Ellerbach (2017), suggest that patterns of variability may apply to deference scores, but this cannot be assumed, because they reflect fundamentally different underlying constructs. Only by collecting a large dictionary of occupational ratings from a heterogeneous sample of raters can this issue be fully addressed."
                    ]
                }
            ]
        }
    ],
    "references": [
        "Alderson, Arthur S., Junisbai, Azamat, Heacock, Isaac. 2007. \u201cSocial Status and Cultural Consumption in the United States.\u201d Poetics 35(2\u20133):191\u2013212.",
        "Allott, Daniel. 2017. \u201cHow Trump Ate Hillary\u2019s Lunch in Cracker Barrel Counties: Both the President and the Restaurant Chain Offer Nostalgia for an Older American Way.\u201d Washington Examiner, May 29 (http://2020.washingtonexaminer.com/robeson-county/how-donald-trump-ate-hillarys-lunch-in-cracker-barrel-counties/).",
        "Ambrasat, Jens, von Scheve, Christian, Conrad, Markus, Schauenburg, Gesche, Schr\u00f6der, Tobias. 2014. \u201cConsensus and Stratification in the Affective Meaning of Human Sociality.\u201d Proceedings of the National Academy of Sciences 111(22):8001\u201306.",
        "Benjamin, Beth A., Podolny, Joel M. 1999. \u201cStatus, Quality, and Social Order in the California Wine Industry.\u201d Administrative Science Quarterly 44(3):563\u201389.",
        "Berger, Joseph, Ridgeway, Cecilia L., Zelditch, Morris. 2002. \u201cConstruction of Status and Referential Structures.\u201d Sociological Theory 20(2):157\u201379.",
        "Bishop, Bill. 2009. The Big Sort: Why the Clustering of Like-Minded America is Tearing Us Apart. New York: Houghton Mifflin.",
        "Bourdieu, Pierre. 1984. Distinction: A Social Critique of the Judgement of Taste. Cambridge, MA: Harvard University Press.",
        "Bukodi, Erzsebet, Dex, Shirley, Goldthorpe, John H. 2011. \u201cThe Conceptualisation and Measurement of Occupational Hierarchies: A Review, a Proposal and Some Illustrative Analyses.\u201d Quality and Quantity 45(3):623\u201339.",
        "Burris, Val. 2004. \u201cThe Academic Caste System: Prestige Hierarchies in Phd Exchange Networks.\u201d American Sociological Review 69(2):239\u201364.",
        "Chan, Tak Wing, Goldthorpe, John H. 2004. \u201cIs There a Status Order in Contemporary British Society? Evidence from the Occupational Structure of Friendship.\u201d European Sociological Review 20(5):383\u2013401.",
        "Chan, Tak Wing, Goldthorpe, John H. 2007. \u201cSocial Status and Newspaper Readership.\u201d American Journal of Sociology 112(4):1095\u20131134.",
        "Corso, Regina A. 2009. \u201cHarris Poll # 86, August 4, 2009.\u201d Rochester, NY: The Harris Poll, Harris Interactive.",
        "Cuddy, Amy J. C., Fiske, Susan T., Glick, Peter. 2008. \u201cWarmth and Competence as Universal Dimensions of Social Perception: The Stereotype Content Model and the BIAS Map.\u201d Advances in Experimental Social Psychology 40:61\u2013149.",
        "England, Paula. 2010. \u201cThe Gender Revolution: Uneven and Stalled.\u201d Gender & Society 24(2):149\u201366.",
        "Featherman, David L., Hauser, Robert M. 1976. \u201cPrestige or Socioeconomic Scales in the Study of Occupational Achievement?\u201d Sociological Methods and Research 4(4):403\u2013422.",
        "Fiske, Susan T., Cuddy, Amy J. C., Glick, Peter. 2007. \u201cUniversal Dimensions of Social Cognition.\u201d Trends in Cognitive Sciences 11(2):77\u201383.",
        "Goffman, Erving. 1956. \u201cThe Nature of Deference and Demeanour.\u201d American Anthropologist 58(3):473\u2013502.",
        "Goldthorpe, John H. 2012. \u201cBack to Class and Status: Or Why a Sociological View of Social Inequality Should Be Reasserted.\u201d Revista Espa\u00f1ola de Investigaciones Sociol\u00f3gicas 137(1):201\u2013216.",
        "Goldthorpe, John H., Hope, Keith. 1972. \u201cOccupational Grading and Occupational Prestige.\u201d Social Science Information 11(17):2\u201373.",
        "Grasmick, Harold G. 1976. \u201cThe Occupational Prestige Structure: A Multidimensional Scaling Approach.\u201d Sociological Quarterly 17(1):90\u2013108.",
        "Hauser, Robert M., Warren, John R. 1997. \u201cSocioeconomic Indexes for Occupations: A Review, Update, and Critique.\u201d Sociological Methodology 27(1):177\u2013298.",
        "Heise, David R. 1979. Understanding Events. New York: Cambridge University Press.",
        "Heise, David R. 2007. Expressive Order: Confirming Sentiments in Social Actions. New York: Springer.",
        "Heise, David R. 2010. Surveying Cultures: Discovering Shared Conceptions and Sentiments. Hoboken, NJ: John Wiley & Sons.",
        "Heise, David R. 2016a. \u201cInteract.\u201d Bloomington: University of Indiana. Retrieved January 12, 2017 (http://www.indiana.edu/~socpsy/ACT/interact.htm).",
        "Heise, David R. 2016b. \u201cDictionaries of Affective Meanings.\u201d Bloomington: University of Indiana. Retrieved January 12, 2017 (http://www.indiana.edu/~socpsy/ACT/data.html).",
        "Heise, David R., MacKinnon, Neil J. 1987. \u201cAffective Bases of Likelihood Judgments.\u201d Journal of Mathematical Sociology 13(1\u20132):133\u201351.",
        "Hoey, Jesse, Schr\u00f6der, Tobias, Alhothali, Areej. 2016. \u201cAffect Control Processes: Intelligent Affective Interaction Using a Partially Observable Markov Decision Process.\u201d Artificial Intelligence 230:134\u201372.",
        "Hope, Keith. 1982. \u201cA Liberal Theory of Prestige.\u201d American Journal of Sociology 87(5):1011\u201331.",
        "Hout, Michael, DiPrete, Thomas A. 2006. \u201cWhat We Have Learned: Rc28\u2019s Contributions to Knowledge about Social Stratification.\u201d Research in Social Stratification and Mobility 24(1):1\u201320.",
        "Huang, Xu, Van de Vliert, Evert. 2004. \u201cJob Level and National Culture as Joint Roots of Job Satisfaction.\u201d Applied Psychology 53(3):329\u201348.",
        "Huckfeldt, Robert. 2014. \u201cNetworks, Contexts, and the Combinatorial Dynamics of Democratic Politics.\u201d Advances in Political Psychology 35(S1): 43\u201368.",
        "International Labor Organization (ILO). 2014. \u201cISCO \u2013 International Standard Classification of Occupations.\u201d Geneva: International Labour Organization. Retrieved March 14, 2014 (www.ilo.org/public/english/bureau/stat/isco/isco88/).",
        "Jacoby, William G. 2014. \u201cIs There a Culture War? Conflicting Value Structures in American Public Opinion.\u201d American Political Science Review 108(4):754\u201371.",
        "Jencks, Christopher, Perman, Lauri, Rainwater, Lee. 1988. \u201cWhat Is a Good Job? A New Measure of Labor-Market Success.\u201d American Journal of Sociology 93(6):1322\u201357.",
        "Kalleberg, Arne L., Marsden, Peter V. 2013. \u201cChanging Work Values in the United States, 1973\u20132006.\u201d Social Science Research 42(2):255\u201370.",
        "Kemper, Theodore D., Collins, Randall. 1990. \u201cDimensions of Microinteraction.\u201d American Journal of Sociology 96(1):32\u201368.",
        "Langford, Tom, MacKinnon, Neil J. 2000. \u201cThe Affective Bases for the Gendering of Traits: Comparing the United States and Canada.\u201d Social Psychology Quarterly 63(1):34\u201348.",
        "Liu, Yujia, Grusky, David B. 2013. \u201cThe Payoff to Skill in the Third Industrial Revolution.\u201d American Journal of Sociology 118(5):1330\u201374.",
        "Lizardo, Omar, Strand, Michael. 2010. \u201cSkills, Toolkits, Contexts and Institutions: Clarifying the Relationship between Different Approaches to Cognition in Cultural Sociology.\u201d Poetics 38:204\u2013227.",
        "Lynn, Freda B., Ellerbach, George. 2017. \u201cA Position with a View: Educational Status and the Construction of the Occupational Hierarchy.\u201d American Sociological Review 82(1):32\u201358.",
        "Lynn, Freda B., Joel, Podolny, M., Tao, Lin. 2009. \u201cA Sociological (De)Construction of the Relationship between Status and Quality.\u201d American Journal of Sociology 115(3):755\u2013804.",
        "MacKinnon, Neil J., Heise, David R. 2010. Self, Identities, and Social Institutions. New York: Palgrave Macmillian.",
        "MacKinnon, Neil J., Langford, Tom. 1994. \u201cThe Meaning of Occupational Prestige Scores: A Social Psychological Analysis and Interpretation.\u201d Sociological Quarterly 35(2):215\u201345.",
        "MacKinnon, Neil J., Robinson, Dawn T. 2014. \u201cBack to the Future: 25 Years of Research in Affect Control Theory.\u201d Pp. 139\u201373 in Advances in Group Processes, Vol. 31, edited by Thye, S. R., Lawler, E. J. Bingley, UK: Emerald Group Publishing Limited.",
        "Martin, John L. 2010. \u201cLife\u2019s a Beach but You\u2019re an Ant, and Other Unwelcome News for the Sociology of Culture.\u201d Poetics 38(2):229\u201344.",
        "McPherson, Miller, Smith-Lovin, Lynn, Cook, James M. 2001. \u201cBirds of a Feather: Homophily in Social Networks.\u201d Annual Review of Sociology 27:415\u201344.",
        "Murray, Charles. 2013. Coming Apart: The State of White America, 1960\u20132010. New York: Crown Publishing Group.",
        "Nakao, Keiko, Hodge, Robert W., Treas, Judith. 1990. \u201cOn Revising Prestige Scores for All Occupations.\u201d GSS Methodological Report No. 69. Chicago: National Opinion Research Center.",
        "Nakao, Keiko, Treas, Judith. 1994. \u201cUpdating Occupational Prestige and Socioeconomic Scores: How the New Measures Measure Up.\u201d Sociological Methodology 24:1\u201372.",
        "National Opinion Research Center (NORC). 2014. \u201cAbout GSS.\u201d University of Chicago. Retrieved March 21, 2014 (http://publicdata.norc.org:41000/gssbeta/aboutGSS.html).",
        "National Opinion Research Center (NORC). 2017. \u201cA Supplemental File for PRESTG10 & SEI10.\u201d University of Chicago. Retrieved October 29, 2017 (http://gss.norc.org/Documents/other/PRESTG10SEI10_supplement.xls).",
        "Osgood, Charles E., May, William H., Miron, Murray S. 1975. Cross-Cultural Universals of Affective Meaning. Urbana: University of Illinois Press.",
        "Osgood, Charles E., Suci, George J., Tannenbaum, Percy H. 1957. The Measurement of Meaning. Urbana: University of Illinois Press.",
        "Osgood, Charles E., Tzeng, Oliver C. S. 1990. Language, Meaning and Culture: The Selected Papers of C.E. Osgood. New York: Praeger.",
        "Piazza, Alessandro, Castellucci, Fabrizio. 2014. \u201cStatus in Organization and Management Theory.\u201d Journal of Management 40(1):287\u2013315.",
        "Podolny, Joel M. 1993. \u201cA Status-Based Model of Market Competition.\u201d American Journal of Sociology 98(4):829\u201372.",
        "Podolny, Joel M. 2001. \u201cNetworks as the Pipes and Prisms of the Market.\u201d American Journal of Sociology 107(1):33\u201360.",
        "Podolny, Joel M. 2010. Status Signals: A Sociological Study of Market Competition. Princeton, NJ: Princeton University Press.",
        "Podolny, Joel, Lynn, Freda. 2013. \u201cStatus.\u201d Pp. 544\u201365 in The Oxford Handbook of Analytical Sociology, edited by Hedstr\u00f6m, P., Bearman, P. Oxford, UK: Oxford University Press.",
        "Podolny, Joel M., Stuart, Toby E., Hannan, Michael T. 1996. \u201cNetworks, Knowledge, and Niches: Competition in the Worldwide Semiconductor Industry, 1984\u20131991.\u201d American Journal of Sociology 102(3):659\u201389.",
        "Reiss, Albert J., Duncan, Otis Dudley, Hatt, Paul K., North, C. Cecil. 1961. Occupations and Social Status. New York: Free Press of Glencoe.",
        "Ridgeway, Cecilia L. 1984. \u201cDominance, Performance, and Status in Groups: A Theoretical Analysis.\u201d Advances in Group Processes 1:59\u201393.",
        "Ridgeway, Cecilia. 1991. \u201cThe Social Construction of Status Value: Gender and Other Nominal Characteristics.\u201d Social Forces 70(2):367\u201386.",
        "Ridgeway, Cecilia L. 2014. \u201cWhy Status Matters for Inequality.\u201d American Sociological Review 79(1):1\u201316.",
        "Ridgeway, Cecilia L., Backor, Kristen, Li, Yan E., Tinkler, Justine E., Erickson, Kristan G. 2009. \u201cHow Easily Does a Social Difference Become a Status Distinction? Gender Matters.\u201d American Sociological Review 74(1):44\u201362.",
        "Ridgeway, Cecilia L., Correll, Shelley J. 2006. \u201cConsensus and the Creation of Status Beliefs.\u201d Social Forces 85(1):431\u201353.",
        "Ridgeway, Cecilia L., Erickson, Kristan G. 2000. \u201cCreating and Spreading Status Beliefs.\u201d American Journal of Sociology 106(3):579\u2013615.",
        "Rogers, Kimberly B., Schr\u00f6der, Tobias, Scholl, Wolfgang. 2013. \u201cThe Affective Structure of Stereotype Content: Behavior and Emotion in Intergroup Context.\u201d Social Psychology Quarterly 76(2):125\u201350.",
        "Rose, Michael. 2003. \u201cGood Deal, Bad Deal? Job Satisfaction in Occupations.\u201d Work, Employment & Society 17(3):503\u2013530.",
        "Sauder, Michael, Lynn, Freda, Podolny, Joel M. 2012. \u201cStatus: Insights from Organizational Sociology.\u201d Annual Review of Sociology 38:267\u201383.",
        "Schr\u00f6der, Tobias, Hoey, Jesse, Rogers, Kimberly B. 2016. \u201cModeling Dynamic Identities and Uncertainty in Social Interactions: Bayesian Affect Control Theory.\u201d American Sociological Review 81(4):828\u201355.",
        "Shank, Daniel B., Lulham, Rohan. 2017. \u201cProducts as Affective Modifiers of Identities.\u201d Sociological Perspectives 60(1):186\u2013205.",
        "Shils, Edward. 1982. The Constitution of Society. Chicago: University of Chicago Press.",
        "Smith, Tom W. 2016. The General Social Surveys (Project Report No. 32). Chicago: National Opinion Research Center.",
        "Smith, Tom W., Son, Jaesok. 2014. Measuring Occupational Prestige on the 2012 General Social Survey (GSS Methodological Report No. 122). Chicago: National Opinion Research Center.",
        "Smith-Lovin, Lynn, Heise, David R. 1988. Analyzing Social Interaction: Advances in Affect Control Theory. New York: Gordan and Breach Science Publishers.",
        "Stuart, Toby E., Hoang, Ha, Hybels, Ralph C. 1999. \u201cInterorganizational Endorsements and the Performance of Entrepreneurial Ventures.\u201d Administrative Science Quarterly 44(2):315\u201349.",
        "Swidler, Ann. 2003. Talk of Love: How Culture Matters. Chicago: University of Chicago Press.",
        "Taft, Ronald. 1953. \u201cThe Social Grading of Occupations in Australia.\u201d British Journal of Sociology 4(2):181\u201388.",
        "Tilly, Charles. 1998. Durable Inequality Berkeley: University of California Press.",
        "Tiryakian, Edward A. 1958. \u201cThe Prestige Evaluation of Occupations in an Under Developed Country: The Philippines.\u201d American Journal of Sociology 63(4):390\u201399.",
        "Treiman, Donald J. 1977. Occupational Prestige in Comparative Perspective: New York: Academic Press, Inc.",
        "U.S. Bureau of Labor Statistics (BLS). 2014a. \u201cCrosswalks between the 2010 SOC and Systems Used by Other Federal and International Statistical Agencies Congress.\u201d Washington, DC: United States Census Bureau. Retrieved March 14, 2014 (http://www.bls.gov/soc/soccrosswalks.htm).",
        "U.S. Bureau of Labor Statistics (BLS). 2014b. \u201cStandard Occupational Classification.\u201d Washington, DC: United States Census Bureau. Retrieved March 14, 2014 (http://www.bls.gov/soc/).",
        "U.S. Department of Labor. 2014. \u201cO*Net Online.\u201d Washington, DC: U.S. Department of Labor. Retrieved March 21, 2014 (https://www.onetonline.org/).",
        "Vaisey, Stephen. 2009. \u201cMotivation and Justification: A Dual-Process Model of Culture in Action.\u201d American Journal of Sociology 114(6):1675\u20131715.",
        "Van Ryzin, Gregg G. 2014. \u201cThe Curious Case of the Post-9-11 Boost in Government Job Satisfaction.\u201d American Review of Public Administration 44(1):59\u201374.",
        "Warren, John Robert, Sheridan, Jennifer T., Hauser, Robert M. 1998. \u201cChoosing a Measure of Occupational Standing: How Useful Are Composite Measures in Analyses of Gender Inequality in Occupational Attainment?\u201d Sociological Methods Research 27(1):3\u201376.",
        "Weber, Max. 1946. From Max Weber: Essays in Sociology, edited and translated by Gerth, H. H., Mills, C. Wright. New York: Oxford University Press.",
        "Weber, Max. 1978. Economy and Society: An Outline of Interpretive Sociology, edited by Roth, G., Wittich, C. Berkeley: University of California Press.",
        "Weeden, Kim A. 2002. \u201cWhy Do Some Occupations Pay More Than Others? Social Closure and Earnings Inequality in the United States.\u201d American Journal of Sociology 108(1):55\u2013101.",
        "Weeden, Kim A., Grusky, David B. 2012. \u201cThe Three Worlds of Inequality.\u201d American Journal of Sociology 117(6):1723\u201385.",
        "Wegener, Bernd. 1992. \u201cConcepts and Measurement of Prestige.\u201d Annual Review of Sociology 18:253\u201380.",
        "Wisecup, Allison K. 2011. \u201cDo We Have Consensus? Examining the Sources of Systematic Variation in Cultural Identity Meanings.\u201d Department of Sociology, Duke University, Durham, NC.",
        "Zhou, Xueguang. 2005. \u201cThe Institutional Logic of Occupational Prestige Ranking: Reconceptualization and Reanalyses.\u201d American Journal of Sociology 111(1):90\u2013140."
    ],
    "title": "The Structure of Deference: Modeling Occupational Status Using Affect Control Theory",
    "issue": "2",
    "volume": "83",
    "year": 2018,
    "issn": "0003-1224",
    "journal": "American Sociological Review",
    "authors": [
        "Robert E. Freeland",
        " Jesse Hoey"
    ]
}