{
    "doi": "http://dx.doi.org/10.1177/0003122420962080",
    "abstract": "Organizations implement formalized procedures to eliminate the biasing effects of gender and other characteristics on evaluations. Prior work shows managers play a key role, but researchers have been unable to observe the thought processes guiding managers\u2019 evaluations. This article takes a first step in examining managers\u2019 sensemaking as they interpret and evaluate employee behaviors. Our data include managers\u2019 written performance reviews and numeric ratings of employees at a Fortune 500 technology company. Our theoretical model\u2014the Viewing and Valuing Social Cognitive Processing Model\u2014explains how and when gender beliefs frame managers\u2019 evaluations, affecting what behaviors managers notice (i.e., view) and rate highly (i.e., value). After conducting a detailed coding of the language in reviews, we assess whether there are gender differences in (1) the language used to describe performance (i.e., viewing differences) and (2) the correlations between that language and numeric ratings (i.e., valuing differences). Our analysis of 88 language attributes reveals where gender frames managers\u2019 evaluations and where the process instead operates gender-neutrally. For example, men and women are equally likely to be described as having technical ability, while women are viewed as too aggressive and men as too soft. Furthermore, some behaviors, such as \u201ctaking charge,\u201d are more valued for men than for women: \u201ctaking charge\u201d is associated with the highest performance ratings for men but not for women. Overall, our analysis identifies novel ways that gender biases emerge in a process intended to be meritocratic.",
    "sections": [
        {
            "title": "Introduction",
            "subsections": [
                {
                    "title": null,
                    "paragraphs": [
                        "The belief in meritocracy--the idea that individual performance should be evaluated solely on merit and accomplishments rather than on ascribed characteristics such as gender, race, or class--is a hallmark of American culture (Castilla 2008; Castilla and Benard 2010; McNamee and Miller 2004; Scully 2000). However, despite this ideal, research finds that assessments of individual performance are biased by gender, race, and other characteristics. These biases, in turn, lead women and people of color to be rated as less hirable or promotable than similarly qualified men and white people (Correll, Benard, and Paik 2007; Fernandez-Mateo and Fernandez 2016; Pager, Western, and Bonikowski 2009; Steinpreis, Anders, and Ritzke 1999).",
                        "In an effort to eliminate the effect of ascriptive characteristics on the evaluations of potential and performance, most organizations use formalized bureaucratic procedures. However, there is ongoing debate over the efficacy of these procedures in reducing biases in hiring and promotion decisions (Bielby 2000; Castilla 2008, 2011; Dobbin, Schrage, and Kalev 2015; Kalev, Dobbin, and Kelly 2006; Reskin 2000). Research shows that managers, who are responsible for executing formal procedures, ultimately determine the effectiveness of these procedures in reducing bias (Castilla 2008, 2011; Castilla and Benard 2010). Managers also perceive evaluation procedures as ambiguous, poorly defined, and difficult to use (Gorman 2006; Reskin and McBrier 2000). Yet, despite managers' key role, it has been difficult for researchers to observe their thought processes as they use formal procedures when making evaluations (Dobbin and Kalev 2008).",
                        "Through an analysis of managers' written performance reviews of employees at a large, Fortune 500 technology company, we open this black box, presenting a rare glimpse into managers' sensemaking practices as they evaluate employees. By analyzing the language of these reviews, we investigate whether cultural ideas about gender are reflected in written reviews, and whether different types of language are associated with gender differences in performance ratings that determine pay and promotion outcomes for men and women.1",
                        "This article makes two main contributions. First, we develop an original theoretical model of how cultural beliefs about gender influence managers' assessment of employee performance, which we call the Viewing and Valuing Social Cognitive Processing Model (see Figure 1). We argue that, when managers encounter a seemingly ambiguous and poorly defined evaluation process, they engage in a sensemaking process in which widely shared gender beliefs subtly frame their observations, interpretations, and valuations of employee behavior. More specifically, we argue that in addition to potentially viewing employee behaviors differently based on whether the employee is a man or woman, managers also value certain behaviors differently when they assign ratings to men and women employees. We thus contribute to the literature on organizational sensemaking as well as research on bias and stereotyping.",
                        "Second, and on an empirical level, this study leverages access to a random sample of managers' performance evaluations and conducts a highly detailed coding of the text of these evaluations. In this way, we are able to examine gendered variation in language use across an unusually large number of linguistic codes, most of which have not been previously studied in this context, such as descriptions of whether employees have a sponsor or have improved their technical, business, or communication skills. We then model the relationship between these language attributes and numerical ratings (see Figures 2 and 3). This analysis provides unique insights into how and where gender differences emerge in the performance assessment process and where the process operates more gender-neutrally."
                    ]
                }
            ]
        },
        {
            "title": "Formal Procedures and Gender Biases",
            "subsections": [
                {
                    "title": "Manager Discretion in Performance Evaluations",
                    "paragraphs": [
                        "Around 90 percent of corporations have some form of formal performance evaluation process in place (Society for Human Resource Management 2014). In most companies, \"performance management\" refers to processes and practices that set employee objectives and goals, measure employee performance and success on delivering these objectives, and award compensation and advancement based on this performance. In this system, human resource professionals design the process, and managers are expected to consistently implement it.",
                        "Managers often have considerable discretion in how performance management procedures are implemented. This discretion introduces biases into procedures intended to be meritocratic (Castilla 2015; Dobbin et al. 2015; Williams, Muller, and Kilanski 2012). For example, Castilla (2008) found evidence of a \"performance-reward bias\" whereby women and minority employees received lower compensation than white men with the same performance evaluation scores. By increasing transparency and accountability in the performance assessment process, organizations can reduce the performance-reward bias, leading to more gender equitable compensation (Castilla 2015).",
                        "These studies provide indirect evidence that gender biases have been tainting evaluation processes, but the nature or content of the bias remains unclear. Existing social psychological research, reviewed below, identifies mechanisms that produce bias favoring men over women (Correll et al. 2007; Ridgeway 2011; Rudman et al. 2012; Steinpreis et al. 1999; Wynn and Correll 2018). This research has greatly expanded our understandings of the mechanisms leading to bias, but most of it comes from experimental studies. We have far less understanding of how bias operates in actual workplaces, when managers evaluate different groups of people who are not held experimentally identical, but rather vary in complex ways. By studying managers' language as they evaluate employees, we are able to analyze whether and how gender biases the evaluation of performance in actual workplaces."
                    ]
                },
                {
                    "title": "Studying the Language of Performance",
                    "paragraphs": [
                        "There is some precedent for examining language as a reflection of gender biases and stereotypes during the assessment of performance. For example, three studies have examined whether the gender of a job applicant affects the content of university faculty recommendation letters in the fields of psychology, chemistry, and medicine. Letter writers were found to use more communal (helpful/warm) language and doubt-raising rhetoric in letters for women applicants, and more \"agentic\" (assertive, dominant) language, more standout adjectives (amazing, extraordinary), and more mentions of professional achievements in letters for men applicants (Madera, Hebl, and Martin 2009; Schmader, Whitehead, and Wysocki 2007; Trix and Psenka 2003). Other research examining evaluations of law associates (Biernat, Tocci, and Williams 2012) found more positive words on women's evaluations and no gender difference in subjective ratings of interpersonal warmth or technical competence. In a more recent study, students at the U.S. Naval Academy selected leadership adjectives to describe their peers. The authors found no gender difference in the number of positive leadership adjectives used, but more negative adjectives, such as \"selfish\" and \"temperamental,\" were used to describe women (Smith et al. 2019).",
                        "We build on these studies to make our initial predictions about gender differences in language patterns contained in managers' written narratives, and we go beyond these studies by greatly expanding the number of language attributes studied. In total, we evaluate language patterns for 88 codes, including many that emerged inductively, such as \"sponsorship.\""
                    ]
                }
            ]
        },
        {
            "title": "Gender, Sensemaking, and Evaluations of Performance at Work",
            "subsections": [
                {
                    "title": "Sensemaking in Organizations",
                    "paragraphs": [
                        "Drawing on the literature on organizational sensemaking (Weick 1995) and Ridgeway's (2011) \"framed by gender\" theory, we argue that when managers encounter organizational processes that they perceive as poorly specified or ambiguous, gender frames how they interpret and assign value to employee behaviors. As Weick (1995) describes, when individuals are expected to make an evaluation in an ambiguous or uncertain situation (e.g., one they perceive to lack objective criteria, clear success metrics, or a clear process), this ambiguity generates an occasion for sensemaking, leading individuals to search for widely shared cultural frames to reduce ambiguity, often turning to the \"earliest available information that will show what direction the actor ought to be going\" (Stinchcome 1990, quoted in Weick 1995:96). Widely shared beliefs about gender operate as one such frame (Ridgeway 2011).2",
                        "As psychologists have shown, gender (along with race and age) is a primary category for making sense of self and others (Brewer and Lui 1989; Schneider 2005). Indeed, research shows that, within milliseconds, people unconsciously categorize anyone with whom they interact as \"male\" and \"female\" to define who a person is in terms of their expected character and behavior (Ito and Urland 2003; Zarate and Smith 1990). Sex categorization primes and makes available gender stereotypes, allowing them to affect evaluations and interpretations of a person's behaviors and performances (Banaji and Hardin 1996). Managers' evaluations of employees are thus nested in their prior categorizations of employees as male or female. Sex categorization potentially affects whether a manager notices a given behavior, such as acting aggressively, and, if so, how they evaluate that behavior: we describe these processes as \"viewing\" and \"valuing.\""
                    ]
                },
                {
                    "title": "Mechanisms Producing Gender Biases",
                    "paragraphs": [
                        "The literature reviewed above establishes that gender frames how individuals make sense of self and others, but research in social psychology also identifies the mechanisms by which these gender frames lead to gender biases in workplace evaluations that purport or strive to be meritocratic (for an overview, see Wynn and Correll 2018). We highlight two mechanisms that are especially relevant for understanding how these biases emerge: the \"higher bar\" and the \"backlash against agentic women.\" Importantly, research frequently finds that men and women evaluators are equally prone to these biases (e.g., Heilman and Chen 2005; Steinpreis et al. 1999).",
                        "Status characteristics theory, as well as other research in social psychology, consistently shows that widely shared beliefs about the relative competence of social groups (i.e., status beliefs) frame social interactions, affecting the expectations individuals have for the performance and behavior of anyone with whom they interact (Correll and Ridgeway 2003). In evaluative contexts, such as considering someone for hire or promotion, gender status beliefs lead to lower performance expectations for lower-status groups, such as women and Black people, in comparison to higher-status groups, such as men and white people. These lower expectations, in turn, lead evaluators to judge the same performance more negatively when offered by members of lower-status groups (Correll and Ridgway 2003). Because of the lower expectations for their competence, women have to clear a higher performance bar, needing more evidence of successful performance to be labeled as exceptional (Rivera and Tilcsik 2019; Schmader et al. 2007) or even just equally competent (Moss-Racusin et al. 2012; Steinpreis et al. 1999). Furthermore, bias favoring men is greater in male-typed jobs, such as those that require technical ability and leadership skills (Carli 1991; Eagly and Carli 2007; Ridgeway 2011).",
                        "Backlash occurs when individuals are perceived as violating status expectations about how their group should or should not behave. For example, when women display high-status, overly agentic behaviors (e.g., being aggressive), and men display low-status behaviors (e.g., being modest), their violation of gender status beliefs leads to negative reactions (Rudman et al. 2012; Rudman and Phelan 2008). Moderately agentic behaviors, such as simply being competent and confident, do not elicit backlash effects for women. Instead, it is women's perceived status violations (e.g., acting aggressively or seeking positions of power) that produce backlash (Okimoto and Brescoll 2010; Rudman et al. 2012).",
                        "Furthermore, such violations can lead to \"gender policing,\" or feedback designed to encourage people who violate gender norms to alter their behavior in ways that more closely align with gendered expectations (Leskinen, Rabelo, and Cortina 2015). As a result, women experience a double bind in the workplace: highly agentic behavior (e.g., being assertive, self-promoting) raises perceptions of women's competence, thereby helping women clear the higher bar (Rudman 1998); however, highly agentic behaviors also lead to negative judgments (e.g., being seen as more domineering or less likeable), which can undermine perceptions of women's overall suitability for hire, promotion, or leadership roles (Eagly and Carli 2007; Rudman et al. 2012)."
                    ]
                }
            ]
        },
        {
            "title": "The Viewing and Valuing Social Cognitive Processing Model",
            "subsections": [
                {
                    "title": "Viewing and Valuing",
                    "paragraphs": [
                        "When managers both view and value a trait (or behavior) differently by gender (see Figure 1, top-left corner), they not only observe a gender difference on the trait, but they also differentially reward the same level of the trait depending on the gender of the person perceived as exhibiting it. For example, managers might view men's behavior as more agentic than women's and also value highly agentic behavior more positively when enacted by men. Indeed, experimental research finds that women are viewed more negatively than men are for enacting the exact same highly agentic behavior (Rudman et al. 2012). When viewing and valuing differences occur, there is both a mean gender difference in the frequency of observing a trait/behavior and a gender difference in the correlation between the frequency of observing the trait/behavior and the employee's numeric rating."
                    ]
                },
                {
                    "title": "Viewing",
                    "paragraphs": [
                        "When managers view a gender difference on a given trait/behavior but do not value it differently by gender (top-right corner, Figure 1), we would expect to see a gender difference in mean levels of the trait/behavior, but not in the correlation between the frequency of observing the trait and employees' performance ratings. For example, managers might view women as more collaborative than men, but equally value collaboration for both. In this scenario, women would end up with higher numeric ratings simply because they are viewed as more collaborative, on average."
                    ]
                },
                {
                    "title": "Valuing",
                    "paragraphs": [
                        "When managers do not view the frequency of a trait/behavior differently by gender but do value the trait/behavior differently by gender, we would expect an unequal payoff, in terms of ratings, for identical behavior (bottom-left corner, Figure 1). For example, there may be no average difference in the extent to which managers describe men and women as hardworking, but managers could value men's hardworking behaviors more than women's (or vice versa). In this case, there would be no mean viewing difference, but the correlation between hardworking descriptions and ratings would be more positive for men than for women (or vice versa), such that the same frequency of hardworking language would lead to higher numeric ratings for men."
                    ]
                },
                {
                    "title": "Gender-Neutral",
                    "paragraphs": [
                        "Finally, the process could be gender-neutral, with managers neither viewing nor valuing a behavior or trait differently by gender. For example, managers might view men and women employees as having equal managerial skills and value managerial skills equally for both groups. When this occurs, there would be no differences in means or in correlations with ratings."
                    ]
                },
                {
                    "title": "How Context Shapes the Viewing and Valuing Processes",
                    "paragraphs": [
                        "Both the sensemaking and gender framing literatures suggest that the extent to which gender stereotypes frame how managers view and value employees will depend on features of the evaluative context (Correll 2017; Ridgeway 2011). In most workplaces, more situationally relevant identities, such as a person's occupational role, are in the foreground as people evaluate and make sense of others, and gender identities remain in the background (Ridgeway and Correll 2004). When this occurs, we would expect managers' evaluations to be focused on the specific skills and outcomes included in formal job descriptions, which should limit the effect of gender on evaluations.",
                        "However, when evaluators perceive the evaluative context as lacking clear criteria or have no clear process to follow, gender moves more into the foreground as evaluators search for widely available frames to reduce ambiguity (Weick 1995). When this happens, information contained in gender stereotypes is implicitly present in the evaluative context (Correll 2017; Ridgeway 2011; Uhlmann and Cohen 2005). For example, Pedulla (2020) finds that when hiring managers encounter applicants who had previously worked part-time, they make sense of their uncertainty about how to evaluate part-time employment by drawing on gendered stereotypes that men (but not women) should be breadwinners who work full-time, leading them to judge men with part-time work experience as less hirable than women with the exact same part-time work experience.",
                        "Gender is also more likely to frame evaluations when the evaluative context lacks transparency (i.e., when decisions are not readily visible to others in the organization) and when evaluators are not held accountable for their decisions. In these situations, evaluators are more likely to take cognitive shortcuts, including implicitly relying on gender stereotypes when making evaluations (Correll 2017). As Castilla (2015) and others have shown, increasing transparency and accountability reduces the effects of gender on evaluations."
                    ]
                },
                {
                    "title": "Theoretical Predictions",
                    "paragraphs": [
                        "We entered the project expecting that gender differences would emerge in the viewing or valuing processes described above. We also expected nuanced gender differences rather than large, blatant differences. This is because situationally relevant identities, such as a person's occupational role, are in the foreground as people evaluate and make sense of others, whereas gender identities remain in the background, at least when evaluating traits and behaviors that are closely linked to the occupational role (e.g., \"technical ability\" for technology workers). Second, the company that provided us with its performance assessment data has been very committed to improving its gender diversity outcomes and has been highly transparent, sharing aggregate, internal quantitative data (e.g., employee satisfaction survey results) with its employees, and such transparency has been shown to reduce biases (Castilla 2015). Thus, on many dimensions we expected to find no gender differences in evaluations.",
                        "Yet, we still had reasons to expect gender would affect how managers made sense of employees when evaluating them. First, we conducted an internal survey of 338 managers and directors at the company and found that only 16 percent of women and 24 percent of men believed the criteria for promotion were clear in their company. This level of ambiguity (e.g., clear success metrics are lacking) generates an opportunity for sensemaking (Weick 1995), moving gender more into the foreground, and potentially biasing evaluations (Ridgeway 2011). Second, our data come from employees in male-dominated technical professions who are employed at a male-dominated technology company, and biases are greater in male-typed work (Correll 2017). Third, technology companies often embrace a culture of confrontation and argumentation (cf. Coleman and Shrine 2007). Because confrontational behaviors are highly agentic, women will likely experience backlash if they engage in these \"essential\" behaviors.",
                        "Theoretically, gender could affect both the numerical rating employees receive and the language contained in their reviews. However, we expect gender differences will be less likely in numeric ratings than in the language used to describe employees. First, numeric ratings are easily compared, making gender differences in ratings unlikely, especially in a company committed to being transparent about their progress on gender diversity. Consistent with this prediction, Castilla (2008) found no gender differences in performance ratings at the company he studied. By contrast, there is less transparency around the language contained in reviews because it would be much more difficult for a company to assess gendered patterns in language. (Indeed, the company we studied had not even thought of analyzing the language of their reviews until we proposed this study.) Second, the company rated employees on a five-point scale, with approximately 80 percent of ratings concentrated in just two rating categories (3 and 4), thereby suppressing variation in ratings. As Rivera and Tilcsik (2019) found in their analysis of students' evaluations of faculty, rating scales with more categories produce gender differences absent in a scale with fewer categories. However, Sprague and Massoni (2005) found that even when quantitative differences in student ratings are not found, students use different language to describe their best and worst women and men teachers.",
                        "Our first analysis examines gender similarities and differences in the types of language contained in managers' written performance reviews. We make three main predictions. First, past studies on gender differences in evaluative language (Madera et al. 2009) and social psychological research (Rudman et al. 2012) lead us to expect performance reviews of men employees will contain more agentic language, and evaluations of women will contain more communal language. Second, existing research (Schmader et al. 2007) leads us to expect men's reviews will contain more standout language. Third, literature on backlash leads us to expect \"gender policing,\" whereby women will receive feedback that they need to curb high-status, overly agentic behaviors (like being too aggressive), and men need to curb low-status behaviors (like being too modest or weak) (Leskinen et al. 2015; Rudman et al. 2012; Smith et al. 2019). We do not make predictions for the dozens of other language codes in our data but instead proceed inductively. We entered this project largely not knowing what kinds of language we would find in the reviews, and many of the codes that emerged are new to our project.",
                        "In most cases, past literature does not lead to a clear prediction about whether the correlations between language codes and ratings should vary by gender, leading us to proceed inductively. In the interest of space, we illustrate the lack of clear predictions with just one code that has been well studied: \"communal language.\" Based on past research we predict, and we find, that women's evaluations contain more communal language than men's evaluations do. But are there gender differences in how communality is valued? Past research suggests four competing predictions.",
                        "First, the correlation between communal language and numeric ratings could be positive for both men and women in a technical work context where employees are routinely required to work collaboratively in teams (Robillard and Robillard 2000). Second, because technical expertise is more highly valued than social expertise among technical workers (Cech 2013), and because \"to be technical is to be not-social\" (Faulkner 2007:334), communal behavior could be viewed as oppositional to technical expertise. If so, communal language would be negatively correlated with ratings for both men and women. Third, gender-conforming behavior could be correlated with higher ratings, leading managers to value communal behavior more positively when enacted by women than by men. Consistent with this idea, Biernat and colleagues (2012) found that performance reviews rated as more \"interpersonally warm\" garnered higher ratings for women attorneys than for men attorneys. Finally, communal behavior could be correlated with higher ratings where it is more surprising, leading managers to value communal behavior more when enacted by men than by women. For example, using experimental data, Heilman and Chen (2005) found that men who were described as voluntarily helping a colleague with a task received higher performance ratings than did women who exhibited the exact same helping behavior.",
                        "Foreshadowing our main result, we find that communal language was equally valued for men and women. Surprisingly, the relationship between counts of communal language and ratings is nonlinear for men and women: higher counts of this code are associated with moderate, but not high, ratings. Overall, the correlations between language and ratings for our full set of 88 codes vary in nuanced, important, and often unpredictable ways. By analyzing these relationships, we shed light on how and where gender frames managers' sensemaking process as they evaluate employee performance, as well as showing where the process is gender-neutral.",
                        "Finally, we do not make predictions about causal ordering of the language and ratings. Managers could have a numerical rating in mind for an employee and use language to justify that rating, or they could first describe their perceptions of an employee and then rely on those descriptions to determine a rating. As the sensemaking literature argues, sensemaking involves both \"authoring\" (viewing and crafting a narrative) and \"interpreting\" (assigning value), and these processes are interwoven and iterative (Weick 1995). For that reason, we are interested in gender similarities and differences in language patterns. If these patterns differ for men and women, we argue that gender is framing how employee performance is being assessed."
                    ]
                }
            ]
        },
        {
            "title": "Data and Methods",
            "subsections": [
                {
                    "title": "Research Site and Data",
                    "paragraphs": [
                        "The primary data in this article come from a set of performance evaluations of technical employees from a technology company in Silicon Valley, which we call Digital Communications Technologies Inc. (DCT, a pseudonym). DCT, an internet services company, has more than 20,000 employees and is over 10 years old. The company is formed of two major divisions responsible for the development and release of two components of the internet service. We drew a separate random sample from each of the two divisions. Like many technology companies, the company in our sample has an underrepresentation of women in technical roles: women hold about 20 percent of technical roles overall and are even more underrepresented at the highest levels of the organizational hierarchy (for data on the overall representation of women in tech, see Beede et al. 2011; Simard et al. 2007). DCT is also similar to the larger tech industry in terms of race and ethnicity, with the majority of tech employees identifying as either white or Asian. (See Part 1 of the online supplement, which provides more information on our research site.)",
                        "Our case-study approach allows us to uncover processes normally concealed from both researchers and company employees alike. Although the performance evaluation process we study at DCT is typical of that found in many other companies, we make no claims regarding generalizability to other settings. Instead, our aim is to generate insights from a process that is hidden from view with the goal of guiding future research on how gender shapes evaluations in organizations more broadly.",
                        "The sample of performance evaluations from DCT consists of mangers' evaluations of 208 technical employees. We oversampled women given their lower representation in the technical workforce, to create a sample consisting of 80 women employees and 128 men employees. DCT provided us with the gender of the employee being evaluated, but they did not provide employees' race and ethnicity. Compared to many language studies that use non-random selection processes to sample written feedback, one important benefit of our sample is that performance reviews were randomly sampled from both divisions of the company. Because we have a stratified random sample of employees, we are able to generate statistics in the performance evaluations that can be generalized to the full company.",
                        "The data consist of the full text of a performance evaluation, written by the employee's direct manager, along with the employee's numeric performance rating assigned by their manager. This rating is a number in the range of 1 to 5, with 1 being the lowest possible score and 5 being the highest. A rating of 1 is rare in this company, and no reviews in our sample had a 1 rating. The numerical performance rating is important because it directly influences organizational rewards such as raises, bonuses, and promotions. Managers are given some discretion in how they allocate their employee bonuses from their total bonus budget, but higher ratings are highly correlated with larger bonuses at DCT. In addition, although the rating is not the sole determinant of a promotion, it is strongly related to promotion chances. Therefore, employees who receive a 5 rating generally receive the largest bonuses and have the highest likelihood of receiving a promotion in the next promotion cycle. For this reason, managers are limited in the number of 5 ratings they can award. This is reflected in our sample: only 14 percent of employees received a 5 rating, compared with 31 percent who received a 4 rating and 47 percent who received a 3 rating (see Table 1).",
                        "Employees at DCT generally distinguish 5 ratings from all other ratings, with one employee in a focus group describing the performance scale as A/F, with 5 ratings viewed as an A, and all other ratings as an F. Employees who receive a 5 are described as \"top talent\" and are viewed as highly valuable contributors at the company. Employees on the edge between a 4 and 5 rating, but who ultimately receive a 4 and thus lower bonuses and promotion chances, often view the sharp cutoff between these two ratings as unfair. In line with employees' perceptions of the distinct 5 rating, we distinguish between 5 ratings and other ratings in some of our analyses.",
                        "Table 1 shows the number of performance evaluations in DCT, split by gender, employee type (individual contributors, managers, directors),4 and performance rating. Because we oversampled women, the ratio of women to men is higher than it is in the company as a whole. There are descriptively fewer women in higher levels, but in our sample there are no statistically significant gender differences in employee type, division of the company, or performance rating. The non-difference in rating aligns with our prediction that performance rating is less likely than language to have a gender difference because it is a more transparent outcome, and it likely also reflects the effort this company has made to increase gender diversity."
                    ]
                },
                {
                    "title": "Coding Performance Evaluation Language for Qualitative and Quantitative Analyses",
                    "paragraphs": [
                        "One of the novel features of our study is that we examine the gendered use of language over an unusually large number of language codes (88 in total).5 Because many of these codes have not been previously studied, our analytic approach combines theoretically guided coding based on existing literature with a more inductive process, allowing new themes to emerge organically from the data (Griswold 1987).",
                        "Because we entered the coding process largely unaware of what kinds of language the reviews could contain, we decided to hand-code the reviews. Recent research comparing hand-coding to three common types of computer-assisted text methods finds that hand-coding is superior to these methods, and especially to dictionary methods, in detecting nuanced and novel patterns. Dictionary methods tend to miss some instances of codes that are obvious to human coders (Nelson et al. 2018). Another benefit of our approach is that we are able to not only analyze codes numerically, but also interpret the findings within the evaluation's context and draw representative examples from the text (Nelson et al. 2018). This unique combination of qualitative and quantitative analyses yields a holistic understanding of the processes at play.",
                        "A team of three researchers coded the performance evaluations, with gender identifiers (e.g., pronouns, first names) redacted, using the software program Dedoose for qualitative and mixed-methods research. DCT did not provide any more information on employees, such as their names, race, or ethnicity, nor did they provide us with information about the manager writing the review, such as the manager's gender.",
                        "We believe this coding strategy uses the best practices in both qualitative and quantitative research. First, because a team of researchers participated in coding, we reduce the possibility that results are driven by one individual's idiosyncratic coding decisions. Second, we reduce coders' influences by blinding them to the identifying characteristics of the employee--a process that is rarely feasible in qualitative data collection and analysis. Thus, coders were unaware of employee gender when identifying the types of language used in the evaluations, and the patterns that emerged were detected only after the coding had been completed."
                    ]
                },
                {
                    "title": "Analytic Plan",
                    "paragraphs": [
                        "Our first set of analyses consists of asking whether there are gender differences in the sample across each of our language codes (i.e., \"viewing differences\") and, if so, for which codes. In other words, are men or women more, less, or equally likely to be described as exhibiting different behaviors or to receive certain types of feedback in their performance evaluations?",
                        "We use count regression models to test for significant gender differences in the count of codes, controlling for employee type and company division and using finite population weight adjustments to account for the sampling rates within divisions of the company and to adjust estimates based on the population size of the company. All count models are adjusted for exposure across the evaluation's total number of excerpts, so effects can be interpreted relative to the length of the evaluation. For each of the 88 codes, we tested four different models: Poisson, negative binomial, zero-inflated Poisson, and zero-inflated negative binomial regression models. Zero-inflated models include an inflation term with the number of excerpts in the evaluation, because having few excerpts in an evaluation could predict zeros in excess of the data-generation process as modeled in the count model. We compared goodness of fit using the BIC statistic across models, and we chose the count model that produced the best fit to the code. Table 2 lists the preferred model for each language code analyzed. Finally, because we are conducting multiple regressions within the same sample, we estimate a seemingly unrelated regression model with all 88 codes to adjust for multiple comparisons.6",
                        "We present two sets of analyses to assess whether there are gender differences in the association of the frequency of language codes with numerical rating (i.e., \"valuing differences\"). First, drawing on past language studies, we combine highly correlated subsets of codes to create two composite \"theme\" variables and ask whether the types of language captured by these themes are associated with different performance ratings for men and women. The two themes are taking charge language and helpful language, which combine codes from our data that include agentic and communal language and other similar language descriptors. We then use a multinomial logistic regression where the interaction of gender with each theme predicts rating, thereby allowing for a test of whether the effects of being viewed as taking charge or helpful on ratings differ by gender.",
                        "In the second \"valuing\" analysis, we return to the full set of codes and ask: does the same type of language have the same effects for men and women in terms of the performance rating they received? We analyze OLS regression models with rating as the dependent variable and interactions between gender and the code as independent variables. We estimate the marginal effects of each code on rating for men and women. Given the unique importance of the \"5\" rating (i.e., \"top talent\"), we compare the OLS results to supplementary logistic regression models estimating the relationship between language codes and the odds of receiving a 5 rating relative to all other ratings. We note when the OLS rating results differ substantively compared to the 5 rating models for men or women."
                    ]
                }
            ]
        },
        {
            "title": "Results",
            "subsections": [
                {
                    "title": "Analysis 1. Viewing Differences: Are There Gender Differences in the Frequency of Evaluative Language Codes?",
                    "paragraphs": [
                        "We begin by asking whether there are gender differences in the language contained in the reviews of men and women and, if so, for which language codes. Because formal evaluation processes are intended to eliminate the effect of ascriptive characteristics like gender on evaluations, and the company has been very concerned with improving its diversity numbers, we are interested in both gender similarities and gender differences in the language managers used to describe employees' behaviors and performance. For this reason, we discuss codes with no gender differences, codes with gender differences that are substantively important even if not statistically significant (e.g., those with larger effect sizes or those that are significant predictors of ratings), and codes with significant gender differences. Throughout, we include qualitative examples to contextualize our findings. Table 2 contains a list of codes organized by type of evaluation, the total count of each code, the gender coefficient (woman = 1) for the count model used to assess significance, and the preferred count model for each code. Table 3 provides qualitative examples of codes.",
                        "Overall, men and women tend to be viewed very similarly across codes that assess general performance, including codes whose valences are positive (e.g., \"praise\"), negative (e.g., \"criticism\"), and neutral (e.g., \"description of work/project status\"). Men and women are also viewed similarly for codes having to do with technical and business-related skills and outcomes. For example, 48 percent of \"technical skills\" codes are in women's reviews, and 52 percent are in men's.7 Technology and business outcomes are core features of these employees' jobs, and our results show managers, for the most part, did not systematically view technology and business behaviors differently by gender. This is consistent with the idea that more situationally relevant workplace roles are in the foreground as people evaluate and make sense of others, and gender remains in the background when core job features are evaluated.",
                        "Based on past research, we predicted gender differences in the use of agentic and communal language, as well as standout and doubt-raising language. Our results are largely consistent with these predictions, albeit with some important exceptions. Women were significantly more likely than men to be described using communal language (p < .05). Of the 274 times this type of language occurred, 60.9 percent occurred in women's evaluations. By contrast, the gendered patterns for \"agentic and managerial\" language were less pronounced (see Table 2). Men and women were equally likely to be described with agentic language, to be seen as having managerial skills, and to be seen as effectively leading teams. One man (3-rating) was described as \"having parachuted in and successfully delivered,\" and a woman (3-rating) was commended for \"pushing hard for results.\" Our focus groups revealed that agentic traits like these were highly associated with what it means to be a good tech employee. Therefore, it is perhaps not surprising that agentic behaviors would be in the foreground as managers evaluated employees and would be equally common on both men's and women's reviews. The one code in this category where significant gender differences emerged was \"hiring and firing,\" which reflects personnel decisions that require high-status agentic actions determining who gets to be in the company: 29 of 34 occurrences of this code were on men's reviews. For example, one man (4-rating) was described as having brought in \"good talents\" and \"managed out low performers.\" Interestingly, one woman director (4-rating) who received this code was told that, to be successful, she needed to \"mentor, sponsor, hire, more women in tech.\" None of the men whose reviews contained mentions of hiring and firing were advised to specifically hire more women.",
                        "As predicted, men were more likely to be described with \"standout language,\" such as being a \"genius/game-changer,\" having \"vision\" for the company, or being an \"ideal worker.\" Superlative descriptors should, by definition, be rare, making it unlikely to find significant differences, and we found no statistically significant gender differences across these codes. We mention these gender differences, even though nonsignificant, because these codes, while rare, are significantly predictive of receiving higher ratings (either across all ratings or \"top talent\" ratings).8 Our sample included only 20 genius/game-changer codes, but 59 percent were on men's reviews. Similarly, 61 percent of the visionary codes were on men's evaluations. Men also received 60 percent of the \"ideal worker\" codes, that is, depicting employees as prioritizing work over personal obligations. Whereas men were more likely to be described with standout language, women were more likely to have their performance questioned with mentions of vague or non-technical improvements made over the past year. For example, one woman (4-rating) was described as \"starting to take her career more seriously.\" A significantly higher 65 percent of the 58 non-technical improvement codes were on women's evaluations, as were 66 percent (n.s.) of the 29 vague improvement codes.",
                        "The largest gender viewing differences are for codes evaluating types of personality and communication feedback. The broader parent codes--\"communication style\" and \"personality\"--show no gender differences, but the significant gender coefficients for \"has worked on changing communication style,\" \"likability penalty,\" and \"too aggressive communication style\" were some of the largest gender coefficients of all 88 of our codes. Even though feedback that the employee had an aggressive communication style was a rare code (N = 15), 76 percent of these codes fell on women's evaluations (p < .05). In fact, 10 percent of women's evaluations mentioned the employee was too aggressive in her communication style, compared to only 3.9 percent of men's evaluations. In contrast, men were (non-significantly) more likely to receive feedback that they had too soft of a communication style: about 71.5 percent of this code (N = 25) occurred in men's evaluations.9 For example, one woman was told her communication style was \"off-putting,\" whereas a man was told he \"should speak up . . . and command the room\" (see Table 3). These findings are consistent with experimental research finding that women and men experience backlash when they violate status expectations that men should enact high-status behaviors (e.g., \"command the room\") and women should not (e.g., be aggressive).",
                        "In summary, and consistent with the gender framing literature, we find evidence that situationally relevant work behaviors, such as running a project, working hard, or driving change, were mentioned frequently, and managers viewed men and women quite similarly with respect to these core work activities. However, gender nonetheless frames how managers view employee behaviors, especially when evaluating personality, communication, communality, and who is seen as truly exceptional. Men and women may be viewed similarly as tech workers, but managers still view employees through a gendered lens, expecting them to carry out their work roles as men (\"speak up and command the room\") or women (avoid being \"off-putting\")."
                    ]
                },
                {
                    "title": "Analysis 2. Valuing Differences: Are There Gender Differences in the Correlations between Language and Performance Ratings? (\u201cHelpful\u201d and \u201cTaking Charge\u201d)",
                    "paragraphs": [
                        "To examine the valuing axis of our viewing and valuing theoretical model, we now assess whether different types of language codes were associated with different numerical performance ratings for men and women. To begin to answer this question, we first formed two \"theme variables,\" which sum counts of our language variables for codes that are highly correlated.10 We label the two theme variables \"helpful\" and \"taking charge,\" and they include the following codes: (1) helpful language: communal language, team player, positive personality, team accomplishments, and service work; and (2) taking charge language: agentic language, genius, visionary, leader, managerial, and assertive communication.",
                        "Relative to agentic and communal language, our \"taking charge\" and \"helpful\" themes are broader concepts that reflect how these processes are used in workplace settings, including phrases like \"gets things done\" and \"questions the norm\" (for taking charge), and \"great team member\" and \"can do attitude\" (for helpful).",
                        "Women received more helpful codes (4.78 mentions per review, on average) in their evaluations than did men (3.56) (p = .07), and men and women received an almost identical number of taking charge codes (4.05 and 4.03 mentions, respectively). But, do managers value taking charge and being helpful more for men than for women (or vice versa)? To answer these questions, we first plot the bivariate relationship between these two theme variables and numeric ratings for men and women, with 95 percent confidence intervals (see Figures 2a and 2b). When discussing Figures 2a and 2b, all differences we report are statistically significant unless we specifically note they are nonsignificant.11",
                        "In Figure 2a, we see that bivariate plots for \"helpful\" have a similar, nonlinear shape for men and women. For both, higher counts of helpful language are associated with higher ratings in the 2 to 4 range, peaking at a rating of 4; being helpful was not a common language descriptor for employees who received a 5. There are important gendered implications to the pattern found. Women were viewed as more helpful, but because being helpful is not associated with the highest ratings, being seen as helpful only takes women so far.",
                        "Figure 2b shows clear gender differences in the plots for \"taking charge.\" For men, there is a positive, linear relationship between taking charge and rating, whereas for women, the positive relationship between taking charge and rating peaks at a rating of 4. Women who were rated 5 had similar levels of taking charge language as the women rated 3 (n.s.). In summary, taking charge was clearly more valued for men--the highest level of \"taking charge\" was associated with a 5 rating for men, but only a 4 rating for women. One explanation is that frequently taking charge at work is seen as highly agentic behavior, and, as such, it elicited backlash when enacted by women (Rudman et al. 2012).",
                        "Table 4 evaluates these bivariate patterns in a regression context, displaying log odds coefficients from multinomial logistic regressions predicting rating, with gender, theme, and the interaction of gender with theme as key predictors. These models also control for the organization, employee level, and number of excerpts in the evaluation. The reference category for these models is a 2 rating, so higher ratings are compared to the lowest rating in our sample. Across all models, we see no significant main effect of gender on rating, a finding in line with the fact that rating distributions are equal by gender in our sample.",
                        "The helpful theme variable is positively associated with receiving a 3 rating (p = .09), and it significantly (p < .05) predicts a 4 rating, relative to 2. This effect reduced in magnitude and significance in predicting a 5 rating. The interaction of gender and the helpful theme was not statistically significant, and coefficient magnitudes were close to 0. Thus, these results confirm our bivariate findings from Figure 2a: for both men and women, helpful themes were predictive of middling ratings (3 and 4 versus 2), but not predictive of the highest rating category (5).",
                        "The taking charge theme had a positive and statistically significant main effect, documenting that, for men, taking charge was a significant predictor of higher ratings relative to the lowest category. The direction and magnitude of the interaction effects between gender and taking charge were in line with findings from Figure 2b: women benefited less from taking charge language, and the magnitude of this interaction is higher when it comes to receiving a 5 rating (relative to 2). When changing the reference category to a 3 rating, we find that taking charge was not a statistically significant predictor of receiving a 5 for women, but it was a significant predictor for men.12 To illustrate the magnitude of this effect, if a man's evaluation contains 15 counts of taking charge language, the predicted probability of him receiving a 5 rating is about 38.9 percent, whereas for a woman this probability is only 19.2 percent, about half of that for the man. In fact, the man is predicted to be more likely to receive a top-talent 5 rating than any other rating, whereas the woman is most likely to receive a 4 rating.",
                        "In summary, we find that managers did not view men and women differently on the dimension of taking charge, but they did value taking charge more for men than for women. Importantly, this \"valuing but not viewing\" pattern for taking charge was opposite of the pattern found for being helpful. We found that managers viewed women as more helpful, but there was no gender difference in how they valued helpfulness. Putting the two findings together, we see how the combined effects of viewing and valuing differences can lead to novel patterns of gender disadvantage for women. Women were viewed as more helpful, but helpfulness was not associated with the highest ratings that directly affect compensation and promotion opportunities. Women tech workers were viewed as equally likely to \"take charge\" as their men counterparts, but this set of behaviors was only associated with the highest ratings when enacted by men."
                    ]
                },
                {
                    "title": "Analysis 3. Valuing Differences: Are There Gender Differences in the Correlations between Language and Performance Ratings? (All Codes)",
                    "paragraphs": [
                        "In our final analysis, we return to the full set of codes and examine the relationship between language codes, gender, and employees' ratings. We first present the effect of our codes across the full range of rating outcomes (2 to 5), and then we compare these to results from a model with a binary dependent variable, comparing the 5 rating to all other ratings. As discussed earlier, at DCT a 5 rating is particularly meaningful: managers are limited in the number of 5 ratings they can award, 5 ratings are associated with higher compensation and greater odds of promotion, and employees describe this \"top talent\" category as distinct and highly valued compared to all other ratings. Predictors are generally consistent in direction and magnitude in predicting the full rating scale (2 to 5) and the 5 rating, but we point out several important differences. In these cases--similar to results for the helpfulness and taking charge themes in the prior section--we find a nonlinear relationship between the code and rating, with the 5 rating standing out as a distinct category. In the interest of space, in the main text we only present the results from OLS models predicting rating by gender. All referenced models are available online as supplementary materials.",
                        "Figure 3 is a dumbbell plot showing the marginal effects of each code on numerical ratings derived from OLS models with controls for employee type, division of the company, and number of excerpts. Points closer to the vertical zero line have little to no effect on ratings; points on the right side of the figure indicate the code has a positive effect on ratings; and points on the left indicate negative effects. Triangles represent effects for women, and circles represent effects for men. Significant effects are marked on the left side of the plot, indicating when a code is significantly predictive of ratings (p < .05) for men or women, and whether the magnitude of a code's effect on rating is significantly different for men and women. Given the interest of technology companies in increasing the representation of women in technical jobs, we present codes arranged from having the largest positive effect on women's ratings down to those having the largest negative effect for women.",
                        "Similar to our viewing results, Figure 3 reveals that many codes are equally valued for women and men. For example, \"praise\" is a significant (p < .05) and equally positive predictor of ratings for men and women, and \"criticism\" is a significant (p < .05) and equally negative predictor. Recall that we also found that praise and criticism were equally likely to appear on women's and men's reviews. These codes, therefore, fall into the gender-neutral quadrant of our viewing and valuing model. Other gender-neutral codes are those central to technical work, such as \"technical projects,\" \"technical skills,\" and \"status of the project.\" As with viewing processes, gender appears to be in the background, and situationally relevant workplace roles in the foreground, as managers assign value to core job features.",
                        "Technical-related skills are generally valued equally for men and women, but there are some important exceptions where technical codes are valued differently by gender, even though there were no gender differences in how they were viewed. Importantly, codes such as \"technical improvement\" or \"needing technical skills\" have the biggest negative effect on ratings for women out of all the codes in our analysis, reducing women's ratings by about .5 points (p < .05) on the 2 to 5 rating scale, but they are not significant predictors of men's ratings. These codes contain future-oriented language, describing the skills or aptitudes employees need for \"professional growth\" or \"to move to the next level.\"",
                        "Managers are no more likely to describe women as needing technical skills or improvement to move forward. Instead, managers more negatively value this language when assigning ratings to women. As a result, women need to clear a higher scrutiny bar to receive the high ratings that are needed to actually be promoted (i.e., \"move to the next level\"). Furthermore, the higher bar women experience when evaluations are future oriented extends beyond technical evaluations. As shown in Figure 3, feedback about \"future changes\" an employee needs to make and \"vague calls for improvement\" also significantly reduce women's ratings, but not men's ratings.",
                        "Standout language describing an employee as a genius, visionary, or ideal worker produces subtle, but important, valuing effects. As Figure 3 shows, being viewed as an ideal worker--prioritizing work over personal obligations--has a large positive effect on ratings for both men and women. Thus, although women descriptively have fewer ideal worker codes than men, they nonetheless reap a similar payoff for being viewed as an ideal worker. Similarly, being perceived as a \"genius\" produces a positive, but insignificant, effect on ratings for both men and women in OLS models. Yet, being described as a genius does lead to a statistically significant increase in the likelihood that men, but not women, receive a top-talent 5 rating. The \"visionary\" code is more valued for men than for women, increasing men's ratings in the OLS models depicted in Figure 3 but having no effect on women's ratings.13 Thus, men benefit both by having more visionary codes (at a descriptive level) and from the higher value of being seen as visionary.",
                        "Of the three standout language codes, it is interesting that \"ideal worker,\" a code more aligned with effort, and thus malleable, operates the most gender-neutrally, whereas \"visionary,\" and to a lesser extent \"genius,\" which are more aligned with ideas of innate brilliance, provide more advantage to men (Musto 2019). There were no codes in the data where women clearly benefited on both viewing and valuing processes, but the closest is \"positive personality.\" Women received 54 percent of the mentions of this code (n.s.), and it positively increases women's ratings overall (p = .058) and women's odds of receiving a top-talent 5 rating (p < .05), while having little effect on men's ratings.",
                        "A few other codes produce gender differences in both viewing and valuing, but in these instances the viewing differences favor women and the valuing differences favor men (or vice versa). For example, \"criticism related to general business outcome\" appeared significantly less frequently in women's reviews, but such criticisms have a significantly larger negative effect on women's ratings than on men's (p < .05). Experimental research shows that when individuals underperform, women are more likely to receive \"white lies,\" or feedback that is more positive but less truthful (Jampol and Zayas 2020). Yet, critical feedback that is withheld could still result in lower ratings or other negative long-term career effects.",
                        "By contrast, the \"likability penalty\" code appeared significantly more frequently on women's reviews than on men's and had no significant effect on women's ratings.14 This code occurs when an employee is simultaneously described as highly competent and needing to improve communication style. For example, one woman with a 4-rating was told \"execution is excellent, develop some soft skills around collaboration.\" Research on mentorship finds that managers are sometimes reluctant to give women critical feedback, even if needed, for fear of not appearing supportive of women (Blake-Beard 2009). Notice here that the manager was able to give this woman critical feedback, while softening the blow with a positive comment.",
                        "We conclude by comparing the codes that have the largest positive effects on ratings for women and men. As Figure 3 shows, \"sponsorship\" has the largest effect on increasing women's ratings out of all our codes. The sponsorship code occurs when a higher-level employee in the company is clearly advocating for the employee. Having one instance of the sponsorship code is predicted to increase women's ratings by a full .86 points (p < .05) on the 2 to 5 rating scale. At a descriptive level, this code increases women's predicted likelihood of receiving a 5 rating by 20.6 percentage points (n.s.). For men's ratings, sponsorship also has a positive and significant effect, although descriptively much smaller than women's (.44 points). However, no men received a 5 rating and a sponsorship code, meaning this code is estimated to have a negative effect on men's likelihood of a 5 rating (-14.1 percentage points). This gender difference, although not significant, is substantively important because organizations increasingly stress the importance of having a sponsor, especially for women and other underrepresented groups (Hewlett 2013). Our data provide suggestive, but certainly not definitive, evidence that women benefit uniquely from having a sponsor in terms of achieving the highest ratings that are needed for promotion.",
                        "The code with the largest effect on ratings for men is \"directly mentions promotion opportunity.\" Having an instance of this code is estimated to increase men's ratings by a full .76 points (p < .05) on the 2 to 5 rating scale. We found this code on reviews for 3 out of the 18 men who received a 5 rating, yet it appeared on none of the reviews for the 11 women who received a 5 rating. Although rare, this code had a substantial (p = .08) positive effect for men in terms of receiving a 5 rating (35.1 percent), but because no women received this code and a 5 rating, it has a negative effect (-13.8 percent) for women's chances of getting a 5.",
                        "It is important to proceed with caution given the small number of reviews containing these codes, but it is interesting to compare the gendered effects of having a sponsor advocate for the employee versus directly mentioning a promotion opportunity. As we found, women's likelihood of earning a top rating of 5 increases with sponsor advocacy and decreases with direct mentions of promotion opportunities, and the reverse is true for men. To the extent that sponsors are seen as helping an employee with their advocacy, men could be penalized for violating gender stereotypic expectations that men should be agentic, taking charge of their careers and not needing a sponsor's help (Rudman et al. 2012). By contrast, research shows that men are rewarded for seeking more powerful positions, and even the perception that a woman is interested in a position of greater power violates stereotypical expectations that women should be communal (Okimoto and Brescoll 2010). One important area for future research is to more fully examine the effect of sponsorship on women's and men's career advancement.",
                        "In summary, we find many areas where the evaluation process operates gender-neutrally, affecting neither viewing nor valuing processes. These include highly general evaluations, such as praise and criticism, and those closely linked to core features of technical work. However, gender does frame other areas of the evaluation process in subtle but important ways, producing gender differences in what traits, behaviors, and types of feedback managers value with higher ratings. For example, being described as truly exceptional--a visionary--leads to higher ratings for men but not for women. And future-oriented evaluations, such as noting that employees need to improve their technical skills to get to the next level, lead to lower ratings for women, but not for men."
                    ]
                }
            ]
        },
        {
            "title": "Discussion",
            "subsections": [
                {
                    "title": "Contributions",
                    "paragraphs": [
                        "Most organizations rely on formalized procedures to assess employees' performance in an effort to reduce the biasing effects of gender and other characteristics on evaluations. Managers have been found to play a key role in determining the relative effectiveness of these procedures, but researchers have had limited access to managers' internal thought processes as they engage with formal procedures and make evaluations. This article opens this black box by examining managers' sensemaking processes through an analysis of the language they use when describing and rating men and women employees' performance.",
                        "We make two primary contributions. First, we develop a novel theory--the Viewing and Valuing Social Cognitive Processing Model--that explains how and when gender beliefs frame managers' evaluations, affecting what behaviors they notice (i.e., view) and which ones they value. Second, by gaining access to the complete text of managers' performance reviews of their employees at a Fortune 500 technology company, along with their numerical ratings, we put the theory to work, examining how viewing and valuing biases play out in an actual workplace, thereby complementing prior research that has examined mechanisms of bias primarily in experimental settings. Via detailed coding of the language of these reviews, we identify 88 different language attributes, allowing us to pinpoint where gender frames managers' evaluations--affecting viewing, valuing, or both--and where the process instead operates gender-neutrally."
                    ]
                },
                {
                    "title": "Summary of the Results",
                    "paragraphs": [
                        "Across the full range of our language codes, our analysis reveals a great deal of gender similarity and gender difference. Two main types of evaluations produced no gender differences in either viewing or valuing. The first occurs when managers make broad, general performance evaluations. For example, managers offered praise and criticism to men and women employees equally and equally valued these attributes. Second, evaluations were gender-neutral when related to core features of technical work. Managers mentioned technical skills and technical projects on men's and women's reviews equally and equally valued these traits when assigning numerical performance ratings. This finding is consistent with gender framing theory arguing that more situationally relevant work roles are in the foreground as people evaluate and make sense of others, and gender remains in the background. Furthermore, the company we studied has been actively working to improve its gender diversity and has been highly transparent in sharing data with managers. Their efforts likely contributed to the gender-neutrality we observed.",
                        "Even so, gender does frame the performance evaluation process, affecting how men and women are viewed, valued, or (rarely) both. Three types of evaluations were found to deviate from gender-neutrality. The first occurs when evaluating personality and communication style, especially if these traits and behaviors violate gender status expectations. For example, women were called out more often than men for having too aggressive of a communication style, whereas men were called out for being too soft. Women were also viewed as more helpful and communal than men, but we found no gender differences in how communal language is valued. For both women and men, high levels of helpful language decrease the likelihood of getting the highest ratings that increase compensation and promotion opportunities. Agentic/taking charge language showed the opposite pattern: men and women were equally likely to be viewed as taking charge, but taking charge is more valued for men, being associated with the highest ratings for men but not for women. Past research has found that women are more likely to be viewed as communal and men as agentic (Madera et al. 2009). Our viewing and valuing model more precisely pinpoints the gendered nature of these language patterns as they play out in actual workplaces.",
                        "The second type of evaluation that deviates from gender-neutrality happens when making future-oriented evaluations. We found that men and women are equally likely to receive general feedback about the kinds of improvements they need to make, such as needing technical skills, technical improvement, and other forms of vague changes needed to move to the next level. However, this type of language is differentially valued by gender: higher levels of future-oriented feedback lead to significantly lower ratings for women but not for men. There is some inherent uncertainty in estimating the behaviors and skills needed to be successful in a future role; indeed, less than a quarter of mangers we surveyed at this company believed the criteria for promotion were clear. Managers' lower ratings for women who received the same amount and type of future-oriented feedback as men may reflect managers' greater doubt about whether women are likely to succeed in acquiring skills needed to make it to the next level. The fact that, with the same feedback, women receive lower ratings than men means women have to clear a higher scrutiny bar to get to the next level.",
                        "The third type of evaluation that is framed by gender occurs when making evaluations about who is truly exceptional rather than merely competent. As Rivera and Tilcsik (2019) note, brilliance is stereotyped as masculine, and this stereotype begins to affect evaluations as early as middle school when students begin to describe boys, but not girls, as exceptional (i.e., \"really smart\") (Musto 2019). The stereotypical association of exceptionalism with masculinity is implicitly present in the evaluative context as managers review employees. \"Exceptionalism,\" by definition, is not common, and such codes were indeed rare in our sample of evaluations. Yet, at a descriptive level, men were more likely than women to be viewed with exceptional language, such as genius and visionary. Furthermore, this was one of the few types of evaluations in our data where gender framed both viewing and valuing processes to produce a double advantage for men. Not only were men more likely to be viewed as visionary, this language also led to a greater payoff for men, raising their ratings while having no effect on women's ratings.",
                        "Overall, our analysis shows the subtle and nuanced way that gender frames performance evaluations. It is not so much that men and women are being evaluated differently as workers. Instead, managers appear to (1) expect men and women to enact their jobs as gendered people, and (2) police behaviors that fall outside of those expectations by calling out gender atypical behavior (aggressiveness for women, softness for men) and penalizing women's ratings for highly agentic behavior, such as taking charge. Furthermore, gender frames who is seen as truly exceptional and who is likely to have the skills necessary to succeed at higher levels. What these latter two types of evaluations have in common is that there is more ambiguity or uncertainty in how to make such evaluations, compared with assessing core work tasks that are spelled out in job descriptions, such as having technical skills. It is in these ambiguous settings where gender beliefs frame evaluations."
                    ]
                },
                {
                    "title": "Limitations and Suggestions for Future Research",
                    "paragraphs": [
                        "This study offers rare insight into the sensemaking processes of managers, but there are some important limitations. First, we were not able to gain access to data on employees' race, ethnicity, or other characteristics. Thus, we are not able to speak to the important ways gender intersects with other characteristics to influence the processes we study. Second, we do not know the gender of the managers in our sample. Research in social psychology has generally found that both men and women are prone to gender biases (e.g., Heilman and Chen 2005; Steinpreis et al. 1999), but future work could assess whether evaluator gender affects how men and women are viewed and valued at work. Finally, ours is a case study of one large, Fortune 500 technology company. The primary strength of a case study like ours is that it provides deep insights into an important process that is usually obscured from view. The disadvantage, of course, is that we cannot generalize from this case study to other organizations or industries. Existing research suggests similar biases are at play in other male-dominated, elite industries, such as finance and law (Biernat et al. 2012; Gorman 2006; Neely 2018), but future research is needed to explore whether and how gender affects performance assessments in other types of workplaces.",
                        "Our research also unearthed two interesting patterns that should be more thoroughly examined. First, our analysis sheds light on the types of evaluations resulting in gender differences in viewing or valuing, but it would be useful to unpack the mechanisms that prime viewing versus valuing differences. Not only would this knowledge enhance our understanding of organizational sensemaking and gender biases, but different interventions are likely needed to block gender differences in viewing and valuing processes.",
                        "Second, we found an interesting pattern in our data on sponsorship. Having a sponsor who advocates for women should help women clear the higher bar that often blocks women's advancement and avoid the backlash that women experience when self-advocating or appearing to be ambitiously seeking positions of power (Burt 1998; Wynn and Correll 2018). We found that sponsorship had the largest positive effect on ratings for women out of all the codes we studied, including increasing the odds of women receiving the highest rating most strongly associated with promotion. However, there were very few sponsorship codes in our data. Future research is needed to more definitively examine the effectiveness of sponsorship in getting beyond some of the biases we identified. More generally, we anticipate that our viewing and valuing model will help guide and inspire future research that uncovers the processes by which gender, racial, and other forms of biases emerge in modern workplaces."
                    ]
                },
                {
                    "title": "Implications",
                    "paragraphs": [
                        "Our results have important practical implications. Once evaluations are written, any biases they contain become embedded in documents that are often treated as objective (i.e., free of bias) by those using them to make hiring, pay, and promotion decisions, thereby carrying biases into processes intended to be meritocratic. As Weick (1995) describes, when individuals are expected to make evaluations in ambiguous situations, this ambiguity generates an occasion for sensemaking, where individuals search for widely shared frames to reduce ambiguity and guide decision-making. Because gender operates as a widely shared frame, it is readily available to shape evaluations, subtly carrying gender biases into evaluations of performance. Organizations can help individuals avoid biases by reducing the ambiguity and uncertainty surrounding the performance evaluation process. For example, if companies create clear criteria for making evaluations and establish a deliberate and transparently articulated process, managers would have less need to engage in the kind of sensemaking that causes gender to frame their evaluations (see Correll 2017). Doing so could help organizations move closer to being meritocratic rather than simply appearing meritocratic."
                    ]
                }
            ]
        }
    ],
    "references": [
        "Banaji, Mahzarin R., Hardin, Curtis D. 1996. \u201cAutomatic Stereotyping.\u201d Psychological Science 7(3):136\u201341.",
        "Beede, David, Julian, Tiffany, Langdon, David, McKittrick, George, Khan, Beethika, Doms, Mark. 2011. \u201cWomen in STEM: A Gender Gap to Innovation.\u201d U.S. Department of Commerce, Economics and Statistics Administration Report.",
        "Belia, Sarah, Fidler, Fiona, Williams, Jennifer, Cumming, Geoff. 2005. \u201cResearchers Misunderstand Confidence Intervals and Standard Error Bars.\u201d Psychological Methods 10(4):389\u201396.",
        "Bielby, William T. 2000. \u201cMinimizing Workplace Gender and Racial Bias.\u201d Contemporary Sociology 29(1):120\u201329.",
        "Biernat, Monica, Tocci, M. J., Williams, Joan C. 2012. \u201cThe Language of Performance Evaluations: Gender-Based Shifts in Content and Consistency of Judgment.\u201d Social Psychological and Personality Science 3(2):186\u201392.",
        "Blake-Beard, Stacy. 2009. \u201cMentoring as a Bridge to Understanding Cultural Difference.\u201d Adult Learning 20(1\u20132):14\u201318.",
        "Brewer, Marilynn B., Lui, Layton N. 1989. \u201cThe Primacy of Age and Sex in the Structure of Person Categories.\u201d Social Cognition 7(3):262\u201374.",
        "Burt, Ronald S. 1998. \u201cThe Gender of Social Capital.\u201d Rationality and Society 10(1):5\u201346.",
        "Carli, Linda L. 1991. \u201cGender, Status, and Influence.\u201d Pp. 89\u2013113 in Advances in Group Processes: Theory and Research, Vol. 8, edited by Lawler, E. J., Markovsky, B., Ridgeway, C., Walker, H. A. Greenwich, CT: JAI.",
        "Castilla, Emilio J. 2008. \u201cGender, Race, and Meritocracy in Organizational Careers.\u201d American Journal of Sociology 113(6):1479\u2013526.",
        "Castilla, Emilio J. 2011. \u201cBringing Managers Back In: Managerial Influences on Workplace Inequality.\u201d American Sociological Review 76(5):667\u201394.",
        "Castilla, Emilio J. 2015. \u201cAccounting for the Gap: A Firm Study Manipulating Organizational Accountability and Transparency in Pay Decisions.\u201d Organization Science 26(2):311\u201333.",
        "Castilla, Emilio J., Benard, Stephen. 2010. \u201cThe Paradox of Meritocracy in Organizations.\u201d Administrative Science Quarterly 55(4):543\u201376.",
        "Cech, Erin A. 2013. \u201cIdeological Wage Inequalities? The Technical/Social Dualism and the Gender Wage Gap in Engineering.\u201d Social Forces 91(4):1147\u201382.",
        "Coleman, Bob, Shrine, Logan. 2007. Losing Faith: How the (Andy) Grove Survivors Led the Decline of Intel\u2019s Corporate Culture. Losing-Faith.com.",
        "Correll, Shelley J. 2017. \u201cSWS 2016 Feminist Lecture: Reducing Gender Biases in Modern Workplaces: A Small Wins Approach to Organizational Change.\u201d Gender & Society 31(6):725\u201350.",
        "Correll, Shelley J., Benard, Stephen, Paik, In. 2007. \u201cGetting a Job: Is There a Motherhood Penalty?\u201d American Journal of Sociology 112(5):1297\u2013339.",
        "Correll, Shelley J., Ridgeway, Cecilia L. 2003. \u201cExpectation States Theory.\u201d Pp. 29\u201341 in Handbook of Social Psychology, edit by Delamater, J. New York: Springer.",
        "Dobbin, Frank, Kalev, Alexandra. 2008. \u201cYou Can\u2019t Make Me: Resistance to Corporate Diversity Training.\u201d Unpublished manuscript.",
        "Dobbin, Frank, Schrage, Daniel, Kalev, Alexandra. 2015. \u201cRage against the Iron Cage: The Varied Effects of Bureaucratic Personnel Reforms on Diversity.\u201d American Sociological Review 80(5):1014\u201344.",
        "Eagly, Alice Hendrickson, Carli, Linda L. 2007. Through the Labyrinth: The Truth about How Women Become Leaders. Boston: Harvard Business Press.",
        "Faulkner, Wendy. 2007. \u201c\u2018Nuts and Bolts People\u2019: Gender-Troubled Engineering Identities.\u201d Social Studies of Science 37(3):331\u201356.",
        "Fernandez-Mateo, Isabel, Fernandez, Roberto. 2016. \u201cBending the Pipeline: Executive Search and Gender Inequality in Hiring for Top Management Jobs.\u201d Management Science 62(12) (https://doi.org/10.1287/mnsc.2015.2315).",
        "Gorman, Elizabeth H. 2006. \u201cWork Uncertainty and the Promotion of Professional Women: The Case of Law Firm Partnership.\u201d Social Forces 85(2):865\u201390.",
        "Griswold, Wendy. 1987. \u201cA Methodological Framework for the Sociology of Culture.\u201d Sociological Methodology 17:1\u201335.",
        "Heilman, Madeline, Chen, Julie. 2005. \u201cSame Behavior, Different Consequences: Reaction to Men\u2019s and Women\u2019s Altruistic Citizenship Behavior.\u201d Journal of Applied Psychology 90(3):431\u201341.",
        "Hewlett, Sylvia Ann. 2013. Forget a Mentor, Find a Sponsor: The New Way to Fast Track Your Career. Boston: Harvard Business Review Press.",
        "Ito, Tiffany A., Urland, Geoffrey R. 2003. \u201cRace and Gender on the Brain: Electrocortical Measures of Attention to the Race and Gender of Multiply Categorizable Individuals.\u201d Journal of Personality and Social Psychology 85(4):616\u201326.",
        "Jampol, Lily, Zayas, Vivian. 2020. \u201cGendered White Lies: Women Are Given Inflated Performance Feedback Compared with Men.\u201d Personality and Social Psychology Bulletin (https://doi.org/10.1177/0146167220916622).",
        "Kalev, Alexandra, Dobbin, Frank, Kelly, Erin. 2006. \u201cBest Practices or Best Guesses? Assessing the Efficacy of Corporate Affirmative Action and Diversity Policies.\u201d American Sociological Review 71(4):589\u2013617.",
        "Laws, Keith R. 2013. \u201cNegativland \u2013 A Home for All Findings in Psychology.\u201d BMC Psychology 1(2) (https://doi.org/10.1186/2050-7283-1-2).",
        "Leskinen, Emily A., Rabelo, Veronica C., Cortina, Lilia M. 2015. \u201cGender Stereotyping and Harassment: A \u2018Catch-22\u2019 for Women in the Workplace.\u201d Psychology, Public Policy, and Law 21(2):192\u2013204.",
        "Madera, Juan M., Hebl, Michelle R., Martin, Randi C. 2009. \u201cGender and Letters of Recommendation for Academia: Agentic and Communal Differences.\u201d Journal of Applied Psychology 94(6):1591\u201399.",
        "McNamee, Stephen J., Miller, Robert K. 2004. The Meritocracy Myth. Lanham, MD: Rowman & Littlefield.",
        "Mize, Trenton. 2019. \u201cBest Practices for Estimating, Interpreting, and Presenting Nonlinear Interaction Effects.\u201d Sociological Science 6:81\u2013117.",
        "Moss-Racusin, Corinne A., Dovidio, John F., Brescoll, Victoria L., Graham, Mark J., Handelsman, Jo. 2012. \u201cScience Faculty\u2019s Subtle Gender Biases Favor Male Students.\u201d Proceedings of the National Academy of Sciences of the United States of America 109(41):16474\u201379.",
        "Musto, Michela. 2019. \u201cBrilliant or Bad: The Gendered Social Construction of Exceptionalism in Early Adolescence.\u201d American Sociological Review 84(3):369\u201393.",
        "Neely, Megan Tobias. 2018. \u201cFit to Be King: How Patrimonialism on Wall Street Leads to Inequality.\u201d Socio-Economic Review 16(2):365\u201385.",
        "Nelson, Laura K., Burk, Derek, Knudsen, Marcel, McCall, Leslie. 2018. \u201cThe Future of Coding: A Comparison of Hand-Coding and Three Types of Computer-Assisted Text Analysis Methods.\u201d Sociological Methods and Research (https://doi.org/10.1177/0049124118769114).",
        "Okimoto, Tyler G., Brescoll, Victoria L. 2010. \u201cThe Price of Power: Power Seeking and Backlash against Female Politicians.\u201d Personality and Social Psychology Bulletin 36(7):923\u201336.",
        "Pager, Devah, Western, Bruce, Bonikowski, Bart. 2009. \u201cDiscrimination in a Low-Wage Labor Market: A Field Experiment.\u201d American Sociological Review 74(5):777\u201399.",
        "Pedulla, David S. 2020. Making the Cut: Hiring Decisions, Bias, and the Consequences of Nonstandard, Mismatched, and Precarious Employment. Princeton, NJ: Princeton University Press.",
        "Reskin, Barbara F. 2000. \u201cThe Proximate Causes of Employment Discrimination.\u201d Contemporary Sociology: A Journal of Reviews 29(2):319\u201328.",
        "Reskin, Barbara F., McBrier, Debra Branch. 2000. \u201cWhy Not Ascription? Organizations\u2019 Employment of Male and Female Managers.\u201d American Sociological Review 65(2):210\u201333.",
        "Ridgeway, Cecilia L. 2011. Framed by Gender: How Gender Inequality Persists in the Modern World. New York: Oxford University Press.",
        "Ridgeway, Cecilia L., Correll, Shelley J. 2004. \u201cUnpacking the Gender System: A Theoretical Perspective on Gender Beliefs and Social Relations.\u201d Gender & Society 18(4):510\u201331.",
        "Rivera, Lauren A., Tilcsik, Andr\u00e1s. 2019. \u201cScaling Down Inequality: Rating Scales, Gender Bias, and the Architecture of Evaluation.\u201d American Sociological Review 84(2):248\u201374.",
        "Robillard, Perrie N., Robillard, Martin P. 2000. \u201cTypes of Collaborative Work in Software Engineering.\u201d The Journal of Systems and Software 53(3):219\u201324.",
        "Rudman, Laurie A. 1998. \u201cSelf-Promotion as a Risk Factor for Women: The Costs and Benefits of Counterstereotypical Impression Management.\u201d Journal of Personality and Social Psychology 74(3):629\u201345.",
        "Rudman, Laurie A., Moss-Racusin, Corinne A., Phelan, Julie E., Nauts, Sanne. 2012. \u201cStatus Incongruity and Backlash Effects: Defending the Gender Hierarchy Motivates Prejudice against Female Leaders.\u201d Journal of Experimental Social Psychology 48(1):165\u201379.",
        "Rudman, Laurie A., Phelan, Julie E. 2008. \u201cBacklash Effects for Disconfirming Gender Stereotypes in Organizations.\u201d Research in Organizational Behavior 28:61\u201379.",
        "Schmader, Toni, Whitehead, Jessica, Wysocki, Vicki H. 2007. \u201cA Linguistic Comparison of Letters of Recommendation for Male and Female Chemistry and Biochemistry Job Applicants.\u201d Sex Roles 57(7\u20138):509\u201314.",
        "Schneider, David J. 2005. The Psychology of Stereotyping. New York: Guilford Press.",
        "Scully, Maureen A. 2000. \u201cManage Your Own Employability: Meritocracy and the Legitimation of Inequality in Internal Labor Markets and Beyond.\u201d Pp. 199\u2013214 in Relational Wealth: The Advantages of Stability in a Changing Economy, edited by Leana, C. R., Rousseau, D. M. Oxford, UK: Oxford University Press.",
        "Simard, Caroline, Henderson, Andrea Davies, Gilmartin, Shannon K., Schiebinger, Londa, Whitney, Telle. 2007. Climbing the Technical Ladder: Obstacles and Solutions for Mid-Level Women in Technology. Anita Borg Institute for Women and Technology, and Michelle R. Clayman Institute for Gender Research at Stanford University.",
        "Smith, David G., Rosenstein, Judith E., Nikolov, Margaret C., Chaney, Darby A. 2019. \u201cThe Power of Language: Gender, Status, and Agency in Performance Evaluations.\u201d Sex Roles 80(3\u20134):159\u201371.",
        "Society for Human Resource Management. 2014, October 20. \u201cHR Professionals\u2019 Perceptions about Performance Management Effectiveness\u201d (https://www.shrm.org/hr-today/trends-and-forecasting/research-and-surveys/Documents/2014-Performance-Managment.pptx).",
        "Sprague, Joey, Massoni, Kelley. 2005. \u201cStudent Evaluations and Gendered Expectations: What We Can\u2019t Count Can Hurt Us.\u201d Sex Roles 53(11\u201312):779\u201393.",
        "Steinpreis, Rhea E., Anders, Katie A., Ritzke, Dawn. 1999. \u201cThe Impact of Gender on the Review of the Curricula Vitae of Job Applicants and Tenure Candidates: A National Empirical Study.\u201d Sex Roles 41(7):509\u201328.",
        "Trix, Frances, Psenka, Caroline. 2003. \u201cExploring the Color of Glass: Letters of Recommendation for Female and Male Faculty.\u201d Discourse and Society 14(2):191\u2013220.",
        "Uhlmann, Eric L., Cohen, Geoffrey L. 2005. \u201cConstructed Criteria: Redefining Merit to Justify Discrimination.\u201d Psychological Science 16(6):474\u201380.",
        "Weick, Karl E. 1995. Sensemaking in Organizations. Thousand Oaks, CA: Sage Publications.",
        "Williams, Christine L., Muller, Chandra, Kilanski, Kristine. 2012. \u201cGendered Organizations in the New Economy.\u201d Gender & Society 26(4):549\u201373.",
        "Wynn, Alison T., Correll, Shelley J. 2018. \u201cCombating Gender Bias in Modern Workplaces.\u201d Pp. 509\u2013521 in Handbook of the Sociology of Gender, edited by Risman, B., Froyum, C., Scarborough, W. New York: Springer Press.",
        "Zarate, Michael A., Smith, Eliot R. 1990. \u201cPerson Categorization and Stereotyping.\u201d Social Cognition 8(2):161\u201385."
    ],
    "title": "Inside the Black Box of Organizational Life: The Gendered Language of Performance Assessment",
    "issue": "6",
    "volume": "85",
    "year": 2020,
    "issn": "0003-1224",
    "journal": "American Sociological Review",
    "authors": [
        "Shelley J. Correll",
        " Katherine R. Weisshaar",
        " Alison T. Wynn",
        " JoAnne Delfino Wehner"
    ]
}