{
    "doi": "http://dx.doi.org/10.1177/0022146513501518",
    "abstract": "Research shows a strong association between traumatic life experience and mental health and important gender differences in that relationship in the western European Diaspora; but much less is known about these relationships in other settings. We investigate these relationships in a poor rural Asian setting that recently experienced a decade-long armed conflict. We use data from 400 adult interviews in rural Nepal. The measures come from World Mental Health survey instruments clinically validated for this study population to measure depression, posttraumatic stress disorder, and intermittent explosive disorder. Our results demonstrate that traumatic life experience significantly increases the likelihood of mental health disorders in this setting, and that these traumatic experiences have a larger effect on the mental health of women than men. These findings offer important clues regarding the potential mechanisms producing gender differences in mental health in many settings.",
    "sections": [
        {
            "title": "Introduction",
            "subsections": [
                {
                    "title": null,
                    "paragraphs": [
                        "Evidence for the widespread prevalence of mental health disorders continues to mount rapidly. New general population research in a large number of countries documents the substantial prevalence of mental health disorders across many contexts (Herrman and Swartz 2007; Kessler and Ustun 2008; Neria, Galea, and Norris 2009), which constitutes a significant burden on health worldwide. Unfortunately, even though this research spans many countries, the vast majority of the empirical evidence comes from populations of the European Diaspora. With a small number of exceptions (Frankenberg et al. 2008; Gureje et al. 2010; Karam et al. 2008; Lopes Cardozo et al. 2004; Myer et al. 2008; Sonis et al. 2009; Williams et al. 2007), empirical evidence regarding the prevalence of mental health disorders is particularly rare from culturally distinct populations such as those in rural Africa and rural Asia (Herrman and Swartz 2007; Kessler and Ustun 2008). Because rural Asians account for an enormous fraction of the world's population, empirical evidence from this population is an especially high scientific priority.",
                        "Research on mental health outside the European Diaspora also provides an important opportunity to advance our understanding of the mechanisms creating variations in mental health within populations. For example, a good deal of the research on the relationship between stress and mental health comes from settings in North America and focuses on marriage and family transitions as stressful events (Gove 1972; Simon 1992; Turner and Turner 1999; Umberson, Thomeer, and Williams 2012; Wheaton 1990). This literature repeatedly documents important gender differences in the relationship between stress and mental health, and the most thorough longitudinal work supports the conclusion that women tend to respond to stress with increased psychological distress (internalizing) and men tend to respond to stress with increased substance use (externalizing) (Rosenfield, Lennon, and White 2005; Simon 2002; Umberson et al. 2012). However, the North American setting is characterized by a specific set of potentially stressful circumstances (Turner, Wheaton, and Lloyd 1995; Williams and Kurina 2002), and research on gendered responses to stress points toward both the specific nature of the stressful events and the specific gendered socialization of response to adversity as key elements (Simon 1992, 1995, 2002; Simon and Nath 2004; Turner and Avison 1989; Wheaton 1990). Research on settings outside of North America provides crucial opportunities to investigate both variations in the nature of stressful events and variations in gendered socialization.",
                        "This article describes important new evidence about mental health disorders from rural Nepal and uses this evidence to provide a new window into the specific mechanisms likely to create gender differences in the mental health response to traumatic experiences. As evidence of substantial gender differences in response to trauma mounts, advances in reasoning regarding the likely mechanisms have been slow. This paper proposes three specific mechanisms likely to create gender differences in mental health consequences of trauma in Nepal and in other settings like Nepal. The Nepalese population is quite similar to the agrarian, rural populations found throughout south Asia, southeast Asia, and China. The theoretical reasoning and empirical evidence we report provides a rare view of mental health in this highly populated region, and the mechanisms we identify are likely to be relevant worldwide.",
                        "A fundamental obstacle to the construction of empirical evidence regarding mental health in the general population has been translation and medical validation of appropriate general population measures of mental health disorders (Bulmer 1998; Jowell 1998; Lynn 2001). The World Mental Health (WMH) surveys are the largest international effort at general population measurement ever undertaken. Although successful across many nations in the European Diaspora (Kessler and Ustun 2008), even WMH surveys have struggled with translation and validation in Asia. The unique measures we report here build directly on WMH successes in European populations but feature Nepal-specific methodology to measure a small subset of the most prevalent mental health disorders. The methodology itself is described elsewhere (Ghimire et al. 2013). The results here use general population measures of depression, posttraumatic stress disorder (PTSD), and intermittent explosive disorder (IED) that were successfully validated by medical examination in rural Nepal. Though a thin slice of the total breadth of mental health disorders, these three disorders feature conditions likely to be associated with traumatic events surrounding recent political upheavals in Nepal.",
                        "Our work with these newly available measures examines the relationship between exposure to traumatic events and the prevalence of these disorders. The recent armed conflict involved widespread violence and terror throughout rural Nepal from 1998 to 2006. These events created substantial individual-level variation in exposure to traumatic events, giving us the means to investigate associations between the experience of those events and mental health disorders."
                    ]
                }
            ]
        },
        {
            "title": "Background",
            "subsections": [
                {
                    "title": "Gender and Response to Trauma",
                    "paragraphs": [
                        "The second key objective of this study is to investigate gender differences in the association between trauma exposure and mental disorders. Most studies on PTSD and depression find higher both rates in women. Consistent with the dynamic diathesis-stress model outlined above, models of these gender differences suggest that there are neuroendocrine and psychological consequences of prior exposure to sexual abuse that confer vulnerability to the psychopathogenic effects of subsequent trauma and stress (Cortina and Kubiak 2006; DeSantis et al. 2011; Harkness, Bruce, and Lumley 2006; Kendler, Kuhn, and Prescott 2004; Teicher et al. 2003; Weiss, Longhurst, and Mazure 1999). Female sex hormones (Olff et al. 2007; Parker and Brotchie 2010) and gendered socialization processes are also thought to augment female responsivity to trauma and to lead to less effective coping and greater sensitivity to lack of social support among women (Olff et al. 2007).",
                        "On the basis of these models of psychopathology and gender differences in response to trauma we hypothesise that Nepalese women may be at greater risk of psychopathological consequences of trauma than Nepalese men. The specific features of these models we consider most relevant to Nepal are: (1) prior adversity (particularly sexual assault and domestic violence); (2) socialization experiences; and (3) social support as a moderator of the activation of that vulnerability by trauma.",
                        "Gender differences in early life course exposure to violent assaults may contribute to the observed gender differences in reactions to trauma, especially PTSD (Breslau and Anthony 2007). Prior research indicates that south Asian women are highly likely to experience violent assault, especially domestic violence (Kishor and Johnson 2006; Koenig et al. 2006; Naved et al. 2006). If so, according to the models above, it is quite likely that this prior exposure to violent assault will make Nepalese women more likely than men to experience PTSD after exposure to another trauma.",
                        "Longitudinal research demonstrates that women with life experiences quite different than their early life expectations have the highest levels of depressive symptoms (Carr 1997). The theoretical basis for this empirical outcome is clear--environmental mastery, or the ability to assert individual preferences in complex social environments, is a crucial factor determining psychological well-being (Ryff and Keyes 1995). When life circumstances unfold quite differently than early life expectations, an individual's sense of environmental mastery is greatly reduced, with likely negative consequences for psychological well-being. Specifically, in the Nepalese setting many ethnic groups take substantial pride in socializing boys to expect exposure to, and participation in, dangerous activities including violent conflict and even war (Bista 1972; Gurung 1980). This is a fundamental dimension of a \"Gorkhali\" culture made famous by the British Gorkha soldiers, but also a significant source of nationalism throughout the country (Gellner, Pfaff-Czarnecka, and Whelpton 1997; Gurung 1980; Rathaur 2001). In contrast, the expectation of exposure to violent conflict, does not extend to women. This substantial gender difference in socialization toward armed conflict and the violence it entails, creates an important gender difference in expectations for Nepalese men and women. When armed conflict entered into the everyday lives of rural Nepalese, it was a much greater violation of life expectations for women than it was for men--a difference that could contribute to significant gender differences in the experience of depression after exposure to the traumatic events of this violent conflict. Though different in both the specific form of gendered socialization and the specific type of stressful event than found in research on marriage in North America, this would be a clear example of how gendered socialization produces gender differences in mental health response to stressful events (Simon 2002).",
                        "Theoretical models of gender differences in PTSD suggest that women may be particularly affected by a lack of social support in times of trauma. Gender differences in social support from family relationships may therefore be an important dimension of gender differences in adverse mental health outcomes. For example, under various historical conditions researchers argue that men benefit more from marriage than women in U.S. and European populations (Gove 1972; Rogers, Hummer, and Nam 2000; Waite and Gallagher 2000). Recent longitudinal evidence indicates that these differences may be exaggerated by failure to account for gender-based differences in socialized responses to stress, so that higher rates of poststress depression in women may be similar to higher rates of poststress substance use in men (Simon 2002). Nevertheless, the social support provided by marriage may be greater for men, particularly if wives care for their husbands more often or more effectively than husbands care for their wives. This is important because family relationships are known to have protective effects on health in general and mental health in particular (Barrett and Turner 2005; Bonanno et al. 2007; Dressler 1985; Heymann 2006; House, Landis, and Umberson 1988; Umberson et al. 1996). These protective effects are likely to be particularly important during times of armed conflict, such as in the recent history of Nepal. Gender differences in social support during the armed conflict may create greater resilience in response to trauma for men than for women.",
                        "In summary, extrapolation from models of psychopathology and gender differences in trauma response lead us to expect that traumatic exposures in Nepal will be associated with increased risk of depression, PTSD, and IED, and that there will be gender differences in the prevalence of these disorders in Nepal. This study tests these hypotheses."
                    ]
                },
                {
                    "title": "Gender and Response to Trauma",
                    "paragraphs": [
                        "The data analysis described here comes from the Chitwan Valley of south-central Nepal. The administrative district of Chitwan borders India and is about 100 miles from Kathmandu. There is one large town, Narayanghat, and the rest of Chitwan's population, like much of Nepal's, lives in small, rural villages. The valley is flat, fertile, and dominated by agriculture. Of households in the study area, 82 percent are involved in farming or animal husbandry.",
                        "There are several considerations that make Nepal an ideal location to study relationships between gender, traumatic events, and mental disorders. Over 85 percent of the population still lives in rural areas with a caste-based patriarchal system, creating inequality based on gender, caste, and ethnicity (Bennett 1983; Bista 1972). Similar to other south Asian countries, Nepal also has a high degree of domestic violence against women (Paudel 2007). These factors combine to create significant differences between men and women in the level of threat each is likely to associate with armed conflict events. As a result, the mental health consequences of these events may well be different for men and women.",
                        "This setting also experienced significant armed conflict, creating a large number of traumatic events. Perhaps the most significant conflict is the 10 years of insurgency and counterinsurgency that cost an estimated 13,000 lives and considerable physical, psychological, political, social, and economic damage. Since that conflict ended in a peace agreement in 2006, Nepali society is undergoing a dramatic postconflict sociopolitical transformation. Following the peace agreement, Nepal experienced a series of major political transitions, and such events continue to expose the population to uncertainty and public security threats. Even today, most of the protest programs are using the same tactics used by the Maoists during the armed conflict: public demonstration and strike, intimidation, extortion, abduction, beating, and killing. The uncertain political and economic future and lapse of public security continue to create heavy psychological stress in the general population.",
                        "Although there is reason to suspect a high prevalence of mental health disorders, data on prevalence levels and service use are almost nonexistent. There is currently no reliable source of information about the prevalence of mental health disorders in Nepal. The WHO-AIMS Report on Mental Health Systems in Nepal (World Health Organization 2006) states that although Nepal's mental health policy was formulated in 1996, there is no mental health service available in terms of service areas. There is one mental hospital with a total of .20 beds per 100,000 population. The majority of patients are treated in outpatient facilities or not at all."
                    ]
                }
            ]
        },
        {
            "title": "Data and Methods",
            "subsections": [
                {
                    "title": "Sample Design",
                    "paragraphs": [
                        "The final Nepali CIDI 3.0 questionnaire was administered to a general population, systematically selected sample of 400 individuals living in the western Chitwan Valley. Using the Chitwan Valley Family Study sampling frame--a longitudinal panel study of 151 communities, 2,300 families, and 15,000 individuals--respondents were chosen using a two-stage sampling procedure. First, based on the distance to the urban center, the study area was divided into three distinct strata. Next, a sample of 4 to 6 neighborhoods, each consisting of between 10 and 15 households, were selected from each stratum. In addition, based on a local psychiatrist's recommendation, we purposefully chose 2 additional neighborhoods from poor slum areas that were likely to have a high prevalence of mental disorders. This process yielded 17 neighborhoods (communities) with 198 households. Once a neighborhood was selected, all individuals age 18 and older residing in those households (defined as eating and sleeping most of the time in the past month) within the neighborhoods were interviewed. This sampling procedure resulted in 400 individuals who were selected in a statistically representative manner that closely resembled the Chitwan Valley Family Study sample.",
                        "For validation purposes, we reinterviewed a subset of this sample. This subset included 100 percent of the respondents who were diagnosed positive for at least one disorder through the CIDI-generated diagnosis (both Diagnostic and Statistical Manual of Mental Disorders, fourth edition [DSM IV] and 10th revision of the International Statistical Classification of Diseases and Related Health Problems) and 10 percent of respondents who were diagnosed negative for all disorders through the CIDI-generated diagnosis. This sampling procedure yielded 84 individuals, 50 positive cases and 34 negative cases. Out of 84 respondents, 80 of them were reinterviewed using the Nepali translation of the Structured Clinical Interview Diagnosis questionnaire in a clinical setting by a psychiatrist. Of the 4 respondents whom we could not interview, 2 were refusals, 1 moved to India, and 1 suffered from severe substance abuse and could not get to the clinic for medical diagnosis."
                    ]
                },
                {
                    "title": "Sample Design",
                    "paragraphs": [
                        "The analysis we present investigates three mental disorders measured using this Nepali translation of WMH CIDI 3.0: depression, PTSD, and IED. The measures of depression, PTSD, and IED are based on the lifetime positive diagnosis for those disorders using DSM IV criteria. If the respondent was diagnosed by CIDI as ever positive for that specific disorder it is coded as \"1,\" and \"0\" otherwise. We created an additional dichotomous measure of \"any disorder\" that is coded \"1\" if an individual displayed symptoms of at least one of the three disorders.",
                        "Our measures of traumatic experience are based on a series of questions that record if a respondent ever experienced one or more of the following: participated in combat as a soldier or peacekeeper (note both men and women may have had this experience); lived as an unarmed civilian during a period of war, revolution, military coup, invasion, or ongoing terror of civilians; been a refugee, kidnapped, mugged, raped, sexually assaulted, or stalked; caused serious injury to another person (purposely or accidentally); extorted; conscripted; left home due to fear of abduction; experienced a manmade disaster including a bomb explosion, natural disaster, or life-threatening car or other accident; been exposed to toxic chemicals; been beaten by parents, spouse, or someone else; witnessed serious physical fights at home; had a life-threatening illness or a child with a life-threatening illness; seen atrocities or carnage such as mutilated bodies or mass killings; had seen someone badly injured or killed; unexpectedly seen a dead body; had someone close to them die unexpectedly; or had their property seized or looted. We use an interval-level measure that records the number of these events a respondent had ever experienced. To investigate the potential for outliers to exert a high influence on our results, we tested several different functional forms of this measure. These include versions truncated at five or more, six or more, seven or more, eight or more, and nine or more types of traumatic experience and the natural log of the number of types of traumatic experience. We also investigate a dichotomous measure indicating whether a respondent ever experienced at least one of these traumatic events.",
                        "To examine family-based social support we examine marital status and access to children. In our analyses marital status is a dichotomous measure, where never married, divorced, separated, and widowed are all coded as not married. Those from larger families also appear to enjoy greater social support (Dressler 1985; Mowbray et al. 2005). We expect those living in large families to have more social support, and therefore lower prevalence of mental health disorders, than those living in smaller families. We operationalize this with a dichotomous variable that is coded \"1\" if at least four people live in the respondent's household, otherwise coded as \"0.\"",
                        "Finally, we use measures of age, gender, and education to control for other demographic influences on mental health outcomes. Education records the number of years of formal schooling the respondent had completed."
                    ]
                },
                {
                    "title": "Sample Design",
                    "paragraphs": [
                        "We use a series of multilevel logistic regression models to predict the outcomes: depression, PTSD, IED, or any disorder. The equation for these models is as follows:",
                        "",
                        "where Y is the mental disorder, a is the intercept, Bk is the effect of the independent variables, Xk is the value of these independent variables, and  is the error. We estimate multilevel models that include an adjustment for the neighborhood-level clustering of cases (in SAS glimmix). Note this neighborhood-level clustering includes clustering of multiple individuals in the same home. We first predict the effect of gender, family, and demographic characteristics on any disorder in the full sample (men and women). We then predict the effects of the dichotomous measure of any traumatic experience ever and the lifetime number of different types of traumatic experiences (we present the version of this measure truncated at five or more because it is the most analytically conservative, but all the versions we tested yield the same substantive conclusions). To test whether gender conditions the effect of traumatic experience on the prevalence of mental disorders, we use a model on the full sample that includes an interaction term between trauma and gender.",
                        "Next, to estimate the effects of traumatic experience on specific mental disorders, we estimate models predicting depression, PTSD, and IED separately, contingent on trauma, gender, a gender and trauma interaction, and demographic characteristics. As described below, the low levels of PTSD and IED and strong gender differences in the prevalence of these disorders limit the opportunity to test multivariate models of these outcomes."
                    ]
                }
            ]
        },
        {
            "title": "Results",
            "subsections": [
                {
                    "title": "Results from Multivariate Models",
                    "paragraphs": [
                        "Next we turn to multivariate models predicting the consequences of trauma, demographic, and family characteristics on mental disorders. Table 2 presents the results from models predicting any disorder, including depression, PTSD, and IED. As shown in Model 1, which includes the demographic and family measures, there were no significant predictors of any mental disorder.",
                        "The effect of traumatic experience is tested in Models 2 and 3 of Table 2. As shown in Model 2, ever having experienced any traumatic event increases the likelihood of developing a mental disorder by more than 5 times. The effect of the number of kinds of traumatic experiences, shown in Model 3, is somewhat smaller, with an odds ratio of 1.85. However, odds ratios are multiplicative, so that someone who experienced two types of events would be 3.43 times (1.85 x 1.85) more likely to develop a mental disorder and those who experienced four types of events are more than 10 times more likely.",
                        "Model 3 also shows that controlling for the number of kinds of trauma reveals a statistically significant gender difference, in which women were almost two times more likely to experience any mental disorder, independent of trauma. That is, failure to control for the gender differences in experiencing multiple kinds of trauma masks the underlying gender difference in the likelihood of mental illness. In Nepal, once we control for men's higher likelihood of experiencing multiple kinds of trauma, we reveal a strong association between gender and mental illness.",
                        "Next we explore the interaction between gender and trauma. Model 4 includes an additional term for the interaction between gender and trauma. The interaction term is statistically significant, with an odds ratio of 1.75. The statistically significant interaction term means that Nepalese women are significantly more likely to respond to trauma this way than their male counterparts who also experienced traumatic events. Overall, traumatic experience had large and significant effects on mental health and a larger influence on the mental health of women than men.",
                        "To address specific mental disorders, we turn to analysis of each individual disorder. Unfortunately, because the incidence of PTSD and IED are low but the gender differences are high, it is difficult to test the same gender interactions in models of PTSD and IED. Instead, we begin by investigating models of depression, as displayed in Table 3. As shown in Model 6, traumatic experience significantly increased the likelihood of reporting depression, and the magnitude of this effect is nearly the same as the effect on all three disorders presented in Table 2. Also similar to the results displayed in Table 2, the interaction between gender and traumatic experience was positive and significant as well as of a similar magnitude (see Model 7 of Table 3). Traumatic experience had a large and significant effect, increasing reports of depression, but this effect was much stronger among women than among men. Finally, as expected, those from larger households were significantly less likely to report depression independent of the experience of trauma.",
                        "We find similar results for the impact of gender and trauma on PTSD, but because PTSD is so rare among men, we do not show a multivariate model estimation with both genders. Among women, however, we estimate each additional type of traumatic experience increases the odds of reporting PTSD by 2.15 times (not shown in tables). This large and statistically significant effect means that women who experience four types of trauma are more than 10 times more likely to report PTSD. By contrast, among men only, traumatic experience had no statistically significant influence on reports of PTSD (not shown in tables). Traumatic experience dramatically increases reports of PTSD among Nepalese women but not among Nepalese men.",
                        "We also tested the influence of traumatic experience and demographic characteristics on IED. Because the prevalence of IED among women was very low (only .85 percent of women), we used a sample of only men. With an odds ratio of 1.53, results (not shown) indicate that traumatic experience increased the likelihood of experiencing IED for men by about 50 percent. This effect was statistically significant. Demographic characteristics had no significant influence on IED reports for men."
                    ]
                }
            ]
        },
        {
            "title": "Discussion",
            "subsections": [
                {
                    "title": null,
                    "paragraphs": [
                        "Overall these results demonstrate that social experiences shape the incidence of mental health disorders in a rural Asian population in the way theory predicts. Traumatic events increase the likelihood of disorders, at least among the disorders we investigate here. Rural Nepal was a place of significant armed conflict during the past decade, giving many in the population exposure to chronic stress as well as violent traumatic events, including gun battles, bombings, beatings, and abductions. Any exposure to these events significantly increased the likelihood of experiencing a mental health disorder, and exposure to many events produced much higher likelihoods of disorders than exposure to few events. Though the stressful events themselves are different, this finding is consistent with North American research regarding the consequences of stressful experiences and the cumulative consequences of multiple stressful experiences (Turner and Lloyd 1995; Wheaton 1990).",
                        "Equally interesting, even in rural Nepal there is an important gender interaction with experiencing traumatic events. Both men and women who experienced traumatic events were more likely to report a mental health disorder, but the consequence of traumatic experience was significantly stronger among women than among men. Even though women were significantly less likely to be exposed to traumatic events during this armed conflict, when they did have traumatic experiences they were much more likely than men to suffer mental illness. Though this replicates a result already documented in a handful of other settings, the result is the most important contribution of our findings.",
                        "In fact it is precisely because this finding replicates results documented in other settings that it is important. It was nearly 20 years ago that research documented this same type of result for PTSD and other disorders in North America (Kessler et al. 1995; Turner and Lloyd 1995). Studies of trauma and PTSD have replicated this result under a variety of different circumstances in the United States, in Northern Ireland, in Israel, and in Indonesia (Bonanno et al. 2007; Breslau 2002; Frankenberg et al. 2008; Palmieri et al. 2007; Stuber et al. 2006). A similar gender difference has been documented for depression (Hall et al. 2008). Our findings from Nepal do not mean this gender difference is universal, but they certainly do mean this difference is widespread across cultures, economies, and sources of trauma. This topic deserves a higher priority in future research.",
                        "Of course many limitations of the study we report prevent it from answering key questions about the mechanisms responsible. First, the data are cross-sectional and do not measure change in mental health status over time. It is unlikely that prior mental health conditions produced exposure to traumatic events, but mental health conditions may have preceded exposure to traumatic experience and may have influenced reporting of exposure to such events. Multiple measures across time would provide a significantly stronger research design. Second, as noted above, these measures of traumatic experience appear to be underestimates, with no reports of sexual-assault-related trauma. This not only attenuates estimates of trauma experience but also limits our ability to test a key hypothesis--the possibility that prior experience of violent assault increases the likelihood of a mental health reaction to trauma for women (Breslau and Anthony 2007). Other measurement limitations also prevent comprehensive investigation of the competing hypotheses. These limitations leave plenty of room for future contributions.",
                        "Nevertheless, the findings do offer a few intriguing clues regarding the potential mechanisms at work. First, we find similar gender interactions with respect to both PTSD and depression, and in this setting the effect sizes appear stronger for depression than for PTSD. Mechanisms more closely associated with depression, such as mismatch between socialized expectations and later experience, may well be an important element in the creation of the gender differences we observe (Carr 1997). This finding supports the more general argument that early life gender differences in socialization contribute to later life mental health responses to stress or traumatic experience (Simon 2002). In this Nepalese case the subject matter of gendered socialization--expectations for direct participation in violent armed conflict--are quite a bit different than gendered socialization about family roles, but the consequence for gender differences in mental health may be similar.",
                        "Second, though limited in our measures to investigate family social support, the measures of marital status and family size we use do little to explain this important gender difference in response to trauma. Though important gender differences in the social support from family relationships are highly likely in Nepal and we find living in larger families reduces reports of depression, these differences may not help us understand the gender differences in mental health response to traumatic events. Again, though the setting and stressful events are different, this result echoes North American findings that the relationships between family support, family roles, and mental health may be quite complex and dependent on the specific nature of the stressful events themselves (Umberson et al. 2012).",
                        "Third, just as U.S. research on gender differences in the relationship between stress and mental health supports the conclusion that men and women tend to respond to stress differently, we also discovered an important gender difference in response to the stress associated with traumatic experience in Nepal. Research in the United States indicates women respond to stress with increased psychological distress (internalizing) and men tend to respond to stress with increased substance use (externalizing) (Rosenfield et al. 2005; Simon 2002; Umberson et al. 2012). In Nepal we find both men and women respond to stressful traumatic experience with elevated reports of PTSD, but this effect is stronger for women than for men. We also find that women are much more likely than men to respond to traumatic experience with depression, but men are much more likely than women to respond to traumatic experience with IED. That is, male reactions to traumatic experience may be as strong as female reactions to traumatic experience but expressed through different symptoms. This possibility deserves more research.",
                        "The North American setting is characterized by a specific set of potentially stressful circumstances (Turner et al. 1995; Williams and Kurina 2002), and research in that setting on gendered responses to stress points toward both the specific nature of the stressful events and the specific gendered socialization of response to adversity as key elements (Simon 1992, 1995, 2002; Simon and Nath 2004; Turner and Avison 1989; Wheaton 1990). Research on settings outside of North America provides crucial opportunities to investigate both variations in the nature of stressful events and variations in gendered socialization. Thus, research on the mental health response to stress in a wide range of settings--advancing the investigation we begin here--is a high-priority complement to research on North America.",
                        "Moreover, by the mid-1990s the World Health Organization identified depression as the leading cause of disease-related disability among women in the world (Kessler 2006; Murray and Lopez 1996). This health problem is enormous and worldwide. The evidence we present here is consistent with the possibility that differential response to traumatic events is part of the gender difference in occurrence of depression. The topic deserves our highest scientific priority. Investigation of the multiple potential mechanisms is a high priority in the study of differential response to traumatic experience. The clues provided here point us toward the research designs we need: Detailed longitudinal studies with carefully crafted measures of each rival hypothesis are a high scientific and health policy priority."
                    ]
                }
            ]
        }
    ],
    "references": [
        "Barrett, Anne E., Turner, R. Jay. 2005. \u201cFamily Structure and Mental Health: The Mediating Effects of Socioeconomic Status, Family Process, and Social Stress.\u201d Journal of Health and Social Behavior 46(2):156\u201369.",
        "Basoglu, Metin, Paker, Murat, Ozmen, Erdogan, Tasdemit, Ozgun, Sahin, Dogan. 1994. \u201cFactors Related to Long-term Traumatic Stress Responses in Survivors of Torture in Turkey.\u201d Journal of the American Medical Association 272(5):357\u201363.",
        "Belsky, Jay, Pluess, Michael. 2009. \u201cBeyond Diathesis Stress: Differential Susceptibility to Environmental Influences.\u201d Psychological Bulletin 135(6):885\u2013908.",
        "Bennett, Lynn. 1983. Dangerous Wives and Sacred Sisters. New York, NY: Columbia University Press.",
        "Bista, Dor B. 1972. People of Nepal. Kathmandu, Nepal: Ratna Pustak Bhandar.",
        "Bonanno, George A., Galea, Sandro, Bucciarelli, Angela, Vlahov, David. 2007. \u201cWhat Predicts Psychological Resilience after Disaster? The Role of Demographics, Resources, and Life Stress.\u201d Journal of Consulting and Clinical Psychology 75(5):671\u201382.",
        "Breslau, Naomi. 2002. \u201cGender Differences in Trauma and Posttraumatic Stress Disorder.\u201d Journal of Gender Specific Medicine 5(1):34\u201340.",
        "Breslau, Naomi, Anthony, James C. 2007. \u201cGender Differences in the Sensitivity to Posttraumatic Stress Disorder: An Epidemiological Study of Urban Young Adults.\u201d Journal of Abnormal Psychology 116(3):607\u201311.",
        "Brown, George W., Harris, Tirril. 1978. Social Origins of Depression. New York, NY: Free Press.",
        "Bulmer, Martin. 1998. \u201cIntroduction: The Problem of Exporting Social Survey Research.\u201d American Behavioral Scientist 42(2):153\u201367.",
        "Carr, Deborah. 1997. \u201cThe Fulfillment of Career Dreams at Midlife: Does It Matter for Women\u2019s Mental Health?\u201d Journal of Health and Social Behavior 38(4):331\u201344.",
        "Cortina, Lilia M., Kubiak, Sheryl P. 2006. \u201cGender and Posttraumatic Stress: Sexual Violence as an Explanation for Women\u2019s Increased Risk.\u201d Journal of Abnormal Psychology 115(4):753\u201359.",
        "DeSantis, Stacia M., Baker, Nathaniel L., Back, Sudie E., Spratt, Eve, Ciolino, Jody D., Maria, Megan Moran-Santa, Dipankar, Bandyopadhya, Brady, Kathleen T. 2011. \u201cGender Differences in the Effect of Early Life Trauma on Hypothalamic-Pituitary-Adrenal Axis Functioning.\u201d Depression and Anxiety 28(5):383\u201392.",
        "Dressler, William W. 1985. \u201cExtended Family Relationships, Social Support, and Mental Health in a Southern Black Community.\u201d Journal of Health and Social Behavior 26(1):39\u201348.",
        "Frankenberg, Elizabeth, Friedman, Jed, Gillespie, Thomas, Ingwersen, Nicholas, Pynoos, Robert, Rifai, Iip, Sikoki, Bondan, Sumantri, Cecep, Suriastini, Wayan, Thomas, Duncan. 2008. \u201cMental Health in Sumatra after the Tsunami.\u201d American Journal of Public Health 98(9):1671\u201377.",
        "Gellner, David N., Pfaff-Czarnecka, Joanna, Whelpton, John. 1997. Nationalism and Ethnicity in a Hindu Kingdom. Newark, NJ: Harwood Academic.",
        "Ghimire, Dirgha J., Chardoul, Stephanie, Kessler, Ronald, Axinn, William G., Adhikari, Bishnu. 2013. \u201cModifying and Validating the Composite International Diagnostic Interview (CIDI) for Use in Nepal.\u201d International Journal of Methods in Psychiatric Research 22(1):71\u201381.",
        "Gove, Walter R. 1972. \u201cThe Relationship between Sex Roles, Marital Status, and Mental Illness.\u201d Social Forces 51(1):34\u201344.",
        "Gureje, Oye, Uwakwe, Richard, Oladeji, Bibilola, Makanjuola, Victor O., Esan, Oluyomi. 2010. \u201cDepression in Adult Nigerians: Results from the Nigerian Survey of Mental Health and Well-being.\u201d Journal of Affective Disorders 120(1\u20133):158\u201364.",
        "Gurung, Harka. B. 1980. Vignettes of Nepal. Kathmandu, Nepal: Sajha Prakashan.",
        "Hall, Brian J., Hobfoll, Stevan E., Palmieri, Patrick A., Canetti-Nisim, Daphna, Shapira, Oren, Johnson, Robert J., Galea, Sandro. 2008. \u201cThe Psychological Impact of Impending Forced Settler Disengagement in Gaza: Trauma and Posttraumatic Growth.\u201d Journal of Traumatic Stress 21(1):22\u201329.",
        "Hammen, Constance. 2005. \u201cStress and Depression.\u201d Annual Review of Clinical Psychology 1(1):293\u2013319.",
        "Harkness, Kate L., Bruce, Alanna E., Lumley, Margaret N. 2006. \u201cThe Role of Childhood Abuse and Neglect in the Sensitization to Stressful Life Events in Adolescent Depression.\u201d Journal of Abnormal Psychology 115(4):730\u201341.",
        "Heim, Christine, Plotsky, Paul M., Nemeroff, Charles B. 2004. \u201cImportance of Studying the Contributions of Early Adverse Experience to Neurobiological Findings in Depression.\u201d Neuropsychopharmacology 29(4):641\u201348.",
        "Heim, Christine, Shugart, Margaret, Craighead, W. Edward, Nemeroff, Charles B. 2010. \u201cNeurobiological and Psychiatric Consequences of Child Abuse and Neglect.\u201d Developmental Psychobiology 52(7):671\u201390.",
        "Herrman, Helen, Swartz, Leslie. 2007. \u201cPromotion of Mental Health in Poorly Resourced Countries.\u201d Lancet 370(9594):1195\u201397.",
        "Heymann, Jody. 2006. Forgotten Families: Ending the Growing Crisis Confronting Children and Working Parents in the Global Economy. Oxford, England: Oxford University Press.",
        "House, James S., Landis, Karl R., Umberson, Debra. 1988. \u201cSocial Relationships and Health.\u201d Science 241(4865):540\u201345.",
        "Hyde, Janet S., Mezulis, Amy H., Abramson, Lyn Y. 2008. \u201cThe ABCs of Depression: Integrating Affective, Biological, and Cognitive Models to Explain the Emergence of the Gender Difference in Depression.\u201d Psychological Review 115(2):291\u2013313.",
        "Jowell, Roger. 1998. \u201cHow Comparative Is Comparative Research?\u201d American Behavioral Scientist 42(2):168\u201377.",
        "Karam, Elie G., Howard, Diantha B., Karam, Aimee N., Ashkar, Alice, Shaaya, Monique, El-Khoury, Nazek. 1998. \u201cMajor Depression and External Stressors: The Lebanon Wars.\u201d European Archives of Psychiatry and Clinical Neuroscience 248(5):225\u201330.",
        "Karam, Elie G., Mneimneh, Zeina N., Dimassi, Hani, Fayyad, John A., Karam, Aimee N., Nasser, Soumana C., Chatterji, Somnath, Kessler, Ronald C. 2008. \u201cLifetime Prevalence of Mental Disorders in Lebanon: First Onset, Treatment, and Exposure to War.\u201d PLoS Medicine 5(4):e61.",
        "Kendler, Kenneth S., Gardner, Charles O., Prescott, Carol A. 2002. \u201cToward a Comprehensive Developmental Model for Major Depressive Disorder in Women.\u201d American Journal of Psychiatry 159(7):1133\u201345.",
        "Kendler, Kenneth S., Kuhn, Jonathan W., Prescott, Carol A. 2004. \u201cChildhood Sexual Abuse, Stressful Life Events and Risk for Major Depression in Women.\u201d Psychological Medicine 34(8):1475\u201382.",
        "Kessler, Ronald C. 1997. \u201cThe Effects of Stressful Life Events on Depression.\u201d Annual Review of Psychology 48:191\u2013214.",
        "Kessler, Ronald C. 2006. \u201cThe Epidemiology of Depression among Women.\u201d Pp. 22\u201337 in Women and Depression: A Handbook for the Social, Behavioral, and Biomedical Sciences, edited by Keyes, C. L. M., Goodman, S. H. New York, NY: Cambridge University Press.",
        "Kessler, Ronald C., Sonnega, Amanda, Bromet, Evelyn, Hughes, Michael, Nelson, Christopher B. 1995. \u201cPosttraumatic Stress Disorder in the National Comorbidity Survey.\u201d Archives of General Psychiatry 52(12):1048\u201360.",
        "Kessler, Ronald C., \u00dcst\u00fcn, T. Bedirhan. 2008. The WHO World Mental Health Surveys: Global Perspectives on the Epidemiology of Mental Disorders. New York, NY: Cambridge University Press.",
        "Kishor, Sunita, Johnson, Kiersten. 2006. \u201cReproductive Health and Domestic Violence: Are the Poorest Women Uniquely Disadvantaged?\u201d Demography 43(2):293\u2013307.",
        "Koenig, Michael A., Stephenson, Rob, Ahmed, Saifuddin, Jejeebhoy, Shireen J., Cambell, Jacquelyn. 2006. \u201cIndividual and Contextual Determinants of Domestic Violence in North India.\u201d American Journal of Public Health 96(1):132\u201338.",
        "Lloyd, Donald A., Turner, R. Jay. 2003. \u201cCumulative Adversity and Posttraumatic Stress Disorder: Evidence from a Diverse Community Sample of Young Adults.\u201d American Journal of Orthopsychiatry 73(4):381\u201391.",
        "Lopes Cardozo, Barbara, Bilukha, Oleg O., Gotway Crawford, Carol A., Shaikh, Irshad, Wolfe, Mitchell I., Gerber, Michael L., Anderson, Mark. 2004. \u201cMental Health, Social Functioning, and Disability in Postwar Afghanistan.\u201d Journal of the American Medical Association 292(5):575\u201384.",
        "Lynn, Peter. 2001. \u201cThe Impact of Incentives on Response Rates to Personal Interview Surveys: Role and Perceptions of Interviewers.\u201d International Journal of Public Opinion Research 13(3):326\u201337.",
        "Massey, Douglas S., Williams, Nathalie, Axinn, William G., Ghimire, Dirgha J. 2010. \u201cCommunity Services and Out-migration.\u201d International Migration 48(3):1\u201341.",
        "Mazure, Carolyn M. 1998. \u201cLife Stressors as Risk Factors in Depression.\u201d Clinical Psychology: Science and Practice 5(3):291\u2013313.",
        "Miller, Kenneth E., Rasmussen, Andrew. 2010. \u201cWar Exposure, Daily Stressors, and Mental Health in Conflict and Post-conflict Settings: Bridging the Divide between Trauma-focused and Psychosocial Frameworks.\u201d Social Science & Medicine 70(1):7\u201316.",
        "Monroe, Scott M., Simons, Anne D. 1991. \u201cDiathesis-Stress Theories in the Context of Life Stress Research: Implications for the Depressive Disorders.\u201d Psychological Bulletin 110(3):406\u201325.",
        "Mowbray, Carol T., Bybee, Deborah, Hollingsworth, Leslie, Goodkind, Sara, Oyserman, Daphna. 2005. \u201cLiving Arrangements and Social Support: Effects on the Well-being of Mothers with Mental Illness.\u201d Social Work Research 29(1):41\u201355.",
        "Murray, Christopher J. L., Lopez, Alan D. 1996. The Global Burden of Diseases: A Comprehensive Assessment of Mortality and Disability from Diseases, Injuries and Risk Factors in 1990 and Projected to 2020. Boston, MA: Harvard School of Public Health, WHO, and World Bank.",
        "Myer, Landon, Stein, Dan J., Grimsrud, Anna, Seedat, Soraya, Williams, David R. 2008. \u201cSocial Determinants of Psychological Distress in a Nationally-Representative Sample of South African Adults.\u201d Social Science & Medicine 66(8):1828\u201340.",
        "Naved, Ruchira T., Azim, Safia, Bhuiya, Abbas, Persson, Lars A. 2006. \u201cPhysical Violence by Husbands: Magnitude, Disclosure, and Help Seeking Behavior of Women in Bangladesh.\u201d Social Science & Medicine 62(12):2917\u201329.",
        "Neria, Yuval, Galea, Sandro, Norris, Fran H. 2009. Mental Health and Disasters. Cambridge, MA: Cambridge University Press.",
        "Olff, Miranda, Langeland, Willie, Draijer, Nel, Gersons, Berthold P. 2007. \u201cGender Differences in Posttraumatic Stress Disorder.\u201d Psychological Bulletin 133(2):183\u2013204.",
        "Ormel, Johan, Neeleman, Jan. 2000. \u201cTowards a Dynamic Stress-Vulnerability Model of Depression: The Role of Neuroticism, Life Events, and Gender.\u201d Pp. 151\u201369 in Where Inner and Outer Worlds Meet: Psychological Research in the Tradition of George W. Brown, edited by Harris, T. Florence, KY: Routledge.",
        "Palmieri, Patrick A., Weathers, Frank W., Difede, JoAnn, King, Daniel W. 2007. \u201cConfirmatory Factor Analysis of the PTSD Checklist and the Clinician-Administered PTSD Scale in Disaster Workers Exposed to the World Trade Center Ground Zero.\u201d Journal of Abnormal Psychology 116(2):329\u201341.",
        "Parker, Gordon B., Brotchie, Heather L. 2010. \u201cGender Differences in Depression.\u201d International Review of Psychiatry 22(5):429\u201336.",
        "Paudel, Giridhari S. 2007. \u201cDomestic Violence against Women in Nepal.\u201d Gender, Technology and Development 11(2):199\u2013233.",
        "Potdar, Rukmini, Koenig, Michael A. 2005. \u201cDoes Audio-CASI Improve Reports of Risky Behavior? Evidence from a Randomized Field Trial among Young Urban Men in India.\u201d Studies in Family Planning 36(2):107\u201316.",
        "Rathaur, Kamal Raj Sing. 2001. \u201cBritish Gurkha Recruitment: A Historical Perspective.\u201d Voice of History 16(2):19\u201324.",
        "Rogers, Richard G., Hummer, Robert A., Nam, Charles B. 2000. Living and Dying in the USA. San Diego, CA: Academic Press.",
        "Rosenfield, Sarah, Lennon, Mary Clare, White, Helene Raskin. 2005. \u201cThe Self and Mental Health: Self-salience and the Emergence of Internalizing and Externalizing Problems.\u201d Journal of Health and Social Behavior 46(4):323\u201340.",
        "Ryff, Carol D., Keyes, Corey L. M. 1995. \u201cThe Structure of Psychological Well-being Revisited.\u201d Journal of Personality and Social Psychology 69(4):719\u201327.",
        "Simon, Robin W. 1992. \u201cParental Role Strains, Salience of Parental Identity and Gender Differences in Psychological Distress.\u201d Journal of Health and Social Behavior 33(1):25\u201335.",
        "Simon, Robin W. 1995. \u201cGender, Multiple Roles, Role Meaning, and Mental Health.\u201d Journal of Health and Social Behavior 36(2):182\u201394.",
        "Simon, Robin W. 2002. \u201cRevisiting the Relationships among Gender, Marital Status, and Mental Health.\u201d American Journal of Sociology 107(4):1065\u201396.",
        "Simon, Robin W., Nath, Leda E. 2004. \u201cGender and Emotion in the United States: Do Men and Women Differ in Self-reports of Feelings and Expressive Behavior?\u201d American Journal of Sociology 109(5):1137\u201376.",
        "Sonis, Jeffrey, Gibson, James L., de Jong, Joop T. V. M., Field, Nigel P., Hean, Sokhom, Komproe, Ivan. 2009. \u201cProbable Posttraumatic Stress Disorder and Disability in Cambodia: Associations with Perceived Justice, Desire for Revenge, and Attitudes toward the Khmer Rouge Trials.\u201d Journal of the American Medical Association 302(5):527\u201336.",
        "Stuber, Jennifer, Galea, Sandro, Boscarino, Joseph A., Schlesinger, Mark. 2006. \u201cWas There Unmet Mental Health Need after the September 11, 2001 Terrorist Attacks?\u201d Social Psychiatry and Psychiatric Epidemiology 41(3):230\u201340.",
        "Teicher, Martin H., Andersen, Susan L., Polcari, Ann, Anderson, Carl M., Navalta, Carryl P., Kim, Dennis M. 2003. \u201cThe Neurobiological Consequences of Early Stress and Childhood Maltreatment.\u201d Neuroscience and Biobehavioral Reviews 27(1\u20132):33\u201344.",
        "Thapa, Suraj Bahadur, Hauff, Edvard. 2005. \u201cPsychological Distress among Displaced Persons During an Armed Conflict in Nepal.\u201d Social Psychiatry and Psychiatric Epidemiology 40(4):672\u201379.",
        "Tourangeau, Roger, Smith, Tom W. 1996. \u201cAsking Sensitive Questions.\u201d Public Opinion Quarterly 60(2):275\u2013304.",
        "Turner, Heather A., Turner, R. Jay. 1999. \u201cGender, Social Status, and Emotional Reliance.\u201d Journal of Health and Social Behavior 40(4):360\u201373.",
        "Turner, R. Jay, Avison, William R. 1989. \u201cGender and Depression: Assessing Exposure and Vulnerability to Life Events in a Chronically Strained Population.\u201d Journal of Nervous & Mental Disease 177(8):443\u201355.",
        "Turner, R. Jay, Lloyd, Donald A. 1995. \u201cLifetime Traumas and Mental Health: The Significance of Cumulative Adversity.\u201d Journal of Health and Social Behavior 36(4):360\u201376.",
        "Turner, R. Jay, Lloyd, Donald A. 1999. \u201cThe Stress Process and the Social Distribution of Depression.\u201d Journal of Health and Social Behavior 40(4):374\u2013404.",
        "Turner, R. Jay, Wheaton, Blair, Lloyd, Donald A. 1995. \u201cThe Epidemiology of Social Stress.\u201d American Sociological Review 60(1):104\u201325.",
        "Umberson, Debra J., Chen, Meichu D., House, James S., Hopkins, Kristine L., Slaten, Ellen. 1996. \u201cSocial Relationships and Their Effects on Psychological Well-being: Are Men and Women Really So Different?\u201d American Sociological Review 61(5):836\u201356.",
        "Umberson, Debra, Thomeer, Mieke B., Williams, Kristi. 2012. \u201cFamily Status and Mental Health: Recent Advances and Future Directions.\u201d Pp. 405\u201331 in Handbook of the Sociology of Mental Health, 2nd ed., edited by Aneshensel, C. S., Phelan, J. C., Bierman, A. New York, NY: Springer.",
        "United Nations Development Programme. 2011. \u201cSustainability and Equity: A Better Future for All.\u201d Human Development Report. Retrieved July 12, 2012 (http://www.gm.undp.org/HDR_2011_EN_Complete.pdf).",
        "Waite, Linda J., Gallagher, Maggie. 2000. The Case for Marriage: Why Married People Are Happier, Healthier, and Better Off Financially. New York, NY: Doubleday.",
        "Weiss, Erica L., Longhurst, James G., Mazure, Carolyn M. 1999. \u201cChildhood Sexual Abuse as a Risk Factor for Depression in Women: Psychosocial and Neurobiological Correlates.\u201d American Journal of Psychiatry 156(6):816\u201328.",
        "Wheaton, Blair. 1990. \u201cLife Transitions, Role Histories, and Mental Health.\u201d American Sociological Review 55(2):209\u201323.",
        "Williams, Kristi, Kurina, Lianne M. 2002. \u201cThe Social Structure, Stress, and Women\u2019s Health.\u201d Clinical Obstetrics and Gynecology 45(4):1099\u2013118.",
        "Williams, Nathalie. 2009. \u201cEducation, Gender, and Migration in the Context of Social Change.\u201d Social Science Research 38(4):883\u201396.",
        "Williams, Nathalie E., Ghimire, Dirgha J., Axinn, William G., Jennings, Elyse A., Pradhan, Meeta S. 2012. \u201cA Micro-level Event-centered Approach to Investigating Armed Conflict and Population Responses.\u201d Demography 49(4):1521\u201346.",
        "Williams, Stacy L., Williams, David R., Stein, Dan J., Seedat, Soraya, Jackson, Pamela B., Moomal, Hashim. 2007. \u201cMultiple Traumatic Events and Psychological Distress: The South Africa Stress and Health Study.\u201d Journal of Traumatic Stress 20(5):845\u201355.",
        "World Health Organization. 2006. WHO-AIMS Report on Mental Health Systems in Nepal. Kathmandu, Nepal: Ministry of Health and Population Nepal.",
        "Zuckerman, Marvin. 1999. Vulnerability to Psychopathology: A Biosocial Model. Washington, DC: American Psychological Association."
    ],
    "title": "Gender, Traumatic Events, and Mental Health Disorders in a Rural Asian Setting",
    "issue": "4",
    "volume": "54",
    "year": 2013,
    "issn": "0022-1465",
    "journal": "Journal of Health and Social Behavior",
    "authors": [
        "William G. Axinn",
        " Dirgha J. Ghimire",
        " Nathalie E. Williams",
        " Kate M. Scott"
    ]
}