{
    "doi": "http://dx.doi.org/10.1093/esr/jcm046",
    "abstract": "Life style research has become an independent branch of social structural analysis that systematically complements the role of classical research on social inequality in explaining social action. However, there are important gaps in life style research. First, theoretical bases for explaining the statistical connection between life styles and social action are lacking. Secondly, it remains unclear why life styles sometimes are good predictors of social action and sometimes are not. In a first step this article puts forward an action-theoretic framework as a basis for life style research that implies a conceptual shift from life styles to cultural preferences. In a second step it develops three hypotheses that set out the conditions for a high or low explanatory power of cultural preferences. They are empirically tested by way of a data analysis that supports the applicability of the theoretical ideas developed in the paper.",
    "sections": [
        {
            "title": "Introduction",
            "paragraphs": [
                "For more than two decades we have observed that the analysis of social structure has increasingly used the concept of life styles, which typically focusses on patterns of leisure, consumption, and personal taste (Hartmann, 1999; Kraaykamp and Nieuwbeerta, 2000; Kraaykamp, 2002; Katz-Gerro, 2002; van Eijck and Bargemann, 2004; Otte, 2004; Rossel, 2005). However, this concept had been introduced primarily as an alternative and rival to the classical concept of social class, which was increasingly regarded as lacking the ability to describe the structure of an increasingly individualized (Beck, 1986; Berger, 1996), highly differentiated (Hradil, 1987), and ever more dynamic society (Berger and Sopp, 1995; Leibfried et al., 1995) on the one hand, and to explain social action in such a society on the other. Thus, the concept of life styles was often considered a complement or even an alternative to the concept of class, which was sometimes regarded as being obsolete (Hradil, 1987; Schulze, 1990; Pakulski and Waters, 1996; for an overview Berger and Hradil, 1990). Most of all, it was used to understand why the behaviour of actors is, seemingly, less and less determined by the class-based inequalities in the distribution of resources. Life styles were seen as a kind of subjective aspect of social inequality, for the most part focussing on the use of resources and the aesthetic preferences of actors (DiMaggio, 1987; Hall, 1988; Muller, 1992, 371-376; Konietzka, 1995, 23; Pakulski and Waters, 1996; Spellerberg, 1996, 58, 74; Georg, 1998, 92; Schneider and Spellerberg, 1999, 78).",
                "The significance and explanatory power of life styles for social action has been discussed in completely different fields of the social sciences: in urban sociology and geography particularly with respect to housing decisions (Brun and Fagnani, 1994; Wynne and O'Connor, 1998; Schneider and Spellerberg, 1999), and in educational sociology by way of the concept of cultural capital, which is closely related to the life style concept (Bourdieu and Passeron, 1971; DiMaggio, 1982; Lareau and Weininger, 2003). Further fields of application include voting behaviour (Otte, 1997), the explanation of life satisfaction (Spellerberg, 1996), nutritional and health behaviour (Klein et al., 2001; Gerhards and Rossel, 2002), and choice of marriage partner (de Haan and Uunk, 2001). However, the use of the concept of life styles is connected to different pretensions: whereas authors such as Pakulski and Waters (1996), Hall (1988), and Michailow (1994) clearly reject the relevance of class for current post-industrialized societies and regard the actions and identities of actors as structured primarily by life styles, other participants in the debate understand life styles to be a completion of the classical descriptions of social structure and social inequality (DiMaggio, 1987; Konietzka, 1995; Otte, 2004; van Eijck and Bargemann, 2004; Rossel, 2005). Since by now there is a variety of empirical studies on the descriptive relevance and explanatory power of these concepts, it is possible to draw a preliminary conclusion from the research activities of the past 20 years and to consider the question of whether the expectations connected to life style research have really been met (Meyer, 2001; Hermann, 2004; Otte, 2004, 2005; Rossel, 2005).",
                "The existing systematic overviews of life style research make clear that the hopes attached to the concept of life style have only partly become true (Meyer, 2001; Herrmann, 2004; Otte, 2004, 2005; Rossel, 2005). First, the empirical studies show that this notion cannot be considered as an alternative to the terminology of class but only a complement. Secondly, relatively clear limitations in its empirical explanatory power become obvious, as in most cases statistical analyses can only explain a small part of the variance of dependent variables (Otte, 2005, 13). Thirdly, it remains unclear why in some contexts the explanatory power of life styles is high while in others it is low. And, fourthly, the lack of a theoretical basis for the empirical explanatory performance of the concept of life style seems to be the biggest problem of research in this field, since in contrast to class-theoretical research (Blossfeld and Prein, 1998; Goldthorpe, 2000) there has been no serious debate about its action-theoretical foundation.",
                "It is from this basis that the following discussion will proceed. By way of the notion of cultural preferences, it will develop a concept of life styles which, on the one hand, is open to further theoretical development and, on the other, is able to take up the crucial aspects of the debate on life styles. This way, it becomes possible to specify the conditions under which life styles have major or minor empirical influence on the behaviour of actors, building of the basis of previous theoretical insights provided by Otte (2004) and Rossel (2006). Most of all, differences between high and low-cost situations, between ways of behaviour which may be aestheticized to different extents, will be discussed in this context, along with the correspondence principle, which is emphasized in the social-psychological literature on the correlation of attitudes and behaviour. By way of conclusion, these theoretical considerations will then be tested in an empirical study. The theoretical hypotheses prove to be empirically successful, so that the theoretical ideas as presented here must be considered an important way of stating the use of the life style concept more precisely (paragraph 4)."
            ]
        },
        {
            "title": "Theoretical Foundations and Hypotheses",
            "paragraphs": [
                "It is often said in the context of life style research that social action and attitudes can no longer be explained solely by traditional categories of social structural analysis, such as class, and that these categories must be replaced or completed by life style concepts (Hermann, 2004, 164-165; Otte, 2005, 9). This claim can be partially supported: as Otte reports, empirical studies are able to give clear evidence of the connection between life styles on the one hand and patterns of social action and attitudes on the other. In the case of bivariate analyses, between 5 and 10 per cent of the variance of dependent variables can be explained by life styles; in the case of multivariate analyses it is only 2-4 per cent. While these studies show that concepts such as life style and social milieu cannot replace the classical concepts of social structure analysis, these new concepts definitely demonstrate additional explanatory performance (Otte, 2005, 9-14). However, the situation is much more problematic in respect of a theoretical explanation of these statistical connections. If we look at crucial texts of life style analysis in relation to an action-theoretical--or alternative--explanation for the influence of life styles and social milieus, the overall result is rather poor. In life style research we tend to find studies (Spellerberg, 1996; Otte, 1997; Georg, 1998; Hartmann, 1999; Schneider and Spellerberg, 1999) which empirically investigate the connection between life styles and other variables in a very systematic way but do not formulate any precise theoretical explanation for these connections. This suggests that there might be a need to take up the class-theoretical debate (Blossfeld and Prein, 1998; Goldthorpe, 2000) with its focus on individualist social theory. Thus, I follow a theoretically rather open model from the individualist theoretical tradition when I come to interpret the results of statistical analyses of the connection between life styles on the one hand and social action on the other. This model, first, understands the actions of actors to be purposeful and, secondly, it assumes that an actor's feasible set of actions is restricted by specific resources and costs. This idea might be called the lowest common denominator of individualist sociology (Hedstrom, 2005; Franz, 1986): only under the assumption that actors maximize their individual utility is it possible to speak of a theory of rational action (Franz, 1986; Elster, 1989; Hedstrom and Swedberg, 1996, 128; Opp, 1999, 173).",
                "The model which is adopted here understands human action to be the result of two successive filter mechanisms (Elster, 1989, 13; Frey, 1990, 4-5; Opp, 1999, 173). The first filter process structures the total amount of possible action alternatives according to their accessibility for the actor, so that we might speak of a structure of opportunity. This is formed by the relation of two entities: first, the costs of the different action alternatives and, second, the resources the actor has at hand. If the objective structures of the action situation are given, it is in the course of the second filter process that the actor's preferences take effect, the result being that, from the given opportunity structure, he chooses those alternatives which accord with his personal preferences. A strongly restricted opportunity structure will leave only a few choice options open to the actor, so that his preferences become less important for explaining his actions. This action model, which is only briefly introduced here, allows us to formulate a social mechanism for choosing action alternatives: first, we may assume that actors act purposefully, that is they will choose actions which they think accord with their preferences. Secondly, however, this will happen in the context of an opportunity structure, which means a restriction of the actor's feasible set of actions. For example, somebody who prefers classical music can choose from a broad variety of options to follow his musical taste: listening to a CD in his living room, seeing a concert from one of the cheapest seats, or privately hiring an internationally renowned orchestra. There is an infinite variety of possibilities for listening to classical music. Thus, which of these alternatives will be chosen in the end not only depends on this person's preferences and taste, but also on the opportunity structure--that is, the costs of the different options on the one hand and the resource endowment on the other. Consequently, from this theoretical perspective the significance of cultural preferences and life styles must be restricted to a certain extent. They will be especially relevant for decisions that involve a slight difference between the costs of the alternatives. Conversely, their explanatory significance for action situations with large differences between the costs of the options will be low (Zintl, 1989; Mensch, 2000). Diekmann and Preisendorfer (2003) were able to show that the environmental consciousness of people will influence their actual environmental behaviour especially in low-cost situations, but it is of slight relevance in high-cost situations. In the latter situations, action restrictions are crucial for the explanation. Thus, we may also assume life styles or cultural preferences to exert influence only in low-cost situations, whereas in high-cost situations they may be supposed to have less explanatory power. Decisions regarding the latter kind of situation will tend to be characterized by access to material resources, that is by characteristics which are bound to a higher extent to the class position of actors. Thus, by distinguishing high-cost from low-cost situations we have also formulated a first hypothesis for the explanatory power of life styles: it is in low-cost situations especially that they are supposed to have high levels of explanatory power.",
                "If we want to pursue the action-theoretical perspective outlined, however, the concept of life style should be replaced by the concept of people's cultural preferences (Rossel, 2004). Typically, life styles are defined as a pattern of actions within fields of behaviour which can be aestheticized, so that in the presented theoretical context they may appear mainly as an explanandum. If we want to use life styles for the explanation of social action, we have to find a comparable concept at the level of action goals or preferences; we might thus speak of actors' cultural preferences as indicating a penchant for certain classes of action which can be aestheticized and their consequences. If we look at the origins of the debate on life styles in Pierre Bourdieu's works, the theoretical suggestion focusses more on the concepts of personal taste and habit in his theory, and less on his notion of life styles (Bourdieu, 1982; Muller, 1986). While this terminological shift from the notion of life style to the concept of cultural preferences leads to a better connection to action-theoretical foundations, some features of the life style concept, such as its focus on repeated behaviour, are no longer included in the new term. Thus we have a theoretical frame allowing the interpretation of statistical connections between life styles or cultural preferences on the one hand and social action on the other hand. Furthermore, it has also become clear that the explanatory power of cultural preferences is considered to be great most of all in situations where there are only slight differences between the costs of action alternatives. Following this, two more conditions for the explanatory power of cultural preferences will be discussed: first, the possibility of aestheticizing fields of behaviour and, second, the correspondence principle of social psychology (Otte, 2004; Rossel, 2006).",
                "One of the crucial theses of life style research is that of the increasing possibility of aestheticizing daily life (Schulze, 1992; van Eijck and Bargemann, 2004). This means that ever-wider fields of life are not perceived from an instrumental point of view, but in relation to the actors' more or less immediate pleasure. The background to this development is the so-called elevator effect as described by Ulrich Beck (Beck, 1986): that is, the increase in income and leisure time during the post-war period. Furthermore, the pluralization of possibilities and offerings, which is driven by the expansion of the cultural industry, must also be taken into consideration (Schulze, 1992, 51; Backhaus, 1999). In contemporary society there has developed the possibility of one's own life not being primarily dependent on the pressure of economic force and necessities but on the idea of 'a life being beautiful, interesting, subjectively perceived as worth living' (Schulze, 1992, 37). Gerhard Schulze described this as a change towards being event-oriented. The opposite of such an event orientation is a way of acting being chiefly oriented towards external criteria and instrumental goals (Schulze, 1992, 37).",
                "If we take the term 'aesthetics' as the starting point of talking about aestheticizing, this relates to objects that affect the senses and are supposed to be made pleasant for the senses (Kohnke and Kosser, 2001, 193). In the context of the sociologic debate we are hardly talking about sensory perceptions being restricted to the fine arts and being predominantly cognitive, but about an aesthetics which includes all physical senses and experiences. 'A comprehensive understanding of cultural consumption is only guaranteed when \"culture\" in the sense of \"education\" is included into the more global, ethnological concept of \"culture\", and when even the most refined taste for most precious objects is combined again with the elementary tasting of tongue and palate' (Bourdieu, 1982, 17). Thus, all in all, the concepts of event orientation and of aestheticizing refer to the extension of fields of behaviour where actors strive for immediate sensory enjoyment and are able to control their actions on the basis of their respective personal taste (Schulze, 1992, 58). Thus, for most people, the typical fields of aestheticizing daily life are consumption and leisure time (Esser, 2000, 86). In these fields of behaviour, actions aim at immediate sensory enjoyment, are controlled by taste, and do not usually refer to instrumental goals. Thus, it is not a coincidence that empirical research has tended to operationalize life styles by indicators from the fields of leisure time and consumption. However, with regard to the explanatory power of cultural preferences, this discussion compels us to conclude that it should be especially strong in fields of behaviour which can be highly aestheticized.",
                "By empirically analysing the relation of cultural preferences on the one hand and social action on the other we enter a classical field of social psychological research. Here, research on the connection between attitudes and behaviour has a long tradition (Ajzen and Fishbein, 1980, 12-27). Originally, empirical studies in this field were often guided by the assumption that attitudes towards objects also come along with patterns of behaviour towards them (Ajzen and Fishbein, 1980, 15). However, numerous empirical tests have made clear that the statistical correlation between patterns of attitude and behaviour is not very strong. A variety of explanations have been suggested. The correspondence principle put forward by Ajzen and Fishbein (1980, 27) has proved to be particularly successful and empirically convincing. It states that, with respect to the specificity of behaviour, the time frame, and the context of behaviour, attitude and behaviour must be measured as correspondingly as possible to achieve a high correlation between them. Thus, if we want to explain somebody's frequency of going to the Milan Scala, this person's attitude towards going to the Milan Scala or their intentions to go should be enquired into and not her general attitude towards attending the opera. On this basis, it is possible to conclude that life styles or cultural preferences have particular explanatory power if they have been measured in a way which corresponds particularly well to the respective explanandum. Consequently, the thesis on the possibility of aestheticizing fields of behaviour outlined above can be explained by help of the correspondence principle. Only in fields where action alternatives are characterized by different taste characteristics can the respective ways of behaviour also be explained by different cultural preferences.",
                "In summary, we may state that, generally, empirical connections between life styles and social action or attitudes cannot be theoretically explained by life style research. Thus, a model of restricted choice has been outlined, in the context of which the role of cultural preferences--the counterpart to the concept of life style used here--can be theoretically interpreted. Furthermore, three conditions have been introduced which influence the theoretical and empirical explanatory power of cultural preferences: first, the cost structure of action situations (H1); secondly, the possibility of aestheticizing fields of behaviour (H2); and, thirdly, the principle of correspondence between attitude and behaviour (H3), which has been taken over from social psychology. The following empirical study deals with these three hypotheses on the conditions for the explanatory power of cultural preferences."
            ]
        },
        {
            "title": "Empirical Methods and Results",
            "paragraphs": [
                "This empirical analysis is based on a written survey which was carried out in a socially heterogeneous district of Leipzig in 2005. No random sample was made, but all 1000 households in selected houses or streets were asked to participate. The coverage rate of the survey was 34.7 per cent. However, the fact that the data basis is not a random sample is no problem in the case of the question under discussion, as this is not about estimating parameters of the population but about testing theoretically derived hypotheses. These can also be tested by way of partially distorted or arbitrary samples (Diekmann, 1995, 329). In contrast to previous theoretical or empirical studies on the conditions of the explanatory power of life styles (Otte, 2004; Rossel, 2006), the data which were used in this case were explicitly collected for empirically testing the three hypotheses referred to above. To do this, first the cultural preferences of the interviewees had to be measured and then indicators of fields of behaviour suitable for operationalizing the three conditions for the explanatory power of life styles had to be collected.",
                "The actors' cultural preferences were defined based on Schulze's everyday life aesthetic schemes [alltagsasthetische Schemata in German] (Schulze, 1992), with only the interviewees' musical preferences being taken into consideration, however. Apart from the clear simplification of the measurement of life styles (Otte, 2004), this can be topically justified by two reasons. On the one hand, in the debate on life styles, musical preferences are particularly representative of each person's taste (Bourdieu, 1982, 41; Gebesmair, 2001); on the other hand, they also offer in Schulze's study the strongest indicators of somebody's orientation towards one of the everyday life aesthetic schemes (Schulze, 1992, 621-628). Consequently, the musical preferences used for this study represent to a high degree the interviewees' entire everyday life aesthetic preferences, which, however, explain social action only under the above conditions. The high-brow scheme as an additive index was defined according to a person's preference for classical music and opera.1 The trivial scheme is based on preferences for German 'Volksmusik', sentimental songs in the German language (Schlager), and Bavarian brass music, whereas the action scheme was operationalized by the preference for pop and rock music. In contrast to typologies that are common in life style research, Schulze's dimensionally formed everyday life aesthetic schemes allow a clear interpretation of the explanatory mechanisms. They can be seen as preferences for extended classes of similar actions and their consequences: the closer somebody is to a certain scheme, the more they prefer those actions and their results However, this is true only under the three theoretical conditions specified earlier.",
                "In a first step, the dependent variables were distinguished from each other with respect to the cost structure of the decision situations and the possibility of aestheticizing behaviour (for an overview, see Table 1). For operationalizing the high-cost situations, different features of the interviewees' households were compiled (washing machine, flat without damp walls, life insurance, securities, works of art, regular holidays over longer periods, fine foods, being regularly provided with new clothes), whereas the low-cost situations were operationalized by eight leisure activities (opera, concerts, restaurants, museums, discotheques, art-house cinema, operetta/musical theatre, art galleries) on the one hand and by four ways of political participation on the other (taking part in the next federal election, signing a petition, expressing one's political opinion, demonstrating). To have a clear distinction between the different cost conditions, the high-cost situations were mostly operationalized by the possession of somewhat expensive consumer goods, whereas the low-cost situations were usually operationalized by a form of behaviour. Since all variables have been dichotomized (0/1), the split between different response options has been chosen according to the concept of a low-cost situation: the values of the variables for political participation were coded 1 if a person performed the type of behaviour once in her life, and the values of the variables for leisure participation were coded 1 if the interviewee performed the leisure activity at least once a year. In order to also take into account the possibility of aestheticizing the action alternatives, consumer goods were differentiated into those existing principally for instrumental reasons (washing machine, flat without damp walls, life insurance, securities), so that their owner's personal taste should be irrelevant for possessing them, and those consumer goods that give immediate pleasure (fine foods, being regularly provided with new clothes, holidays, works of art). Thus, this distinction immediately refers to the foregoing concept of the possibility of aestheticizing forms of behaviour. With respect to the indicators representing low-cost situations, it was possible to distinguish political activities, which are not primarily oriented towards goals which could be aestheticized, from leisure activities, which happen within a field of behaviour which can be aestheticized to a high degree. This way, there are four groups of indicators for operationalizing the above ideas regarding the conditions of the explanatory power of life styles--however, only in respect of the cost structures of situations and the possibility of aestheticizing fields of behaviour. In order to also take the significance of the correspondence principle into account, leisure activities were divided into those related to music (opera, concerts, discotheques, operetta/musical theatre) and those far away from music (restaurants, museum, art-house-cinema, art galleries). As cultural preferences were operationalized by musical tastes, there is thus a better correspondence between collected attitudes and collected behaviour with respect to music-related activities. ",
                "For the empirical analysis, all dependent variables were dichotomized (0/1), so that in all cases logistic regression models were estimated. In a first step, statistical models were calculated which contained only the cultural preferences as explanatory variables. In a second step, the control variables of education, age, sex, and income were taken into account. This way, those social-structural variables were included in the model which had proven to have particular explanatory power in life style research (Spellerberg, 1996; Otte, 2004).2 In Table 2, four values are given for each type of situation: first, the average pseudo-R2 value for those models containing only the cultural preferences as explaining variables; second, the pseudo-R2 value for the statistical analysis including only the four control variables; third, the pseudo-R2 values for the complete models including the cultural preferences and the control variables; fourth, the difference from the pseudo-R2 values for the statistical models including only those control variables and models containing both control variables and cultural preferences. McFadden's pseudo-R2 value was used as the measure of explanatory power of the statistical models (Andress et al., 1997, 287-293). For the present study, McFadden's pseudo-R2 has the advantage of being correlated to the distribution of the dependent variable only to a degree which may be neglected, so that the latter does not also play any role for the results presented here (Shtatland et al., 2002, 4). ",
                "Now, with respect to the hypotheses on the explanatory power of life styles or cultural preferences in different situations, we can successively look at the results in Table 2. In doing so, we must not only look at the pseudo-R2 values for the models with cultural preferences only, but also at the differences between the pseudo-R2 values for the models with the control variables only and at the complete models including control variables and cultural preferences. If first we compare high-cost and low-cost situations, the theoretical ideas of hypothesis 1 are supported. Both for fields of behaviour which cannot be aestheticized and for those which can be, the variance explained by cultural preferences is higher for low-cost situations than for high-cost situations. If now, in a second step, we compare fields of behaviour which can be aestheticized to those which cannot be aestheticized, it becomes obvious that hypothesis 2 is also supported here. Both for low-cost and for high-cost situations, the explained variances are higher for types of behaviour which can be aestheticized. Finally, what remains to be done is to test hypothesis 3. When we do, we find that this too is clearly supported, as music-related activities can be better explained by way of cultural preferences than can ways of behaviour which are not related to music. Altogether, the empirical tests which were carried out here support the three hypotheses on the explanatory power of life styles in different situational contexts. However, in a regression analysis performed to test the statistical significance of the differences in pseudo-R2 values in divergent conditions (see  appendix Table A1) only the possibility of aestheticizing behaviour and the correspondence of preference and behaviour achieved statistical significance in the condition without control variables. This shows that the present empirical results can only be taken as a starting point and should be supplemented by further research on different types of behaviour. Apart from this support for the preliminary hypotheses, the results in Table 2 also show, first, that the four social-structural control variables often explain a sizable part of the variance of the dependent variables and, secondly, that taking them into account while controlling the cultural preferences increases the explanatory power of the models in all constellations. This way, the statement that life styles or cultural preferences can only be considered a complement and not an alternative to the classical dimensions of social structure analysis is supported once again."
            ]
        },
        {
            "title": "Conclusions",
            "paragraphs": [
                "Life style research has established itself as an independent branch of social structure analysis, which systematically completes the classical inequality research when explaining social action and attitudes. This is definitely supported by more recent overviews of the state of research and the by now considerable number of empirical studies (Meyer, 2001; Hermann, 2004; Otte, 2004, 2005). In two respects, however, this branch of research is plagued by a theoretical deficit. First, theoretical suggestions of how to explain statistical connections between life styles, on the hand, and social action and attitudes, on the other, are lacking. Second, it remains unclear why, sometimes, life styles are able to explain action well and, in other cases, they can hardly do so. Here, while following the theory of restricted choice, a model was outlined which allows the effects of life styles to be interpreted; the price to be paid, however, is that focussing the concept of life styles on action patterns is replaced by the concept of cultural preferences, which is defined by preferences of personal taste. Furthermore, three conditions were formulated which are able to explain the different explanatory power of life styles and of cultural preferences in different situations: first, the distinction between high-cost and low-cost situations; second, the possibility of aestheticizing fields of behaviour; and, third, the social-psychological principle of correspondence. According to this thesis, it is particularly in low-cost situations and in situations which can be aestheticized to a high degree that cultural preferences are supposed to show great explanatory power. Furthermore, this explanatory power may be supposed to be increased by way of greater correspondence when measuring cultural preferences and explained types of behaviour. Empirically testing these hypotheses by way of data which were sampled specifically for this purpose was able to produce supportive evidence for them, so that the conditions for the explanatory power of life styles formulated here should be taken into consideration for future studies. The usual range of the explanatory power of life styles (Otte, 2005, 13) could be completely explained by different combinations of cost structures in certain situations and the possibility of aestheticizing fields of behaviour. More extended correspondence between cultural preferences and those fields of behaviour which are to be explained will increase this explanatory power even beyond that which we find in the literature.",
                "In conclusion, this study does suggest a theoretical grid for interpreting the varying explanatory power of life styles in previous research, and it also indicates the limits of the relevance of this concept. Furthermore, the conditions for the determining power of life styles formulated here may also be considered a tool for the systematic construction of future empirical studies. However, further research should also test the theoretical ideas developed here with a focus on other types of behaviour.",
                "I would like to thank the two anonymous referees of this journal for their helpful and stimulating comments.",
                ""
            ]
        }
    ],
    "references": [
        "http://dx.doi.org/10.1080/00420989420080751",
        "http://dx.doi.org/10.1177/1043463103154002",
        "http://dx.doi.org/10.2307/2094962",
        "http://dx.doi.org/10.2307/2095290",
        "http://dx.doi.org/10.1093/oxfordjournals.esr.a018181",
        "http://dx.doi.org/10.1007/s11577-004-0007-2",
        "http://dx.doi.org/10.1353/sof.2002.0050",
        "http://dx.doi.org/10.1006/ssre.1999.0655",
        "http://dx.doi.org/10.1023/B:RYSO.0000004951.04408.b0",
        "http://dx.doi.org/10.1007/s11577-000-0031-9",
        "http://dx.doi.org/10.1177/0951692899011002002",
        "http://dx.doi.org/10.1007/s11577-005-0109-5",
        "http://dx.doi.org/10.5771/0038-6073-2004-1",
        "http://dx.doi.org/10.1007/s11575-006-0105-7",
        "http://dx.doi.org/10.1016/j.poetic.2004.09.001",
        "http://dx.doi.org/10.1080/0042098984583",
        "http://dx.doi.org/10.1515/auk-1989-0103"
    ],
    "title": "Conditions for the Explanatory Power of Life Styles",
    "issue": "2",
    "volume": "24",
    "authors": [
        "J\u00f6rg R\u00f6ssel"
    ]
}