{
    "doi": "http://dx.doi.org/10.1177/0022146520921375",
    "abstract": "Members of structurally disadvantaged social groups report more frequent exposure to a variety of negative life events and chronic strains, yet little research has examined whether similar patterns exist for anticipatory stressors, or challenging circumstances that loom as potential threats in the future. This study uses data collected as part of a national survey of college seniors (N = 995) to examine how anticipatory stress regarding economic and residential security, exposure to traumatic events, and experiences of discrimination vary by gender identity, race-ethnicity, sexual orientation, and first-generation college student status. Consistent with stress theory, anticipatory stressors are more commonly reported by members of disadvantaged groups. Notably, variation in anticipatory stressors explains a nontrivial proportion of differences in depressive symptoms found across gender identity and sexual orientation categories. Findings signal the necessity of incorporating anticipatory stressors into research in the stress paradigm to further disentangle the contributions of social stressors to health disparities.",
    "sections": [
        {
            "title": "Introduction",
            "subsections": [
                {
                    "title": null,
                    "paragraphs": [
                        "Multiple generations of stress research provide evidence of a social gradient in stress exposure. Individuals belonging to structurally disadvantaged groups more frequently report a variety of negative life events and chronic strains, stemming from interpersonal, institutionalized, and economic sources (Pearlin 1989, 1999; Thoits 2010; Turner and Avison 2003; Turner, Wheaton, and Lloyd 1995). This circumstance figures prominently into the elevated rates of psychological distress found among members of marginalized groups, including women, individuals who identify as transgender or gender-nonconforming, people of color, sexual minorities, and individuals of lower socioeconomic standing (Thoits 2010). Prior research has examined how discrepancies in exposure to major life events, daily hassles, and chronic strains uniquely contribute to mental health disparities (Turner and Avison 2003). Yet, it is unclear whether anticipatory stressors--or people's concerns about the future that may or may not ever be realized (Pearlin and Bierman 2013)--are also socially patterned and if so, how they might similarly help to explain mental health differences found across social groups (Thomeer and LeBlanc 2019). In light of recent evidence linking forecasts of stress exposure to depressive symptoms (Lee and Hicken 2017), this study examines whether differential experiences of anticipatory stressors represent another mechanism by which disadvantaged social status is translated into poor mental health.",
                        "To gain analytic purchase on how social status shapes experiences of anticipatory stressors, a group of individuals facing a similar constellation of concerns about the future was selected: college seniors. In the United States, a college degree is increasingly essential to securing a position in the middle class (Goyette 2008). Young adulthood is also a period of the life course characterized by greater exposure to stressful life events (Turner et al. 1995) and the emergence of serious mental health issues (Kessler et al. 2007). Given these circumstances, young adulthood represents an important site to study the social distribution of anticipatory stressors and their associations with mental health. To this end, this study uses data collected from a diverse sample of U.S. college seniors to shed light on three gaps in the literature: (1) whether anticipatory stress about economic and residential security, traumatic events, and discrimination varies by gender identity, race-ethnicity, sexual orientation, and first-generation college student status; (2) whether the strength of the associations between anticipatory stressors and depressive symptoms varies by status group; and (3) whether differences in anticipatory stressors contribute to mental health disparities found across gender identity, race-ethnicity, sexual orientation, and first-generation status."
                    ]
                }
            ]
        },
        {
            "title": "Background",
            "subsections": [
                {
                    "title": "Anticipatory Stressors in the Stress Process",
                    "paragraphs": [
                        "The stress process is a flexible theoretical framework for understanding how an individual's location in the social hierarchy influences that individual's mental health and well-being (Pearlin 1999; Pearlin and Bierman 2013). Status characteristics--including gender identity, race-ethnicity, sexual orientation, and socioeconomic status--play a central role in the stress process by unequally stratifying people's social worlds and in turn, influencing the severity and variety of stressors they face. Incumbents of disadvantaged social positions possess smaller reserves of power, prestige, and wealth, rendering them more vulnerable to a broad spectrum of stressors (Pearlin 1999). This differential stress exposure explains a notable portion of mental health disparities found across social groups (Aneshensel 2009; Thoits 2010; Williams 2018).",
                        "One of the core missions of sociological research on mental health is to comprehensively measure the different forms of stressors that impinge on people's lives (Thoits 2010; Turner and Lloyd 1995; Wheaton 1994). Scholars contend that a failure to fully index the wide array of stressors individuals face poses the risk of underestimating the damaging effects of social stressors on mental health (Thoits 2010; Wheaton 1994; Williams 2018). Within the stress process tradition, negative life events and chronic strains have arguably received the greatest empirical scrutiny (Aneshensel 1992; Wheaton 1994). The former are discrete, sudden, and life-altering occurrences, whereas the latter are enduring threats that people confront in their day-to-day lives (Pearlin 1989). Anticipatory stressors, by contrast, are threatening conditions that do not yet exist--and may never--but are projected to occur at some point in the future (Pearlin and Bierman 2013). Despite evidence that rumination on future threats is associated with depressive symptoms (Lee and Hicken 2017), anticipatory stressors have largely been overlooked in research on the stress process. A notable exception can be found in the substantial interest generated by studies of racism-related vigilance. This research is premised on the notion that race-based discrimination affects health not only through firsthand experience but also through the mere threat of exposure (Williams 2018). Aligning with past research on the epidemiological distribution of stress, racial and ethnic minority groups report greater levels of vigilance than whites, with anticipation of discrimination positively associated with depressive symptoms (Hicken et al. 2014; Sawyer et al. 2012). Another exception can be found in recent research on same-sex couples by Thomeer and colleagues (2018), which highlights considerable anticipatory stress among this group regarding the possibility of being discriminated against due to pervasive homophobia. But whereas hypervigilance and fears of race- and sexual orientation-related discrimination are unique to the minority stress model, anticipatory stress is a concept with potential for even broader application.",
                        "As people contemplate the future, they might consider the possibility of being threatened by an array of impending difficulties, misfortunes, or traumas. As Pearlin and Bierman (2013) assert, anticipatory stressors likely occur with greater frequency than has been recognized in the literature and as such, may be considered a fundamental part of the human condition. In view of their recurrent and insidious nature, anticipatory stressors have the potential to operate on mental health in a similar fashion to chronic strains. That is, these stressors impose analogously persistent demands on the individual that require continual adaptation (Thoits 2010). Prior research finds that anticipatory stressors are associated with a range of negative health outcomes, including elevated rates of heart disease, weight gain, and psychological distress (Hicken et al. 2014; Hicken, Lee, and King 2017; Lee and Hicken 2017).",
                        "In theorizing the role of anticipatory stressors within the stress process, Pearlin and Bierman (2013:328) use the example of economic adversity, writing that, \"as economic hardships begin to affect relatives, friends, neighbors, or coworkers and are daily subjects of media reports, the misfortunes of others can result in anxiety and apprehension among those who have not directly experienced such strain.\" This suggests at least two mechanisms to explain the social distribution of anticipatory stressors: one network-related and the other more cultural in nature. Regarding the former, given that a variety of stressors are more heavily concentrated among structurally disadvantaged groups and because people have a tendency to form homophilous ties (McPherson, Smith-Lovin, and Cook 2001), Pearlin and Bierman (2013:328) argue that members of marginalized groups might be particularly vulnerable to anticipatory stressors because they \"are more likely to have more numerous and stronger social connections with individuals who are already struggling with\" stressful circumstances. Turning to the second mechanism, Pearlin and Bierman's (2013) reference to exposure to others' misfortunes via media reports implies that macrolevel trends (e.g., the gender wage gap, racial profiling by police) and cultural events (e.g., high-profile instances of sexual assault against women, white supremacist rallies) are internalized by members of different social groups, providing a schematic (DiMaggio 1997) or cognitive model of the types of stressors a person can probabilistically expect to face based on their unique status characteristics. This Bayesian framework could, in turn, prompt members of marginalized groups to more frequently ruminate on their susceptibility to economic threats, interpersonal trauma, and discrimination. In view of the association between anticipatory stressors and poor mental health and a greater propensity of marginalized group members to express such worries about the future, recent scholarship contends that discrepancies in anticipatory stress might contribute more broadly to mental health disparities across status groups (Thomeer and LeBlanc 2019). Following from this proposition, in the sections that follow, I outline existing research on social group differences in stress exposure to motivate exploratory questions related to status variation in anticipatory stressors and their associations with depressive symptoms."
                    ]
                },
                {
                    "title": "Anticipatory Stressors in the Stress Process",
                    "paragraphs": [
                        "Stress exposure is not randomly distributed throughout society. Individuals located near the bottom of the status hierarchy bear the brunt of social and economic conditions that are detrimental to mental health and well-being (Aneshensel 2009). The following sections summarize the extant literature on status variation in stress exposure and mental health, with a focus on how each is patterned by gender identity, race-ethnicity, sexual orientation, and first-generation college student status.",
                        "Male-female differences in stress exposure and mental health are well documented (Rosenfield and Mouzon 2013). Although men experience more traumatic events, violence, and discrimination, women report more major life and death events (Kessler, Mickelson, and Williams 1999; Turner and Avison 2003). Women's disproportionate exposure to tragedy stems from their higher levels of network-related stress via connectivity to friends and kin and gendered societal expectations that women will provide social support to others during times of crisis (Kessler and McLeod 1984; McDonough and Walters 2001; Turner et al. 1995). Despite the contention that women's elevated psychological distress relative to men is a function of greater sensitivity to stressors, there is little evidence to support arguments regarding women's differential vulnerability (Kessler et al. 1999; McDonough and Walters 2001).",
                        "Although most research on the stress process has examined differences in stress exposure between women and men, over the past 15 years, mental health researchers have become increasingly attuned to the reality that gender identity exists on a spectrum extending beyond this binary. Recent studies of transgender and gender-nonconforming Americans reveal that these individuals experience frequent occurrences of transphobic discrimination, harassment, and sexual victimization (Miller and Grollman 2015). Greater exposure to discrimination stress among this group relative to the cisgender population is largely responsible for the higher rates of depression, anxiety disorders, and suicidal ideation found among people who identify as transgender or gender nonconforming (Becerra-Culqui et al. 2018).",
                        "Superficial, phenotypic differences across racial groups have far-reaching consequences for the social and structural conditions of people's lives (Williams 2018). Much research has explored how institutionalized forms of racism stemming from the legacies of slavery and Jim Crow expose black Americans to an inordinate number of social and economic stressors. For instance, black Americans are more likely than whites to experience discrimination-related stressors, ranging from bank loan denial, to unfair treatment by police, to being discouraged from higher education (Kessler et al. 1999; McFarland et al. 2018). Blacks also experience traumatic events at earlier ages than whites across the life course, foremost among them, the premature death of family members (Boardman and Alexander 2011; Umberson 2017). By all accounts, black Americans experience greater stress exposure than whites across most of the stressors formally inventoried by stress researchers (Turner and Avison 2003). Although much of the research on racial differences in stress exposure has focused on black-white disparities, members of other racial-ethnic minority groups also report high levels of stress. By a variety of metrics, Latinos and American Indians face greater socioeconomic disadvantage than whites in the United States (Barrett and Turner 2005; Warner and Brown 2011). Perhaps most prominent among race-related stressors, however, is the experience of discrimination. People of color report substantially more day-to-day discrimination than non-Hispanic whites (Kessler et al. 1999; Williams 2018). This circumstance poses grave consequences for the mental health of racial-ethnic minorities because perceived discrimination is robustly associated with poor mental health (Lee and Turney 2012).",
                        "Research on the minority mental health paradox indicates that blacks and Latinos report mental health outcomes that are equivalent to or more optimal than whites despite greater stress exposure (Louie and Wheaton 2019; Schnittker and Do 2020). However, evidence of this phenomenon is inconclusive in samples of adolescents and young adults, with several studies demonstrating higher levels of depressive symptoms among racial-ethnic minority groups (Adkins, Wang, and Elder 2009; Boardman and Alexander 2011). These studies suggest that higher levels of psychological distress among younger minority group members is not an indication of differential vulnerability but rather, differential exposure to stressors (Boardman and Alexander 2011).",
                        "Despite seismic shifts in public opinion regarding gay rights in the United States, sexual minorities nevertheless report more stressful life events, chronic strains, and instances of discrimination than heterosexuals (Frost et al. 2017; Ueno 2010). This circumstance engenders feelings of rejection and devaluation and fosters a social climate responsible for higher levels of psychological distress among people who identity as lesbian, gay, and bisexual (Everett 2015; Hsieh 2014; Ueno 2010). Individuals who are bisexual are subject to more pervasive negative stereotypes and experience greater discrimination in the labor market than gay men or lesbians (Mize 2016; Mize and Manago 2018). These findings suggest that members of this group might face elevated levels of stress about their economic security, a scenario that could contribute to their poorer mental health relative to other groups (Hsieh 2014).",
                        "Individuals who are the first in their family to attend college typically come from lower socioeconomic households. As a consequence, these students are considerably more reliant on financial aid and borrow substantially greater sums to finance their college careers than their non-first-generation peers (Furquim et al. 2017). Beyond material hardships, first-generation students also report dramatically different experiences of college life due to deficits in cultural capital. This predicament makes it more difficult for first-generation students to forge relationships with faculty and integrate into the larger campus community (Jack 2016; Stuber 2011). Combined, these circumstances help to explain the poorer grades, lower graduation rates, and worse mental health found among first-generation students (Ishitani 2006; Pascarella et al. 2004; Stebleton, Soria, and Huesman 2014). Even when they secure a college degree, the social mobility of first-generation graduates is constricted by the negative stereotypes of employers who view these individuals as an imperfect \"fit\" to the work and clientele of elite firms (Rivera and Tilcsik 2016). In total, this body of research suggests that first-generation students might experience greater pessimism about the future than their more affluent peers."
                    ]
                },
                {
                    "title": "Anticipatory Stressors in the Stress Process",
                    "paragraphs": [
                        "The foregoing sections provide evidence that members of disadvantaged groups experience certain types of stressors more frequently than their privileged counterparts, yet it remains unclear whether anticipatory stressors are similarly patterned by social status. To gain insight into status variation in anticipatory stressors, it was essential to select a case featuring individuals who face a broad set of similar concerns about the future. College seniors were selected because this group is on the precipice of a stress-inducing phase of the life course where it is normatively expected that they will become financially independent and launch into jobs, careers, and stable romantic relationships (Arum and Roksa 2014). For the purpose of understanding how anticipatory stressors bear on the psychological well-being of different social groups, early adulthood also warrants attention because it is a critical period for the emergence of mental health issues (Kessler et al. 2007). Furthermore, individuals in this age group report more substantial stress burdens than older adults (Turner et al. 1995).",
                        "It is important to acknowledge that although college attendance has become increasingly common in the United States (Goyette 2008), only 46% of high school seniors attended four-year colleges immediately following graduation in 2016 (National Center for Education Statistics [NCES] 2018a). Among this group, recent estimates suggest that 60% of enrollees ultimately graduate from four-year institutions within six years (NCES 2018b). It is also vital to recognize the heterogeneity of this group. Approximately 38% of college students are 25 years of age or older (NCES 2018f), and despite notable progress, racial-ethnic minorities are still underrepresented among bachelor's degree recipients (NCES 2018c). In light of mounting wage inequality between Americans with and without a postsecondary education (Lemieux 2006), it is plausible that college seniors experience less trepidation about the future than peers who did not attend college or those who graduated from two-year institutions. As a consequence, the group differences documented in this study are likely to form a conservative estimate of status discrepancies in anticipatory stressors relative to the general population of young adults."
                    ]
                },
                {
                    "title": "Anticipatory Stressors in the Stress Process",
                    "paragraphs": [
                        "To date, little research has examined sociodemographic variation in the experience of anticipatory stressors, the possibility that the associations between anticipatory stressors and mental health vary by status group, or whether discrepancies in anticipatory stressors contribute to mental health disparities. To fill these gaps in the literature, this study uses an analytically strategic sample of college seniors to address three overarching aims:",
                        "to assess the patterning of anticipatory stress concerning economic and residential security, traumatic events, and discrimination by gender identity, race-ethnicity, sexual orientation, and first-generation college student status;",
                        "to examine whether the strength of the associations between anticipatory stressors and depressive symptoms varies by status group;",
                        "to determine whether and how differences in anticipatory stressors contribute to disparities in depressive symptoms by gender identity, race-ethnicity, sexual orientation, and first-generation college student status."
                    ]
                }
            ]
        },
        {
            "title": "Data and Methods",
            "subsections": [
                {
                    "title": "Sample",
                    "paragraphs": [
                        "This study draws on a national sample of American-born college seniors hailing from 489 colleges located across 49 states and the District of Columbia. Qualtrics, a professional survey company, was contracted to recruit respondents. For the present study, a quota sampling approach was used to recruit a sample that matched the gender and racial-ethnic composition of American-born college seniors. Because this study used a quota sample as opposed to a random sampling strategy, there is no \"response rate\" in the traditional sense. Rather, Qualtrics maintains a number of active panels containing thousands of individuals who represent different subsections of the American population. Panel members can view all surveys for which they meet initial study criteria and have the ability to opt in to studies of interest to them. Of the 10,610 panel members who qualified for this study as seniors at four-year colleges/universities and were at least 18 years of age, 2,440 entered the screener. A total of 1,019 of these 2,440 individuals went on to take the survey. The survey was fielded from April 8 to May 17, 2019. This time frame was intentionally selected for its proximity to graduation at most colleges and universities--a period when seniors are more likely to be thinking about their future.",
                        "After removing cases with missing data on postsecondary education variables (n = 20) and key study measures (n = 4), 995 respondents were retained. Table 1 presents the sociodemographic characteristics of the sample. In terms of gender identity, 55.6% of respondents were female, 41.2% were male, and 3.2% identified as transgender, nonbinary, genderqueer, or questioning. By comparison, among American-born bachelor's degree recipients in 2016, 57.6% were women, and 42.4% were men (the percentage of gender-nonconforming degree recipients was not reported; NCES 2018d, 2018e). In regard to race-ethnicity, .4% of respondents identified as American Indian/Alaska Native, 7.9% as Asian/Native Hawaiian/other Pacific Islander, 12.1% as black/African American, 12.2% as Hispanic/Latino, 4.7% as multiracial, and 62.7% as non-Hispanic white. Among American-born bachelor's degree recipients in 2016, .5% were American Indian/Alaska Native, 7.5% were Asian/Pacific Islander, 10.6% were black, 12.8% were Hispanic, 3.4% were multiracial, and 65.2% were white (NCES 2018c). As such, the gender and racial-ethnic composition of the sample compares favorably to national estimates of graduating college seniors in the United States. A more detailed breakdown of how the sample compares to the demographic composition of graduating college seniors in the United States can be found in Appendix A in the online version of the article. In terms of sexual orientation, 81.9% of respondents identified as heterosexual, 4.6% were gay or lesbian, 10.7% were bisexual, and 2.8% identified as queer, asexual, pansexual, or demisexual. A recent report from the Department of Health and Human Services (Copen, Chandra, and Febo-Vazquez 2016) indicates that among young adults between the ages of 18 to 24, 91.8% identify as heterosexual, 2.2% identify as gay/lesbian, and 5.1% identify as bisexual (.9% not reported). To adjust for the underrepresentation of heterosexuals and the oversampling of bisexual and gay/lesbian respondents, poststratification weights were used in all regression analyses so that the sample more closely approximates the true proportion of these groups in the United States. Finally, first-generation college students comprised 36.7% of the sample, a number that parallels recent estimates (~34%) of this group (Cataldi, Bennett, and Chen 2018)."
                    ]
                },
                {
                    "title": "Sample",
                    "paragraphs": [
                        "A battery of 14 items gauging experiences of anticipatory stress were developed for the study. Response categories for these items were modeled on the day-to-day discrimination checklist in Turner and Avison's (2003) research and include 5 = almost always, 4 = often, 3 = sometimes, 2 = rarely, and 1 = never. These items tap into three distinctive domains of anticipatory stress: concerns about economic and residential security, worries about traumatic events, and fears of experiencing discrimination.",
                        "Respondents' anticipatory stress about economic and residential security (a = .87) was assessed by eight items that asked respondents the extent to which they worry about the following when thinking about the future: finding a job, repaying student loans, financial independence, long-term financial security, affordable housing, career security, home ownership, and neighborhood safety. Three items were used to gauge respondents' anticipatory stress regarding exposure to traumatic events (a = .74). These questions asked respondents how frequently they worry about the death of a family member, being the victim of sexual assault, and being the victim of a violent crime. Three items were also used to capture anticipatory stress about experiences of discrimination (a = .78). These items asked respondents how often they worry about being discriminated against in the future due to their race, gender identity, and sexual orientation. Scores for each anticipatory stress domain were calculated by averaging the items that comprised each construct. Item wording and mean differences across individual survey items by gender identity, race-ethnicity, sexual orientation, and first-generation status can be found in Appendices B through E in the online version of the article.",
                        "Respondents' depressive symptoms were measured using the seven-item version of the Center for the Epidemiologic Study of Depression (CES-D) Scale (Radloff 1977). This battery asked respondents about their experience of depressive symptoms over the prior week with response categories spanning from 0 = rarely or none of the time to 3 = most or all of the time. As is convention, this scale was created by summing responses across items (a = .88).",
                        "Respondents were able to indicate their gender identity from a list that included female, male, transgender, nonbinary, genderqueer, questioning, or \"something else\" (with fill-in prompt). Responses to this item were used to divide the sample into three groups: female (=1), transgender/nonbinary/genderqueer/questioning (=1), and male (=0). Although collapsing multiple, heterogenous gender identities into a single category poses clear limitations to interpretation, this analytic decision was necessitated by the small number of respondents who indicated a gender identity other than female or male (n = 32).",
                        "Participants were able to select as many racial-ethnic categories as needed to describe themselves. Race-ethnicity was categorized as American Indian/Alaska Native (=1), Asian/Native Hawaiian/Other Pacific Islander (=1), black/African American (=1), Hispanic/Latino (=1), multiracial (=1), and white (=0). Due to the prohibitively small number of American Indian/Alaska Native respondents in the sample (n = 4), this group was included in all analyses for completeness, but tests of statistical significance were not interpreted as meaningful.",
                        "Respondents indicated their sexual orientation from a list that included heterosexual/straight, gay/lesbian, bisexual, or \"something else\" (with fill-in prompt). Information from this item was used to code sexual orientation as gay/lesbian (=1), bisexual (=1), queer/asexual/pansexual/demisexual (=1), and heterosexual/straight (=0).",
                        "A binary measure was used to capture respondents who were the first in their family to attain a college degree (1 = first-generation)."
                    ]
                },
                {
                    "title": "Sample",
                    "paragraphs": [
                        "To examine the robustness of group differences in anticipatory stressors, a subset of models was estimated that controlled for factors that might otherwise explain variation on these measures. Because individuals of lower socioeconomic status routinely report higher levels of stress exposure (Turner and Avison 2003) and are less likely to remain in higher education (Goldrick-Rab 2006), adjustments were made for a host of socioeconomic factors. Annual family household income (self-reported) was measured in $25,000 increments ranging from 1 = <$25,000 to 9 = $200,000 or more. A control was similarly added for respondents who qualified for a free or reduced lunch program in elementary, middle, or high school (1 = yes). Given that students who work more than 20 hours a week are less likely to persist in their studies (Bozick 2007), a dichotomous measure adjusted for respondents who work more than 20 hours a week, on average, during the semester. Because receipt of a degree from an elite college is associated with more optimal job prospects (Gaddis 2015), college selectivity was measured using the acceptance rate of each respondent's college/university and a dichotomous measure for whether the respondent attended a for-profit institution (1 = yes). Recent research shows that academic performance yields differential returns for women and men's employment prospects (Quadlin 2018), and thus, academic achievement was a self-reported measure of respondents' grade point average (GPA) on a 4-point scale. A final control was added to adjust for variation in respondents' age."
                    ]
                },
                {
                    "title": "Sample",
                    "paragraphs": [
                        "Analysis proceeded in several stages. To begin, a series of ordinary least squares (OLS) regression models predicting anticipatory stress about economic and residential security, traumatic events, and discrimination were estimated to explore differences across these stressors by gender identity, race-ethnicity, sexual orientation, and first-generation student status. Next, depressive symptoms were regressed on anticipatory stressors to assess the associations between these measures. Following this step, a series of interaction models were estimated to examine whether the relationships between anticipatory stressors and depressive symptoms varied by status group.",
                        "In a final step, the extent to which anticipatory stressors helped to explain group differences in depressive symptoms was examined using formal mediation tests. Specifically, I used a multiple mediator method developed by Breen, Karlson, and Holm (2013) to parse the unique contributions of each anticipatory stressor to status differences in depressive symptoms. These tests were conducted using the khb command (Kohler, Karlson, and Holm 2011) in Stata 14.2. One other analytic adjustment requires comment. Recall that the sample overrepresents gay/lesbian and bisexual respondents and underrepresents heterosexuals relative to the proportion of these groups in the American population of young adults. Consequently, poststratification weights were used in all regression models so that the distribution of sexual orientation in the sample more closely approximated that of the general population."
                    ]
                }
            ]
        },
        {
            "title": "Results",
            "subsections": [
                {
                    "title": "Status Variation in Anticipatory Stressors",
                    "paragraphs": [
                        "Table 2 presents coefficients from OLS models that regress anticipatory stressors on status groups and study controls. Turning first to gender identity, women report more frequent worries about economic and residential security (p < .001, Model 1) and future exposure to traumatic events (p < .001, Model 3) than men. Notably, respondents who are transgender or nonbinary report significantly greater worry about traumatic events and future experiences of discrimination than either women (p < .05 in Models 3-6) or men (p < .001 in Models 3-6). These general patterns hold net of study controls.",
                        "Among racial and ethnic groups, black and Latino respondents report greater concern about future economic and residential security than both whites (respectively, p < .001 and p < .05 in Model 1) and Asians (respectively, p < .05 in Model 1). These patterns change somewhat when controls are introduced in Model 2. After adjusting for variation in socioeconomic status and college selectivity, Latinos no longer significantly differ from whites or Asians in their worries about future economic and residential security. In Model 3, African Americans report significantly greater worry about experiencing traumatic events in the future than whites (p < .001), Asians (p < .05), and multiracial respondents (p < .05). These differences are mostly consistent when controls are added in Model 4, with one exception: After adjusting for socioeconomic and educational differences, blacks report significantly greater worry about traumatic events than Latinos (p < .05). All racial-ethnic minority groups report higher levels of concern about future instances of discrimination than whites (Model 5), although the difference between white and multiracial respondents is no longer statistically significant after adjusting for variation in socioeconomic status and educational factors (Model 6). Of note, African Americans also report higher levels of anticipatory stress about future experiences of discrimination than every other racial minority group (Models 5 and 6).",
                        "Moving to sexual orientation, respondents who are bisexual report significantly greater worry about economic and residential security than those who identify as straight (p < .01, Model 1) or gay/lesbian (p < .05, Model 1). However, the difference between gay/lesbian and bisexual respondents on this measure is attenuated when controls are added in Model 2. Bisexual respondents similarly report greater trepidation about experiencing traumatic events in the future than do heterosexuals (p < .01, Models 3 and 4). All sexual minority groups report significantly greater concern about future discrimination than respondents who are straight (Model 5). Moreover, when controls are added in Model 6, respondents who are gay/lesbian have significantly higher levels of worry about future discrimination than those who are bisexual (p < .05).",
                        "Although first-generation college students do not significantly differ from non-first-generation respondents across any anticipatory stressor inventoried in this study, it is worth noting that respondents who were part of a free or reduced lunch program before college report greater concern than their peers about future economic and residential security (p < .01, Model 2), exposure to traumatic events (p < .001, Model 4), and experiences of discrimination (p < .05, Model 6). In terms of other covariates, GPA is negatively associated with future-oriented worries about one's material conditions (p < .001, Model 2), while those who work over 20 hours per week during the semester (p < .001) are more likely to worry about experiencing discrimination in the future."
                    ]
                },
                {
                    "title": "Status Variation in Anticipatory Stressors",
                    "paragraphs": [
                        "Results presented in Table 3 assess the associations between anticipatory stressors and depressive symptoms. Across models, higher levels of anticipatory stress about economic and residential security (p < .001, Model 1), traumatic events (p < .001, Model 2), and discrimination (p < .001, Model 3) are each positively associated with depressive symptoms. When these measures are included simultaneously (Model 4), the positive association between concerns about future economic/residential security and depressive symptoms is reduced by 15.4%, whereas the relationship between anticipatory stress about traumatic events and depressive symptoms is reduced by a more considerable 57%. Notably, the association between anticipatory stress about discrimination and depressive symptoms is diminished by 68.6% and no longer statistically significant when controlling for anticipatory stress about economic/residential security and traumatic events. These findings suggest that worries about economic and residential security are particularly salient for the mental health of college-going young adults."
                    ]
                },
                {
                    "title": "Status Variation in Anticipatory Stressors",
                    "paragraphs": [
                        "To examine whether the associations between anticipatory stressors and depressive symptoms vary by status group, a series of interaction models were estimated. In preliminary analyses (not shown), each gender identity, race-ethnicity, sexual orientation, and first-generation status category was rotated out one-by-one to serve as the omitted group to identify moderating effects when using different reference categories. Across these models, none of the interactions between status group categories and anticipatory stress about economic/residential security or discrimination were significant, indicating that these stressors operate in a similar manner across groups. There were, however, positive, significant interactions between race-ethnicity categories and anticipatory stress about traumatic events, signaling that the effects of this stressor on depressive symptoms are stronger for both Latinos and whites than respondents who are multiracial (models can be found in Appendix F in the online version of the article). On the whole, these analyses provide limited evidence that the strength of the associations between anticipatory stressors and depressive symptoms meaningfully vary by subgroup."
                    ]
                },
                {
                    "title": "Status Variation in Anticipatory Stressors",
                    "paragraphs": [
                        "To examine whether discrepancies in anticipatory stressors contribute to group differences in depressive symptoms, an important first step is to determine status variation on this outcome by gender identity, race-ethnicity, sexual orientation, and first-generation status. Table 4 presents the results of models that regress depressive symptoms on study variables. Results from Model 1 show that women (p < .001) and respondents who identify as transgender or gender nonconforming (p < .01) report more depressive symptoms than men. In terms of racial-ethnic differences, there is only one significant group difference: Asians report fewer depressive symptoms than whites (p < .05). Turning to sexual orientation, respondents who identify as queer, asexual, pansexual, or demisexual report more depressive symptoms than heterosexuals (p < .01), while respondents who are bisexual report greater depressive symptomology than those who are straight (p < .001) or gay/lesbian (p < .05). This pattern of results remains consistent when controls are added in Model 2.",
                        "Formal mediation tests were conducted for groups that differed both in depressive symptomology and experiences of anticipatory stressors. Because Asians reported fewer depressive symptoms than whites despite experiencing greater concerns about future discrimination, racial-ethnic group differences were not examined. Similarly, although respondents who identify as bisexual had worse mental health than those who are gay/lesbian, bisexuals were not disadvantaged relative to this group on any anticipatory stressor net of controls.",
                        "Table 5 presents the results of mediation tests for differences in depressive symptoms. Looking first at the difference in depressive symptomology between women and men, women's higher levels of anticipatory stress about economic/residential security and traumatic events significantly mediate (p < .001) the difference between these groups, explaining 33.4% and 11.3%, respectively, of women's elevated depressive symptoms. Moving to the gap in depressive symptoms between men and those who identify as transgender or nonbinary, approximately 25.5% of the difference between these groups can be attributed to greater concern about traumatic events among the latter, while 14.9% can be explained by more frequent worries about future discrimination among those who are transgender or gender nonconforming (p < .05). These findings should be treated with caution, however, given the small number of transgender, nonbinary, and genderqueer respondents in the sample (n = 32).",
                        "In terms of variation in depressive symptoms by sexual orientation, all three anticipatory stressors significantly mediate (p < .001) the depressive symptoms gap between bisexual and straight respondents. Specifically, bisexual respondents' greater concern about future economic/residential security explains 14.1% of the difference, whereas greater worry among this group about traumatic events explains 6.7% of the gap. Bisexual respondents' greater fears of future discrimination explain a more modest 3.4% of the disparity between these groups. Turning lastly to the difference in depressive symptoms between queer/asexual/pansexual/demisexual respondents and heterosexuals, a no-table 17.8% of this gap can be attributed to greater concerns about future experiences of discrimination among the former. Once again, this finding warrants cautious interpretation given the small number of queer, asexual, pansexual, and demisexual respondents in the sample (n = 28)."
                    ]
                }
            ]
        },
        {
            "title": "Discussion",
            "subsections": [
                {
                    "title": "Caveats and Limitations",
                    "paragraphs": [
                        "The data used in this study have both advantages and limitations for exploring sociodemographic variation in anticipatory stressors. Although the study's quota sampling approach ensured that the gender and racial-ethnic composition of the sample closely matched national estimates of graduating seniors, participants are not a random, nationally representative sample. Due to the self-selected nature of the sample, this group may differ from the general population of college seniors in important ways that cannot be fully assessed here. For instance, as detailed earlier, the socioeconomic profile of the sample suggests that more affluent college seniors were less likely to opt in to the study. This scenario may have bearing on the findings presented here given that psychological distress is less prevalent among young adults from higher socioeconomic status families (Barrett and Turner 2005). At the same time, by focusing on college seniors, the sample omits those who are arguably most vulnerable to the vicissitudes of life. Not only are the hardships faced by graduates of two-year institutions and those who do not attend college likely to be more pronounced, but these groups also lack the financial resources to buffer the economic and interpersonal strains that emerge during young adulthood. Another potential source of bias stems from the study's time frame. Although the survey was intentionally conducted within a month of graduation at most U.S. colleges to capitalize on the greater likelihood that seniors would be actively contemplating the future during this period, this approach might yield more inflated estimates of anticipatory stress than what might otherwise be found among the young adult population.",
                        "Future studies would also benefit from intersectional analyses (Warner and Brown 2011) that consider how gender identity, race-ethnicity, sexual orientation, and socioeconomic status simultaneously influence experiences of anticipatory stressors and their resultant effects on mental health. The present study is restricted in its ability to examine the synergistic effects of these identities. Specifically, the limited number of respondents belonging to groups that form a relatively small proportion of the sample would mean that the cross-classification of status groups would yield categories too small to form empirically grounded conclusions. Another limitation is the cross-sectional nature of these data. Evidence of causality remains paramount in studies of the stress process. Although the causal ordering described in this study is theoretically grounded in the stress process, it is feasible that these relationships operate in the opposing direction. That is, people who are depressed might experience greater trepidation about the future. In a similar vein, it is possible that the relationship between anticipatory stressors and depressive symptoms documented in this study would be attenuated after adjusting for variation in social psychological factors. The omission of such measures leaves open the question of whether the positive association between anticipatory stressors and psychological distress identified here might in fact be a function of lower levels of self-esteem, a lack of mastery, or pessimism. A related issue is these data provide limited insight into the mechanisms underlying disadvantaged groups' more frequent worries about stress exposure. Future research would benefit from longitudinal data and the use of causal methods to more explicitly tease out how anticipatory stressors operate on mental health and why different forms of future-oriented stressors are more prominent among certain social groups relative to others.",
                        "The scope of this study was purposely limited to college seniors to gauge anticipatory stressors among a group of individuals at the same life stage who face a broad set of similar concerns about the future. Given the discrete age range of the sample, it is important to emphasize that findings should not be extrapolated to older adults. Past research identifies a u-shaped association between age and psychological distress, where symptoms are more prominent during young adulthood, abate in middle age, and increase among the oldest-old (Schieman, Van Gundy, and Taylor 2001). Although anticipatory stressors may be acutely experienced by young adults, these worries could very well taper off amid the growing social and economic security of middle age. Future research that samples individuals across the life course could shed light on whether declining levels of anticipatory stress with advancing age might be implicated in the lower levels of psychological distress found during middle age.",
                        "To generate a sufficiently large sample within the study's financial constraints, a singular focus on anticipatory stressors was pursued at the expense of a more comprehensive evaluation of respondents' cumulative stress burden--including assessments of past and current exposure to traumatic events, chronic stressors, and instances of discrimination. It must be underscored that these decisions impose clear limitations on the generalizability of study findings. My hope is that these shortcomings are generative and spur researchers to overcome the limitations of this study by pursuing a more rigorous assessment of the different types of anticipatory stressors people face in their everyday lives as well as their contributions to mental health disparities relative to more extensively studied stressors. At minimum, this effort would require a diverse, nationally representative sample and a lengthy battery of items that inventory respondents' experiences of anticipatory stressors alongside traditional measures of chronic strains, stressful life events, and network-related stress to adjudicate their relative contributions to a compendium of mental health outcomes ranging from depressive symptoms to anxiety to anger and substance use. Although the limitations of these data are well understood, these deficits are counterbalanced by the analytic leverage provided by the representation of respondents across a range of salient demographic categories and the presence of more adequately nuanced survey items measuring anticipatory stressors than what can be found in commonly used, large-scale data sets."
                    ]
                }
            ]
        },
        {
            "title": "Conclusion",
            "subsections": [
                {
                    "title": null,
                    "paragraphs": [
                        "The results of this study provide preliminary evidence that anticipatory stressors are disproportionately experienced by members of structurally disadvantaged groups. Findings further suggest that variation in anticipatory stressors might notably contribute to differences in depressive symptomology by gender identity and sexual orientation. These results indicate that measures of direct and vicarious stress exposure represent but one piece of the mental health disparities puzzle. Research in the stress process tradition would do well to consider future-oriented worries alongside more common indices of stress exposure to more fully catalog the stress burden shouldered by members of marginalized social groups."
                    ]
                }
            ]
        }
    ],
    "references": [
        "Adkins, Daniel, Wang, Victor, Elder, Glen 2009. \u201cStructure and Stress: Trajectories of Depressive Symptoms across Adolescence and Young Adulthood.\u201d Social Forces 88(1):31\u201360.",
        "Aneshensel, Carol S. 1992. \u201cSocial Stress-Theory and Research.\u201d Annual Review of Sociology 18(1):15\u201338.",
        "Aneshensel, Carol S. 2009. \u201cToward Explaining Mental Health Disparities.\u201d Journal of Health and Social Behavior 50(4):377\u201394.",
        "Arum, Richard, Roksa, Josipa. 2014. Aspiring Adults Adrift: Tentative Transitions of College Graduates. Chicago: University of Chicago Press.",
        "Barrett, Anne E., Turner, R. Jay. 2005. \u201cFamily Structure and Mental Health: The Mediating Effects of Socioeconomic Status, Family Process, and Social Stress.\u201d Journal of Health and Social Behavior 46(2):156\u201369.",
        "Becerra-Culqui, Tracy, Liu, Yuan, Nash, Rebecca, Cromwell, Lee, Flanders, W. Dana, Getahun, Darios, Giammattei, Shawn, Hunkeler, Enid, Lash, Timothy, Millman, Andrea, Quinn, Virginia, Robinson, Brandi, Roblin, Douglas, Sandberg, David, Silverberg, Michael, Tangpricha, Vin, Goodman, Michael. 2018. \u201cMental Health of Transgender and Gender Nonconforming Youth Compared with Their Peers.\u201d Pediatrics 141(5):1\u201311.",
        "Black, Michele C., Basile, Kathleen C., Breiding, Matthew J., Smith, Sharon G., Walters, Mikel L., Merrick, Melissa T., Chen, Jieru, Stevens, Mark R. 2011. The National Intimate Partner and Sexual Violence Survey: 2010 Summary Report. Atlanta: Centers for Disease Control.",
        "Boardman, Jason, Alexander, Kari. 2011. \u201cStress Trajectories, Health Behaviors, and the Mental Health of Black and White Young Adults.\u201d Social Science & Medicine 72(10):1659\u201366.",
        "Bozick, Robert. 2007. \u201cMaking It through the First Year of College: The Role of Students\u2019 Economic Resources, Employment, and Living Arrangements.\u201d Sociology of Education 80(3):261\u201385.",
        "Breen, Richard, Karlson, Kristian, Holm, Anders. 2013. \u201cTotal, Direct, and Indirect Effects in Logit and Probit Models.\u201d Sociological Methods & Research 42(2):164\u201391.",
        "Cataldi, Emily Forrest, Bennett, Christopher, Chen, Xiangeli. 2018. First-Generation Students: College Access, Persistence, and Postbachelor\u2019s Outcomes. NCES 2018-421. Washington, DC: National Center for Education Statistics.",
        "Copen, Casey, Chandra, Anjani, Febo-Vazquez, Isaedmarie. 2016. Sexual Behavior, Sexual Attraction, and Sexual Orientation among Adults Aged 18\u201344 in the United States: Data from the 2011-2013 National Survey of Family Growth. Hyattsville, MD: U.S. Department of Health and Human Services.",
        "DiMaggio, Paul. 1997. \u201cCulture and Cognition.\u201d Annual Review of Sociology 23:263\u201387.",
        "Doan, Long, Loehr, Annalise, Miller, Lisa. 2014. \u201cFormal Rights and Informal Privileges for Same-Sex Couples: Evidence from a National Survey Experiment.\u201d American Sociological Review 79(6):1172\u201395.",
        "Everett, Bethany. 2015. \u201cSexual Orientation Identity Change and Depressive Symptoms: A Longitudinal Analysis.\u201d Journal of Health and Social Behavior 56(1):37\u201358.",
        "Frost, David M., LeBlanc, Allen J., Vries, Brian de, Alston-Stepnitz, Eli, Stephenson, Rob, Woodyatt, Cory. 2017. \u201cCouple-Level Minority Stress: An Examination of Same-Sex Couples\u2019 Unique Experiences.\u201d Journal of Health and Social Behavior 58(4):455\u201372.",
        "Furquim, Fernando, Glasener, Kristen, Oster, Meghan, McCall, Brian, DesJardins, Stephen. 2017. \u201cNavigating the Financial Aid Process: Borrowing Outcomes among First-generation and Non-first-generation Students.\u201d Annals of the American Academy 671(1):79\u201391.",
        "Gaddis, S. Michael. 2015. \u201cDiscrimination in the Credential Society: An Audit Study of Race and College Selectivity in the Labor Market.\u201d Social Forces 93(4):1451\u201379.",
        "Garofalo, Robert, Deleon, Joanne, Osmer, Elizabeth, Doll, Mary, Harper, Gary. 2006. \u201cOverlooked, Misunderstood and At-Risk: Exploring the Lives and HIV Risk of Ethnic Minority Male-to-Female Transgender Youth.\u201d Journal of Adolescent Health 38(3):230\u201336.",
        "Goldrick-Rab, Sara. 2006. \u201cFollowing Their Every Move: An Investigation of Social-Class Differences in College Pathways.\u201d Sociology of Education 79(1):61\u201379.",
        "Goyette, Kimberly. 2008. \u201cCollege for Some to College for All: Social Background, Occupational Expectations, and Educational Expectations over Time.\u201d Social Science Research 37(2):461\u201384.",
        "Grollman, Eric Anthony. 2012. \u201cMultiple Forms of Perceived Discrimination and Health among Adolescents and Young Adults.\u201d Journal of Health and Social Behavior 53(2):199\u2013214.",
        "Hicken, Margaret, Lee, Hedwig, King, Anna. 2017. \u201cThe Weight of Racism: Vigilance and Racial Inequalities in Weight-Related Measures.\u201d Social Science & Medicine 199:157\u201366.",
        "Hicken, Margaret, Lee, Hedwig, Morenoff, Jeffrey, House, James S., Williams, David R. 2014. \u201cRacial/Ethnic Disparities in Hypertension Prevalence: Reconsidering the Role of Chronic Stress.\u201d American Journal of Public Health 104(1):117\u201323.",
        "Hsieh, Ning. 2014. \u201cExplaining the Mental Health Disparity by Sexual Orientation: The Importance of Social Resources.\u201d Society and Mental Health 4(2):129\u201346.",
        "Human Rights Campaign. 2018. \u201cA National Epidemic: Fatal Anti-transgender Violence in America in 2018.\u201d https://assets2.hrc.org/files/assets/resources/AntiTransViolence-2018Report-Final.pdf?_ga=2.183537507.47429044.1566916618-1933986398.1566916618.",
        "Ishitani, Terry. 2006. \u201cStudying Attrition and Degree Completion Behavior among First-Generation College Students in the United States.\u201d The Journal of Higher Education 77(5):861\u201385.",
        "Jack, Anthony. 2016. \u201c(No) Harm in Asking: Class, Acquired Cultural Capital, and Academic Engagement at an Elite University.\u201d Sociology of Education 89(1):1\u201319.   Abstract",
        "Kessler, Ronald C., Amminger, Paul, Aguilar-Gaxiola, Sergio, Alonso, Jordi, Lee, Sing, Ustun, T. Berdirhan. 2007. \u201cAge of Onset of Mental Disorders: A Review of Recent Literature.\u201d Current Opinion in Psychiatry 20(4):359\u201364.",
        "Kessler, Ronald C., McLeod, Jane D. 1984. \u201cSex-Differences in Vulnerability to Undesirable Life Events.\u201d American Sociological Review 49(5):620\u201331.",
        "Kessler, Ronald C., Mickelson, Kristin D., Williams, David R. 1999. \u201cThe Prevalence, Distribution, and Mental Health Correlates of Perceived Discrimination in the United States.\u201d Journal of Health and Social Behavior 40(3):208\u201330.",
        "Kohler, Ulrich, Karlson, Kristian, Holm, Anders. 2011. \u201cComparing Coefficients of Nested Nonlinear Probability Models.\u201d Stata Journal 11(3):420\u201338.",
        "Lee, Hedwig, Hicken, Margaret T. 2017. \u201cDeath by a Thousand Cuts: The Health Implications of Black Respectability Politics.\u201d Souls 18(2\u20134):421\u201345.",
        "Lee, Hedwig, Turney, Kristin. 2012. \u201cInvestigating the Relationship between Perceived Discrimination, Social Status, and Mental Health.\u201d Journal of Health and Social Behavior 2(1):1\u201320.   Abstract",
        "Lemieux, Thomas. 2006. \u201cPostsecondary Education and Increasing Wage Inequality.\u201d American Economic Review 96(2):195\u201399.",
        "Louie, Patricia, Wheaton, Blair. 2019. \u201cThe Black-White Paradox Revisited: Understanding the Role of Counterbalancing Mechanisms during Adolescence.\u201d Journal of Health and Social Behavior 60(2):169\u201387.",
        "McDonough, Peggy, Walters, Vivienne. 2001. \u201cGender and Health: Reassessing Patterns and Explanations.\u201d Social Science & Medicine 52:547\u201359.",
        "McFarland, Michael J., Taylor, John, McFarland, Cheryl A. S., Friedman, Katherine L. 2018. \u201cPerceived Unfair Treatment by Police, Race, and Telomere Length: A Nashville Community-Based Sample of Black and White Men.\u201d Journal of Health and Social Behavior 59(4):585\u2013600.",
        "McPherson, Miller, Smith-Lovin, Lynn, Cook, James. 2001. \u201cBirds of a Feather: Homophily in Social Networks.\u201d Annual Review of Sociology 27:415\u201344.",
        "Miller, Lisa, Grollman, Eric Anthony. 2015. \u201cThe Social Costs of Gender Nonconformity for Transgender Adults: Implications for Discrimination and Health.\u201d Sociological Forum 30(3):809\u201331.",
        "Mize, Trenton. 2016. \u201cSexual Orientation in the Labor Market.\u201d American Sociological Review 81(6):1132\u201360.",
        "Mize, Trenton, Manago, Bianca. 2018. \u201cThe Stereotype Content of Sexual Orientation.\u201d Social Currents 5(5):458\u201378.",
        "National Center for Education Statistics. 2018a. \u201cThe Condition of Education 2018-Immediate College Enrollment Rate. NCES 2018\u2013144.\u201d https://nces.ed.gov/fastfacts/display.asp?id=51.",
        "National Center for Education Statistics. 2018b. \u201cThe Condition of Education 2018-Undergraduate Retention and Graduation Rates. NCES 2018\u2013144.\u201d https://nces.ed.gov/FastFacts/display.asp?id=40.",
        "National Center for Education Statistics. 2018c. \u201cTable 322.30.Bachelor\u2019s Degrees Conferred by Postsecondary Institutions, by Race/Ethnicity and Field of Study: 2014\u201315 and 2015\u201316.\u201d https://nces.ed.gov/programs/digest/d17/tables/dt17_322.30.asp?current=yes.",
        "National Center for Education Statistics. 2018d. \u201cTable 322.40.Bachelor\u2019s Degrees Conferred to Males by Postsecondary Institutions, by Race/Ethnicity and Field of Study: 2014\u201315 and 2015\u201316.\u201d https://nces.ed.gov/programs/digest/d17/tables/dt17_322.40.asp?current=yes.",
        "National Center for Education Statistics. 2018e. \u201cTable 322.50.Bachelor\u2019s Degrees Conferred to Females by Postsecondary Institutions, by Race/Ethnicity and Field of Study: 2014\u201315 and 2015\u201316.\u201d https://nces.ed.gov/programs/digest/d17/tables/dt17_322.50.asp?current=yes.",
        "National Center for Education Statistics. 2018f. \u201cTotal Fall Enrollment in Degree-Granting Postsecondary Institutions, by Attendance Status, Sex, and Age: Selected Years, 1970 through 2027.\u201d https://nces.ed.gov/programs/digest/d17/tables/dt17_303.40.asp.",
        "Pascarella, Ernest, Pierson, Christopher, Wolniak, Gregory, Terenzini, Patrick. 2004. \u201cFirst-Generation College Students: Additional Evidence on College Experiences and Outcomes.\u201d The Journal of Higher Education 75(3):249\u201384.",
        "Pearlin, Leonard I. 1989. \u201cThe Sociological-Study of Stress.\u201d Journal of Health and Social Behavior 30(3):241\u201356.",
        "Pearlin, Leonard I. 1999. \u201cThe Stress Process Revisited: Reflections on Concepts and Their Interrelationships.\u201d Pp. 395\u2013415 in Handbook of the Sociology of Mental Health, edited by Aneshensel, C. S., Phelan, J. C. New York: Kluwer Academic/Plenum.",
        "Pearlin, Leonard I., Bierman, Alex. 2013. \u201cCurrent Issues and Future Directions in Research into the Stress Process.\u201d Pp. 325\u201340 in Handbook of the Sociology of Mental Health. 2nd ed., edited by Aneshensel, C. S., Phelan, J. C., Bierman, A. New York: Springer.",
        "Powell, Brian, Schnabel, Landon, Apgar, Lauren. 2017. \u201cDenial of Service to Same-Sex and Interracial Couples: Evidence from a National Survey Experiment.\u201d Sciences Advances 3(12):1\u20137.",
        "Quadlin, Natasha. 2018. \u201cThe Mark of a Woman\u2019s Record: Gender and Academic Performance in Hiring.\u201d American Sociological Review 83(2):331\u201360.",
        "Radloff, Lenore. 1977. \u201cThe CES-D Scale: A Self-report Depression Scale for Research in the General Population.\u201d Applied Psychological Measurement 1(3):385\u2013401.",
        "Rivera, Lauren, Tilcsik, Andras. 2016. \u201cClass Advantage, Commitment Penalty: The Gendered Effect of Social Class Signals in an Elite Labor Market.\u201d American Sociological Review 81(6):1097\u2013131.",
        "Rosenfield, Sarah, Mouzon, Dawne. 2013. \u201cGender and Mental Health.\u201d Pp. 277\u201396 in Handbook of the Sociology of Mental Health. 2nd ed., edited by Aneshensel, C. S., Phelan, J. C., Bierman, A. New York: Springer.",
        "Sawyer, Pamela, Major, Brenda, Casad, Bettina, Townsend, Sarah, Mendes, Wendy Berry. 2012. \u201cDiscrimination and the Stress Response: Psychological and Physiological Consequences of Anticipating Prejudice in Interethnic Interactions.\u201d American Journal of Public Health 102(5):1020\u201326.",
        "Schieman, Scott, Gundy, Karen Van, Taylor, John. 2001. \u201cStatus, Role, and Resource Explanations for Age Patterns in Psychological Distress.\u201d Journal of Health and Social Behavior 42(1):80\u201396.",
        "Schnittker, Jason, Do, Duy. 2020. \u201cPharmaceutical Side Effects and Mental Health Paradozes among Racial-Ethnic Minorities.\u201d Journal of Health and Social Behavior 61(1):4\u201323.",
        "Stebleton, Michael, Soria, Krista, Huesman, Ronald 2014. \u201cFirst-Generation Students\u2019 Sense of Belonging, Mental Health, and Use of Counseling Services at Public Research Universities.\u201d Journal of College Counseling 17(1):6\u201320.",
        "Stuber, Jenny. 2011. \u201cIntegrated, Marginal, and Resilient: Race, Class, and the Diverse Experiences of White First-Generation College Students.\u201d International Journal of Qualitative Studies in Education 24(1):117\u201336.",
        "Thoits, Peggy A. 2010. \u201cStress and Health: Major Findings and Policy Implications.\u201d Journal of Health and Social Behavior 51(1):S41\u201353.",
        "Thomeer, Mieke Beth, LeBlanc, Allen. 2019. \u201cThe Importance of Anticipatory Stress in the Lives of People in Same-Sex Relationships. Sociology Policy Briefs. Policy Brief No.04-2019.\u201d https://www.policybriefs.org/briefs/lgbt-anticipatory-stress.",
        "Thomeer, Mieke Beth, LeBlanc, Allen, Frost, David, Kayla, Bowen. 2018. \u201cAnticipatory Minority Stressors among Same-Sex Couples: A Relationship Timeline Approach.\u201d Social Psychology Quarterly 81(2):126\u201348.",
        "Turner, R. Jay, Avison, William R. 2003. \u201cStatus Variations in Stress Exposure: Implications for the Interpretation of Research on Race, Socioeconomic Status, and Gender.\u201d Journal of Health and Social Behavior 44(4):488\u2013505.",
        "Turner, R. Jay, Lloyd, Donald A. 1995. \u201cLifetime Traumas and Mental Health: The Significance of Cumulative Adversity.\u201d Journal of Health and Social Behavior 36(4):360\u201376.",
        "Turner, R. Jay, Wheaton, Blair, Lloyd, Donald A. 1995. \u201cThe Epidemiology of Social Stress.\u201d American Sociological Review 60(1):104\u201325.",
        "Ueno, Koji. 2010. \u201cMental Health Differences between Young Adults with and without Same-Sex Contact: A Simultaneous Examination of Underlying Mechanisms.\u201d Journal of Health and Social Behavior 51(4):391\u2013407.",
        "Umberson, Debra. 2017. \u201cBlack Deaths Matter: Race, Relationship Loss, and Effects on Survivors.\u201d Journal of Health and Social Behavior 58(4):405\u201320.",
        "Warner, David, Brown, Tyson. 2011. \u201cUnderstanding How Race/Ethnicity and Gender Define Age-Trajectories of Disability: An Intersectionality Approach.\u201d Social Science & Medicine 72(8):1236\u201348.",
        "Wheaton, Blair. 1994. \u201cSampling the Stress Universe.\u201d Pp. 77\u2013114 in Stress and Mental Health: Contemporary Issues and Prospects for the Guture, edited by Avison, W. R., Gotlib, I. H. New York: Academic.",
        "Williams, David R. 2018. \u201cStress and Mental Health of Populations of Color: Advancing Our Understanding of Race-Related Stressors.\u201d Journal of Health and Social Behavior 59(4):466\u201385."
    ],
    "title": "Status Variation in Anticipatory Stressors and Their Associations with Depressive Symptoms",
    "issue": "2",
    "volume": "61",
    "year": 2020,
    "issn": "0022-1465",
    "journal": "Journal of Health and Social Behavior",
    "authors": [
        "Matthew K. Grace"
    ]
}