{
    "doi": "http://dx.doi.org/10.1093/esr/jcz039",
    "abstract": "This paper analyses how and when men and women devote their extra time to childcare and housework by exploiting an exogenous shock in scheduling: the partial implementation of the 35-hour workweek reform in France. Using propensity score matching and the most recent time use survey (INSEE, 2010), we show that time reallocations differ by gender and day of the week. While men dedicate their extra time to performing more housework on weekdays in the form of mainly time-flexible tasks such as repairs or shopping, they do less on weekends. This shift from weekends to weekdays is not observed for women who perform day-to-day tasks that are less transferable. Women spend more time on childcare and reduce multitasking. Overall, task specialization by gender is more pronounced, and this gendered use of similar extra time illustrates that time allocation is not only a question of time availability. In particular, men and women \u2018do gender\u2019 at weekends, when performing tasks is more visible to others.",
    "sections": [
        {
            "title": "Introduction",
            "paragraphs": [
                "Despite the increase in women's workforce participation, huge gender inequalities in unpaid work have persisted over time. The dramatic decline in women's unpaid work has not been offset by men becoming more involved, as women still perform the bulk of domestic and parental tasks in all developed countries (Davis and Greenstein, 2004; Lachance-Grzela and Bouchard, 2010; Bianchi et al., 2012; Gimenez-Nadal and Sevilla, 2012). Thus, only the first half of the gender revolution has been fulfilled (Goldscheider, Bernhardt and Lappegard, 2015).",
                "This gender gap is explained mainly by three theoretical approaches to exploring the allocation of time to unpaid work. First, from the time availability perspective, women's and men's domestic time is linked to time spent on paid work (Bianchi et al., 2000). As men spend more time in the labour market than women, they have less time for housework and childcare. Second, the relative resource theory posits that the division of unpaid work between spouses reflects power relationships in which partners with higher earnings (generally men) relative to their spouses tend to perform less housework and childcare than their spouses (Blood and Wolfe, 1960). Finally, taking the gender-based perspective, the time devoted to paid and unpaid work depends on gendered expectations and attitudes regarding unpaid and paid work (Robinson and Milkie, 1998).",
                "The major reform to working time enacted by France in the early 2000s provides us with a rare opportunity to test two of these alternative explanations: the time availability theory and the gender-based perspective. This exogenous shock to the work schedule gave working people additional free time in that it reduced their working time by approximately 10 per cent (from 39 to 35 hours per week)--with no reduction in income. Since the reform had no income effects, the relative bargaining power of partners was not affected; we can thus disregard the theory of relative resources. Being able to eliminate the possible confounding effects of income strengthens the study. We analyse how and when female and male workers used the same amount of time freed up by the reform. Do men and women reallocate these extra 4 hours per week in a similar way, which would be in accordance with the time availability perspective? Or do gender differences in time reallocation persist, which would instead support the gender-based perspective?",
                "To answer these questions, we adopt a broad approach to studying changes in time allocation. The significant relaxation of time constraints may affect not only the duration of unpaid work, but it may also result in a reallocation of time by shifting some tasks from weekends to weekdays--depending on their time-flexibility--or by changing the number of tasks that are performed simultaneously with others. To consider the possible shifting of tasks and that some of them may be more easily shifted than others, we distinguish between the schedule of activities (weekdays and weekends), the type of tasks (time-flexible vs. time-inflexible tasks), and the propensity for multitasking. Since it may take time to change domestic habits and reallocate time, we analyse the medium-term effects of the reform--namely 7 years after the final phases of the reform were introduced--in which time individual routines and task-specific skills could have changed.",
                "Our work contributes to the literature in four ways. First, it is one of the first studies to evaluate the consequences of the French workweek reform in the private sphere. Up to now, evaluation studies have focused on its labour market consequences.",
                "Second, this is the first analysis using a quasi-experimental approach to time use in the European context. Because observing individual variations in time use from date to date is rarely possible because of a lack of time use panel surveys, this article uses an historical and exogenous change in working hours. The reform took a long time to enact and the process was halted. The article uses the most recent French time use survey to exploit the discrepancies between beneficiaries and non-beneficiaries as matched by propensity score in order to evaluate the quantitative impact of the reform by gender on workers' non-market schedules.",
                "Third, this article tests two well-known competing theories on the allocation of time to unpaid work and thus helps to explain the persistence of the gender gap in domestic time. Given that this natural experiment of workweek reduction was similar for male and female full-time workers, it provides an opportunity to test whether the use of extra time is gender-neutral--according to the assumption of time availability theory--or if the time use adjustments are gender-stereotyped--which is in line with the gender perspective.",
                "Fourth, this article is not limited to observing changes only to the amounts of time spent on tasks but instead examines also when and how they are performed. It does not only compare weekdays and weekends, but it directly analyses multitasking and time transfers of tasks between weekdays and weekends according to their degree of daily necessity."
            ]
        },
        {
            "title": "The French Working Time Reforms",
            "paragraphs": [
                "The working time reforms in France followed a sequential process from the late 1990s until they were interrupted towards the end of 2002, thereby affecting only a fraction of the population by the end of the process. The so-called Aubry Acts passed in June 1998 and October 1999 implemented a general reduction of working time without any wage reduction. The objectives were 'work-sharing' (i.e. improving employment levels through a reduction in working hours per worker) and improving workers' well-being. The length of the legal workweek was progressively set from 39 to 35 hours from February 2000 onwards. Companies were first encouraged to reduce working time through financial incentives. Then, within-firm negotiations were made mandatory from January 2001 onwards for private firms employing more than 20 workers and from January 2002 onwards for smaller firms and the public sector (with the exception of teachers): all were compelled to sign agreements with their employees, bringing the weekly working time in the company to 35 hours.",
                "To incite companies to reduce their working time, overtime was made more expensive.1 Additionally, counting the hours annually rather than weekly (1,600 hours per year) was made possible. Some workers could also work more than 35 hours a week, with these extra-hours being cumulative (up to a maximum of 4 hours a week), for which they were compensated with extra days off for the overtime. This arrangement is referred to hereafter as 'comp time'. Managers with genuine autonomy in their work (47 per cent of managers) were also given special status.2",
                "In April 2002, the Conservative government returned to power and ended the process. Several laws were passed to abolish the incentive mechanism of the Aubry Acts, to increase the overtime contingency, and to maintain the reduced cost of overtime in small companies. Nevertheless, the 35-hour legal workweek was not abolished.",
                "According to data from the Ministry of Labour, 21 per cent of firms (representing 58 per cent of workers) had decreased weekly working time to 35 hours in April 2003. The coverage rate of employees was much higher in large firms than in firms employing 20 workers or less: 74 per cent and 23 per cent, respectively. According to branch of activity, the average coverage was highest in industry (73 per cent) and lowest in construction (40 per cent)."
            ]
        },
        {
            "title": "Theory and Previous Results",
            "paragraphs": [
                "The time availability theory suggests that time spent on unpaid work depends on time spent in the market: the more time individuals spend in the labour market, the less time they spend on unpaid work (Presser, 1994). As this theory is gender-neutral, any exogenous change in working time should have similar effects for men and women. Most empirical studies find that the time individuals spend on unpaid work is negatively associated with their own time in paid employment (Blair and Lichter, 1991; South and Spitze, 1994; Bianchi et al., 2000; Gershuny, Bittman and Brice, 2005).",
                "This theory has been criticized for neglecting that housework and childcare are deeply gendered. According to the gender-based perspective, variations in the same amount of working time have different effects for men and women. An earlier approach to this perspective focuses on the gender roles ideology that is formed during childhood socialization and deeply internalized (Coverman, 1985). Empirical research shows that stronger attitudes towards gender equality are effectively associated with more equal division of unpaid work (Aassve, Fuochi and Mencarini, 2014). From the perspectives of 'gender display' or 'doing gender', gender-oriented behaviour is not only the result of internalized processes but is rather a result of individuals' active participation: they perform gender through unpaid work (Berk, 1985; West and Zimmerman, 1987). The greater involvement of women in unpaid work and that of men in the labour market is a way of affirming their gender identities (Goffman, 1977). Men may reinforce their male identities through doing less unpaid and more paid work while, in contrast, women may demonstrate their female identity through performing more housework and childcare. This 'gender display' explains why women--even when they are single or in childless couples--spend more time on unpaid work than do men. From the 'compensatory gender-display perspective', couples may even compensate for a gender-atypical situation (e.g. when the wife is the main breadwinner) by adopting a traditional division of labour (Brines, 1994). Some empirical studies show that women perform more housework when they work more than their partner, for instance, in cases of the men being unemployed (Solaz, 2005; Gough and Killewald, 2011) or when both are working but the women earn more (Greenstein, 2000). However, this 'compensatory gender-display perspective' is challenged by studies that find absolute earnings to be a better predictor of housework than relative earnings (Gupta, 2007; Killewald and Gough, 2010).",
                "Theories accounting for gendered divisions of unpaid work also highlight the nature of unpaid work. Bianchi et al. (2012) argue that studying the gender division of housework in relation to that of childcare helps to better understand gender inequality. Since childcare is one of the most pleasurable unpaid work activities and has greater meaning than housework, they should be considered separately (Sullivan, 2013). Gender asymmetry occurs also in the household tasks performed. Women remain responsible for routine and repetitive household tasks while men perform more discretionary tasks that can be scheduled to fit with other commitments (Blair and Lichter, 1991).",
                "Recent research also examines when tasks are performed, especially those done on weekdays or weekends (Gupta and Sayer, 2015, Hook, 2017). From a time availability perspective, time constraints vary according to the day of the week and are lower when individuals are free from professional constraints, thus leading to domestic tasks being transferred to the weekends. Some routine tasks are more transferable than others, depending on their degree of daily necessity. Cooking and childcare are particularly inflexible: they must be completed daily and at fixed times, while cleaning and laundry can be temporarily left undone and more easily moved from 1 day to the next, which means that workers can thus perform these tasks on the weekends. Hence, the longer women work on weekdays, the more time they spend on weekends doing time-flexible domestic work (Gupta and Sayer, 2015). Women also 'do gender' on weekends, when the display of gender through housework is more visible (Hook, 2017). Since tasks generally performed by women are those with little flexibility, these can also spill over into time allocated to other activities. Doing several activities at once (i.e. multitasking) can be a means for meeting the needs of the household within a limited time frame (Sayer et al., 2009).",
                "The previously cited studies treat labour market hours as exogenous and their methodology does not address potential endogeneity, although some discuss it (Gupta, 2007; Killewald and Gough, 2010; Gough and Killewald, 2011; Hook, 2017). However, changes in working hours are rarely exogenous to individual characteristics or choices, and working time and housework time are jointly determined. Hence, women may reduce their working hours because they feel compelled to spend more time on household labour, for instance after childbearing. Moreover, these changes in working time are generally concomitant with income changes, making it difficult to disentangle the time effect from the income effect on time allocated to unpaid work.",
                "One way to overcome these methodological difficulties is to use exogenous shocks in time endowments, which are very rare. Aguiar, Hurst and Karabarbounis (2013) evaluate the reallocation of time use during the Great Recession by using cross-state variations in the changes in market work as an identification strategy. Roughly 30 per cent of the foregone working time was reallocated to housework, with no difference across genders, and 50 per cent to leisure. Hamermesh (2002) uses 1990 Dutch time data to evaluate the impact of having one extra hour when the clocks are changed in autumn. Here, he compares the time use diaries on the Sunday that the Netherlands reverted to winter time with those of the previous Sunday. This non-permanent and anticipated available extra time was used for additional sleep, except among unmarried men, who used it for leisure.",
                "A few studies analyse the effect of changes in the legal workweek on time spent on non-working activities. Kawaguchi, Lee and Hamermesh (2013) evaluate how Japanese and South Korean workers spent their time on leisure, personal care, and household production following reforms imposing a decrease in statutory working hours in the 1990s and early 2000s, respectively (weekly working hours were cut by 8 hours in Japan, 4 hours in Korea). By using matching techniques to infer causality, they show that those affected by the reform in Japan had decreased unpaid work time--except on Saturdays--and increased leisure time; while in Korea they had increased household production throughout the whole week and increased leisure on Saturdays. Gender effects are not explored.",
                "In France, a survey was conducted on 1,618 employees affected by the first Aubry reform, i.e. employees of pioneering companies that were highly selected since the working time reduction was not yet mandatory. Individuals, mostly women, reported shifting activities to weekdays and having more time for rest, repairs, gardening, and childcare (Cette et al., 2004). A large proportion of dual-earner parents with young children--especially those with standard working hours--reported that the reform had improved their work-family balance (Fagnani and Letablier, 2004). Based on subjective assessments, this survey did not measure how much time was moved between activities and days of the week.",
                "Our study aims to go further by using a nationally representative sample and identifying the causal effect of working hours on non-market time allocation in the European context, where time constraints and gender relations are very different from Asia. We consider the exogenous variation in market work hours created by the French reform and examine how full-time female and male employees use this extra time. By giving the same amount of free time to female and male beneficiaries, this reform allows us to compare how women and men use this additional time for non-market activities and to test the way time availability and gender condition the allocation of household tasks. The emphasis that we place on shifting tasks between weekdays and weekends and on multitasking allows us to provide a more complete picture of time organization.",
                "According to the time availability perspective:",
                "H1a: Extra time provided by the 35-hour workweek should lead to more housework, especially to childcare, with less multitasking and no gender differences in the way this additional time is used.",
                "Since men and women benefit from the same amount of extra time for the same wage, they should allocate this extra time to alternative activities in the same ways. As the 35-hour workweek relaxes the time constraints on weekdays, some housework time may thus be shifted to weekdays in order to devote more time to family or to leisure on weekends:",
                "H1b: We should observe among both men and women affected by the reform that more time is devoted to housework on weekdays and less (or no variation) on weekends.",
                "H1c: These variations by day of the week should be higher for time-flexible tasks (such as cleaning, shopping, repairs, and gardening) than for time-inflexible tasks (such as cooking and childcare).",
                "On the other hand, from a gender-based perspective, we would expect different effects for men and women because gender conditions the way men and women adjust their time in response to the reform:",
                "H2a: After the reform, women should devote more additional time than men to housework and caregiving.",
                "Thus, the reform would exacerbate the gendered nature of time use. According to the gender-display perspective, individuals demonstrate their gender identity by performing specific tasks, especially during weekends, because this is much more visible to family members or friends:",
                "H2b: Thus, the increase in gendered activities should be even higher on weekends."
            ]
        },
        {
            "title": "Methods",
            "paragraphs": [
                "We use the most recent French time use survey, which represents a unique source of information on daily activities. This nationally representative survey of 18,380 respondents was conducted by the National Institute of Statistics and Economic Studies (INSEE) over a 1-year period in 2009-2010, following the reform. Randomly selected individuals aged 11 and older were interviewed, as well as their spouses if they had any. The face-to-face interviews collected detailed information on the background and socio-economic status of individuals and households. Apart from this interview, 11,765 individuals kept two 24-hour time diaries (one for weekdays and another for weekends), which were divided into 10-minute intervals and with the days being randomly distributed among weekdays and weekend days. These described the main activities carried out and concurrent activities. Some randomly chosen individuals (N = 4,340) completed only one diary (either on weekdays or on weekends), because they were responding to another complementary survey.3",
                "To investigate the effect of the workweek reduction, we selected workers who were likely to be concerned by the reform. Among the 7,953 full-time4 working people interviewed, we excluded those with missing value on professional status (N = 30) and those self-employed (N = 1,060) and thus not concerned. Teachers (N = 991) were also omitted, since they were not affected and their working hours are too specific to be used in the control group, nor can they be compared with the beneficiaries of the reform. The sample of full-time wage-earners possibly affected by the reform consists of 5,872 individuals (5,230 of whom completed at a least one diary).",
                "We concentrate on the daily time (in minutes) spent on a primary activity by using standard aggregated definitions of activities. Paid work covers employment-related activities, including work breaks. Personal maintenance--eating, sleeping, washing, etc.--is distinguished from pure Leisure activities (e.g. sport, cultural activities, exercising, or socializing). We separate Housework from Childcare and disaggregate housework activities into time-inflexible tasks (all together: cooking, setting the table, and washing the dishes) and more flexible tasks (cleaning and laundry; shopping; doing repairs and gardening; and bookkeeping). Similarly, we distinguish time-inflexible childcare (all together: feeding, washing, homework supervision, reading, conversations, and transportation of children) from flexible childcare (all together: playing games, artistic activities, sport, and excursions). Multitasking is measured as the total time spent on secondary activities.",
                "To examine time-adjustments, we compare weekday and weekend diaries. Additionally, we use seven questions from the face-to-face interviews on shifting tasks from weekends to weekdays. The respondents were asked if during the week preceding the interview they had performed--either on weekdays, weekends, both weekdays and weekends, or never--any of the seven following tasks: shopping, cooking, washing dishes, cleaning, ironing, repairs, and gardening.",
                "Conducting an analysis using propensity score matching (PSM) methods consists of comparing outcomes between a treated sample and a control sample. Though inferring causal inference with matching methods is debatable because of possible unobserved confounders (Liu, Kuramoto and Stuart, 2013), PSM is still a good tool for comparing groups with similar characteristics and imposing fewer restrictions on the functional form of the relationship linking outcomes and covariates than conventional regressions (such as linearity in the OLS model). In our case, some workers were covered by the 35-hour workweek (treated) while others were not (untreated). The definition of two comparison groups is based on whether or not workers belong to a firm that has implemented (or not) the 35-hour workweek at the time of the survey. To define the control group, we condition on firms and employees characteristics--as workers do not allocate randomly to firms--and use PSM methods to match workers in firms affected by the 35-hour reform with those who are not.",
                "We would like to estimate the average treatment effect on the treated (ATT). The ATT can be interpreted as the average difference in time use of individuals who benefited from the workweek reduction compared to their time use had they not been affected by the reform. This latter time, called the counterfactual time use, is not observed but can be estimated. Under the assumption that assignment to the treatment is not correlated to possible outcomes (conditional independence assumption), any differences observed in average time use between treated and controls can be ascribed to the workweek reform.",
                "To define the treated and untreated among selected full-time wage earners, we used individual information on usual weekly working hours and comp time, as no direct information is available on the legal workweeks of firms.5 The untreated group is composed of individuals who work 39 hours or more per week and do not have comp time (N = 1,349 among which 1,174 completed at least one diary, i.e. 1,807 diaries). This last group is not affected by the reform. The treated group comprises individuals who work 35 hours a week and report working full-time with no comp time (N = 1,299 among which 1,162 completed 1,850 diaries). It is most likely that these employees belong to firms that have applied the option of reducing working time. Blurred cases are not taken into account, for instance when weekly working time ranges between 36 and 38 hours (N = 766) or is less than 35 hours (N = 220).",
                "Propensity scores (i.e. the theoretical probability of treatment) by gender and weekday are estimated with probit models, which include covariates that might affect both the treatment and the outcomes: age, number of children below 18, educational level (5 levels), conjugal status (single or in a relationship), occupation (manual worker, clerical worker, intermediate or higher-level occupation), tenure (in years), wage (in quintiles6), working schedules (atypical schedules, flexible time schedule), and several indicators describing the firm: size (four categories), public/private sector, and branch of activity (seven categories). Appendix Table A1 describes all covariates for the treated and untreated groups by gender. To assess group-specific effects of workweek reduction across weekdays and gender, we match individuals of the same sex and who were interviewed the same type of day (Dehejia, 2005).7",
                "A Gaussian kernel estimator with a Silverman (1986) window was used to build and weight the sample of controls based on the propensity score.8 Two other alternative algorithms were also tested: the nearest neighbour; and all the neighbours within a defined distance, known as caliper matching (here, we used 0.02 as the distance but also tried others, which gave very similar results; see Supplementary Table S1).9 Bootstrapping (200 iterations) was carried out to compute the standard errors. Propensity estimations (associated with the results in Table 2) are presented in Appendix Table A2. ",
                "The common support is very good: as shown in Supplementary Figure S2, the smoothed densities of the propensity scores for treated and controls by gender overlap sufficiently. In other words, treated and control populations share enough common traits, which facilitates the matching process. The balancing tests, which check the quality of the match, are also satisfied (Supplementary Table S3). T-tests for equality of means between the treated and control groups show no difference after matching for all the variables included, with the exception of being in a relationship and belonging to first income quintile that are slightly different after matching. The variances in both populations are also similar (expressed by the per cent bias). The standardized bias after matching is also less than 5 per cent for most items after matching.",
                "The validity of the matching method is based on the exogeneity of the treatment, conditionally on observable variables, and this assumption may be open to question. One can argue that being affected was quite exogenous before 2002--since it was not possible to anticipate which firms would implement the reform and all companies were supposed to have adopted it; but this would be less the case after 2002, when the process was halted. Our strategy cannot rule out, one, that workers might have different unobserved preferences for leisure or unpaid work and, two, that they may have applied some discretion in choosing to work in a firm that did or did not adhere to the 35-hour workweek. Taken together, these two factors may violate the conditional independence assumption. However, it is unlikely that workers with a preference for leisure changed firms in order to reduce their working hours. The share of workers who changed firms since the reform was implemented (during the last 7 years) is very similar for treated (46 per cent) and controls (49 per cent). We control for many individual characteristics such as educational level, tenure, family situation, and wage, thus allowing us to capture the maximum of this possible heterogeneity among workers. Moreover, as a robustness check, we apply the model on the reduced sample of workers who were already in the firm when the reform was implemented and who, in addition, did not change firms since then.10",
                "Since the 35-hour/week rule can in some cases be annualized and replaced by working 1,600 hours/year (e.g. 39 hours for some weeks and 30 hours for others), we also perform a sensitivity analysis by excluding these workers (5 per cent of the sample). We implement additional sensitivity analyses for an alternative group of treated, i.e. individuals who work 39 hours or more per week and enjoy comp time."
            ]
        },
        {
            "title": "Results",
            "paragraphs": [
                "Table 1 reports time use for treated and controls, and the difference between them (ATT) for men and women separately. The last column indicates whether the ATT differs significantly by gender. Female and male workers who benefit from the reduced working time spend less time at work than controls (on an average representative day, 42 minutes less for men and 34 minutes for women, with no significant difference between genders). This roughly corresponds to a workweek reduction from 39 to 35 hours (42 x 7 = 294 min and 34 x 7 = 238 min, which corresponds, respectively, to 5 and 4 hours per week). Men and women who work a 35-hour week spend more time on leisure than comparable men and women who work 39 hours and more. This difference in leisure time is higher on weekdays than on weekends (not significant for both sexes) and, whatever the day, it is higher for men than for women (28 minutes for men and 16 minutes--not significant--for women on weekdays).",
                "On an average day, men who work 35 hours a week spend significantly more time doing housework (12 minutes) than controls, while there is no significant difference for women in terms of doing housework. Men spend more time on flexible tasks such as repairs, gardening, bookkeeping, and recreational childcare, whereas women devote more time only to routine childcare (5 minutes more).",
                "The difference in total housework between treated and controls is more pronounced on weekdays than on weekends, especially for men. Men who work 35 hours a week spend more time doing housework on weekdays (19 minutes more daily) than men in the control group. This difference between treated and controls for weekdays is much higher than that for women (+4 minutes, not significant). Men dedicate this additional time to the most flexible tasks of gardening and repairs (14 minutes more per weekday), and, to a lesser extent, to shopping (6 minutes more) and bookkeeping (4 minutes more). Treated women spend 9 minutes more than controls on time-inflexible childcare.",
                "Men seem to reorganize their time use over the week. The additional time spent on repairs and shopping activities during weekdays is offset mostly by less time spent on time-flexible activities such as shopping (11 minutes less) and cleaning (7 minutes less) during weekends. While treated men spend less time than controls on domestic tasks and childcare at weekends, treated women devote more time to time-inflexible childcare than do controls. This, together with more time dedicated to paid work for men, suggests they 'do gender' at weekends, when the performance of tasks is more visible to others.",
                "The reform's contribution is mixed in regard to reducing gender differences in housework. On the one hand, the gender gap is less pronounced for beneficiaries of the workweek reduction on weekdays (45 minutes more for women than for men) than it is for the control group (60 minutes). On the other hand, given the shifts in time from weekends to weekdays for men, combined with the stability or slight increase for women, the gender gaps in housework and childcare are greater on weekends for reform beneficiaries than for controls. Women who work 35 hours spend less time on multitasking (41 minutes less during weekdays). They can fully enjoy their leisure activities (mainly watching TV) without having to perform another task at the same time. This decrease in multitasking occurs only on weekdays, which reflects the significant relaxation of time constraints for women as a result of the reform.",
                "Table 2 focuses on time allocation over the week and displays the self-declared weekly schedule for seven domestic tasks performed in the week before the interview, for treated and controls. It confirms the gender asymmetry in the tasks performed (among those treated as controls, most women never do repairs while most men never do the ironing) while also indicating the time of the week they are performed (most women do the cooking, washing-up, and cleaning on a daily basis). As concern the reform, men who work 35 hours do more housework than men in the control group: they are less likely to answer that they 'never' do a task (significant for shopping and gardening). They also more often do tasks exclusively on weekdays (washing-up and shopping), thus less often on weekends only. They also more often do repairs both on weekdays and weekends instead of only on weekends.",
                "The scheduling of tasks over the week according to whether they work 35 hours is different for women. Those working 35 hours a week perform flexible domestic tasks exclusively on weekends less frequently than do controls (significant for cleaning and shopping). For the less flexible domestic tasks that women usually perform on both weekends and weekdays (cooking and doing the dishes), few schedule differences are observed since they are hardly transferable from one day to another.",
                "The robustness check on the specific sub-sample of wage-earners who were employed in the same company at the time of the reform produces results that are very close to those previously obtained from the full sample--although they are less accurate, due to the reduction in sample size--(Table 3). The main results are confirmed, namely, that men spend more time on repairs and gardening on weekdays, and women on childcare on both weekdays (not significant) and weekends. Excluding workers with annualized working hours does not change the results either (Appendix Table A3). ",
                "The other option of the reform (i.e. comp time; see Appendix Table A4) also has similar but weaker effects on weekdays. Since in this case the reform consists in giving days off, either sporadically or as additional leave, these extra days off are less likely to affect the distribution of tasks between weekends and weekdays when compared to effects of freed-up hours during the week, as in the case of the reduced work week. Men with comp time perform more housework (repairs and gardening, but also cooking, cleaning, and doing laundry) than men who work 39 hours on weekdays. Conversely, women with comp time have similar behaviour to controls on weekdays,11 but they instead overinvest in parental and domestic activities during weekends--as already observed for women working 35 hours, which is in line with the 'doing gender' perspective.",
                "All these results together support the gender-based perspective rather than the time availability theory. Though our first hypothesis is partly confirmed--extra time provided by the 35-hour workweek leads to more housework and childcare and less multitasking (H1a), which is consistent with the time availability perspective--the way this additional time is used is strongly gendered, which supports hypothesis H2a (that gender conditions the way men and women adjust their time in response to the reform). Hence, women perform more childcare while men concentrate their household labour on repairs and gardening. Moreover, the reform did more than simply change the amount of dedicated to domestic time; rather, it clearly modified the distribution of activities between weekdays and weekends. Beneficiaries of the workweek reduction took advantage of their freed-up time during weekdays to do part of their domestic workload, probably in order to free up more time on weekends (H1b), especially for time-flexible tasks (H1c). However, these task shifts occurred only for men. Consequently, activities became more gendered on weekends, which validates hypothesis H2b. Male beneficiaries performed new tasks on weekdays, but their overall time involvement still corresponds to the traditional allocation of tasks. On average, men devoted more time to the most time-flexible tasks such as repairs or shopping. Their higher investment during weekdays is counterbalanced by a weaker investment during weekends, especially in terms of cleaning and doing the laundry. Men and women who benefited from the reform thus tend to affirm their gender identities at weekends, when performing tasks is more visible to others and thereby falling in line with the predictions of the 'gender display' theory."
            ]
        },
        {
            "title": "Conclusion and Discussion",
            "paragraphs": [
                "This study investigates how male and female full-time workers use extra time by examining an 'exogenous' relaxation of working time. In addition to examining the partial implementation of the French 35-hour workweek regulation as an identification strategy, this article further applies PSM to the most recent French time use survey to show how an additional 4 hours per week has led to a reallocation of non-market activities for both men and women, not only in terms of duration but also in terms of organization throughout the week and in the type of tasks to be carried out.",
                "Not surprisingly, this reform has provided additional leisure for men and women, which concurs with previous findings (Hamermesh, 2002; Cette et al., 2004; Aguiar, Hurst and Karabarbounis, 2013; Kawaguchi, Lee and Hamermesh, 2013). Men and women also use part of their extra time for domestic and parental activities, but not in the same way. This asymmetry by gender is consistent with that found by Gough and Killewald (2011) in a rare study that analyses the gender effects of extra time during unemployment.",
                "As the reform concerns working time, it has affected weekday schedules more than weekend schedules. Men spend more time doing housework on weekdays, mainly on time-flexible and discretionary tasks such as repairs, gardening, and shopping. A share of these additional tasks--which were usually performed on weekends--have now shifted to weekdays, thanks to the relaxation of time constraints. Though the workweek reduction has enabled men to invest more in the domestic sphere during weekdays, the types of tasks they perform continue to be largely specialized by gender, and this gender segregation has even been reinforced by the reform.",
                "Women do not use their additional free time to perform housework to which they already devote a lot of time. As women generally perform more routine and thus less flexible tasks than men, the reform has caused little reallocation of time from weekends to weekdays, unlike what occurs with men. However, female beneficiaries significantly reduced the time they spent on multitasking during weekdays, which indicates a relaxation of time pressure and mental workload (cf. Fagnani and Letablier, 2004). They spend more time with their children (cf. Cette et al., 2004), both on weekdays and weekends. The magnitude of this increase in parental time--around 5 minutes per day--is quite significant with respect to long-term trends: between 1985 and 2010, time spent daily by women on childcare increased by just 13 minutes (Champagne, Pailhe and Solaz, 2015). This shows that additional time is reallocated to quality time and investment in children rather than to more monotonous core housework tasks. This result is in line with the increasing trend of spending more time on parental activities over time, which has been observed in developed countries (Gauthier, Smeeding and Furstenberg, 2004; Bianchi, Robinson and Milkie, 2006). This reallocation of time confirms the evolution of parenting standards. Children receive more parental attention and time because parental investment is now considered to be a necessity, and this in turn is beneficial for children's emotional development (Waldfogel, Han and Brooks-Gunn, 2002).",
                "This specific use of the same amount of additional time by men and women illustrates that time allocation is not only a question of time availability, but that it is also deeply gendered. Reallocation of time corresponds to gender stereotypes and norms, with women's additional activities being devoted mainly to routine and non-flexible housework and childcare while men perform the most discretionary activities. The behaviours of male and female beneficiaries during weekends is particularly illustrative of the 'doing gender' theory, with an overinvestment in socially expected tasks (work for men, childcare for women) and an underinvestment in socially unexpected tasks (housework for men).",
                "This study has some limitations. First, the sample sizes are rather small, which means that few results are significant and that a deeper analysis of some subgroups is ruled out. It would have been interesting to focus on parents or to investigate more the within-couple organization of time, depending on whether or not the spouse is affected by the reform (Goux, Maurin and Petrongolo, 2014). Some activities that are hard to postpone may have been transferred not between days of the week but instead between partners. The reform might also have had different effects according to social class or level of education, as social differences may be more pronounced in terms of time allocation of housework and childcare. Second, the sample of full-time employees is selected, especially for women. This may reflect the most work-oriented women while, in contrast, the effects of the reform could be different for the population of working women as a whole. However, one can imagine that the gender segregation of tasks would have been even greater if women working part-time had been included. Finally, we focused on the medium-term effects of the reform because behaviours and habits take time to change. However, during the 7- to 8-year gap between the implementation of the reform (2002) and the survey date (2009-2010), behaviours could have changed among the whole population through changing preferences for leisure among non-beneficiaries. Individuals whose firms did not implement the workweek reduction may invest less in work in order to have more leisure--if they have flexible working schedules. Because of this possible diffusion process, the significant differences between beneficiaries and non-beneficiaries over the medium-term may be smaller than those that would have been observed just after the reform.",
                "Despite the limitations just mentioned, this article shows that the shortening of the legal workweek, which was implemented mainly to reduce unemployment, had significant knock-on effects on people's personal lives. Whereas the reform's impact on reducing unemployment remains debatable, it has nevertheless generated additional free time, which in turn has relaxed schedules and reduced work-family tensions by providing more social and family time--including whatever gender differences that may exist in terms of level and timing.",
                "Gender asymmetry as a response to extra time is highly instructive for understanding the incomplete gender revolution. Though the employment policy was gender-neutral, free time is used differently by men and women, with male beneficiaries becoming increasingly involved in domestic activities although gender-stereotyped activities are still reinforced. Thus, policies not directly aimed at reducing gender inequalities may have gendered effects, which should urge policymakers to thoroughly consider the effects that any public policy may have on gender equality.",
                "Ariane Pailhe is Senior Researcher at the French Institute for Demographic Studies (INED), Paris. Her multidisciplinary research focuses on the dynamics of individual life courses from a gender perspective. She is interested in interrelationship between family and professional life, gender division of domestic and parental time, employment uncertainty and fertility, family behaviours of migrants and their descendants. She has published in high-quality journals such as European Journal of Population, Population and Development Review, Demographic Research, Feminist Economics, Labour Economics, Industrial and Labor Relations Review, Advances in Life Course Research, Longitudinal and Life Course Studies, Gender Work and Organisation.",
                "Anne Solaz is Senior Researcher at the French Institute for Demographic Studies (INED), Paris. She is Editor in Chief of the journal Population. She is a specialist of gender inequalities and family. Her main fields of interest are fertility, divorce and stepfamily, work-family balance, child development, and time allocation. She is now leading a new project 'Getting old together' on late life course demographic events such as couple formation and dissolution after 50 and its economic consequences. She has published in journals such as Demography, Journal of Population Economics, European Journal of Population, Socio-Economic Review, Demographic Research or Labour Economics.",
                "Arthur Souletie is a Consultant at Velthys. He was PhD student at the Paris School of Economics and worked on the Impact of Obesity on Employment and Satisfaction. His work has been published in Economie & prevision and Annales des Mines."
            ]
        }
    ],
    "references": [
        "http://dx.doi.org/10.1177/0192513X14522248",
        "http://dx.doi.org/10.1257/aer.103.5.1664",
        "http://dx.doi.org/10.1007/978-1-4613-2393-8",
        "http://dx.doi.org/10.2307/2675569",
        "http://dx.doi.org/10.1093/sf/sos120",
        "http://dx.doi.org/10.1177/019251391012001007",
        "http://dx.doi.org/10.1086/230577",
        "http://dx.doi.org/10.3406/estat.2004.7236",
        "http://dx.doi.org/10.3406/estat.2015.10563",
        "http://dx.doi.org/10.1111/j.1533-8525.1985.tb00217.x",
        "http://dx.doi.org/10.1111/jomf.2004.66.issue-5",
        "http://dx.doi.org/10.1016/j.jeconom.2004.04.012",
        "http://dx.doi.org/10.1177/0950017004045550",
        "http://dx.doi.org/10.1111/padr.2004.30.issue-4",
        "http://dx.doi.org/10.1111/jomf.2005.67.issue-3",
        "http://dx.doi.org/10.1016/j.euroecorev.2012.02.011",
        "http://dx.doi.org/10.1007/BF00206983",
        "http://dx.doi.org/10.1111/padr.2015.41.issue-2",
        "http://dx.doi.org/10.1111/jomf.2011.73.issue-5",
        "http://dx.doi.org/10.1257/aer.104.1.252",
        "http://dx.doi.org/10.1111/jomf.2000.62.issue-2",
        "http://dx.doi.org/10.1111/jomf.2007.69.issue-2",
        "http://dx.doi.org/10.1007/s001480100092",
        "http://dx.doi.org/10.1111/jomf.2017.79.issue-1",
        "http://dx.doi.org/10.1016/j.labeco.2013.09.003",
        "http://dx.doi.org/10.1016/j.ssresearch.2010.08.005",
        "http://dx.doi.org/10.1007/s11199-010-9797-z",
        "http://dx.doi.org/10.1007/s11121-012-0339-5",
        "http://dx.doi.org/10.2307/2095938",
        "http://dx.doi.org/10.2307/353452",
        "http://dx.doi.org/10.3138/jcfs.40.4.523",
        "http://dx.doi.org/10.1007/978-1-4899-3324-9",
        "http://dx.doi.org/10.1007/s11150-005-4941-1",
        "http://dx.doi.org/10.2307/2095937",
        "http://dx.doi.org/10.1111/jftr.2013.5.issue-2",
        "http://dx.doi.org/10.1353/dem.2002.0021",
        "http://dx.doi.org/10.1177/0891243287001002002"
    ],
    "title": "How Do Women and Men Use Extra Time? Housework and Childcare after the French 35-Hour Workweek Regulation",
    "issue": "6",
    "volume": "35",
    "year": 2019,
    "issn": "0266-7215",
    "journal": "European Sociological Review",
    "authors": [
        "Ariane Pailh\u00e9",
        "Anne Solaz",
        "Arthur Souletie"
    ]
}