{
    "doi": "http://dx.doi.org/10.1093/esr/jcs068",
    "abstract": "What makes people concerned about environmental degradation and willing to pay for its prevention? Recent survey research argues that richer people are greener\u2014that residents of more economically developed countries, as well as relatively wealthier people within countries, are more concerned about the state of the natural environment and more willing to pay to protect it. This article questions this view, using survey data on multiple distinct aspects of environmental concern, from a larger sample of countries, and, where possible, taking into account not just cross-sectional differences among nations but also change over time. The analyses reported in this article show that environmental concern is generally higher in poorer countries, and there is no relationship over time between economic development and people\u2019s willingness to pay for environmental protection. Within countries, richer people are slightly more concerned about the environment, but only on some dimensions and not others.",
    "sections": [
        {
            "title": "Introduction",
            "paragraphs": [
                "Who cares about the natural environment and why? What are the characteristics and social contexts that lead people to be concerned about the degradation of the environment and/or willing to pay for its protection instead? This article seeks to improve on existing answers to these questions.",
                "Previous studies have proposed a number of factors and conditions that should in theory lead to greater environmental concern and have made substantial headway in subjecting these theories to empirical testing. The classic position in this field comes from Inglehart (1995, 1997) who argues that societal concerns about the environment stem from two sources: post-materialist values, whose prevalence increases as countries grow wealthy, and direct experiences of environmental harm, which are more common in poorer countries. Some accounts, however, reject the argument that economic development and post-materialist values lead to environmental concern, noting that concern is in fact prevalent worldwide--not just in more affluent and/or post-materialist nations (Brechin, 1999; Dunlap and York, 2008). A third perspective holds that environmental concern does expand with rising material standards of living, but this expansion is not dependent on a shift to post-materialist values. Franzen and Meyer (2010) have recently argued forcefully for the latter view, which they label the 'prosperity thesis', using data collected from 26 countries in 1993 and 2000. Their headline conclusion--wealthier people are more likely to express concern for the environment than poorer people--is based on the current methodological cutting edge in this field of study: multilevel models of survey respondents nested in their countries of residence (Gelissen, 2007; Givens and Jorgenson, 2011). Fourth, the environmental Kuznets curve (EKC) hypothesis suggests that economic development initially harms the environment, but past a certain level, it fosters environmental protection--in other words, the relationship between development and environmental quality is non-linear and U-shaped (Grossman and Krueger, 1995). As noted by Bravo and Marelli (2007), this relationship might be due to an attitudinal component, wherein environmental concern decreases up to a certain level of income and then increases after that.",
                "The present article assesses each of these theories, using multilevel models fitted to cross-national survey data. This article improves on similar previous work by analysing data from a much larger number of countries, at much more diverse levels of economic development, and by considering, where possible, not just differences among countries at a given point in time but also variation within countries over time. Assuming that historically persistent national cultures and other hard-to-measure characteristics shape the environmental attitudes of people in any given country, testing the effects of variables like economic development requires not only cross-sectional comparisons but also longitudinal comparisons. This article also builds on previous work by distinguishing among different aspects of environmental concern: people's perceptions of environmental problems both locally and globally and their willingness to pay (WTP) for ameliorating these problems.",
                "After reviewing the existing literature in the next section, this article reports on the results of a two-stage empirical analysis.",
                "First, this article uses repeated cross-sectional cross-national survey data to investigate whether residents of richer countries are more willing to pay for environmental protection than those of poorer countries and also whether WTP increases as countries grow more affluent over time. Self-reported WTP money for the environment is not an exhaustive measure of overall environmental concern, but it captures one important dimension, and survey data on WTP are more readily available than for any other dimension.",
                "Second, using purely cross-sectional comparisons, this article investigates the differences and relationships among different kinds of environmental concern: concern about local environmental problems, global environmental problems, and people's WTP for environmental quality. Is national income per capita related differently to these distinct aspects of overall environmental concern?"
            ]
        },
        {
            "title": "Sources of Environmental Concern",
            "paragraphs": [
                "The existing literature points to non-trivial slippage between people's actual behaviour and their expressed level of environmental concern--the latter being 'the degree to which people are aware of problems regarding the environment and support efforts to solve them and/or willingness to contribute personally to their solution' (Dunlap and Jones, 2002: p. 485; quoted in Marquart-Pyatt, 2008: p. 1314). Nonetheless, most studies find at least a loose correlation between values or attitudes and behaviours. People who say they care more about the environment do tend to act in ways that are less environmentally damaging (Kaiser, Wolfing and Fuhrer, 1999), and there is some evidence that environmental policy is influenced by public opinion (Brace et al., 2002; Johnson et al., 2005; Franzen and Meyer, 2010). We would therefore like to know what leads people to care about the environment and to be concerned enough to pay for environmental protection and quality.",
                "The existing literature on this topic shows a variety of views and has long been divided in particular about the impact of economic development on environmental concern.",
                "First, influential work by Inglehart (1995, 1997) suggests that concerns about the environment stem from two sources. Theoretically, Inglehart proposes that, in countries where substantial economic development and modernization occur, these socioeconomic transformations will foster the rise of post-materialist values--the prioritization of freedom and quality of life over material security and standards of living. These values will, in turn, lead people to be concerned about the state of the natural environment. Faced with evidence that environmental concern is also substantial in poorer countries possessing more materialist values, however, Inglehart complements his theory with a suggestion that environmental concern also derives from direct experiences of degradation harming human livelihoods and/or health. Second, Inglehart's explanation of environmental concern has come under criticism for being a post hoc attempt to resolve the inconsistency between his original theory and the available evidence (Dunlap and Mertig, 1997; Brechin, 1999). In empirical work, consistent with the Inglehart's perspective, Gelissen (2007) finds that a country's average level of post-materialism is positively associated with environmental concern, whereas Kidd and Lee (1997) and Gerhards and Lengfeld (2008) find that individuals with post-materialist values are more concerned about the environment. On the other hand, in a review article, Dietz et al. (2005) argue that the case for the impact of post-materialist values, both at the national and individual levels, remains inconclusive; Davis (2000) for instance found no correlation between individuals' post-materialism and environmental concern. Regarding the second component of Inglehart's theory, Dunlap et al. (1993), Johnson et al. (2005), and Givens and Jorgenson (2011) all find that survey respondents' environmental concerns are affected by local pollution and environmental conditions. In contrast, Ward (2008) suggests that environmental concern is not correlated with countries' environmental quality.",
                "Second, and contrary to Inglehart's theory, Dunlap and York (2008) argue that environmental attitudes are not systematically related to national income, and therefore, environmental concern cannot depend on affluence-based post-materialist values. Similarly, Israel and Levinson (2004) find little evidence that WTP varies systematically with economic growth, whereas Brechin and Kempton (1997); Dunlap and Mertig (1997); Gelissen (2007), and Givens and Jorgenson (2011) argue that not only is environmental concern no higher in wealthier societies but also some dimensions of concern are actually lower. For these scholars, objective environmental problems--which are clearly present in all countries and can have direct material impacts for people--are a much more plausible explanation for environmental concern than is an affluence-driven shift to post-materialist values. Supporting the plausibility of the objective problems explanation, Brechin (1999) finds that people in poorer countries report more local environmental problems than do people in richer countries, though there is no difference between the two groups' views of global problems. This school of thought, in general, emphasizes that environmental concern is multifaceted and that different survey questions tap into different facets--such as people's WTP for environmental protection versus their perception of the seriousness of environmental problems.",
                "Third, alternatively, some theories suggest that economic development, the growth in the average income in a country, leads directly to increased concern and WTP for better environmental protection--not necessarily because development induces the post-materialist value shift emphasized by Inglehart (Diekmann and Franzen, 1999; Franzen, 2003). Franzen and Meyer (2010) have recently found support for this 'prosperity thesis'--WTP for environmental quality increases with income--by analysing data from the 1993 and 2000 waves of the International Social Survey Programme. These scholars view environmental protection as a 'normal good', for which demand rises as people's incomes grow.",
                "Fourth, another possibility is that the EKC (Grossman and Krueger, 1995) applies to people's WTP for environmental protection. The EKC hypothesis predicts 'environmental deterioration followed by recovery' (Rudel, 2009). Perhaps, the EKC follows from non-linearly changing preferences (Bravo and Marelli, 2007) as countries move from low to middle to high incomes. People in agricultural communities may recognize that local livelihoods depend directly on the ecosystems, whereas residents in industrial areas may perceive the environment to be less important, and in turn, those in post-industrial economies revalue the environment in other ways. Consistent with such views, Israel (2004) finds that as real GDP per capita rises, the strength of the support for higher taxes for environmental protection falls for low-income countries and rises for high-income countries. However, Israel's analysis is based on a 1989 Harris poll of respondents drawn from a rather small sample of only 15 countries.",
                "The analysis mentioned later tests all of these perspectives, using multilevel regression modelling, where individuals are nested within the country-years in which they are observed, nested in turn within countries. This methodological approach treats individuals' environmental attitudes as functions of both their own individual characteristics and circumstances and those of the countries in which they live--and potentially the interaction between the two. People living in a given country share many factors that might shape their attitudes, such as the character of the economic system in which they produce and consume and the laws and regulations to which they are subject to and over which they may have some influence."
            ]
        },
        {
            "title": "Data",
            "paragraphs": [
                "The analysis relies on data from the second, fourth, and fifth waves of the World and European Values Surveys (WVS), which included a number of questions measuring environmental concern--presented in Table 1. The WVS collected data on 322,014 people living in 92 countries in these three waves, though not every question was asked in every wave or in every country within each wave (see Appendix A for further details). ",
                "To investigate the different dimensions of environmental concern (much like Brechin and Kempton, 1994; Xiao and Dunlap, 2007; Dunlap and York, 2008), I conducted an exploratory factor analysis on respondents' answers to these eight questions. Only the fifth wave of the WVS, which was conducted between 2004 and 2008, included all eight questions; therefore, the factor analysis is limited to data from that wave and to the 57,202 respondents who provided valid responses to all questions. In a three-factor model fitted using maximum likelihood and a promax rotation, V108, V109, and V110 load heavily on the first factor (all >0.84), V105 and V106 on the second (>0.77), and V111, V112, and V113 load heavily on the third (>0.71), with the absolute value of all other loadings smaller than 0.04. In a model with four factors, there is some indication that the question about global warming is a unique factor, but a simple correlation matrix of all eight questions and Cronbach's a both suggest that the three-factor model is more appropriate.",
                "This article therefore examines three empirically distinct dimensions of environmental concern. The first index uses a 7-point (0-6) index based on the sum of the responses to the first two questions (Cronbach's a = 0.77). Two 10-point (0-9) indices, with sums of the third through fifth and sixth through eight questions, capture assessments of the seriousness of local and global environmental problems, respectively (Cronbach's a = 0.91 and 0.81). For all three indices, higher scores denote greater environmental concern. Valid observations on the first index, which I will call WTP, were received from respondents nested in 85 countries, with 17 countries observed in three waves, 26 in two waves, and 42 in one wave. Valid responses were received for the other two indices, which I call 'envloc' and 'envglo', from respondents in 43 and 44 countries in Wave 5 only.",
                "These three dimensions reflect that people have different opinions about the seriousness of local/national versus global/international environmental issues, not least because many environmental problems vary cross-nationally in their severity. Also, the perceived prevalence of a problem may not be the only determinant of people's WTP for mitigation--the latter could be influenced by the available financial resources of people. For that reason, WTP should be the dimension of environmental concern most related to income. Dunlap and York (2008) even call the WTP items a biased measure of environmental concern precisely because they will reflect ability to pay. However, this characteristic need not invalidate these questions as measures of one important aspect of environmental concern, and indeed, capturing this specific aspect makes them a useful tool.",
                "Although there are other cross-national surveys with good questions about environmental concerns, some of them exclude questions about key individual level characteristics (e.g. income, as in the Gallup Millennium survey) or have been fielded only once rather than in multiple waves (e.g. the 'Health of the Planet' survey). The International Social Survey Programme (analysed by Franzen and Meyer, 2010) investigated environmental attitudes among respondents in 26 countries in 1993 and 2000, but the countries included in that study are much less diverse in their levels of GDP per capita than the WVS. Given the centrality of national income to major theories of the determinants of environmental concern, the WVS's coverage of a more developmentally diverse set of countries is desirable.",
                "The WVS measures household income on a ten-point scale from 1 to 10. Although the measure is in principle standardized by country at the time of the survey, in practice different country-waves have different mean levels of income on this scale. To ensure standardization, the income variable is scaled--group mean-centred and divided by its standard deviation--for each separate country-wave. This variable is therefore a pure measure of respondent's household income relative to other households in his/her society at a given time; it does not capture differences across countries or change over time.",
                "The 'post-materialism 4' index was calculated from responses to a question about the relative importance of four possible national priorities:\r\n\r\nRespondents who selected 2 and 4 as their two priorities were scored as post-materialists, whereas those who selected 1 and 3 were scored as materialists. Those who selected one of each type were scored as mixed. Country-wave mean levels of post-materialism are calculated using probability weights supplied with the WVS data, and country mean levels are then calculated by weighting each wave equally. Country-wave mean post-materialism ranges from 0.30 (China 1995) to 1.30 (Germany 1997), and country mean post-materialism ranges from 0.42 (Azerbaijan) to 1.18 (Canada).",
                "Of the 256,285 respondents who provided valid responses for the two questions making up the seven-point WTP index in waves 2, 4, and 5, 45,271 were missing the income and/or the 'post-materialism 4' index--two important independent variables for this analysis. To avoid simply dropping these cases, I use multiple imputation and create five full data sets, using an expectation-maximization with bootstrapping algorithm provided in the Amelia II package in R (Honaker et al., 2010). In the imputation stage, I performed the imputations separately for each of 145 country-waves, using sex (<1% missing), marital status (<1%), income (13%), age (2%), and postmat4 (6%). Six country-waves with valid observations on WTP were missing income or postmat4 for all respondents, making multiple imputation impossible; these country-waves are excluded from further analysis, leaving 247,925 cases, in 83 countries. Four respondents from other country-waves, who were missing all of these individual level covariates, were also excluded.",
                "To measure economic development or average national income per capita, I used GDP per capita, at purchasing power parity, in international dollars (from the World Bank's World Development Indicators database). This statistic is not available for five countries; therefore, they are excluded, leaving 242,131 final observations in 134 country-waves and 78 countries. GDP per capita ranges from I$742 (Ethiopia, 2007) to I$57,067 (Luxembourg, 1999).",
                "Similarly, for the cross-sectional analysis of the three different indices using data just from the fifth wave of the WVS, I used multiple imputation, country-by-country, to deal with missing individual level data. Again, I generated five data sets using sex (<1% missing), marital status (<1%), income (10%), postmat4 (6%), age (5%), and education (<1%) in the expectation-maximization with bootstrapping algorithm. Two countries were excluded because they did not ask any respondents about their household income; two were excluded because their 2005 GDP per capita was not available; and one was excluded because it had no score in the 2005 Environmental Sustainability Index (discussed later). With these exclusions, the final sample included 62,253 respondents in 42 countries, 57,823 of whom provided valid responses for WTP, 60,234 for the local environmental problems index, and 55,484 for the global problems index.",
                "As a measure of national environmental quality, I used the 2005 'Environmental Sustainability Index' (Esty et al., 2005; Gerhards and Lengfeld, 2008; Franzen and Meyer, 2010 used Environmental Sustainability Index (ESI) values for a similar purpose). Specifically, I used the 'Environmental Systems' component of the ESI, which subsumes national level indicators of air quality, biodiversity, land use, water quality, and water availability. The ESI ranges from 23.1 (India) to 85.0 (Canada).",
                "Figures 1 and 2 present key variables and some relationships among them, using non-parametric locally weighted smoothed scatter plots. These plots are useful for a preliminary overview of the data particularly because they make no assumptions about the form, linearity, or magnitude of the relationship between two variables.",
                "Figure 1 presents the mean level of environmental concern for respondents in countries with different levels of GDP per capita and with different household incomes relative to other people in the same country at the same time. In generating each 'wireframe', observations are weighted so as to make each country-wave (in the case of the left panel) or country (the other two panels) count as the same. ",
                "The seven-point WTP index is represented on the vertical axis in the left panel of Figure 1 and the two (national and household) income variables on the other axes. The points and striations on the floor of the cube show how the data are distributed (there are many observations up to about I$35,000 and a few above that). According to the WTP index, the highest levels of environmental concern are held by respondents in the poorest nations. However, among respondents in a country at a given GDP per capita, environmental concern is slightly higher among relatively higher income earners, though the difference is slight. The least concerned are the poorest respondents in countries with GDP per capita of about I$30,000.",
                "The centre panel, which plots the 0-9 local environmental problems index on the vertical axis, demonstrates a different pattern. Here, residents of the poorest countries are much more environmentally concerned than residents of wealthier countries, and at most levels of GDP per capita, poorer residents of a given country are slightly more concerned than wealthier residents. Conversely, residents of high-income nations are generally confident that local air and water quality are good and that sewage and sanitation services are effective.",
                "The right panel plots the 0-9 global environmental problems index on the vertical axis. For this measure of environmental concern, residents of countries at levels of development in the middle of the spectrum express the most concern, though the differences between residents of low-, medium-, and high-income nations are small overall. The effect of relative income within nations appears negligible.",
                "Figure 2 plots WTP versus GDP per capita, in three different ways. The left-most panel shows how WTP varies with GDP per capita, whereas the next two panels break down GDP per capita into two component parts: a cross-sectional one and a longitudinal one. The latter is the difference between a country's GDP per capita in a given year and the same country's GDP per capita averaging across all relevant years. The centre panel captures this longitudinal relationship, showing how WTP is related to change over time in mean national income. The right-most panel shows how WTP differs among countries at higher or lower levels of economic development, averaging GDP per capita for each country over the period 1989-2008. The fact that the line slopes generally downwards from left to right in all three panels suggests that, contrary in particular to the 'prosperity thesis', environmental concern is actually lower in wealthier societies--whether the wealthier/poorer comparison is made across countries or within a given country over time. The relationship is not large; however, none of the lines drop below three or rise above four on the 0-6 scale. ",
                "I now describe the techniques used to fit multilevel models to the data, before presenting the results of the modelling."
            ]
        },
        {
            "title": "Multilevel Modelling",
            "paragraphs": [
                "Previous studies of environmental concern have often used only individual level survey data (Kidd and Lee, 1997; Davis, 2000) or national level aggregations of such data (Inglehart, 1995; Diekmann and Franzen, 1999; Franzen, 2003; Dunlap and York, 2008). In considering the national and individual levels simultaneously, multilevel models avoid conflicts about which is the appropriate level (Dunlap and Mertig, 1997) and do not run the risks associated with ignoring either one (Subramanian et al., 2009).",
                "Respondent ijk is therefore nested in country-year jk and country k. Country-years and countries each have a random intercept (ujk and vk, respectively), and these random intercepts, like the individual level error term eijk, are distributed normally, with mean 0. Covariates x can be at the individual level (indexed ijk), country-year level (jk), or country level (k). The model includes a linear time effect to rule out the possibility of finding a longitudinal correlation that is due merely to common trending. The model for the single-wave data excludes the time effect and the country-year level (including country-year random intercepts), but is otherwise identical.",
                "To distinguish between longitudinal and cross-sectional effects when analysing the multi-wave data, national level variables are entered in the model in two ways. First, they are averaged country-by-country across all available years, generating a country level variable. Second, this country mean value is subtracted from each individual country-year, yielding a country-year level variable that is orthogonal to the country mean and represents the change over time within a give country.",
                "In the next section, I begin by discussing the models fitted both cross-sectionally and longitudinally for WTP, followed by the purely cross-sectional models. Models are estimated using the lme4 package (Bates et al., 2011) and simulations (discussed later) are conducted using the arm package (Gelman et al., 2011) in the R language and environment for statistical computing."
            ]
        },
        {
            "title": "Results",
            "paragraphs": [
                "Table 2 reports the results of four models for WTP. Model 1 is a null model, useful for identifying each level's share of the variance in the outcome of interest: 5.6% at the country-year level, 4.4% at the country level, and 89.9% at the residual individual level. These shares suggest that countries have moderately durable levels of environmental concern, but also that concern--as captured by WTP--varies somewhat over time within countries. ",
                "Models 2-4 all include linear effects for time and an individual level effect for relative income. Model 2 also includes terms for country mean GDP per capita and change over time in GDP per capita, whereas Model 3 includes individual level dummy variables for post-materialist values. Model 4 includes all the terms used in Models 2 and 3, plus terms for country mean post-materialism and change over time in national post-materialism.",
                "The results for these models suggest that, across all countries, WTP is trending slightly downwards over time (given the small but statistically significant negative time effect). At the individual level, relatively higher income earners have higher WTP, though the magnitude of the income difference is not large--moving from the 25th to the 75th income percentile; according to the income coefficient in Model 2, it should raise WTP by only 0.21 (on a scale from 0 to 6). People with post-materialist (or even mixed) values are significantly more environmentally concerned than those with materialist values: the WTP of a person with post-materialist values is expected to be 0.51 points greater than for a person with materialist values.",
                "Turning to national level variables, WTP is significantly lower in more economically developed countries, although Models 2 and 4 show that environmental concern is not related to change over time in mean national income (as measured by GDP per capita). Countries experiencing faster or slower economic growth over time are not seeing much increase or decrease in systematic changes in environmental concern. Model 4 also shows that respondents' environmental concern is unrelated to the overall level of post-materialism in their country of residence--whether averaged over all years for which it is measured or as a longitudinal effect over time. Finally, Models 2-4 show that the effect of mean GDP per capita is not sensitive to the inclusion or exclusion of individual level post-materialist values, whereas the effect of the latter is not sensitive to the inclusion or exclusion of GDP per capita. These results suggest that the association between GDP per capita and WTP is not mediated to any substantial extent by individuals' possession of post-materialist values.",
                "Table 3 presents an additional four models, all of which differ from the first four in that they include non-linear (quadratic) terms for GDP per capita--both cross-sectional and longitudinal effects. The quadratic terms allow for the identification of non-linear effects--the effects predicted by the EKC hypothesis. Model 5 includes linear and quadratic terms for both types of GDP effects, whereas Models 6 and 7 include only one type of effect each--but also include terms for individual level post/materialist values. The results here are consistent with the results from the first four models: cross-sectionally, residents of countries with higher GDP per capita are significantly less willing to pay for environmental protection, although there is no statistically significant relationship over time--whether linear or quadratic. Cross-sectionally, GDP per capita has a non-linear effect on WTP: while the linear term is negative, the quadratic term is positive. Finally, Model 8--which best fits the observed data--includes interactions between country mean GDP per capita (both linear and quadratic) and individual level values. The interaction effect is statistically significant. For clarity, the combined effects of GDP per capita and post-materialist values, including their interaction, as estimated by Model 8, are illustrated in Figure 3. ",
                "Figure 3 plots the expected WTP for a respondent who reports having either materialist (in red) or post-materialist (green) values, across the range of observed levels of country mean gross domestic product (GDP) per capita. The expected values, which are provided with 95% simulation-based confidence intervals (CIs), show that environmental concern, as measured by WTP, is lower for countries with higher levels of GDP per capita--but only among people reporting materialist values. At low levels of development, there is no difference in WTP between respondents with materialist and post-materialist values, whereas in countries with higher levels of GDP per capita, the difference is non-trivial. At first glance, the fact that both lines curve upwards at higher levels of GDP per capita would appear to validate the EKC hypothesis: people in the middle of the national income spectrum represented in this graphic appear to be least environmentally concerned. However, the magnitude of the curvature is not large, and the density plots (as well as in Figure 1 earlier) show that beyond about $32,000 GDP per capita, model dependency increases substantially: there are few observations with which to fit the model for high-income nations, as shown by the rapidly widening CI on the right side of Figure 3. Figure 3 is therefore broadly consistent with the EKC hypothesis, but cannot be taken as strong evidence in support of it.",
                "At the bottom of Figure 3, stacked density plots illustrate the empirical distribution of respondents with materialist and post-materialist values in countries at different levels of economic development. As predicted by Inglehart's theoretical framework, the density plots show that a higher proportion of residents of richer countries possess post-materialist values; nevertheless, there are substantial numbers of respondents with both materialist and post-materialist values in countries at all levels of development, and overall, many more people are materialists than post-materialists.",
                "Taken together, the fact that there is more post-materialists in richer countries and that post-materialists are more environmentally concerned would seem to imply that richer countries should exhibit greater overall concern. However, as shown earlier in Figure 1, residents of richer countries are in fact less willing to pay for protecting the environment. Figure 3 shows why: even wealthier countries are home to substantial numbers of materialists, and such people are significantly less willing to pay compared with similar people in poorer countries, whereas post-materialists in wealthy countries are no more willing to pay than post-materialists in poor countries.",
                "Having discussed the models fit to repeated cross-sectional data (for which only the WTP index was available), I now turn to models fitted only to data from the fifth wave of the WVS. These models, presented in Table 4, permit some comparison of the determinants of different facets of environmental concern. For Models 9 and 11, the local environmental problems index ('envloc') is the outcome variable, whereas the global problems index ('envglo') is the outcome for Model 10, and WTP is the outcome for Model 12. Model 9 allows for non-linear effects of GDP per capita, whereas others do not. Non-linear effects of GDP per capita, including interactions with postmat4, were not statistically significant for envglo. ",
                "In none of these four models is GDP per capita, by itself, significantly and positively related to environmental concern. Only in Model 10 (where the global problems index is the outcome), and specifically for post-materialists, is higher GDP per capita associated with significantly greater concern. And even here, the magnitude of the effect is not large: the expected difference in envglo between a post-materialist in a country with a GDP per capita of I$30,000 and one with I$1,000 is only 0.377 (where envglo is measured on a scale from 0 to 9). For Models 9 and 11, the effect of GDP is large and statistically significant, but negative: residents of poorer countries are much more likely to report that their communities suffer from poor air quality, water quality, and/or sewage and sanitation.",
                "As a whole, Models 9-12 confirm that both higher relative income and post-materialist values are associated with greater concern about the environment. In some models, the effect size for post-materialist values is smaller than for income, though the effect size for relative income is never large--at most, moving from the 25th to 75th percentile implies an increase in WTP of about 0.2. Overall, then, although relative income is sometimes statistically significant, substantively it is not a powerful determinant of any aspect of environmental concern.",
                "Model 11 includes a term (ESI) for national environmental quality. There is no statistically significant relationship between national ESI score and an individual's concern about local environmental problems (poor air and water quality and sewage and sanitation).",
                "Model 12, with WTP as the outcome variable, includes the local environmental problems index (envloc) as a right hand side covariate. Respondent's estimation of the seriousness of local environmental problems would seem a potentially useful way to measure his/her exposure to precisely the kinds of objective problems that Inglehart and others posit can explain environmental concern, particularly in poorer countries. The lack of an association between ESI and envloc (in Model 11) could be a consequence of measuring environmental degradation at an inappropriate spatial/administrative scale: perhaps, national average conditions are less influential than local conditions. If so, the envloc index should be a more fine-grained measure of each respondent's exposure to environmental problems--including some with impacts on human health.",
                "Model 12 does indeed show that people who perceive worse environmental degradation in their communities are more willing to pay for environmental protection--the effect of envloc on WTP is statistically significant. The magnitude of the effect is not large; however, the expected difference on WTP between a respondent who reports maximal and minimal local environmental problems is just 0.342. Also, the negative of effect of GDP per capita remains in Model 12 (though only for materialists, consistent with Model 8). Consequently, the negative effect of GDP per capita on WTP, as presented in Figure 3, is not due to the greater prevalence of local environmental problems in poorer countries.",
                "Overall, national income per capita is somewhat differently related to different aspects of overall environmental concern, but the distinctions are not large enough to invalidate the general conclusion that the populations of richer countries are no more concerned about the environment than the populations of poorer countries. s on Models 1-12 has been run, including variables for sex, age, education, and whether the respondent was included in the WVS, and the results are substantively unchanged."
            ]
        },
        {
            "title": "Discussion and Conclusions",
            "paragraphs": [
                "Debates about the impacts of development and income on people's environmental attitudes date from the 1990s. This article has sought to tackle this debate with the most comprehensive analysis conducted thus far. The article has distinguished among three dimensions of environmental concern: people's concerns about relatively tangible local problems (water and air quality and environmental services), their concerns about large-scale environmental problems with more indirect though potentially major implications for humans (global warming, biodiversity loss, and water pollution), and their willingness to use some of their income to resolve such problems, perhaps through higher taxes. The multilevel regression models presented earlier, fitted to multiple waves of the largest available cross-national data set with appropriate questions, allow for people's environmental concern to vary with both their individual characteristics and their social contexts.",
                "This article has presented strong evidence against the theory that higher incomes make people more concerned about the natural environment. Contrary to Franzen and Meyer's (2010) 'prosperity thesis', but consistent with previous findings by Gelissen (2007) and Dunlap and York (2008), this article has shown that, if anything, environmental concern is higher in poorer countries. Within countries, it is true that wealthier people are somewhat more concerned about the natural environment than are poorer people, as measured by WTP; but the effect is small and does not hold for two other aspects of environmental concern. Longitudinally, there appears to be no relationship between change over time in GDP per capita and change over time in WTP: countries enjoying larger increases in mean national income have not become systematically more (or less) concerned about the environment, according to this measure. That WTP declined slightly in the average country between 1989 and 2008--despite this being a period of economic growth--showing that environmental concern does not follow from affluence.",
                "On the other hand, this article has shown that Dunlap and York (2008) are too quick to dismiss the importance of individuals' post-materialist values. On finding that higher GDP per capita predicts lower environmental concern, they say their results (which were also based on WVS data) 'directly contradict Inglehart's theory of post-materialist values as a key source of environmental concern' (p. 542). The present study has shown, in contrast, that whether or not a person has post-materialist values is actually a strong predictor of his/her level of environmental concern. Indeed, the results presented here indicate, to some extent, the concept of post-materialist values, in the face of previous criticisms that the postmat4 index is meaningless and cannot predict survey respondents' opinions about anything else (Davis and Davenport, 1999).",
                "Finally, the hypothesis that personal exposure to environmental problems fosters environmental concern has received mixed support. Although national average environmental quality is not associated with higher (or lower) concern, self-reported problems in the community do predict greater WTP for environmental protection. However, the impact of perceived community environmental problems on WTP is slight.",
                "For helpful comments and suggestions, the author thanks Cristiana Olcese, Monika Bauhr, the anonymous ESR reviewers, audiences at the 2011 International Studies Association annual meeting in Montreal, and the fourth conference of the European Survey Research Association in Lausanne, also in 2011, and also thanks the Department of Sociology at the University of British Columbia for hosting him during much of the writing of this article."
            ]
        }
    ],
    "references": [
        "http://dx.doi.org/10.2307/3088421",
        "http://dx.doi.org/10.1504/IJISD.2007.016057",
        "http://dx.doi.org/10.2307/2585580",
        "http://dx.doi.org/10.1177/00139169921972227",
        "http://dx.doi.org/10.1146/annurev.energy.30.050504.144444",
        "http://dx.doi.org/10.1080/00139157.1993.9929122",
        "http://dx.doi.org/10.1111/tsq.2008.49.issue-3",
        "http://dx.doi.org/10.1111/ssqu.2003.84.issue-2",
        "http://dx.doi.org/10.1093/esr/jcp018",
        "http://dx.doi.org/10.1177/0013916506292014",
        "http://dx.doi.org/10.1163/156913308X289050",
        "http://dx.doi.org/10.1177/1086026611406030",
        "http://dx.doi.org/10.2307/2118443",
        "http://dx.doi.org/10.1017/S1049096500056080",
        "http://dx.doi.org/10.1017/S1355770X0400169X",
        "http://dx.doi.org/10.1111/ssqu.2005.86.issue-1",
        "http://dx.doi.org/10.1006/jevp.1998.0107",
        "http://dx.doi.org/10.1111/ssqu.2008.89.issue-5",
        "http://dx.doi.org/10.1086/597794",
        "http://dx.doi.org/10.1093/ije/dyn359",
        "http://dx.doi.org/10.1080/09644010802055626",
        "http://dx.doi.org/10.1111/ssqu.2007.88.issue-2"
    ],
    "title": "Rich People, Poor People, and Environmental Concern: Evidence across Nations and Time",
    "issue": "5",
    "volume": "29",
    "year": 2013,
    "issn": "0266-7215",
    "journal": "European Sociological Review",
    "authors": [
        "Malcolm Fairbrother"
    ]
}