{
    "doi": "http://dx.doi.org/10.1093/esr/jcz047",
    "abstract": "This study focuses on two main questions. First, do non-cohabiting relationships have an effect on mental and physical health? And second, do non-cohabiting relationships affect health in a similar way as cohabitation and marriage? To differentiate between the selection effects of healthier individuals into a couple relationship and the causal effects of couple relationships on health, we test hypotheses about the accumulation of health effects over time. We apply fixed-effects estimation techniques to data from the German Socio-economic Panel. For women, mental health improves after establishing a non-cohabiting relationship and remains similar after starting cohabitation and after getting married. For men, only marriage improves mental health status. The impacts of couple relationships on physical health primarily depend on the duration of the relationship and slowly accumulate over time. In addition, effects are stronger for younger adults.",
    "sections": [
        {
            "title": "Introduction",
            "paragraphs": [
                "It has long been noticed that married people are healthier than unmarried people. In the 19th century, William Farr, a British epidemiologist, found that married people had lower mortality rates than their unmarried contemporaries. He concluded, 'This is the general result: Marriage is a healthy estate. The single individual is more to be wrecked on his voyage than the lives joined together in matrimony' (Farr, 1858: pp. 507). Although marriage has changed significantly since then, research has shown that the association between marital status and mortality is robust (Manzoli et al., 2007; Roelfs et al., 2011). In addition, studies have found similar associations between relationship status and various measures of physical and mental health (Wood, Goesling and Avellar, 2007; Carr and Springer, 2010; Simon, 2014).",
                "In recent years, studies examining the connection between relationship status and health have focused on two questions: first, the rise of non-marital cohabitation from the 1970s onwards in many developed countries (Lesthaeghe, 2014) led to the question of whether cohabitation has similar health effects as marriage. Several studies have found that cohabitation has fewer beneficial effects on mental health than marriage (Brown, 2000; Kim and McKenry, 2002; Lamb, Lee and DeMaris, 2003; Brown, Bulanda and Lee, 2005; Marcussen, 2005; Williams, Sassler and Nicholson, 2008; Kalmijn, 2017), whereas others have reported similar effects for cohabitation and marriage (Horwitz and White, 1998; Wu et al., 2003; Musick and Bumpass, 2012; Averett, Argys and Sorkin, 2013; Perelli-Harris and Styrc, 2016; Zella, 2017). Findings regarding physical health and general health (which reflects both physical and mental health) are also mixed. Some studies have indicated that marriage is healthier than cohabitation (Musick and Bumpass, 2012; Barban, 2013), but other studies have found similar effects for cohabitation and marriage (Wu et al., 2003; Averett, Argys and Sorkin, 2013; Zella, 2017; Kalmijn, 2017) or even more positive health effects for cohabitation than for marriage (Kohn and Averett, 2014b). Cross-country differences suggest that cohabitation and marriage have more similar effects on health and well-being in countries where cohabitation is more widespread and accepted, such as in Sweden or Norway (Soons and Kalmijn, 2009; Carr and Springer, 2010). In Germany, the prevalence of cohabitation is lower than in Northern European Countries and Canada but higher than in the Southern and Eastern European countries and in the United States (Kalmijn, 2007; Stevenson and Wolfers, 2007; Soons and Kalmijn, 2009).",
                "However, previous research on the effects of couple relationships on health has disregarded non-cohabiting relationships. In Germany, the decrease in marriage rates and the increase in divorce rates have been accompanied not only by an increase in cohabitation but also by an increase in non-cohabiting relationships (Eckhard, 2010). Although there are few time series on the prevalence of non-cohabiting relationships, studies have found an increased prevalence in other developed countries, such as Sweden (Levin, 2004) and Japan (Iwasawa, 2004). Previous research on non-cohabiting relationships has shown that being in a non-cohabiting relationship is associated with higher life satisfaction than being single (Asendorpf, 2008; Soons and Liefbroer, 2008). As explained below, there are good reasons why non-cohabiting relationships may also affect health.",
                "Second, a large body of research has focused on the question of whether the positive association between relationship status and health reflects causation or selection (Waldron, Hughes and Brooks, 1996; Johnson and Wu, 2002; Kim and McKenry, 2002; Lamb, Lee and DeMaris, 2003; Wade and Pevalin, 2004; Musick and Bumpass, 2012; Averett, Argys and Sorkin, 2013; Kohn and Averett, 2014a,b; Kalmijn, 2017). Generally, this research is faced with problems that arise from the fact that people are not randomly allocated to different relationship status groups. Therefore, it is likely that people who are married, cohabiting, dating, or single differ from one another with respect to unobserved characteristics that also affect health, such as genetic predispositions. The reason is that healthier people may be more attractive as partners and may have better opportunities to meet potential partners (Rapp and Gruhler, 2018). Without controlling for the selection mechanism, associations between relationship status and health may be confounded. This can be avoided by using panel data and fixed-effects estimation techniques (Allison, 2009; Bruderl and Ludwig, 2015). A further problem is that there may be reverse causality from health to partnership status. People may improve their health and, therefore, may find a partner. Again, longitudinal data offer some opportunities to identify the direction of the causal relationship between partnership status and health by looking at the actual sequence in which changes occur and by examining how health improvement or health deterioration develops over time (Stauder and Kossow, 2017; Stauder, 2019).",
                "Previous research based on fixed-effects analysis, in sum, indicates that being married or cohabiting is beneficial for health (Wade and Pevalin, 2004; Musick and Bumpass, 2012; Averett, Argys and Sorkin, 2013; Kohn and Averett, 2014a; Kalmijn, 2017). The effects appear to be stronger for mental health than for physical health (Musick and Bumpass, 2012; Kalmijn, 2017). Moreover, fixed-effects analyses consistently identify negative health effects of union dissolution (Wade and Pevalin, 2004; Musick and Bumpass, 2012; Kalmijn, 2017). The results are less clear for union formation. Starting a relationship has been found to have positive effects on mental health but not on physical health (Musick and Bumpass, 2012; Kalmijn, 2017).",
                "However, if non-cohabiting relationships increase health, neglecting non-cohabiting relationships leads to an underestimation of the effects of couple relationships on health, even when using fixed-effects analysis. Let us consider a person who is single in the first year of observation, in a non-cohabiting relationship in the second year, and cohabiting in the third year. Let us further assume that health improves immediately after starting the non-cohabiting relationship (i.e., in the second year) and remains constant thereafter. Without considering non-cohabiting relationships, the second person-year with already better health due to the new relationship will be in the control group, and the effects of relationships on health will be downwardly biased.",
                "To our knowledge, this article is the first to examine the influence of non-cohabiting relationships on health using a large, longitudinal dataset. Our first aim is to compare the health effects of non-cohabiting relationships with those of marriage, cohabitation and singlehood. Our second objective is to estimate the causal effects of couple relationships on health as accurate as possible. We use data from the German Socio-Economic Panel (GSOEP) from 2002 to 2016 and fixed-effects estimation techniques to examine the impacts of finding a partner, moving in with a partner, marriage, and the duration of the couple relationship on physical health and mental health. In addition, we explore to what extent the health effects of non-cohabiting relationships, cohabitation, marriage, and relationship duration depend on age and gender."
            ]
        },
        {
            "title": "Background and Hypotheses",
            "paragraphs": [
                "Several mechanisms have been proposed to explain the positive effects of couple relationships on mental health and physical health. First, close personal relationships provide a sense of identity and give meaning to an individual's life (Durkheim, 1897; Gove, Style and Hughes, 1990; Berkman et al., 2000). Second, partners take care of each other and provide emotional and instrumental support, which may buffer stress (Cohen and Wills, 1985) and partly replaces professional healthcare (Brockmann and Klein, 2004). A third mechanism is social control (Umberson, 1992). Being in a couple relationship is linked with norms that oppose unhealthy behaviours, such as binge drinking or drug use (Duncan, Wilkerson and England, 2006). In addition, partners monitor one another's health-related behaviour because they have an interest in having a healthy partner (Klein, Rapp and Schneider, 2013). Fourth, having a partner often leads to an increase in wealth (Waite and Gallagher, 2002) and economic security (Bunnings, Kleibrink and Wessling, 2017). Finally, the selection hypothesis assumes that better physical and mental health increase the likelihood of finding a partner (Brown, Bulanda and Lee, 2012; Guner, Kulikova and Llull, 2017; Rapp and Gruhler, 2018).",
                "Mental health and physical health may be affected by the discussed mechanisms to different extents. The meaning-providing function of couple relationships and social support between partners may be more strongly related to mental health. In contrast, economic gains from a relationship may have similar effects on mental and physical health (Kahn et al., 2000), and the social control of health behaviour may be more relevant for physical health. Moreover, there may be indirect effects of a couple relationship on physical health mediated by mental health. Studies have shown that distress increases the risk of cardiovascular diseases (Low, Thurston and Matthews, 2010; Steptoe and Kivimaki, 2013) and that mentally ill people are at higher risk of illnesses such as obesity, diabetes mellitus, metabolic syndrome, and cardiovascular diseases, primarily mediated by an unhealthy lifestyle (De Hert et al., 2011; Collins, Tranter and Irvine, 2012). Against this background, we suggest that there is a positive effect of a couple relationship on both physical and mental health:",
                "H1: Couple relationships positively affect physical and mental health.",
                "The rise of non-marital cohabitation in the past few decades has given rise to a discussion on whether the mechanisms linking couple relationships and health only apply to marriage or also apply to non-marital cohabitation. Many researchers have argued that cohabitation may provide similar benefits for health as marriage, although perhaps to a smaller extent (Wu et al., 2003; Brown, Bulanda and Lee, 2005; Musick and Bumpass, 2012). However, cohabitation may also be less beneficial for health than marriage because cohabiting men and women are, on average, less committed to their relationship and may, therefore, receive lower levels of social support (Seltzer, 2000; Marcussen, 2005). Moreover, social norms that oppose unhealthy behaviours may be linked more loosely to cohabitation than they are to marriage, because cohabitation is a relatively new social phenomenon (Cherlin, 2004; Duncan, Wilkerson and England, 2006). Previous findings suggest that cohabitation has similar or somewhat smaller positive effects on mental health than marriage, whereas the results for physical health are less clear (see the Introduction section for references).",
                "With regards to the mechanisms that are primarily linked to mental health, non-cohabiting relationships may give meaning to an individual's life in a similar way as cohabitation but perhaps to a smaller degree than marriage, which has a special symbolic meaning for many people and is also supported by social policy in Germany. Furthermore, cross-sectional studies have shown that non-cohabiting relationships also provide emotional and instrumental support between partners (Strohm et al., 2009; Duncan et al., 2014; Lewin, 2017a) but to a smaller extent than cohabitation and marriage (Strohm et al., 2009; Lewin, 2017a). However, previous findings have also shown that people in non-cohabiting relationships report lower strain than cohabiting people (Lewin, 2017a) and appreciate their greater personal autonomy (Duncan et al., 2014). Against this background, our second hypothesis states that non-cohabiting relationships affect mental health in a similar way than cohabitation but to a smaller degree than marriage:",
                "H2: Non-cohabiting relationships have similar positive effects on mental health as cohabitation but smaller positive effects than marriage.",
                "Turning to the mechanisms that relate couple relationships more directly to physical health, economic benefits will be achieved only if the partners live together and pool their resources. In this regard, being in a non-cohabiting relationship should have no effect on physical health. Furthermore, it is to be expected that the social control function of couple relationships can be executed more effectively if the partners live together than if they do not. Therefore, we suggest that living together with a partner has a stronger impact on physical health than living in separate households:",
                "H3: Non-cohabiting relationships have weaker positive effects on physical health than marriage and cohabitation, whereas the effects of marriage and cohabitation do not differ from each other.",
                "Based on a dynamic perspective, some previous research on marriage has addressed the question of how the health effects of marriage change with the duration of a marriage (Brockmann & Klein, 2004; Williams and Umberson, 2004; Hughes and Waite, 2009; Kalmijn, 2017). In this context, Hughes and Waite (2009) show that mental health is more sensitive to the current marital situation, whereas physical health largely depends on past marital experiences. The reason for this may be that physical health is affected sluggishly by healthy and unhealthy behaviour in the past. Therefore, we suggest that being in a couple relationship does not improve physical health immediately; rather, the health effects should slowly accumulate over time:",
                "H4: Positive effects of couple relationships on physical health become stronger with the duration of the relationship.",
                "Both the prevalence and the meaning of couple relationships vary between age groups. Therefore, also the effects of couple relationships on health may vary with age. For example, being in a couple relationship may be more important for mental health at middle ages, when most people have a long-lasting partnership, than at young ages, when the majority of peers are still single, and being in a couple relationship is not the dominating role model. Moreover, among younger adults, non-cohabiting relationships are more often assumed to be a prelude to cohabitation and marriage. Among older people and particularly older women, non-cohabiting relationships are more often preferred as a long-term arrangement (Karlsson and Borell, 2002; Lewin, 2017b) and rarely transition to cohabitation (Rapp, 2018), and this may also have implications for their effects on mental health. For physical health, the health effects of couple relationships may also differ by age and gender but perhaps in a different way. Because young adults have riskier lifestyles, they may benefit more from the disciplinary effect of a couple relationship. Similarly, men may benefit more from a couple relationship because women already engage in healthier behaviour (Byrnes, Miller and Schafer, 1999). For these reasons, the following analyses will additionally examine whether the health effects of couple relationships on physical and mental health differ by age and between women and men."
            ]
        },
        {
            "title": "Data and Methods",
            "paragraphs": [
                "To analyse the derived hypotheses, we conduct a panel analysis of the GSOEP from 2002 to 2016. The GSOEP (doi: 10.5684/soep.v32.1) is a representative longitudinal study of adults (aged 17 years and older) in private households in Germany conducted annually since 1984. Every year, nearly 11,000 households, and about 30,000 persons are interviewed (Wagner, Frick, & Schupp 2007).",
                "The mental and physical health variables used are available every second year since 2002. Therefore, we construct an eight-wave panel (2002, 2004, 2006, 2008, 2010, 2012, 2014, and 2016) of those GSOEP participants who did not have a partner at their first observation in the panel (see Table 1, row 1). We include all observations of these individuals until 2016 or until a relationship that started during the panel has been separated. The reason for this is that a separation may have additional effects on health. This also means that the sample is restricted to only one partnership per person (row 2). Next, we restrict the analysis sample to persons with a maximum age of 50 years at their first observation in the panel and, hence, to those ages when most new relationships are formed (row 3). This reduces the number of transitions into couple relationships only very slightly (see Table 1), but ensures that treatment and control observations are within a comparable age range (see Table 2). In addition, we restrict the sample to only those who have not been married previously because effects may differ substantially for those who re-partner after divorce or bereavement (Table 1, row 4). Further, we drop observations of participants due to item non-response (row 5), and we drop participants with only one remaining observation in the panel (row 6). In total, we will analyse 12,600 person-years from 3,482 persons, among whom 1,678 started a new intimate relationship during the observation window.",
                "Since 2002, the GSOEP has provided the Mental Health Component Summary Scale (MCS) as an indicator for mental health and the Physical Health Component Summary Scale (PCS) as an indicator for physical health every second year. The indicators are based on the scores of 12 questions of the SF12v2, a short version of the internationally approved and reliable SF36v2 Index (Ware, Dewey and Kosinski, 2001). The SF12v2 items reflect both mental and physical aspects of quality of life, such as bodily pain, physical and emotional restriction on social role accomplishment, and vitality [see Andersen et al. (2007) for more details]. The weights of the items in the scales of mental and physical health are calculated by exploratory factor analysis, and the scales are transformed into norm-based scores with a mean of 50 and a standard deviation of 10 in the year 2004 (Andersen et al., 2007).",
                "In the GSOEP, relationship status was measured with three successive questions. First, respondents were asked about their marital status. Second, all unmarried respondents were additionally asked whether they were in a permanent relationship (in German, 'feste Partnerschaft'). Third, individuals who were in a permanent relationship were asked whether they share a household with their partner. With this information, we construct the following measures:",
                "Note that we thus do not apply a system of three distinct status variables; rather, we will calculate first the effect of having a partner (irrespective of sharing a household or being married), second, the additional effect of living in the same household as one's partner, and third, the additional effect of being married. If a couple moves in together and marries at the same moment, both the dummy for 'moved in together' and for 'married' change from 0 to 1. Because our sample is restricted to respondents without a partner at their first observation in the panel, 'having a partner' is congruent with having established a new couple relationship, and 'living in the same household' is congruent with having moved in together.",
                "To employ an additional control for reverse causality (people may first improve their health and shortly afterwards may find a partner) and anticipation (people may expect that they will soon start a relationship), we use a dummy variable that is set to one exclusively at those observations that precede the first period with a new partner. Any positive effect of this variable on mental or physical health indicates that health has improved in the period immediately preceding the new relationship and hence may indicate reverse causality or anticipation. Information about the start and end of single spells has been taken from the biographic dataset 'biocouplem'. The duration of the current couple relationship is measured in years (but on a monthly basis).",
                "As Table 2 shows, among individuals who did not live with a partner at their first observation in the panel, those who started a couple relationship during the panel have similar mental health but considerably better physical health than those who did not. Since establishing a new couple relationship is more frequent in the early life course, individuals who started a couple relationship are about 8 years younger on average than those who did not (29.1 years vs. 36.8 years). In addition, they are more likely to live with children under 16 in the household and are more likely to be female. Moreover, 43.6 per cent of them have a college entrance certificate ('Abitur' or 'Fachhochschulreife') (compared with only 36.8 per cent among those who did not start a new couple relationship during the panel), and have a lower propensity of being unemployed.",
                "This study uses fixed-effects models to estimate the impact of couple relationships and relationship status on physical and mental health. In a fixed-effects model, the intra-individual mean is subtracted from every measurement of all variables; hence, it exclusively focuses on the covariation of variables over several observations within individuals. Thus, we control for any time-constant confounders, such as personality or prior relationship status, even if they are unknown (Halaby, 2004; Allison, 2009; Angrist and Pischke, 2009; Bruderl and Ludwig, 2015).",
                "Nevertheless, fixed-effects models do not completely solve the problem of reverse causality: A positive fixed-effects estimator of establishing a new couple relationship only indicates that an individual who found a new partner on average is of better health at all observations after this event, compared with the intra-individual average of the observations preceding the event. However, we do not know the actual sequence of what occurred in the period (the time between two observations of the same individual) that includes the changes in partnership status and in health. It is possible that the individual found a new partner, and thereafter, his/her mental or physical health improved or that the individual first improved in health and then found a partner (reverse causality). Both paths would lead to a positive sign of the fixed effect of finding a new partner on health.",
                "However, if the effect represents reverse causality, it should remain constant after the respective event. In contrast, the causal effects of a couple relationship on health should gain momentum only after a transition to a new couple relationship, cohabitation or marriage. Therefore, if the effect of a couple relationship increases with the duration of the couple relationship, this may indicate causation. However, we pose a theoretical hypothesis for an increasing effect only for physical health and not for mental health. Therefore, with this strategy, we can rule out reverse causality only with regards to physical and not with regards to mental health.",
                "Because a fixed-effects model controls only for time-constant unobserved heterogeneity and not for time-varying heterogeneity, the presented models will additionally control for changes in education, household income, (un-) employment status, living with children, age, and period. Therefore, a positive sign of the estimator of having established a couple relationship--or of the duration of the relationship--can be assumed to represent an effect of the couple relationship on health and do not reflect, for example, effects of age or historical time on health. A dummy variable for the observation immediately preceding a period with a new partner indicates whether health is better or worse immediately before finding the new partner, compared with other (preceding) observations without a partner of the same individuals, which may indicate reverse causality or anticipation.",
                "We will further analyse the interaction effects of being in a couple relationship with age at the start of the relationship and gender."
            ]
        },
        {
            "title": "Findings",
            "paragraphs": [
                "Table 3 presents the findings from the fixed-effects models for mental health. Please note that the effects of having moved in together and having married have to be interpreted as additional effects; they are hierarchically conditional: Given that a respondent has established a new couple relationship, what is the additional effect of moving in? And given that a respondent has a new partner and shares a household with his/her partner, what is the additional effect of marriage?",
                "Model I includes both women and men and shows no significant effects of establishing a couple relationship, moving in together and marriage on mental health. At this point, we thus find no support for our first hypothesis, which states that couple relationships protect mental health.",
                "In Model II, we additionally consider the time before and after the establishment of a new couple relationship. We add a dummy variable for the observation preceding the transition into the new relationship and another variable for the duration of the relationship. We find no indication for reverse causality or anticipation: The effect for the observation preceding a new relationship is nearly zero. Furthermore, in accordance with our expectations, we do not find an effect of relationship duration on mental health.1",
                "Models III and IV explore how the effect of a couple relationship is moderated by age at couple formation and by gender. Note that in a fixed-effects model, there is no main effect of time-constant variables because they are already controlled. Model III shows no interaction with age at couple formation. Model IV includes an interaction effect between a new couple relationship and gender and shows that the impact of establishing a couple relationship on mental health is more positive for women than for men. Therefore, we calculated separate models for women and men (Models V and VI). These models show that women's mental health improves when they find a new partner, whereas men's mental health improves only after getting married. Hence, for women, we find support for H1 that couple relationships in general positively affect mental health, but only partly support for H2 which expected that non-cohabiting relationships have similar positive effects on mental health as cohabitation but smaller positive effects than marriage. In line with this hypothesis, there is no additional effect of having moved in on mental health, but in contrast with this hypothesis, there is no additional effect of having married. For men, we find no support for H1 but only for the second part of H2, as marriage has an additional positive effect on mental health, compared with cohabitation and non-cohabiting relationships.",
                "Table 4 presents the corresponding findings for physical health. Model I reveals that having a new partner does not have a positive impact on physical health, and that there are no additional effects of having moved in together and marriage. Therefore, at this point, we find no support for our hypothesis that couple relationships protect physical health.",
                "In Model II, we add further variables to model the time before and after the transition into a couple relationship. There is no effect for the observation preceding the transition to the new relationship. Thus, we find no indication for reverse causality or anticipation. At the same time, we find a positive effect of relationship duration: With every additional year of being in a relationship, an individual's physical health becomes 0.12 points better than it was before the relationship started. This is in line with our H4 that the positive effects of couple relationships on physical health should become stronger with the duration of the relationship. However, given the general negative trend of physical health over the life course (with every additional year, health deteriorates by 0.30 points), having a long-lasting relationship does not actually improve health; rather, it slows down the negative effect of ageing on physical health.2 After controlling relationship duration, Model II shows negative effects of having moved in together and marriage on physical health. This contradicts our third hypothesis, which predicted that cohabitation and marriage would have more positive effects on physical health than non-cohabiting relationships, because of scale economies and because social control can be executed more effectively if the partners live together. One possible reason why living with a partner in the same household may have adverse effects on physical health might be that cohabitation and marriage decrease physical activity (Rapp and Schneider, 2013) and increase overweight (Averett, Argys and Sorkin, 2013).",
                "In Model III, we add an interaction term of relationship duration and age at the establishment of the new couple relationship. When a new relationship starts at age 18, every additional year of this relationship will improve physical health by 0.23 points (main effect) in comparison to the previous situation without a partner (net the aging effect of -0.30. Hence, an additional year with a partner found at age 18 smooths the ageing effect from -0.30 to -0.07 scale points!). As Figure 1 illustrates based on Model III of Table 4, after 10 years, the relative improvement in the physical health of people who enter a relationship at age 18 will sum up to 2.0 scale points and smooth down ageing from -0.3 x 10 = -3.0 to -3.0 + 2.0 = -1.0 point. This positive effect of relationship duration is lower when the relationship starts later in the life course. When the new relationship starts at age 30, after 10 years, the net improvement in physical health is only 1.0 point. But even this means that in a 10-years relationship, individuals with a new partner save (1.0/0.3=) 3.3 years of ageing compared with individuals who did not start a relationship. For relationships that start above the age of 40, the relationship duration has no positive effect on physical health. As discussed above, young adults have riskier lifestyles than older adults and may therefore benefit more from the disciplinary effect of a couple relationship.",
                "Model IV indicates that the protective effect of a couple relationship on physical health does not significantly differ between women and men."
            ]
        },
        {
            "title": "Conclusions",
            "paragraphs": [
                "The aim of this study was to investigate the impacts of couple relationships on mental and physical health. In contrast to previous studies, we considered not only marriage and cohabitation but also intimate relationships where the partners do not live together (sometimes called 'living-apart-together' relationships). In addition, to isolate a causal effect of the couple relationship on health, we devoted special attention to the question of how the health effects of couple relationships develop over time. We used panel data of the GSOEP over 14 years and fixed-effects estimation techniques to control for time-constant unobserved heterogeneity.",
                "After controlling for changes in age, education, and unemployment, the results for women showed that establishing a non-cohabiting relationship improves mental health, whereas cohabitation and marriage have no additional effect on women's mental health. These findings indicate that for women, non-cohabiting relationships have similar positive effects on mental health as cohabitation and marriage, possibly because they give meaning to an individual's life in a similar way as cohabitation and marriage do. Many previous studies have shown that cohabitation and marriage are positively associated with women's mental health (Musick and Bumpass, 2012; Averett, Argys and Sorkin, 2013; Perelli-Harris and Styrc, 2016; Zella, 2017). Our results indicate that these findings are not wrong, but they are imprecise: cohabiting and marriage are better for women's mental health than having no partner but not better than having a partner who lives in another household. For men, neither starting a relationship nor moving in together improves mental health but only marriage does. We expected an additional positive effect of marriage on mental health for both women and men, because marriage has a special symbolic meaning for many people. One reason why only men's mental health is positively affected by marriage may be that young- and middle-aged men have worse marriage market opportunities than young and middle-aged women (Eckhard and Stauder, 2019). Therefore, a more institutionalized and stable relationship may be more important for men's than for women's mental health.",
                "For physical health, our findings initially show no immediate effect of current relationship status on physical health, regardless of whether it is a non-cohabiting relationship, a cohabitation or a marriage. However, the results show a positive effect of the duration of a couple relationship on physical health. This is in line with the expectation that being in a couple relationship improves physical health not immediately but cumulatively. This finding has several implications: First, it indicates that being in a couple relationship causally affects physical health. If the health effects of couple relationships represented reverse causality, we would have expected the health effects to remain constant for the entire duration of the relationship. Second, some recent studies (that did not account for non-cohabiting relationships) have found that couple relationships have stronger impacts on mental health than on physical health (Musick and Bumpass, 2012; Kalmijn, 2017). However, our results indicate that this is the case only in the short run and not for long enduring relationships. Our further results indicate that the impacts of couple relationships on physical health are stronger for younger than for middle-aged adults.",
                "The current study has some limitations. For women, our results show that people's mental health is better after they start a couple relationship than before. However, this does not necessarily mean that starting a couple relationship is why mental health improved; it is also possible that mental health improved in the same time period as the couple formation took place, but shortly before the partner was found, and this might imply reverse causation. As discussed above, this problem does not apply to the results regarding physical health because the effect of partnership on physical health is cumulative. Moreover, in contrast to most previous studies, we did not only consider cohabitation and marriage but also intimate relationships without a shared household. However, it could be difficult for respondents to precisely determine the starting point of a new relationship. Hence, our measure of relationship duration may be imprecise. Furthermore, the generalizability of the findings is limited in several ways. Due to data restrictions, short-term relationships that last <2 years are underrepresented in this study. Therefore, the results cannot be generalized to relationships that are dissolved quickly, and which may have less beneficial effects on mental and physical health. Further, the results do not represent relationships that last longer than 14 years, which was the duration of the study. In addition, in order to have a homogenous sample, this study included only those who have not been married previously, were single, and had a maximum age of 50 years at their first observation in the panel. Finally, couple relationships and particularly marriage have a different meaning in different cultures and, therefore, the results cannot be simply generalized to other countries.",
                "The main findings of our study are that for women, starting a relationship and not starting cohabitation (within a relationship) improves mental health. For men, in contrast, only marriage appears to be beneficial for mental health. With respect to physical health, partnership effects slowly accumulate over time for both sexes. For future research, our findings imply that studies on the effects of couple relationships might benefit from systematically accounting for non-cohabiting relationships. We also explored differences in partnership effects on mental and physical health by age and gender. Future research should try to deduce more elaborate hypotheses for these findings.",
                "Ingmar Rapp, PD Dr, 1980, teaches Sociology at the University of Kaiserslautern. His research focuses on family, health, and social stratification. Selected publications: Rapp (2018); Rapp et al. (2015); and Rapp and Schneider (2013).",
                "Johannes Stauder, Prof. Dr, 1971, conducts research in family, friendship networks, health, and social stratification and teaches Methods and Statistics in Sociology at the University of Heidelberg. Selected publications: Stauder and Kossow (2017); Eckhard and Stauder (2018); and Stauder (2014)."
            ]
        }
    ],
    "references": [
        "http://dx.doi.org/10.4135/9781412993869",
        "http://dx.doi.org/10.1515/9781400829828",
        "http://dx.doi.org/10.1007/s11150-012-9143-z",
        "http://dx.doi.org/10.1007/s10680-013-9296-3",
        "http://dx.doi.org/10.1016/S0277-9536(00)00065-4",
        "http://dx.doi.org/10.1111/jomf.2004.66.issue-3",
        "http://dx.doi.org/10.2307/2676319",
        "http://dx.doi.org/10.1093/geronb/60.1.S21",
        "http://dx.doi.org/10.1111/jomf.2012.74.issue-4",
        "http://dx.doi.org/10.1002/hec.3279",
        "http://dx.doi.org/10.1037/0033-2909.125.3.367",
        "http://dx.doi.org/10.1111/j.1741-3737.2010.00728.x",
        "http://dx.doi.org/10.1111/j.0022-2445.2004.00058.x",
        "http://dx.doi.org/10.1037/0033-2909.98.2.310",
        "http://dx.doi.org/10.1111/jpm.2012.19.issue-7",
        "http://dx.doi.org/10.1002/wps.2011.10.issue-1",
        "http://dx.doi.org/10.1353/dem.2006.0032",
        "http://dx.doi.org/10.1080/19424620.2014.927382",
        "http://dx.doi.org/10.1007/s10680-017-9422-8",
        "http://dx.doi.org/10.1002/psp.v25.4",
        "http://dx.doi.org/10.1177/019251390011001002",
        "http://dx.doi.org/10.1146/annurev.soc.30.012703.110629",
        "http://dx.doi.org/10.2307/353865",
        "http://dx.doi.org/10.1177/002214650905000307",
        "http://dx.doi.org/10.1111/jomf.2002.64.issue-1",
        "http://dx.doi.org/10.1136/bmj.321.7272.1311",
        "http://dx.doi.org/10.1080/00324720701571806",
        "http://dx.doi.org/10.1093/sf/sox015",
        "http://dx.doi.org/10.1007/s12126-002-1012-2",
        "http://dx.doi.org/10.1177/019251302237296",
        "http://dx.doi.org/10.1007/s10834-013-9371-2",
        "http://dx.doi.org/10.1016/j.jhealeco.2014.03.010",
        "http://dx.doi.org/10.1111/j.1741-3737.2003.00953.x",
        "http://dx.doi.org/10.1073/pnas.1420441111",
        "http://dx.doi.org/10.1177/0011392104041809",
        "http://dx.doi.org/10.1177/0192513X16647982",
        "http://dx.doi.org/10.1007/s10680-017-9446-0",
        "http://dx.doi.org/10.1097/PSY.0b013e3181f6934f",
        "http://dx.doi.org/10.1016/j.socscimed.2006.08.031",
        "http://dx.doi.org/10.1177/019027250506800304",
        "http://dx.doi.org/10.1111/j.1741-3737.2011.00873.x",
        "http://dx.doi.org/10.1177/0192513X18783469",
        "http://dx.doi.org/10.1007/s11577-018-0513-2",
        "http://dx.doi.org/10.1016/j.socscimed.2013.09.024",
        "http://dx.doi.org/10.1093/aje/kwr111",
        "http://dx.doi.org/10.1111/j.1741-3737.2000.01247.x",
        "http://dx.doi.org/10.1111/jomf.2009.71.issue-5",
        "http://dx.doi.org/10.1177/0265407508093789",
        "http://dx.doi.org/10.1016/j.ssresearch.2014.06.004",
        "http://dx.doi.org/10.1007/s10198-018-0982-2",
        "http://dx.doi.org/10.1146/annurev-publhealth-031912-114452",
        "http://dx.doi.org/10.1257/jep.21.2.27",
        "http://dx.doi.org/10.4054/DemRes.2009.21.7",
        "http://dx.doi.org/10.1016/0277-9536(92)90259-S",
        "http://dx.doi.org/10.1177/002214650404500203",
        "http://dx.doi.org/10.1016/0277-9536(95)00347-9",
        "http://dx.doi.org/10.1353/sof.0.0057",
        "http://dx.doi.org/10.1177/002214650404500106",
        "http://dx.doi.org/10.1177/0192513X03254519",
        "http://dx.doi.org/10.1007/s11482-016-9462-y"
    ],
    "title": "Mental and Physical Health in Couple Relationships: Is It Better to Live Together?",
    "issue": "2",
    "volume": "36",
    "year": 2020,
    "issn": "0266-7215",
    "journal": "European Sociological Review",
    "authors": [
        "Ingmar Rapp",
        "Johannes Stauder"
    ]
}