{
    "doi": "http://dx.doi.org/10.1093/esr/jct015",
    "abstract": "The number of housewives has declined significantly in many countries, but there is now renewed interest in the homemaker role among researchers and in the public discourse. Using representative survey data from 2007, we examine the prevalence and characteristics of the housewife in contemporary Norway, a social-democratic country with high gender-equality ambitions and a high demand for labour. Irrespective of the definition used, being a housewife is clearly a minority practice. About one in 10 coupled women of prime working age either regard themselves as home-workers or work for pay for <20 h per week. Housewives are overrepresented among the less educated, those with health limitations, women with many children and young children, non-Western immigrants, and those with a partner with a fairly high income. However, the partners\u2019 aggregate income is lower among housewife couples than among other couples. The analysis does not support the popular notion that there is an increasing trend towards full-time homemaking among highly educated women. The idealization of the housewife role in popular housewife blogs among younger generations of women can be seen as a flirtation with selected elements of the traditional housewife role, rather than as a backlash against gender-equal practices.",
    "sections": [
        {
            "title": "Introduction",
            "paragraphs": [
                "Families with a male breadwinner and a full-time housewife have gradually become obsolete throughout the Western world as the dominant normative model for couples. This is particularly the case in Norway and other social-democratic countries, where the dual-earner family has been a central political ambition since the 1970s. These countries now come close to what Lewis (2001) has termed 'the adult worker family' where it is assumed that all adults provide for themselves via the labour market. In Norwegian work-family policies, dual-earner support has been combined with breadwinner elements to a greater extent than in the other Nordic countries (Ellingsaeter, 2007), but cash transfers to families are now gradually being reduced, and people face more explicit political expectations of continuous full-time work (NOU 24:1). A booming economy and high demand for labour are pulling in the same direction.",
                "Even in social-democratic welfare states, however, it is pointed out that private family work is still important to the well-being of children and adults (Knudsen and Waerness, 2009), and feminist scholars warn that the importance of unpaid work should not be overlooked by welfare state researchers (Lewis, 2001). In Norway, as in many other countries, studies suggest that a large proportion of women would prefer to spend less time on paid labour (for instance, Torp and Barth, 2001; Stier and Lewin-Epstein, 2003). Parents often complain that combining children with full-time work is strenuous (Ellingsaeter, 2009), and some researchers question whether lifelong full-time work for all adults is really a realistic goal (Knudsen and Waerness, 2009).",
                "Renewed interest in the homemaker role is observed among researchers as well as in the media and in the public discourse in many countries. In the United States, women who abandon their careers to pursue full-time mothering have attracted considerable media attention (for instance, Belkin, 2003). Although researchers find no clear evidence of a so-called 'opting-out revolution' among highly educated mothers (Boushey, 2008), they argue that the intense media focus is important because these stories reach a large and diverse audience and confer status and legitimacy on women's decisions to stay at home (Kuperberg and Stone, 2008). People may perceive opting out as a more widespread trend, which may have an impact on their gender role attitudes and behaviour.",
                "Media reports of highly educated women who take a career break to devote time to their family have also attracted a lot of attention in Norway (for instance, Spekter, 2010) and spurred scientific research and political debate on the content and legitimacy of the modern housewife role. Researchers endeavour to understand the so-called 'new housewife wave' by analysing the popular housewife blogs written by young, well-educated women (Danielsen, quoted in Aftenposten, 2011), and some worry that the idealization of the housewife role represents a backlash against gender-equal practices (Breen, 2011). Although media claims of an upward trend in stay-at-home mothering are usually only supported by a few anecdotal examples, they have clearly left the impression that career breaks are a popular trend among well-educated women, particularly those with a rich husband (Opsahl,1 quoted in Vart Land, 2009). It is also argued that there is not enough work in modern families for a full-time homemaker, that today's housewives do not add to the welfare of society (Aftenposten, 2010), and that contemporary housewives spend more time on leisure activities than on domestic duties (Engesland, quoted in Dagens Naeringsliv, 2007a). Some politicians argue that, in view of the high demand for labour in Norway, we cannot afford to let healthy adults stay at home (Bekkemellom,2 quoted in Dagens Naeringsliv, 2007b). However, the Norwegian Women and Family Association claims that housewives make important contributions to their families as well as to the local community and society at large (Dagsavisen, 2005).",
                "In line with Kuperberg and Stone (2008), we argue that the media's portrayal of an increase in stay-at-home mothering is important because it can affect people's gender role perceptions and behaviour, as well as their support for various family policy reforms. As quantitative research on contemporary homemakers is scarce and little is known about the prevalence and characteristics of this group in social-democratic societies with high gender-equality ambitions, scholars, politicians, and the general public need more knowledge if they are to conduct an informed debate on today's housewife role. In this article, we try to fill this gap. Based on Norwegian survey data and using two different definitions of being a housewife, we ask (i) what the proportion of housewives really is and how this varies across groups of women, (ii) which factors promote a housewife adaptation, and (iii) to what extent today's housewives differ from full-time working women when it comes to household finances and the division of domestic work."
            ]
        },
        {
            "title": "Work\u2013Family Policies and Practices in Norway",
            "paragraphs": [
                "In Norway, as in many other countries, there has been a tremendous shift in women's social and economic role in recent decades. The 1950s and 1960s have been characterized as the golden age of the housewife, as women of all social classes could afford to stay at home and care for their families (Knudsen and Waerness, 2001). The architects of Western post-war welfare states generally assumed that mothers should be housewives, and family policies supported the housewife-based family longer in Norway than in the other Nordic countries (ibid). The full-time homemaker, who was constantly available to provide service and care for her family, was a powerful norm during the 1950s and 1960s. Based on in-depth interviews with housewives in the 1950s, Danielsen (2002) found that the respondents were eager to demonstrate that they fulfilled this ideal. Even some women who were in paid employment several hours a week portrayed their lives in accordance with the norm of the full-time housewife who was provided for by her husband. They only reluctantly talked about their own paid employment.",
                "In the ensuing decades, the housewife role gradually lost its status, and the new women's movement in the 1970s fought for policies that would facilitate women's employment, such as kindergartens and extended parental leave rights. Housewives could be identified in the census until 1970, but, since then, housewives have not been easily detectable in official statistics in Norway (Koren, 2012). The Norwegian Labour Force Survey shows that, during the 1980s and 1990s, part-time working women increasingly saw themselves as economically active rather than 'home-working', even though they worked rather short hours, which reflects the diminishing status of the housewife role during this period (Bo and Molden, 2001).",
                "An important aim of Norwegian work-family policies in recent decades has been to encourage both women and men to combine employment with family duties, and the employment rate among women is now only marginally lower than among men. In 2010, for instance, the employment rates among women and men aged 25-59 years were 81.3 and 86.4 per cent, respectively, according to the Norwegian Labour Force Survey (Statistics Norway, 2010a). Women's part-time rate is still high by international standards (35 per cent in the age group 25-59 years), but this mostly involves part-time arrangements with relatively long working hours (at least 20 h per week) (ibid). Paid work is emphasized as a precondition for welfare, and people's labour force participation is stimulated through active and inclusive labour market policies (Royal Norwegian Ministry of Labour and Social Inclusion 2006-2007). All adults are increasingly expected to be gainfully employed, preferably on a full-time basis (NOU, 2004:1).",
                "Extended parental leave rights, combined with improved provision of affordable public childcare, have facilitated women's employment. Full coverage of childcare services has been a unified political aim in Norway since the late 1980s. Demand exceeded supply for a long time, but the coverage is now fairly good, even for the youngest children. In 2010, 97 per cent of children aged 3-5 years and 79 per cent of children aged 1-2 years attended a kindergarten, mostly on a full-time basis (Statistics Norway, 2010b, Supplementary Table S1). In addition, school-aged children have good access to after-school programmes (Moafi and Bjorkli, 2011). Parents are now entitled to 47 weeks of parental leave with 100 per cent wage compensation or 57 weeks with 80 per cent compensation. Nine weeks are reserved for the mother (three weeks before and six weeks following delivery) and 12 weeks for the father (the father's quota). Parents are also entitled to 1 year of unpaid leave. Standard full-time working hours in Norway are shorter than in many other countries, 37.5 h per week, and the Norwegian Working Environment Act guarantees parents' rights to reduced hours, unless this puts the interest of the employer at risk. Employment conditions for part-time work are by and large similar to those for full-time work (Ellingsaeter, 2009).",
                "However, in parallel with the objective of equal sharing, Norwegian family policies have focused on choice and flexibility in relation to combining employment with a family. This is exemplified by the implementation of the cash-for-childcare reform in the late 1990s, where one of the goals was to enable parents to spend more time with their children (Ellingsaeter, 2007). Parental choice as regards the partners' paid working hours may also be supported by the Norwegian tax system, in that couples where one partner has no income or a very low income can claim a larger deductable tax allowance than other couples (Thoresen, 1996). Moreover, people can qualify for pension credits if they undertake unpaid care for children aged <7 years, or for disabled or elderly people (The Norwegian Labour and Welfare Service, 2012).",
                "It is still primarily women who adapt their employment to the needs of their family, which typically entails a long period of parental leave (paid as well as unpaid) and reduced working hours. Like the other Scandinavian countries, Norway has a strongly gender-segregated labour market, with a high percentage of men in the private sector and in manufacturing and finance, and women concentrated in the public sector and in education, health, and social work (Jensberg, Mandal and Solheim, 2012). Public sector jobs are usually depicted as more family-friendly than private sector jobs (Halrynjo and Lyng, 2009). The wage penalty for having children is also smaller in the public sector (Hardoy and Schone, 2008), which could mean that people lose less in terms of earnings as a result of staying at home for some years.",
                "Men usually work full time, irrespective of the ages and number of children in the household, and a significant proportion, 26 per cent in the age group 25-59 years, work long hours, i.e. at least 40 h per week (Statistics Norway, 2010a). However, men's unpaid work has increased in recent decades, particularly their childcare activities (Vaage, 2012, Supplementary Table S2) and their take-up of parental leave. In most couples, women nevertheless do more domestic work than men and spend less time in the labour market (Kitterod and Lappegard, 2012). Waerness (2000) suggests that people who have the main responsibility for housework and childcare in a private household should be seen as housewives, irrespective of their paid working hours. Hence, she contends that there are still many housewives in Norway. This reasoning, which is in line with the arguments presented by Oakley (1974) in her pioneering study on London women's housework in the early 1970s, reminds us that some family work still needs to be done and that women do a larger share in most families. However, it does not fit well with our research questions in the current article, as the debate on the prevalence and characteristics of today's homemakers in Norway is about women who spend little time in paid employment."
            ]
        },
        {
            "title": "Data and Definitions",
            "paragraphs": [
                "In the empirical analysis, we use the Norwegian Generations and Gender Survey, a large representative survey from 2007.3 The gross sample consisted of 24,830 respondents aged between 18 and 79 years, and the response rate was 60 per cent (Lappegard and Veenstra, 2010). The sample units are individuals, but the respondents provided a great deal of information about their partners, for instance on health and employment. The survey data were supplemented with information from Statistics Norway's registers. A weight was calculated to adjust for the overrepresentation of certain groups in the sample and for the different non-response rates across groups (ibid).",
                "We limit our sample to married and cohabiting women aged between 25 and 59 years, with or without children living at home. However, we exclude those with at least one child aged <1 year in the household and women on parental leave. Some of them may regard themselves as home-working, but this is typically a temporary paid break from the labour market to look after a very young child and does not reflect a choice to be a homemaker for a certain period. A small proportion of the respondents who did not answer the question on their paid working hours are excluded from the analysis. The final subsample consists of 3,277 women. We do not include men in the analysis, as most men work full time, and those who do not, almost never characterize themselves as home-workers.",
                "As there is no standard definition of a housewife in the research literature, it is not obvious who should be regarded as a housewife. While some emphasize people's identity as an important criterion (Danielsen, 2002), others call attention to the time spent on domestic work (Waerness, 2000). We use two different, but partly overlapping definitions of a housewife based on survey information on women's paid working hours and their self-reported main status or activity.4",
                "The survey captured whether people were employed as well as their usual weekly working hours. Those who worked for pay for at least 1 h during the week preceding the survey, or were temporary absent from paid work that week, were classified as employed. As documented in Table 1, bottom line, 11 per cent of the women in our analysis sample were not employed, 8 per cent worked <20 h per week, 31 per cent worked 20-36 hours per week, and 50 per cent worked at least 37 hours per week (full time). Irrespective of employment status, respondents were asked what they considered to be their main activity or status, with the following categories: employed, attending school/study, unemployed, disabled/early-retirees, retired, home-working, military service, other activities. As many as 85 per cent of the women regarded themselves as gainfully employed, whereas only 3 per cent regarded themselves as home-workers (Table 1, last column). ",
                "According to our first definition, Housewife 1, a housewife is a person who mainly regards herself as home-working and is not employed. These are in fact full-time housewives. The second definition, Housewife 2, is broader. It states that a housewife is a person who primarily regards herself as home-working, irrespective of employment status, or is employed <20 hours per week and primarily considers herself to be gainfully employed. This group thus includes both full-time and part-time housewives. We presume that those working for pay for <20 h per week have plenty of time to spend on non-market activities. However, if they mainly regard themselves as students or disabled, they may not have much time or energy for domestic duties.",
                "Table 1 shows a cross-tabulation of women's self-reported main status and their weekly working hours. Looking first at the non-employed, we find that only 20 per cent primarily regard themselves as home-working. Forty-two per cent regard themselves as disabled or early retirees, whereas 16 per cent regard themselves as students, 7 per cent as unemployed, and 12 per cent report other activities. Among those who work for pay for 1-19 h per week, as many as 70 per cent consider themselves to be primarily employed, whereas only 9 per cent report being home-working. This reflects the predominant work-family model in contemporary Norway, where paid employment is increasingly the norm for all adults. Women working >=20 h per week nearly always characterize themselves as employed, although a tiny minority regard themselves as home-working."
            ]
        },
        {
            "title": "The Prevalence of Housewives",
            "paragraphs": [
                "Applying the Housewife 1 definition, we find that only 2 per cent of our sample are housewives (Table 3). Hence, the 20 per cent of the non-employed women who mainly regard themselves as home-workers only make up 2 per cent of the total analysis sample. Using the Housewife 2 definition, which says that a housewife is a person who either regards herself as home-working or works for pay for <20 h per week and regards herself as employed, 9 per cent of the women in our sample are housewives. Thus, according to both our definitions, being a housewife is clearly a minority practice in contemporary Norway. Full-time homemaking is very rare, and there are also few part-time housewives. Nevertheless, a non-negligible proportion of women have some kind of housewife accommodation.",
                "When exploring women's propensity to be a housewife, we focus on central determinants in sociological and economic theories of labour supply. Human capital, such as a long education and good health, is generally assumed to increase people's labour supply and thus counteract full-time homemaking. Domestic duties, such as caring obligations in and outside the home, are supposed to reduce women's labour supply and increase time spent on non-market activities. The same is true for traditional gender values, which support the male-provider family model. According to Becker's (1991) theory on comparative advantages and relative resources, couples maximise utility by comparing the partners' marginal utility in market work and domestic work. The partners' wage rates are often used to capture their relative resources. In the present article, however, we are primarily interested in women's economic opportunity to chose a housewife accommodation, and thus look at the male partner's income rather than at both partners' wage rates.",
                "The respondent's educational attainment captures her labour market resources, but the association between education and a housewife adaptation is not clear beforehand. According to standard economic theory, we can expect to find most housewives among the less educated, as they have invested less in qualifying themselves for the labour market and lose less by staying at home or working short hours. However, the media focus on family-related career breaks among well-educated women suggests that this is primarily an adaptation chosen by the highly educated.",
                "As bad health can deter labour market participation, we expect more housewives among women with health limitations than among those without such limitations.",
                "Assuming that caring obligations increase the probability of being a housewife, we expect a housewife accommodation to be most common among women with many children and with young children in the household, and among those who have parents and/or a partner with health limitations.",
                "As younger cohorts of women are subject to stronger expectations of full-time employment than those who are older, and as they also enjoy more favourable conditions for combining work and children, we can expect to find more housewives in the older age groups. However, the media focus on the modern housewives largely concerns women in the younger generations.",
                "Assuming that there are more traditional family practices and values among immigrants than in the rest of the population, we expect a higher proportion of housewives among immigrants, particularly those from the non-Western countries.5",
                "As housewives almost by definition have little earned income, a partner with an above average income may be a pre-requisite for such an adaptation. We therefore expect more housewives when the male partner has a high rather than a low income.",
                "We distinguish between married and cohabiting women and expect to find more housewives among those who are married. Although Norwegian tax policy and the social security system increasingly equate cohabitation with marriage, married couples still have stronger obligations to provide mutual financial support than cohabiting couples and are more likely to pool their financial resources (Lyngstad, Noack and Tufte, 2010).",
                "A more detailed definition of our independent variables is shown in Table 2, whereas descriptive statistics are presented in Table 3 (first and second columns). ",
                "Although there are few housewives in Norway today according to the definitions in the present article, there are some notable differences across groups of women, particularly when we use the Housewife 2 definition. The bivariate associations in Table 3 (the third and fourth columns) suggest that being a housewife is most common among women with modest educational attainment, women with health limitations, women with at least three children in the household, at least one of whom is aged <7 years, among non-Western immigrants, and among women with a partner who has a reasonably high income. Having parents or a partner with health limitations seems to be of minor importance, and there are also small differences across age groups and between married and cohabiting women."
            ]
        },
        {
            "title": "Multivariate Analyses",
            "paragraphs": [
                "We have run a number of multivariate regressions to gain a better understanding of the factors that support a housewife adaptation in today's Norway. We thereby disentangle the possible impact of each independent variable when controlling for other determinants. For instance, the bivariate association between low education and being a housewife shown in Table 3 could stem from the fact that the less educated more often have health limitations than the more educated. Likewise, the bivariate association between immigrant status and being a housewife could reflect the fact that non-Western immigrants are less educated than non-immigrants. We ran two independent logistic regressions for each of our two housewife-definitions, estimating (i) the likelihood of being a housewife rather than working long part-time hours (20-36 h per week) and (ii) the likelihood of being a housewife rather than working full time (at least 37 h per week).6 Logistic regression is used, as the dependent variable in each regression has two possible outcomes. All estimates are reported as odds ratios (see Table 4). This means that the reference group for a categorical variable (for instance Respondent's education) is set to 1. Coefficients above 1 indicate a positive association, whereas coefficients below 1 indicate a negative association.7",
                "By and large, the multivariate analyses support the findings in the descriptive statistics in Table 3. Looking at the Housewife 1 regressions, we see that highly educated women are less likely to be full-time housewives compared with those with less education. This is true whether we compare being a housewife with working part time or with working full time, but the contrasts are generally larger when compared with full-time work. In accordance with expectations, health limitations on the part of the woman herself increase the odds of being a housewife, and the same is true for having young children and many children in the household. Contrary to assumptions, women with at least one parent with health limitations are less likely to be full-time homemakers compared with working full time, than are women with no parents with health limitations. There is no association, however, between being a full-time homemaker and the partner's health. Respondent's age has no effect, but, in line with expectations, immigrants are more likely than non-immigrants to be full-time housewives. This is particularly true for non-Western immigrants. The multivariate analyses also show higher odds of being a full-time housewife when the partner has a high rather than a low income, but there is no effect of union status.",
                "On the whole, the Housewife 2 regressions yield results similar to the Housewife 1 regressions. However, we find no significant effect of being a Western immigrant in the Housewife 2 regressions, only of being a non-Western immigrant. Although still significant, the positive association with partner's income is somewhat more modest than in the Housewife 1 regressions. This is as expected, as Housewife 1 women have no paid work, whereas those in the Housewife 2 group may work short part-time hours. Moreover, we observe a negative effect of union status when estimating the likelihood of belonging to the Housewife 2 group rather than working full time. Thus, cohabiting women are less likely than married women to have a Housewife 2 adaptation compared with working full time, which is in agreement with our initial expectation. However, the association is only marginally significant.",
                "Our conclusion so far is that modest labour market resources, extensive domestic duties, traditional family values, and economic opportunities are important for a housewife accommodation in contemporary Norway. Little education and bad health seem to promote a housewife adaptation. It could be the case, of course, that women with limited labour market resources are in fact unemployed, but label themselves 'home-working' because this is more socially acceptable. This is not supported, however, by the Norwegian Labour Market Survey, which shows that the vast majority of unemployed women regard themselves as either unemployed or disabled (Statistics Norway, 2010a). A housewife adaptation also appears to be endorsed by extensive caring obligations in the home. The high proportion of housewives among non-Western immigrants suggests more traditional family practices in this group, but it could also reflect difficulties in getting a job because of fewer network resources. The positive effect of partner's income, especially on being a full-time housewife, suggests that a certain amount of income from the partner may be a pre-requisite for allowing a woman to stay at home or work short hours. We do not know, however, whether the partner has increased his income as a consequence of the woman's wish to stay at home, or whether the partner initially had sufficient income for his wife to be able to stay at home."
            ]
        },
        {
            "title": "Household Finances and the Division of Housework",
            "paragraphs": [
                "To gain more insight into the financial situation and organization of everyday life among today's housewives (Housewife 1 and Housewife 2), we present some descriptive statistics on their household finances and the division of domestic work and compare them with corresponding figures for full-time-working women and all women in the analysis sample. We have tested the statistical significance of the differences between the Housewife 1 group and full-time-working women, as well as the differences between the Housewife 2 group and full-time-working women. Significant differences are marked with an asterisk. However, we only present bivariate associations and do not try to disentangle the mechanisms behind them by controlling for possible confounding factors through multivariate analysis.8",
                "As regards income, we look at both partners' income as well as the couples' total income (Table 5). The partner of a full-time homemaker (Housewife 1) has an average income after tax of NOK 508,000 (2007 figures) (~EUR 64,000), which is considerably more than the partner of a full-time employed woman. This agrees with the results from the multivariate analysis above. There is also a considerable, although less modest, difference between the income of the Housewife 2 partners and the partners of full-time-working women. Looking at the women's own income, we find, as expected, that the housewives have lower income than the full-time-working women, and that full-time homemakers have least income. It may be surprising that the latter group has any income at all, but it is important to remember that we include capital income and transfers as well as earned income (see Table 2). ",
                "Aggregating the partners' incomes, we find that the housewife couples have a lower total income on average than couples with a full-time-working woman. Thus, in the housewife couples, the partner's higher income does not fully compensate for the woman's lower income.",
                "The vast majority of both housewives and full-time-working women seem fairly content with their household finances. In response to the question of how easy or difficult it was to make ends meet in their household, a somewhat larger percentage of the housewives than of the full-time employed reported some difficulties (Table 5). In all groups, however, the majority reported that making ends meet was fairly or very easy. Housewives reported slightly less overall contentment with their household finances than full-time-working women, but the difference is modest and only statistically significant for the Housewife 2 group. In all groups, the majority chose a score of at least 7 on a scale ranging from 0 to 10, where 10 meant most contentment.",
                "All things considered, both the Housewife 1 and Housewive 2 groups appear to have slightly tighter household finances than full-time-working women and women in general, but the difference is modest, and most housewives seem to have adjusted their expectations to their budgetary constraints.",
                "As mentioned in the introduction, today's housewives in Norway are sometimes portrayed as ladies of luxury who prioritise leisure activities above housework. Our survey data provide little information about time spent on domestic work and leisure, but respondents' reports on the division of domestic duties in the household may tell us whether housewives take more domestic responsibility than full-time-working women. We also look at women's contentment with the division of domestic chores.",
                "Respondents were asked how different household tasks were divided between themselves and their partners (see Table 6 for details). Each question had six possible answers, namely 'Always the respondent', 'Usually the respondent', 'Respondent and partner equally often, 'Usually partner', 'Always partner', and 'Always or usually another person', which we collapsed into the following categories: (i) mainly she (respondent), (ii) equal share, and (iii) mainly he (partner). 'Always or usually another person' was coded as (ii) equal share, but very few gave this answer. ",
                "The majority of the housewives report doing the greater part of most domestic chores (Table 6). Although full-time-working women also often do a larger share of some housework tasks, this is more common among the housewives. For instance, 88 per cent of the Housewife 1 group and 77 per cent of the Housewife 2 group were mainly responsible for preparing the daily meals, whereas the corresponding proportion of full-time-working women was 51 per cent. Full-time working women more often share domestic tasks equally with their partner than housewives do, but in all groups routine housework is rarely mainly done by the male partner. However, repairs in and around the house are largely carried out by the male partner in all couples, although this is slightly less common for housewives than for full-time working women.",
                "In general, housewives seem to be fairly content with the division of domestic labour. When asked to indicate their satisfaction on a scale ranging from 0-10, where 10 indicated most satisfaction, about half of them chose one of the two highest scores, and less than one-fifth chose a score below seven. Housewives differ little from full-time working women in this respect. This suggests that housewives generally believe it is fair that they should be responsible for most domestic chores, which is not surprising considering that they spend little time on paid employment."
            ]
        },
        {
            "title": "Discussion",
            "paragraphs": [
                "The dual-earner family has become the norm in many Western countries, and this is particularly the case in the Nordic social democracies, where generous family policies make it easier to combine children with employment. All adults are increasingly expected to provide for themselves through paid work, and, in Norway, a booming economy means high demand for labour.",
                "It has been questioned, however, whether continuous full-time work for all adults is really a realistic goal, and many parents find combining full-time work with children stressful. In Norway, scholars are endeavouring to understand the meaning and content of the intense fascination with the housewife role currently observed among young women. Housewives' blogs containing discussions of furnishings, interior design, recipes, and child rearing have become extremely popular, and some fear that they represent a gender equality backlash. The media's description of an increase in stay-at-home mothering has clearly left the impression that more and more women, and above all highly educated ones, take family-related career breaks. Arguing that this may affect people's gender role attitudes and practices and also their support for various family policy programmes, we believe it is important to explore the prevalence and characteristics of housewife practices in contemporary Norway.",
                "Based on survey data, we document that homemaking is clearly a minority practice. Only 2 per cent of all partnered women aged between 25 and 59 years consider themselves to be a home-worker and do not work for pay. Including those who work for pay for <20 h per week and are not students, disabled or unemployed, we find that 9 per cent are housewives. While the media focus has mostly been on highly educated women who scale back their careers, we find that a housewife adaptation is most common among the less educated and those with health limitations. Extensive domestic duties also play a role, as does being a non-Western immigrant.",
                "A certain amount of income from one's partner is clearly a prerequisite for being a housewife, which is supported by the positive association between partner's income and a housewife accommodation in our data. Nevertheless, a non-negligible proportion of the housewives have a partner with fairly low income. Moreover, when taking account of both partners' income, the housewife couples are generally less well off than other couples, especially compared with couples where the woman works full time. However, most housewives are fairly content with their household finances and also with the division of domestic tasks, even though they usually shoulder most of the housework.",
                "We find no evidence for a stay-at-home trend among highly educated women. In fact, both full-time and part-time housewives can be found at all educational levels, but, among the highly educated, they constitute a very tiny minority. Hence, extensive housewife blogging among younger generations of women should probably be seen more as a flirtation with selected elements of the traditional housewife role than as an indication of increased popularity of a housewife adaptation (Danielsen, quoted in Aftenposten, 2011), and perhaps also as a yearning for a less stressful life. While women in the 1970s and 1980s fought for family policy measures that would make it possible to combine children with employment, young women today take such facilities as a given and allow themselves to play at certain parts of the housewife role from the 1950s and 1960s that their mothers often protested against. With good access to subsidized childcare and with partners who are more involved in domestic work than previous generations of fathers, contemporary mothers may also have more time to devote to furnishing and exotic cooking than previous generations of women (see Supplementary material, tables and comments).",
                "Although many questions remain unanswered, we believe that the present article may promote a more informed debate on the housewife role in social-democratic countries with high gender equality ambitions, employment-supporting family policies, and active and inclusive labour market policies. One question for future analysis is whether the housewife practice in present day Norway is really a voluntary adjustment, or whether it is the result of constraints such as health limitations, lack of job opportunities or long working hours, and little domestic support from partners. The high contentment found with household finances and the division of housework indicates that most housewives have deliberately chosen such an arrangement. However, what we observe could also be an adjustment to an actual situation. We have learned that housewives often have a partner with a high income. This may entail long working hours for the partner, which could be an obstacle to the woman's employment. However, it could also be an arrangement that the partners have agreed upon for the wife to stay at home. Such questions should be discussed in future research. The duration of women's housewife accommodation should also be explored in future research to establish whether this is a permanent adjustment or a short break in a more continuous career.",
                "We have suggested two definitions of a housewife, but alternative definitions might of course be relevant. For instance, more women might characterize themselves as housewives if they were not forced to choose one response to the question about their perceived main status or activity, as in our data. Perhaps, we would get a slightly different picture of contemporary housewives if all women were asked whether they regard themselves as housewives or if the definition were based on a question about absolute time spent on domestic work. However, considering Norway's high demand for labour, the country's active labour market policies and generous policy measures for working parents, we believe that a full-time housewife adaptation and very short working hours will remain minority practices in the foreseeable future. This is supported by Janus (2012) who demonstrates that in countries like Norway and Sweden, the low cost of childcare combined with incentives in the tax structure, induce even less work-oriented women to participate in the labour market.",
                "Supplementary data are available at ESR online.",
                "The authors have benefited from constructive comments from participants at the Community, Work and Family IV International Conference at the University of Tampere in May 2011, from participants at the 'Gender and partnership dynamics' workshop at Lillehammer in February 2012, and from their colleagues in the Research Department at Statistics Norway. They also thank ESR's editor and two anonymous reviewers for helpful suggestions on previous versions of the article.",
                "This work was supported by the Norwegian Research Council and constitutes a part of the research project 'Mobilizing unutilised labour reserves: the role of part-time and extended employment interruptions' [185194/S20]."
            ]
        }
    ],
    "references": [
        "http://dx.doi.org/10.1080/13545700701716672",
        "http://dx.doi.org/10.1177/0958928707071886",
        "http://dx.doi.org/10.1111/j.1468-4446.2009.01233.x",
        "http://dx.doi.org/10.1080/00036840600993981",
        "http://dx.doi.org/10.1093/esr/jcs055",
        "http://dx.doi.org/10.1111/fare.2012.61.issue-4",
        "http://dx.doi.org/10.1177/000169930104400106",
        "http://dx.doi.org/10.1080/13668800802009406",
        "http://dx.doi.org/10.1177/0891243208319767",
        "http://dx.doi.org/10.1093/sp/8.2.152",
        "http://dx.doi.org/10.1093/esr/jcq028",
        "http://dx.doi.org/10.1177/0730888403253897"
    ],
    "title": "Opting Out? Who are the Housewives in Contemporary Norway?",
    "issue": "6",
    "volume": "29",
    "year": 2013,
    "issn": "1468-2672",
    "journal": "European Sociological Review",
    "authors": [
        "Ragni Hege Kitter\u00f8d",
        "Marit R\u00f8nsen"
    ]
}