{
    "doi": "http://dx.doi.org/10.1177/0003122411400054",
    "abstract": "Recent research suggests that the use of monetary sanctions as a supplementary penalty in state and federal criminal courts is expanding, and that their imposition creates substantial and deleterious legal debt. Little is known, however, about the factors that influence the discretionary imposition of these penalties. This study offers a comprehensive account of the role socio-cultural factors, especially race and ethnicity, have in this institutional sanctioning process. We rely on multilevel statistical analysis of the imposition of monetary sanctions in Washington State courts to test our theory. The theoretical framework emphasizes the need to treat race and ethnicity as complex cultural categories, the meaning and institutional effects of which may vary across time and space. Findings indicate that racialized crime scripts, such as the association of Latinos with drugs, affect defendants whose wrong-doing is stereotype congruent. Moreover, all individuals accused of committing racially and ethnically stigmatized offenses in racialized contexts may experience the courtesy stigma that flows from racialization. We find that race and ethnicity are not just individual attributes but cultural categories that shape the distribution of stigma and the institutional consequences that flow from it.",
    "sections": [
        {
            "title": "Introduction",
            "subsections": [
                {
                    "title": null,
                    "paragraphs": [
                        "Across the United States, financial penalties are now a common, although largely discretionary, supplement to confinement sentences in misdemeanor and felony cases (Harris, Evans, and Beckett 2010). Despite their ubiquity and discretionary nature, little is known about factors that influence imposition of these substantial and consequential penalties. Drawing on multilevel analysis of the assessment of monetary sanctions in Washington State courts, we develop a comprehensive account of the role of socio-cultural factors, especially race and ethnicity, in this institutional sanctioning process.",
                        "Because monetary sanctions in state and federal courts are a discretionary supplement to traditional criminal justice sanctions, analysis of their imposition provides theoretical insight regarding institutional sanctioning processes. Our theoretical framework suggests that particular behaviors and racial and ethnic characteristics are associated with enhanced punishment because they trigger negative emotions (e.g., fear, anger, or resentment) that intensify punitive responses. Yet, as recent scholarship on race and ethnicity suggests, these effects are likely contextual and interactive. Indeed, because particular crimes and contexts (i.e., places) are themselves racialized, the degree to which a defendant's behavior is stereotype congruent may matter more than ethnic or racial background alone. Similarly, the courtesy stigma that flows from association with a stigmatized minority group or behavior may extend to white defendants accused of racially stigmatized crimes. Moreover, race and ethnicity may matter differently in diverse locales. In short, we argue that race and ethnicity are best understood not just as individual attributes, but rather as complex cultural categories, the meaning and institutional effects of which vary across time and space (see also Omi and Winant 1986).",
                        "In this article, we employ hierarchical linear modeling techniques to analyze the factors that shape imposition of monetary penalties and to test hypotheses derived from our theoretical framework. Results confirm that race and ethnicity matter in varied, complex, and contextually specific ways. The interaction of defendants' racial and ethnic identity, the type of offense of which they are convicted, and the demographic context in which they are sentenced significantly influence allocation of penalties. Presumably, this is because activation of racialized crime scripts via stereotype congruence or courtesy stigma triggers negative emotions associated with punitiveness. We also find evidence that ethnicity matters more directly than race in Washington State, where the black population is very small and stable in size, but the Latino and immigrant populations are growing rapidly.",
                        "In addition to yielding theoretical insight regarding the role of race and ethnicity in sanctioning decisions, monetary sanctions are also of substantive importance. Many studies show that the massive U.S. penal apparatus has become an important component of the stratification system. Researchers have identified several mechanisms by which the growing penal system fuels disadvantage and inequality: the impact of criminal conviction and incarceration on employment and earnings (Pager 2003, 2005, 2007; Western 2006; Western and Beckett 1999; Western and Pettit 2005); the effects of confinement on inmates' mental and physical health (Haney 2006; Massoglia and Schnittker 2009); and the widespread imposition of collateral or invisible sanctions that transform punishment from a temporally limited experience to a long-term status (Manza and Uggen 2006; Uggen, Manza, and Thompson 2006). The literature also suggests that the adverse effects of criminal conviction are not limited to the criminally sanctioned but extend to the families and communities from which they are drawn (Braman 2004; Clear 2007; Clear, Rose, and Ryder 2001; Comfort 2007; Foster and Hagan 2007; Johnson and Raphael 2006; Massoglia 2008; Massoglia and Schnittker 2009; McLanahan 2009; Sykes and Piquero 2009; Travis 2005; Western 2006; Western and McLanahan 2000). These studies have made an enormous contribution to our understanding of the role the penal system plays in the stratification process, but they ignore an additional mechanism through which the criminal justice system fuels poverty and inequality, namely, widespread imposition of monetary sanctions."
                    ]
                }
            ]
        },
        {
            "title": "Monetary Sanctions in the U.S. Criminal Justice System",
            "subsections": [
                {
                    "title": null,
                    "paragraphs": [
                        "Monetary sanctions, sometimes called Legal Financial Obligations (LFOs), include fees, fines, restitution orders, and other financial obligations that courts and other criminal justice agencies may impose on persons accused of crimes. Use of monetary sanctions in the criminal process is not new. In many European countries, restitution was the primary criminal penalty for centuries (Mullaney 1988). In the United States and its colonial territories, monetary sanctions became common with the arrival of European settlers (Merry 2000; Miethe and Lu 2005). In the northern states, monetary penalties were used mainly in minor criminal cases; serious crimes warranted physical punishments such as flogging (Miethe and Lu 2005). In some cases, fines were coupled with corporal penalties; individuals who could not afford to pay their fines were subjected to additional physical penalties or penal servitude (Miethe and Lu 2005). Monetary sanctions were also common in the southern states, where their imposition was the foundation of the convict lease system that lasted from emancipation through the 1940s (Adamson 1983; Blackmon 2008; Oshinsky 1996; Perkinson 2008).",
                        "In recent decades, policymakers at the federal, state, county, and city levels have authorized judges to impose a growing number of monetary sanctions on people who are convicted--and sometimes just accused1--of crimes (Anderson 2009; Levingston 2008; McLean and Thompson 2007; Rosenthal and Weissman 2007). Some of these newly authorized monetary sanctions are mandatory, but many are not, and most legislatures did not create guidelines to structure their imposition.2 In Washington State, for example, only two fees are mandatory: a $500 Victim Penalty Assessment and a $100 fee to cover the cost of including a first-time defendant's DNA in a statewide banking system.3 Although some fees and fines may be imposed only on certain groups of offenders, judges retain discretion in deciding whether to impose them. For example, some fines may be assessed only on defendants who go to trial, but judges need not assess the trial fee in all such cases. A host of other fines (some of which are for specific offenses, such as drug offense or domestic violence) and fees (e.g., for the cost of a bench warrant, a court appointed attorney, or a jury trial) may be imposed at the discretion of the sentencing judge (Beckett, Harris, and Evans 2008). Similarly, in New York State, judges may choose to impose 19 statutorily authorized fees (Rosenthal and Weissman 2007). Widespread adoption of monetary sanctions in U.S. state and federal courts represents a significant enhancement of judicial discretionary power.",
                        "Administration of these sanctions in the United States bears little resemblance to the use of fines in many European countries, for two reasons. First, in many European countries, fines serve as an alternative rather than a supplement to incarceration (Bureau of Justice Assistance 1996; Hillsman and Greene 1992; O'Malley 2009; Tonry 1998; Tonry and Lynch 1996). Second, fines are based on two ideas in Europe: fines should correspond to the seriousness of the offense, and fines should have a similar impact on people with different incomes (Bureau of Justice Assistance 1996; Hillsman and Greene 1992). To achieve these ends, fines are determined by only two factors: offense seriousness and offenders' (actual) daily income (hence the term \"day-fine\"). The imposition of day-fines by European judges is highly constrained and predicated on the collection of information regarding offenders' actual (rather than hypothetical) earnings. By contrast, monetary sanctions imposed in the United States are highly discretionary and may be shaped by factors other than offense seriousness; fines are also supplements to other criminal justice sanctions. Moreover, we are unaware of any statutory requirement that fee and fine assessment be based on offenders' earnings.",
                        "Recent research suggests that U.S. state and federal courts are increasingly imposing supplementary monetary sanctions. Indeed, two-thirds (66 percent) of prison inmates surveyed in 2004 had been assessed monetary sanctions by the courts, a dramatic increase from 25 percent in 1991 (U.S. Department of Justice n.d.). Misdemeanants and felons not sentenced to prison were even more likely than felons sentenced to prison to receive monetary sanctions. Specifically, courts ordered 84.2 percent of felons sentenced to probation to pay fees or fines in 1995; 39.7 percent were also required to pay restitution to victims. Similarly, 85 percent of misdemeanants sentenced to probation were assessed fees, fines, or court costs; 17.6 percent were also assessed restitution (Harris et al. 2010). As a result of the increased use and proliferation of monetary sanctions, millions of poor residents of the United States now possess legal debt.",
                        "This legal debt is often substantial. Analysis of Washington State Superior Court data, which include all cases sentenced in the first two months of 2004, indicates that the median dollar value of the LFO assessed per felony conviction was $1,110; the mean LFO assessment was $1,398. These figures are clearly an underestimate: they capture the fiscal cost of only a single conviction, omit other sources of legal debt, and do not show how legal debt accumulates over the life course of persons with criminal histories. Toward these ends, we calculated total LFO amounts imposed on 500 randomly selected defendants included in our sample by juvenile, district, and superior courts over the life course. On average, these 500 individuals were assessed $11,471 by these courts by 2008 (Harris et al. 2010). Even this much higher figure very likely underestimates the magnitude of legal debt because it does not include fees assessed by other criminal justice agencies such as departments of corrections.",
                        "Because legal debt is typically substantial relative to expected earnings and is often subject to interest, it tends to grow over time, even if legal debtors make regular payments toward their financial obligations. Washington State felons who make payments of $100 a month (i.e., 11, 12, and 15 percent of expected monthly earnings for formerly incarcerated white, Hispanic, and black men, respectively) toward a typical (median) legal debt will still possess legal debt 10 years later due to the accumulation of interest (Harris et al. 2010). Felons who consistently pay $50 a month will still possess legal debt after 30 years of regular monthly payments (ibid). Interviews with 50 debtors from four Washington State counties indicate that legal debt has a variety of adverse consequences, including lost income, diminished occupational opportunities, depressed credit ratings, and heightened housing instability (ibid). Rates of payment are low, but non-payment also has negative consequences for debtors, including lost income (through garnishment), worsened credit ratings, prolonged court supervision, and issuance of an arrest warrant, which can trigger loss of social security benefits and even incarceration (ibid).",
                        "In short, legal debt carries a variety of costs; it is also an especially injurious type of debt. Unlike consumer debt, legal debt is not offset by acquisition of goods or property, it is not subject to relief through bankruptcy proceedings, and it may trigger an arrest warrant, an arrest, or incarceration. Monetary sanctions are thus another mechanism by which criminal justice expansion fuels inequality."
                    ]
                }
            ]
        },
        {
            "title": "Punishment as a Social and Moral Act",
            "subsections": [
                {
                    "title": "The Socio-Cultural Theory of Punishment and the Limits of Sentencing Reform",
                    "paragraphs": [
                        "Since the late 1970s, at least 21 states (including Washington State, from which our data are drawn), the District of Columbia, and the federal system have enacted sentencing guidelines in an attempt to curb judicial discretion and reduce racial and other disparities in confinement sentencing outcomes (Frase 2005; Tonry 1996, 1998).4 Research indicates, however, that the guidelines have failed to create what Weber (1968:657) calls a \"gapless\" system of rules. Substantive rationality persists even where guidelines have been adopted, for several reasons. First, determinant sentencing guidelines still allow for exercise of judicial discretion in certain cases. Second, guidelines require judges to impose confinement sentences that fall within a certain range, but variation within this range may be substantial. In Washington State, for example, judges may impose anywhere from 0 to 12 months of jail time for some nonviolent drug offenses. Third, the adoption of sentencing guidelines shifts discretionary power from judges to prosecutors (Engen and Steen 2000; Harris 2007; Miethe 1987; Tonry 1996). Finally, the guidelines themselves have been the subject of intense political negotiation, in part because determinations of offense seriousness and the relevance of offenders' criminal histories are inherently social and political judgments (Savelsberg 1992).",
                        "The socio-cultural perspective also helps to explain why efforts to eliminate substantive rationality from the courts have been only partially successful, and why they have been accompanied by the expansion of judicial discretion in imposition of monetary sanctions. As Garland (1990) argues, the trend toward formalization and rationalization is nowhere complete, least of all in the courtroom, where the recent embrace of formal rationality coexists uneasily with the expressive and moral dimension of criminal punishment. Indeed, the decline of public displays of penal power means that expression of moral outrage and emotion central to penal rituals is increasingly confined to the courtroom (Garland 1990). From the socio-cultural perspective, efforts to formalize criminal sentencing can be only partially successful because discretion persists in the cracks and crevices of an otherwise formally rational system and punishment has an inherently expressive and moral dimension, the expression of which demands discretionary power.",
                        "Indeed, although enactment of sentencing guidelines did reduce the impact of non-legal variables on sentencing outcomes (Moore and Miethe 1986; Nagel and Schulhofer 1992), many studies find that defendant's race or ethnicity continue to influence confinement sentencing outcomes, even where guidelines have been adopted (Albonetti 1997; Bontrager, Bales, and Chiricos 2005; Engen et al. 2003; Johnson 2006; Kramer and Steffensmeier 1993; Spohn and Holleran 2000; Steffensmeier and Demuth 2000, 2001; Ulmer and Kramer 1996; Wooldredge and Thistlewaite 2004). For example, judges are more likely to depart from sentencing guidelines and impose harsher penalties when a defendant is African American or Latino (and when a defendant opts for a trial); judges are also less likely to select the lower incarceration length identified in the guidelines when a defendant is black or Latino (Engen and Gainey 2000; Engen, Gainey et al. 2003; Johnson 2005; Johnson, Ulmer, and Kramer 2008; Steffensmeier and Demuth 2001).5 In some cases, race is more salient than ethnicity; in other cases, the opposite is true.",
                        "In short, adoption of sentencing guidelines moderated but did not eliminate the effect of extra-legal factors on custodial sentencing outcomes. Courts' largely discretionary imposition of monetary sanctions provides an additional and a largely unfettered opportunity for the exercise of discretionary power. The following sections identify factors we expect will shape its expression."
                    ]
                },
                {
                    "title": "The Socio-Cultural Theory of Punishment and the Limits of Sentencing Reform",
                    "paragraphs": [
                        "Our socio-cultural theory of punishment highlights the role of emotions--especially anger, fear, and disgust--in the judgment, condemnation, and punishment of offenders. Evidence shows that particular types of criminal offenses trigger especially strong versions of negative emotions associated with punitiveness. Not surprisingly, violent crime is most strongly linked to fear (Liska, Lawrence, and Sanchirico 1982; Warr 2000). The finding suggests that violent offenders may be more severely punished than nonviolent offenders, even after controlling for offense seriousness. Evidence also shows that drug offenders trigger high levels of disgust. For example, experimental research indicates that drug addicts are seen as incompetent and unsympathetic, a pattern associated with disgust (Harris and Fiske 2006). As Miller (1997) notes, disgust figures prominently in moral discourse; indeed, moral judgment is often conveyed through the idiom of disgust. Because fear and disgust are centrally related to punitiveness, our first hypothesis predicts that violent and drug offenders will be sanctioned more severely than other (mainly property) offenders."
                    ]
                },
                {
                    "title": "The Socio-Cultural Theory of Punishment and the Limits of Sentencing Reform",
                    "paragraphs": [
                        "Research suggests that race and ethnicity are strongly linked to emotions that underlie the impulse to punish. Studies find that racial antipathy and resentment persist among whites despite widespread acceptance of abstract principles of racial equality. In this literature, symbolic racism is thought to \"stem from a blend of anti-Black affect and traditional values. ... Anti-Black affect is a spontaneous and often unacknowledged negative emotion that reflects fear, anger, distaste, or simple dislike\" (Green, Staerkle, and Sears 2006:438; see also Sears 1988). This antipathy stems in part from the perception that blacks violate traditional American values such as self-reliance, the work ethic, and respect for authority (Feldman and Huddy 2005; Green et al. 2006). Similarly, hostility to Latino immigrants stems in large part from the belief that they are comparatively crime-prone and a drain on non-immigrant taxpayers (Chavez 2008).",
                        "By contrast, some researchers highlight racism's cognitive dimensions and unconscious impact on perceptual processes (see Correll, Benard, and Paik 2007; Eberhardt and Goff 2005; Eberhardt et al. 2004; Pager and Karafin 2009; Schram et al. 2009; Soss, Fording, and Schram 2008). From this perspective (sometimes referred to as the Racial Classification Model or RCM), race may affect decision-making even in the absence of racial animus or antipathy (Schram et al. 2009; Soss et al. 2008). Indeed, some scholars refer to the unconscious impact of race on perception as implicit bias, to differentiate it from conscious racial animus (Quillian 2008; Sampson and Raudenbush 2004).",
                        "We agree that cognition plays a key role in decision-making processes, and that bias may be unconscious, but it is also clear that perception often triggers particular emotions that are central to punishment. Research on fear of crime, for example, consistently indicates that perceived risk of victimization is the proximate cause of fear (Warr 2000). Similarly, the perception that blacks and Latinos are more violent than whites appears to explain why a neighborhood's racial composition influences residents' perceptions of dangerousness and levels of fear (Chiricos, McEntine, and Gertz 2001; Quillian and Pager 2001). Cognition, perception, and emotion are thus highly interrelated. In the context of sanctioning, we argue that decision-making is primarily affected by emotional reactions to defendants with particular characteristics. It seems likely that blacks and Latinos accused of committing criminal offenses will be especially likely to trigger the negative emotions that underlie the impulse to punish. Our second hypothesis therefore predicts that defendants' race and ethnicity will shape the exercise of judicial discretion in imposition of monetary sanctions, with black and Latino defendants receiving more severe penalties than similarly situated white defendants.",
                        "This hypothesis suggests that blacks and Latinos will receive similar treatment in the courts. However, some studies find that race is more salient than ethnicity, while others, especially more recent studies, find the opposite (Demuth 2003; Mann and Zatz 1998; Schlesinger 2005; Steffensmeier and Demuth 2000, 2001). A prior study of Washington State court outcomes suggests that Latinos, but not blacks, receive significantly longer confinement sentences than do whites (Engen and Gainey 2000). Given this finding, as well as statewide controversy surrounding the rapidly increasing immigration from Latin America and the comparatively small and stable size of the black population in Washington State, we suspect that the presence of Latinos in a jurisdiction and a courtroom may have an especially pronounced effect on judicial decision-making.6",
                        "Racial threat literature helps to explain how the demographic context in which decisions about punishment are made might also affect penal outcomes. The literature highlights a connection between emotions and the racial/ethnic composition of the population in which sentencing occurs. Studies explore the effect of minority population size on criminal justice outcomes; disparities are believed to reflect (white) fear or anxiety triggered by an increasing or comparatively large minority population (see Blalock 1967; Blumer 1958; King 2007; Liska et al. 1982; Spohn and Holleran 2002; Steffensmeier and Demuth 2001). Many studies find that a population's racial composition is a significant predictor of enhanced penalty (see, e.g., Beckett and Western 2001; Bridges and Crutchfield 1988; Bridges, Crutchfield, and Simpson 1987; Mosher 2001; Spohn and Holleran 2002; Steffensmeier and Demuth 2001; for negative findings see Britt 2000; Myers and Talarico 1986). In short, a population's racial and ethnic composition often influences criminal justice outcomes, presumably because the presence of blacks and Latinos triggers fear in many residents. For this reason, our third hypothesis predicts that judges in jurisdictions with comparatively large black or Latino populations will impose harsher penalties than judges in jurisdictions with comparatively small black or Latino populations. Our fourth hypothesis predicts that these effects will be larger for black and Latino defendants sentenced in jurisdictions with comparatively large black and Latino populations than for non-black and non-Latino defendants in jurisdictions with the same population characteristics."
                    ]
                },
                {
                    "title": "The Socio-Cultural Theory of Punishment and the Limits of Sentencing Reform",
                    "paragraphs": [
                        "We have argued that punishment is an inherently moral and expressive act, and that blackness, brownness, violence, and drugs are emotionally and morally laden topics. We therefore expect defendants who are associated with these qualities to be sanctioned more severely than defendants who are not. Yet matters are more complicated than this. Popular and political discourse around violence, drugs, and race are not separate but mutually constitutive; contemporary debates about race take place in the context of, and partially through, political discussions of crime, drugs, and punishment (Beckett 1997; Bobo and Johnson 2004; Edsall and Edsall 1991). As noted previously, studies indicate that crime is racially and ethnically coded and that the presence of blacks increases fear and perceptions of danger. The relationship between race and crime is bi-directional: blacks and Latinos are associated with crime, and crime is associated with blackness and brownness (Chiricos and Eschholz 2002; Devine and Elliot 1995; Eberhardt et al. 2004; Sampson and Raudenbush 2004). The association between blacks and violence is particularly long-standing.",
                        "Discussions and images of drug problems in the United States are also intimately connected to discussions of race and ethnicity (Beckett 1997; Reinarman and Levine 1997). Many studies of media representations of crack cocaine in the 1980s and 1990s, for instance, suggest that these images were highly racialized (Beckett and Sasson 1998; Reeves and Campbell 1994; Reinarman and Levine 1997). In recent years, media attention has shifted to other drugs, especially methamphetamine, and the popular representation of methamphetamine as a white drug has given way to an emphasis on the role of Latinos, particularly Mexican nationals and immigrants, in its distribution. In Washington State, officials emphasize that narcotics are often manufactured or cultivated in Mexico and then imported via Mexican drug organizations (U.S. DEA 2009; see also Eitle and Taylor 2008). In this context, Latino men are commonly associated with the illegal drug trade in the popular press (Chavez 2008; Delgado and Stefancic 1998; Hurwitz and Pefley 1997).",
                        "In short, racialized crime scripts are to some extent offense-specific. Recent studies indicate that defendants who conform to such scripts receive more severe sanctions. Experimental studies, for example, suggest that black and white defendants receive harsher penalties when they are convicted of stereotype-congruent offenses (Jones and Kaplan 2003). Similarly, Schlesinger (2005) finds that black defendants charged with violent offenses, and Latinos charged with drug offenses, are more likely to receive pre-trial incarceration than either white defendants or black or Latino defendants charged with less stereotypically-linked crimes (see also Steen, Engen, and Gainey 2005). These findings, which suggest that stereotype congruence activates certain crime scripts and associated emotional responses, are the basis of our fifth hypothesis: black defendants charged with violent crimes, and Latino defendants charged with drug offenses, will receive more severe penalties than white defendants charged with these offenses or black and Latino defendants charged with other offenses.",
                        "The literatures discussed thus far highlight the need to conceive of race and ethnicity as historically-specific cultural categories, the meaning of which varies over time and across space. They also suggest that behaviors and places, not just people, may be racially and ethnically coded. That is, the association of a stigmatized minority group with a particular place or behavior may mean that white people who commit racially stigmatized offenses in places associated with stigmatized minority groups may experience courtesy stigma (Goffman 1963) that results from racialization. Given the contemporary association between blackness and violence, and brownness and drugs, our sixth hypothesis predicts that defendants of all races and ethnicities convicted of violent crimes in counties with relatively large black populations will receive more severe penalties than will violent offenders sentenced in counties with small black populations. Similarly, defendants of all races and ethnicities convicted of drug offenses in counties with relatively large Latino populations will receive more severe penalties than will drug offenders sentenced in counties with small Latino populations. Figure 1 depicts the theoretical model from which we derive these six hypotheses."
                    ]
                },
                {
                    "title": "The Socio-Cultural Theory of Punishment and the Limits of Sentencing Reform",
                    "paragraphs": [
                        "The socio-cultural theory of punishment contrasts with two alternative perspectives. First, formal rationality in sentencing is the ideal to which many legislatures subscribe and that motivates adoption of sentencing guidelines. In a formally rational system, only legal variables such as offender history and offense seriousness affect sentencing outcomes; extra-legal factors such as race and ethnicity do not. If judges consider only legally relevant factors (i.e., offense seriousness and offender history), and the extra-legal factors and interactions among them emphasized in our hypotheses do not influence penal outcomes, we would conclude that judicial decision-making in Washington State conforms to the ideal of formal rationality, and we would reject the socio-cultural theory.",
                        "Our socio-cultural perspective can also be contrasted with an organizational efficiency model that emphasizes the institutional need for an orderly sentencing system and the importance of the economic sustenance of the institution itself (Dixon 1995; Engen and Steen 2000). In studies of confinement sentencing, researchers interpret evidence that defendants convicted at trial receive longer prison sentences than defendants who plead guilty as evidence of an organizational need to encourage efficiency. According to this interpretation, defendants who exercise their right to a trial consume significant court resources and imperil efficient operation of the courts; they therefore receive a \"trial penalty\" at sentencing. By contrast, defendants who plead are rewarded with shorter confinement sentences. If applied to monetary sanctions, the organizational efficiency perspective would predict that financial penalties are assessed primarily to recoup criminal justice expenditures; counties that spend a relatively large percentage of their budgets on criminal justice would therefore impose comparatively large monetary sanctions."
                    ]
                }
            ]
        },
        {
            "title": "Methods, Data, and Estimation",
            "subsections": [
                {
                    "title": "Diagnostics and Model Specification",
                    "paragraphs": [
                        "Exploratory data analysis using Ordinary Least Squares (OLS) techniques on the pooled conviction data showed systematic variation in monetary sanctions across counties. This suggests that the data are structured in nested groups and lend themselves to multilevel analysis. A two-level hierarchical linear model (HLM) nests cases (i.e., convictions) within groups (i.e., counties) to statistically isolate the impact of offense and offender characteristics from the effects of county-level factors. As a result, this methodology allows us to identify legal and extra-legal variables that influence monetary outcomes regardless of characteristics of the county in which a conviction occurred. HLM also enables us to identify county characteristics that are significantly related to variation in monetary sanctions by accounting for error structure at the conviction (Level 1) and county (Level 2) levels. This method helps correct downward biased estimates of standard errors due to nesting (Raudenbush and Bryk 2002) and allows us to model cross-level interactions specified in our hypotheses.7",
                        "Diagnostics helped shape the models. Partial plots suggested that one county, King County, served as a potential outlier on a number of dimensions. We keep this county in the model for statistical and substantive reasons. Statistical tests indicate that King County, although an outlier, does not have considerable leverage, suggesting little overall influence on our results. Substantively, King County is the largest metropolitan area in Washington State and has considerable political and economic influence; excluding King County from an analysis of Washington's justice system would be misleading. Because our model contains varying group (county) sizes (ranging from 2 to 536 cases), we conducted a sensitivity analysis by omitting each county in turn, comparing point estimate direction and significance for each variable afterward. Results indicate that no single county unduly influences the results.8 We also conducted tests for heteroskedasticity and multicollinearity that guided our model selection and prompted variable transformations."
                    ]
                },
                {
                    "title": "Diagnostics and Model Specification",
                    "paragraphs": [
                        "Legal Financial Obligations (LFOs) include fines and fees (a single category in court records), restitution, and other monetary charges associated with arrest, court proceedings, and incarceration. Our analysis focuses on fines and fees imposed by judges at the time of sentencing. We exclude restitution from the analysis because it is driven by case-specific factors such as property replacement and victims' medical costs (Ellsworth and Weisheit 1997; Olson and Ramker 2001; Ruback, Shaffer, and Logue 2004), a source of variation for which we cannot control. In Washington State, the minimum LFO is $500; any amount above $500 is determined at the discretion of the presiding judge. In our sample, the maximum amount assessed was $11,960. The variable fines and fees is heavily skewed to the right; fines and fees is logged in the regression analysis, further normalizing its distribution and readily lending itself to interpretation.",
                        "We include several case-level variables in the analysis. Legal case-level factors include the Sentencing Reform Act (SRA) score, offender score, type of offense, adjudication method, and length of confinement. SRA seriousness level and offender score were established by the Washington State Sentencing Reform Act of 1981, and judges use them to determine individuals' length of incarceration from a determinate sentencing grid.9 SRA seriousness level is a numerical measure of the seriousness of the offense charge, ranging from a low of 1 to a high of 16.10 Offender score is also derived from a statute-based formula that reflects the number and seriousness of defendants' previous juvenile and criminal convictions. Offender scores in our sample range from 0 to 9. We dropped all cases in which defendants did not have a legally determined offender score.11 We tested confinement length, but due to multicollinearity, we do not include it in the final analysis.12 Type of offense is incorporated as three dummy variables: violent offense, drug offense, and other offense.13 Trial (i.e., adjudication method) is also a dummy variable indicating whether individuals pled guilty or opted to have their case taken to trial.14 We also include non-legal factors, including age, gender, and race/ethnicity of the defendant associated with each conviction. Age is a continuous, logged variable in the analysis. Because court records indicate that 14 individuals in the sample were 105 years of age, we dropped these cases. After these adjustments, the sample contains 3,256 cases without missing data on the variables analyzed.",
                        "Using the U.S. Census as our guide, we use the term race to refer to officially designated racial categories (i.e., American Indian or Alaska Native, Asian, Black or African American, Native Hawaiian or other Pacific Islander, and White), and the term ethnicity to refer to subgroups within racial categories (e.g., Hispanic or Latino and Not Hispanic or Latino).15 We construct race as a set of dummy variables including white, black or African American, Asian, Native American, and other. We use Hispanic Surname Analysis to estimate the proportion of white, black, and other defendants who are Latino. Using the U.S. Census Spanish Surname database, this program assigns a numeric value between 0 and 1 to all surnames in the database. These numeric values are provided by the U.S. Census Department and represent the probability that a given surname corresponds to persons who identified themselves as Hispanic or Latino in the 1990 U.S. Census (Perkins 1993; Word and Perkins 1996). The list used to identify defendants of Hispanic origin in the Washington State Sentencing Guidelines Commission (WSSGC) data includes only Spanish surnames that the Census Bureau classifies as \"Heavily Hispanic.\"16",
                        "Previous research identifies contextual factors that may shape sentencing outcomes. We analyzed a variety of contextual factors to test other theoretical frameworks and to refine our own. Key demographic factors include percent of a county population that is minority (i.e., neither white nor Asian17), percent black, and percent Latino. In addition, we include county violent crime rate, property crime rate, drug arrest rate, and percent of the county budget spent on law and justice. Because research shows that political context influences incarceration rates (Beckett 1997; Jacobs and Carmichael 2001), we also include political orientation measured by percent of a county that voted Republican in the 2000 presidential election. (See Table A1 in the Appendix for each county-level independent variable). We tested logged population size, poverty rate, percent change in the Latino population, and presence/absence of a public defender system in the county. However, because none of these factors significantly improved the model, we do not present the results here. We used AIC (Akaike 1974), BIC, and other goodness-of-fit measures to guide our final model selection.",
                        "Using the statistical software Stata 10, we estimated multilevel, mixed effects models using restricted maximum likelihood estimation (REML) to produce unbiased estimates. Because the dependent variable is logged, regression coefficients are interpreted as a percent change in Y for a unit increase in X. In this analysis, we present three different sets of models. The first model is a random intercept model that includes all racial and all offense categories; contextual factors included are percent minority, percent who voted Republican, and percent of the budget spent on law and justice. The formal description of the model is written as the following:",
                        "",
                        "where Logfine is fees and fines in logged dollar amounts, SRA is offense seriousness level, Offender Score is the score based on the number and seriousness of past offenses, LnAge is logged age, Male is a dummy equal to 1 for male, Latino is a dummy equal to 1 for Latino offenders, Black is a dummy equal to 1 for black or African American offenders, Asian is a dummy equal to 1 for Asian American offenders, Native American is a dummy equal to 1 for Native American offenders, Other Ethnicity is a dummy equal to 1 for all other racial/ethnic identified offenders, Drug Offense is a dummy equal to 1 for drug offenses, Other Offense is a dummy equal to 1 for nondrug offenses, Trial is a dummy equal to 1 for cases adjudicated via a judicial or jury trial, % Minority is non-white percentage of the population in the county, % Vote Republican is percentage of people in the county voting Republican in the 2000 presidential election, and % Law & Justice is percent of the county budget spent on law and justice.",
                        "The second and third sets of models include cross-level interactions. We construct interactions as the product of the two variables specified. Each interaction is tested separately (i.e., there is never more than one interaction in a model). We ran these models with unstructured covariances to accommodate the additional random effects and to test our hypotheses regarding fine and fee assessment for blacks and violent offenders and Latinos and drug offenders, respectively. To fully test our theoretical framework, variables in the model remained uncentered.18 In the second set of models, we include percent black and violent crime rate. In the third set, we include percent Latino and drug arrest rate. The formal description of these models, including an example interaction term, can be written as the following:",
                        "",
                        ""
                    ]
                }
            ]
        },
        {
            "title": "Results",
            "subsections": [
                {
                    "title": "Case- and County-Level Factors",
                    "paragraphs": [
                        "Several case-level factors influence imposition of monetary sanctions. As Hypothesis 1 predicts, offense type significantly affects assessment of monetary sanctions (see Table 3). Drug offenders are assessed substantially (34 percent) greater fines and fees than are property offenders and violent offenders (31 percent). Contrary to our expectations, however, violent offenders do not receive significantly greater fines and fees than nonviolent offenders after controlling for offense seriousness. The results provide partial support for Hypothesis 2. Latinos are assessed 6.7 percent greater fees and fines than similarly situated white defendants, although blacks do not receive harsher assessments than whites. In short, these results suggest that Latinos and drug offenders receive significantly more severe monetary penalties than do non-Latino and nondrug offenders. Consistent with prior findings on confinement sentencing outcomes, individuals convicted at trial are assessed 30 percent greater fines and fees, on average, than defendants who plead guilty, and men are assessed greater monetary sanctions than women.19",
                        "At the county level, Hypothesis 3 highlights the effect of county demographics on monetary sanctions. The initial test does not support Hypothesis 3, as the share of a county population that is comprised of people of color (i.e., black, Latino, or Native American) does not significantly predict the dollar value of monetary sanctions assessed by judges. We do find evidence, however, that more conservative counties impose greater monetary sanctions. The share of the budget devoted to the criminal justice system does not significantly predict LFO assessment. Our model explains roughly 22 percent of the variation at each level."
                    ]
                },
                {
                    "title": "Case- and County-Level Factors",
                    "paragraphs": [
                        "Hypotheses 4, 5, and 6 are more complex and predict that case-level characteristics will interact with contextual factors to enhance the effect of racialized scripts and stereotypes on sentencing outcomes. Because we think it is possible that race and ethnicity matter differently, the models compare blacks with non-blacks and Latinos with non-Latinos. Table 4 presents results of four multilevel mixed effects models in which race is measured as black or non-black, and offense type is measured as violent or nonviolent. County-level factors include percent of the population that is black, percent voting Republican, and violent crime rate. Results from Model 1 indicate that SRA score, adjudication method (i.e., trial versus plea), and offense type are important predictors of fine and fee assessment. Contrary to our expectations, violent offenders are assessed roughly 11 percent lower fees and fines than their nonviolent counterparts, and black defendants do not receive significantly greater sanctions than non-blacks (the coefficient is negative but not significant). Without interactions, our model explains roughly 10 percent of the variation at the case level and 16 percent at the county level.",
                        "Results shown in Models 2 through 4 in Table 4 add important caveats to these findings. They provide additional evidence that there is no direct penalty for being black, and that size of the black population alone does not influence imposition of monetary sanctions. On the other hand, findings regarding all three hypothesized interactions are positive, and two of these are significant. Consistent with Hypothesis 4, assessment of monetary sanctions depends on size of the black population in the county in which a black defendant is convicted. Put differently, these findings indicate that the effect of race depends on size of the black population in a given county. A black defendant convicted in Garfield County, which has no black residents, would be assessed 11.8 percent less than a non-black defendant. By contrast, in Pierce County, where 7.1 percent of the population is black, a black defendant could expect to pay 3.1 percent more in fines and fees than a non-black defendant.20",
                        "The interaction between being black and being convicted of a violent crime is positive but not significant. Consistent with Hypothesis 6, however, monetary sanctions for violent offenders depend on size of the black population: counties with larger black communities monetarily penalize violent offenders more severely. For example, a violent offender in Garfield County can expect to receive a fine and fee assessment 20 percent lower than a nonviolent offender. By contrast, in Pierce County, where a larger share of the population is black, a violent offender (regardless of his race or ethnicity) can expect to pay .83 percent less than a nonviolent offender (see Table 4, Model 4). Adjudication by trial continues to positively and significantly increase the severity of monetary penalties in all models.",
                        "In short, the findings presented in Table 4 indicate that blacks sentenced in counties with larger black populations, and all defendants convicted of violent charges in counties with larger black populations, receive significantly greater monetary penalties. For black defendants, we find support for Hypotheses 4 and 6, but only weak support for Hypothesis 5.",
                        "A similarly complex dynamic plays out for Latinos. Table 5 presents results from models that include the proportion of Latinos in a county; ethnicity is measured as Latino or non-Latino, and offense type as drug offense or nondrug offense. Because stigma related to drugs is relevant to our hypotheses, we include the county drug arrest rate rather than violent crime rate in these models. Results of Model 1 support Hypotheses 1 and 2: drug offenders can expect, on average, to be assessed 34 percent higher fines and fees than nondrug offenders, and Hispanic defendants are assessed 7 percent more than their non-Latino counterparts. As in previous models, adjudication by trial is significantly and positively associated with monetary sanctions. Without interactions, variables included in the model explain 26 percent of the variation at the individual level and 30 percent at the county level.",
                        "Given consistency across findings presented thus far regarding the significance of ethnicity and drugs, it is not surprising that the intersection of these variables is significantly associated with more severe financial sentences. On the one hand, we find only weak evidence that the penalty for being Latino varies according to the demographic composition of the county in which one is convicted (Hypothesis 4): the interaction between being Latino and percent Latino in a county is positive but not statistically significant. However, consistent with Hypothesis 5, if a defendant is convicted of a drug offense, being Latino will increase fine and fee assessment by 14 percent. In total, a Latino defendant convicted of a drug crime can expect to pay 46.3 percent more than a non-Latino, nondrug offender. And, as Hypothesis 6 predicts, the impact of the stigma associated with drugs depends on the size of the Latino community. That is, all defendants convicted of a drug offense (regardless of their race or ethnicity) in a county with a large Latino population receive significantly greater fines and fees than do defendants convicted of drug crimes in counties with small Latino populations. To make this concrete: in Washington counties, the Latino population ranges from 2.1 to 50.9 percent. At the two extremes, a person convicted of a drug crime in a county whose population is 2.1 percent Latino would receive a monetary penalty 26.4 percent higher than if the person was convicted of a nondrug related felony; a comparable person convicted in the county with the largest share of Latinos would receive a penalty 70.3 percent higher than someone convicted of a nondrug offense in that county. The presence of a relatively large Latino population appears to heighten concern about drug offenders, regardless of individual defendants' race or ethnicity.",
                        "In summary, we find strong but not universal support for our hypotheses as they pertain to Latino defendants. Consistent with Hypotheses 1 and 2, drug offenders and Latino defendants receive significantly greater fees and fines than do nondrug and non-Latino offenders. Contrary to Hypotheses 3 and 4, we do not find that size of the Latino population alone matters, or that Latino defendants in jurisdictions with larger Latino populations receive higher monetary sanctions. However, consistent with Hypotheses 5 and 6, Latinos convicted of drug offenses received greater monetary sanctions than non-Latinos convicted of drug offenses, and drug offenders sentenced in jurisdictions with large Latino populations received greater LFOs than those in counties with smaller Latino populations."
                    ]
                }
            ]
        },
        {
            "title": "Discussion and Conclusions",
            "subsections": [
                {
                    "title": null,
                    "paragraphs": [
                        "The findings, summarized in Table 6, are largely supportive of our socio-cultural theory of punishment. This theory suggests that decisions about sanctions are shaped by emotions that are especially likely to be triggered by certain defendants accused of certain crimes in certain contexts. Because prior studies indicate that blackness, brownness, violence, and drugs are associated with particularly negative emotions and moral judgments, we hypothesized that these qualities would be significantly associated with the severity of monetary sanctions. Consistent with our conception of race and ethnicity as complex and shifting cultural categories rather than just individual attributes, we further hypothesized that these associations would be interactive and triggered by key contextual variables. Because the meaning of race and ethnicity vary across space and time, and because the Latino population is expanding rapidly, we suggested that ethnicity may be more salient than race in Washington State.",
                        "Overall, our findings provide support for this perspective. Specifically, we find that ethnicity (being Hispanic) and drug charges (associated with being Hispanic) directly increase penal severity. We also find that Latinos convicted of drug charges and drug offenders convicted in counties with larger Latino populations receive significantly greater LFOs than do other defendants. Thus, ethnicity appears to matter in direct and interactive ways. Although there is no direct financial penalty for being black or being convicted of the type of offense most strongly associated with blackness (i.e., violent), black defendants sentenced in counties with comparatively large black populations also receive more severe monetary penalties. Moreover, monetary sanctions for violent offenders depend on size of the black population. Race appears to matter, but in more complex and interactive ways than ethnicity in Washington State. Several control variables also significantly influence assessment of fees and fines: counties with more politically conservative voters impose harsher financial penalties21 (see also Jacobs and Carmichael 2001), and male defendants receive greater monetary sanctions than do females. Finally, as in studies of confinement sentencing outcomes, adjudication method significantly predicts penal outcomes: defendants who exercise their right to a trial receive greater monetary penalties than do individuals who plead guilty.22",
                        "These findings are consistent with an emerging body of evidence that suggests ethnicity has become a comparatively salient factor in decisions to punish. Indeed, several recent studies indicate that Latinos now receive longer prison sentences than either whites or blacks (Demuth 2003; Mann and Zatz 1998; Schlesinger 2005; Steffensmeier and Demuth 2000, 2001). Steffensmeier and Demuth (2000:708) suggest that in the context of heated debate about immigration, Latinos may be viewed as more \"culturally dissimilar and threatening\" than either blacks or whites (see also Hagan and Palloni 1999; Martinez 1996; Zatz 1985). Our findings are consistent with this argument.",
                        "Two factors may help to explain why neither black nor violent offenders receive greater monetary sanctions than do non-black and nonviolent offenders. First, the absence of a direct black effect likely reflects the small and stable size of the black population in Washington State, which can be contrasted with the comparatively large and growing size of the Latino and immigrant populations.23 Second, the fact that violent offenders do not receive greater monetary sanctions than nonviolent offenders may reflect a tendency to see incarceration as the appropriate response to individuals who engender fear, while financial penalties may seem more appropriate for defendants seen as disgusting or morally corrupt (i.e., drug offenders).",
                        "In summary, we find strong evidence that ethnicity and its interaction with offense type significantly impact imposition of monetary sanctions in Washington State. Latino defendants whose charges are stereotype congruent are penalized most harshly. We also find robust evidence of racial and ethnic courtesy stigma: all defendants, regardless of their race or ethnicity, are punished more severely when they are convicted of racially or ethnically coded crimes in counties with comparatively large black or Latino populations. By contrast, we find no evidence that counties that spend a comparatively large share of their budgets on law and justice impose greater monetary penalties, as the organizational efficiency model predicts. Moreover, only one of the two legal factors allowable in a formally rational sentencing system (i.e., SRA score) significantly predicts imposition of monetary sanctions, and many socio-legal factors retain significance after taking these two legal factors into account. It thus appears that judicial decisions about monetary sanctions are shaped by many of the socio-cultural processes we foreground--ethnic dynamics in particular--rather than by an organizational imperative to recoup criminal justice costs.",
                        "Like other sentencing studies, our analysis is limited by the absence of data regarding unobserved individual-level characteristics. For example, our models do not include information about defendants' legal representation or pretrial release status (e.g., bail), education, employment status, or income level. In addition, although results of the HLM regression analysis identify the factors that significantly influence punishment severity, they do not reveal how each of the significant explanatory factors influences these outcomes. We theorize that offense type, race, ethnicity, and demographic context interact to influence penal outcomes by triggering the negative emotions and moral judgments associated with heightened punitiveness, but we do not have direct measures of emotions or judgments.",
                        "As a result, some of our findings are subject to multiple interpretations. In particular, the finding that Latinos are assessed comparatively greater monetary sanctions could be construed as evidence that judges perceive Latino defendants as better able or more likely to pay than white or black defendants. Although we cannot definitively disprove this interpretation, we think it is incorrect, for two reasons. First, as noted previously, judges are not required by statute to assess or even consider defendants' ability to pay when imposing fees or fines, and our interviews with court actors and observations of courtroom proceedings indicate that they do not. Second, we think it is unlikely that judges believe Latinos are better able or more likely to pay than whites, given comparatively high poverty rates among Latino residents of Washington State.24",
                        "This study has important implications for theories of racial and ethnic stigma and their impact on institutional outcomes such as sanctions. Prior studies suggest that particular racial and ethnic groups are culturally associated with certain offense types, and that activation of these scripts by stereotype-congruent defendants triggers enhanced punishment (Jones and Kaplan 2003; Schlesinger 2005; Steen et al. 2005). Similarly, we find that Latinos convicted of stereotype-congruent offenses (i.e., drug crimes) receive significantly greater financial penalties than do Latinos convicted of other crimes and non-Latinos convicted of drug crimes. Results further indicate, however, that racialized crime scripts affect not only defendants whose ethnicity is consistent with the stereotype in question, but all defendants convicted of racially or ethnically stigmatized behavior. That is, counties with comparatively large Latino populations penalize all drug offenders significantly more severely than do counties with small Latino populations. Similarly, counties with relatively large black populations penalize all violent offenders (of all racial and ethnic backgrounds) significantly more severely than do counties with small black populations. It appears that even white people who commit racially or ethnically stigmatized offenses in jurisdictions with comparatively large black or Latino populations will experience the courtesy stigma (Goffman 1963) that flows from racialization, and they will be penalized more severely as a result. Race and ethnicity, then, are not just individual attributes, but cultural categories that shape the distribution of stigma and institutional consequences that flow from it.",
                        "The theoretical framework we develop here, and especially our findings regarding courtesy stigma, may be useful for understanding decision-making processes in other institutional settings in which clients are labeled, processed, and punished. Indeed, studies indicate that race and ethnicity affect decision-making processes in a number of institutions that are central to the stratification system, including schools, welfare offices, and penal institutions (Bridges and Steen 1998; Morris 2005; Schram et al. 2009). For example, comparatively high rates of suspension among black students are in part a function of race-inflected assessments of students' behavior and character (Gregory 1995; Morris 2005). Similarly, beliefs about blacks and Latinos inform welfare agents' sanctioning decisions (Schram et al. 2009), as well as probation officers' assessments of juveniles' blameworthiness and amenability (Bridges and Steen 1998). These institutional processes have important consequences for individuals' life chances and quality of life, but they remain poorly understood. The possibility that courtesy stigma plays an important role in these processes has not been explored; our findings suggest that it should be.",
                        "Recent developments underscore the need for such research. Even as mass incarceration fuels inequality, the logic of penal control and surveillance has spread to non-criminal justice institutions, as the \"technologies, discourses, and metaphors of crime and criminal justice\" have permeated politics, policies, and institutions that are seemingly unrelated to crime-fighting (Simon 2007:4). Schools, for example, are increasingly subject to drug sweeps, K-9 units, metal detectors, zero-tolerance rules, and detention and expulsion (Lyons and Drew 2006; Simon 2007). Similarly, welfare agencies are increasingly oriented toward surveillance and sanctioning, as \"disciplinary approaches to poverty management are ascendant in the United States today\" (Schram et al. 2009:398; see also Soss et al. 2008). In this context, identifying and understanding the complex ways that race, ethnicity, and other sources of stigma interact to influence institutional decision-making processes and the allocation of sanctions is of utmost importance."
                    ]
                }
            ]
        }
    ],
    "references": [
        "Adamson, Christopher R. 1983. \u201cPunishment after Slavery: Southern State Penal Systems, 1865\u20131890.\u201d Social Problems 30:555\u201369.",
        "Akaike, H. 1974. \u201cA New Look at the Statistical Identification.\u201d IEEE Trans. Automat Control 19:716\u201323.",
        "Albonetti, Celesta A. 1987. \u201cProsecutorial Discretion: The Effects of Uncertainty.\u201d Law and Society Review 21:291\u2013313.",
        "Albonetti, Celesta A. 1991. \u201cAn Integration of Theories to Explain Judicial Discretion.\u201d Social Problems 38:247\u201366.",
        "Albonetti, Celesta A. 1997. \u201cSentencing under the Federal Sentencing Guidelines: Effects of Defendant Characteristics, Guilty Pleas, and Departures on Sentencing Outcomes for Drug Offenses, 1991\u20131992.\u201d Law and Society Review 31:789\u2013822.",
        "Almaguer, Tomas. 1994. Racial Fault Lines: The Historical Origins of White Supremacy in California. Los Angeles: University of California Press.",
        "Anderson, Helen. 2009. \u201cPenalizing Poverty: Making Indigent Criminal Defendants Pay for their Court-Appointed Counsel through Recoupment and Contribution.\u201d 42 U. Mich. J.L. 323.",
        "Beckett, Katherine. 1997. Making Crime Pay: Law and Order in Contemporary American Politics. New York: Oxford University Press.",
        "Beckett, Katherine, Harris, Alexes, Evans, Heather. 2008. The Assessment and Consequences of Legal Financial Obligations in Washington State. Olympia, WA (http://www.courts.wa.gov/committee/pdf/2008LFO_report.pdf).",
        "Beckett, Katherine, Sasson, Theodore. 1998. \u201cThe Media and the Construction of the Drug Crisis in America.\u201d Pp. 25\u201344 in The New War on Drugs: Symbolic Politics and Criminal Justice Policy, edited by Jensen, E., Gerber, J. Cincinnati, OH: Anderson Publishers.",
        "Beckett, Katherine, Western, Bruce. 2001. \u201cGoverning Social Marginality: Welfare, Incarceration and the Transformation of State Policy.\u201d Punishment & Society 3:43\u201359.",
        "Blackmon, Douglas A. 2008. Slavery by Another Name: The Re-Enslavement of Black Americans from the Civil War to World War II. New York: Doubleday.",
        "Blalock, Hubert M. 1967. Toward a Theory of Minority Group Relations. New York: Wiley.",
        "Blumer, Herbert. 1958. \u201cRace Prejudice as a Sense of Group Position.\u201d Pacific Sociological Review 1:3\u20137.",
        "Bobo, Lawrence D., Johnson, Devon. 2004. \u201cA Taste for Punishment: Black and White Americans\u2019 Views on the Death Penalty and the War on Drugs.\u201d Du Bois Review 1:151\u201380.",
        "Bontrager, Stephanie, Bales, William, Chiricos, Ted. 2005. \u201cRace, Ethnicity, Threat and the Labeling of Convicted Felons.\u201d Criminology 43:589\u2013622.",
        "Braman, Donald. 2002. \u201cThe Impact of Incarceration on Families.\u201d Pp. 117\u201335 in Invisible Punishment: The Collateral Consequences of Mass Imprisonment, edited by Mauer, M., Chesney-Lind, M. New York: The New Press.",
        "Bridges, George S., Crutchfield, Robert D. 1988. \u201cLaw, Social Standing and Racial Disparities in Imprisonment.\u201d Social Forces 66:699\u2013724.",
        "Bridges, George S., Crutchfield, Robert D., Simpson, Edith E. 1987. \u201cCrime, Social Structure and Criminal Punishment: White and Nonwhite Rates of Imprisonment.\u201d Social Problems 34:345\u201361.",
        "Bridges, George, Steen, Sara. 1998. \u201cRacial Disparities in Official Assessments of Juvenile Offenders: Attributional Stereotypes as Mediating Mechanisms.\u201d American Sociological Review 63:554\u201370.",
        "Britt, Chester L. 2000. \u201cSocial Context and Racial Disparities in Punishment Decisions.\u201d Justice Quarterly 17:707\u201332.",
        "Bureau of Justice Assistance. 1996. How to Use Structured Fines (Day Fines) as an Intermediate Sanction. Washington, DC: Vera Institute of Justice.",
        "Chavez, Leo R. 2008. The Latino Threat: Constructing Immigrants, Citizens, and the Nation. Palo Alto: Stanford University Press.",
        "Chiricos, Ted, Eschholz, Sarah. 2002. \u201cThe Racial and Ethnic Typification of Crime and the Criminal Typification of Race and Ethnicity in Local Television News.\u201d Journal of Research in Crime and Delinquency 39:400\u2013420.",
        "Chiricos, Ted, McEntine, Ranee, Gertz, Marc. 2001. \u201cPerceived Racial and Ethnic Composition of Neighborhood and Perceived Risk of Crime.\u201d Social Problems 48:322\u201340.",
        "Clear, Todd R. 2007. Imprisoning Communities: How Mass Incarceration Makes Disadvantaged Neighborhoods Worse. New York: Oxford University Press.",
        "Clear, Todd R., Rose, Dina R., Ryder, Judith. 2001. \u201cIncarceration and the Community: The Problem of Removing and Returning Offenders.\u201d Crime and Delinquency 47:335\u201351.",
        "Comfort, Megan. 2007. \u201cPunishment beyond the Legal Offender.\u201d Annual Review of Law in the Social Sciences 3:271\u201396.",
        "Correll, Sherry, Benard, Stephen, Paik, In. 2007. \u201cGetting a Job: Is there a Motherhood Penalty?\u201d American Journal of Sociology 112:1297\u20131338.",
        "Daly, Kathleen. 1987. \u201cStructure and Practice of Familial-Based Justice in a Criminal Court.\u201d Law and Society Review 21:267\u201390.",
        "Daly, Kathleen, Tonry, Michael. 1997. \u201cGender, Race, and Sentencing.\u201d Pp. 201\u2013252 in Crime and Justice: A Review of the Research, edited by Tonry, M. Chicago: University of Chicago Press.",
        "Delgado, Richard, Stefancic, Jean. 1998. \u201cRacial Depiction in American Law and Culture.\u201d Pp.209\u2013214 in The Latino/a Condition: A Critical Reader, edited by Delgado, R., Stefancic, J. New York: New York University Press.",
        "Demuth, Stephen. 2003. \u201cRacial and Ethnic Differences in Pretrial Release Decisions and Outcomes: A Comparison of Hispanic, Black, and White Felony Arrestees.\u201d Criminology 41:873\u2013908.",
        "Devine, Patricia G., Elliot, Andrew J. 1995. \u201cAre Racial Stereotypes Really Fading? The Princeton Trilogy Revisited.\u201d Personality and Social Psychology Bulletin 11:1139\u201350.",
        "Dixon, Jo. 1995. \u201cThe Organizational Context of Criminal Sentencing.\u201d American Journal of Sociology 100:1157\u201398.",
        "Durkheim, Emile. 1984. The Division of Labor in Society. New York: The Free Press.",
        "Eberhardt, Jennifer L., Goff, Phillip A. 2005. \u201cSeeing Race.\u201d Pp. 219\u201331 in Social Psychology of Prejudice: Historical and Contemporary Issues, edited by Crandall, C. S., Schaller, M. Lawrence, KS: Lewinian Press.",
        "Eberhardt, Jennifer L., Goff, Phillip A., Purdie, Valerie J., Davies, Paul G. 2004. \u201cSeeing Black: Race, Crime, and Visual Processing.\u201d Journal of Personality and Social Psychology 87:876\u2013963.",
        "Edsall, Thomas B., Edsall, Mary D. 1991. Chain Reaction: The Impact of Race, Rights, and Taxes on American Politics. New York: W. W. Norton & Company.",
        "Eitle, David, Taylor, John. 2008. \u201cAre Hispanics the New \u2018Threat\u2019? Minority Group Threat and Fear of Crime in Miami-Dade County.\u201d Social Science Research 37:1102\u201315.",
        "Ellsworth, T., Weisheit, R. A. 1997. \u201cSupervision and Treatment of Offenders on Probation: Understanding Rural and Urban Differences.\u201d Prison Journal 77:209.",
        "Emerson, Robert. 1969. Judging Delinquents: Context and Process in Juvenile Court. Chicago: Aldine.",
        "Engen, Rodney, Gainey, Randy. 2000. \u201cModeling the Effects of Legally Relevant and Extralegal Factors under Sentencing Guidelines: The Rules Have Changed.\u201d Criminology 38:1207\u201330.",
        "Engen, Rodney, Gainey, Randy, Crutchfield, Robert, Weis, Joseph. 2003. \u201cDiscretion and Disparity under Sentencing Guidelines: The Role of Departures and Structured Sentencing Alternatives.\u201d Criminology 41:99\u2013130.",
        "Engen, Rodney, Steen, Sara. 2000. \u201cThe Power to Punish: Discretion and Sentencing Reform in the War on Drugs.\u201d American Journal of Sociology 105:1357\u201395.",
        "Feldman, Stanley, Huddy, Leonie. 2005. \u201cRacial Resentment and White Opposition to Race-Conscious Programs: Principles or Prejudice.\u201d American Journal of Political Science 49:168\u201383.",
        "Foster, Holly, Hagan, John. 2007. \u201cIncarceration and Intergenerational Social Exclusion.\u201d Social Problems 54:399\u2013433.",
        "Frase, Richard. 2005. \u201cState Sentencing Guidelines: Diversity, Consensus, and Unresolved Policy Issues.\u201d Columbia Law Review 105:1190\u201392.",
        "Frohmann, Lisa. 1991. \u201cDiscrediting Victims\u2019 Allegations of Sexual Assault: Prosecutorial Accounts of Case Rejection.\u201d Social Problems 38:213\u201326.",
        "Frohmann, Lisa. 1997. \u201cConvictability and Discordant Locales: Reproducing Race, Class, and Gender Ideologies in Prosecutorial Decision-Making.\u201d Law and Society Review 31:531\u201356.",
        "Garfinkel, Harold. 1956. \u201cConditions of Successful Degradation Ceremonies.\u201d American Journal of Sociology 6:420\u201324.",
        "Garland, David. 1990. Punishment and Modern Society. Chicago: University of Chicago Press.",
        "Goffman, Erving. 1956. \u201cEmbarrassment and Social Organization.\u201d American Journal of Sociology 62:264\u201371.",
        "Goffman, Erving. 1963. Stigma: Notes on the Management of Spoiled Identity. New York: Simon and Schuster.",
        "Green, Eva G. T., Staerkle, Christian, Sears, David O. 2006. \u201cSymbolic Racism and Whites\u2019 Attitudes towards Punitive and Preventive Crime Policies.\u201d Law and Human Behavior 30:435\u201354.",
        "Gregory, James. 1995. \u201cThe Crime of Punishment: Racial and Gender Disparities in the Use of Corporal Punishment in U.S. Public Schools.\u201d Journal of Negro Education 64:454\u201362.",
        "Griffin, Timothy, Wooldredge, John. 2006. \u201cSex-Based Disparities in Felony Dispositions Before versus After Sentencing Reform in Ohio.\u201d Criminology 44:893\u2013923.",
        "Hagan, John, Palloni, Alberto. 1999. \u201cSociological Criminology and the Mythology of Hispanic Immigration and Crime.\u201d Social Problems 46:617\u201332.",
        "Haney, Craig. 2006. Reforming Punishment: Psychological Limits to the Pains of Imprisonment. Washington, DC: American Psychological Association Books.",
        "Harris, Alexes. 2007. \u201cDiverting and Abdicating Judicial Discretion: Cultural, Political and Procedural Dynamics in California Juvenile Justice.\u201d Law & Society Review 41:387\u2013428.",
        "Harris, Alexes. 2008. \u201cThe Social Construction of \u2018Sophisticated\u2019 Adolescents: How Judges Integrate Juvenile and Criminal Justice Decision-Making Models.\u201d Journal of Contemporary Ethnography 37:469\u2013506.",
        "Harris, Alexes, Evans, Heather, Beckett, Katherine. 2010. \u201cDrawing Blood from Stones: Monetary Sanctions, Punishment and Inequality in the Contemporary United States.\u201d American Journal of Sociology 115:1753\u201399.",
        "Harris, Lasana T., Fiske, Susan T. 2006. \u201cDehumanizing the Lowest of the Low: Neuro-Imaging Responses to Extreme Outgroups.\u201d Psychological Science 1:847\u201353.",
        "Hay, Douglas. 1975. \u201cProperty, Authority and Criminal Law.\u201d Pp. 17\u201363 in Albion\u2019s Fatal Tree: Crime and Society in Eighteenth-Century England, edited by Hay, D., Linebaugh, P., Rule, J. G., Thompson, E. P., Winslow, C. New York: Pantheon Books.",
        "Hillsman, Sally, Greene, Judith A. 1992. \u201cThe Use of Fines as an Intermediate Sanction.\u201d Pp. 123\u201341 in Smart Sentencing: The Emergence of Intermediate Sanctions, edited by Byrne, J. M., Lurigio, A. J., Petersilia, J. Newbury Park, CA: Sage.",
        "Hurwitz, Jon, Pefley, Mark. 1997. \u201cPublic Perceptions of Race and Crime: The Role of Racial Stereotypes.\u201d American Journal of Political Science 41:375\u2013401.",
        "Jacobs, David, Carmichael, Jason. 2001. \u201cThe Politics of Punishment across Time and Space: A Pooled Time-Series Analysis of Imprisonment Rates.\u201d Social Forces 80:61\u201391.",
        "Johnson, Brian. 2005. \u201cContextual Disparities in Guidelines Departures: Courtroom Social Contexts, Guidelines Compliance, and Extralegal Disparities in Criminal Sentencing.\u201d Criminology 43:761\u201396.",
        "Johnson, Brian. 2006. \u201cThe Multilevel Context of Criminal Sentencing: Integrating Judge- and County-Level Influences.\u201d Criminology 44:259\u201398.",
        "Johnson, Brian, Ulmer, Jeffery, Kramer, John. 2008. \u201cThe Social Context of Guidelines Circumvention: The Case of Federal District Courts.\u201d Criminology 46:737\u201383.",
        "Johnson, Rucker C., Raphael, Steven. 2006. \u201cThe Effects of Male Incarceration Rates on AIDS Infection Rates among African American Women and Men.\u201d National Poverty Center Working Paper Series #06-22, University of Michigan, Ann Arbor.",
        "Jones, Christopher S., Kaplan, Martin F. 2003. \u201cThe Effects of Racially Stereotypical Crimes on Juror Decision-Making and Information-Processing Strategies.\u201d Basic and Applied Social Psychology 25:1\u201313.",
        "King, Ryan. 2007. \u201cGroup Threat and Social Control: Race, Perceptions of Minorities and the Desire to Punish.\u201d Social Forces 85:1254\u201380.",
        "Koons-Witt, Barbara. 2002. \u201cThe Effect of Gender on the Decision to Incarcerate Before and After the Introduction of Sentencing Guidelines.\u201d Criminology 40:297\u2013328.",
        "Kramer, John, Steffensmeier, Darrell. 1993. \u201cRace and Imprisonment Decisions.\u201d Sociological Quarterly 34:357\u201376.",
        "Kurlychek, Megan, Johnson, Brian D. 2004. \u201cThe Juvenile Penalty: A Comparison of Sentencing Outcomes for Transferred Juveniles and Young Adult Offenders.\u201d Criminology 42:485\u2013517.",
        "Levingston, Kirsten D. 2008. \u201cMaking the Bad Guy Pay: Growing Use of Cost Shifting as an Economic Sanction.\u201d Prison Legal News 19:4.",
        "Liska, Allen E., Lawrence, Joseph J., Sanchirico, Andrew. 1982. \u201cFear of Crime as a Social Fact.\u201d Social Forces 60:760\u201370.",
        "Lukes, Steven, Scull, Andrew, eds. 1983. Durkheim and the Law. New York: St. Martin\u2019s Press.",
        "Lyons, William, Drew, Julie. 2006. Punishing Schools: Fear and Citizenship in American Education. Ann Arbor: University of Michigan Press.",
        "Mann, Coramae, Zatz, Marjorie. 1998. Images of Color: Images of Crime. Los Angeles: Roxbury.",
        "Manza, Jeff, Uggen, Christopher. 2006. Locked Out: Felon Disenfranchisement and American Democracy. New York: Oxford University Press.",
        "Martinez, Ramiro 1996. \u201cLatinos and Lethal Violence: The Impact of Poverty and Inequality.\u201d Social Problems 43:131\u201346.",
        "Marx, Anthony W. 1998. Making Race and Nation: A Comparison of the United States, South Africa, and Brazil. New York: Cambridge University Press.",
        "Massoglia, Michael. 2008. \u201cIncarceration, Health and Racial Disparities in Health.\u201d Law & Society Review 42:275\u2013306.",
        "Massoglia, Michael, Schnittker, Jason. 2009. \u201cNo Real Release: The Health Effects of Incarceration.\u201d Contexts 8:38\u201342.",
        "McLanahan, Sara. 2009. \u201cFragile Families and the Reproduction of Poverty.\u201d Annals of the American Academy of Political and Social Sciences 621:111\u201331.",
        "McLean, Rachel L., Thompson, Michael D. 2007. Repaying Debts. New York: Council of State Governments Justice Center.",
        "Mead, George Herbert. 1918. \u201cThe Psychology of Punitive Justice.\u201d American Journal of Sociology 23:577\u2013602.",
        "Merry, Sally Engle. 2000. Colonizing Hawai\u2019i: The Cultural Power of Law. Princeton: Princeton University Press.",
        "Miethe, Terance D. 1987. \u201cCharging and Plea Bargaining under Determinate Sentencing: An Investigation of the Hydraulic Displacement of Discretion.\u201d Journal of Criminal Law and Criminology 78:155\u201376.",
        "Miethe, Terance D., Lu, Hong. 2005. Punishment: A Comparative Historical Perspective. New York: Cambridge University Press.",
        "Miller, William Ian. 1997. The Anatomy of Disgust. Cambridge: Harvard University Press.",
        "Moore, Charles, Miethe, Terance. 1986. \u201cRegulated and Unregulated Sentencing Decisions: An Analysis of First-Year Practices under Minnesota\u2019s Felony Sentencing Guidelines.\u201d Law and Society Review 20:253\u201378.",
        "Morris, Edward. 2005. \u201c\u2018Tuck in That Shirt!\u2019 Race, Class, Gender, and Discipline in an Urban School.\u201d Sociological Perspectives 48:25\u201348.",
        "Mosher, Clay. 2001. \u201cPredicting Drug Arrest Rates: Conflict and Social Disorganization Perspectives.\u201d Crime & Delinquency 47:84\u2013104.",
        "Mullaney, Fahy G. 1988. Economic Sanctions in Community Corrections. Washington, DC: U.S. Department of Justice, National Institute of Corrections.",
        "Myers, Martha A., Talarico, Suzette. 1986. \u201cThe Social Contexts of Racial Discrimination in Sentencing.\u201d Social Problems 33:236\u201351.",
        "Nagel, Ilene H., Schulhofer, Stephen J. 1992. \u201cA Tale of Three Cities: An Empirical Study of Charging and Bargaining Practices under the Federal Sentencing Guidelines.\u201d Southern California Law Review 66:501\u201366.",
        "Olson, David E., Ramker, Gerard F. 2001. \u201cCrime Does Not Pay, but Criminals May: Factors Influencing the Imposition and Collection of Probation Fees.\u201d Justice System Journal 22:29\u201346.",
        "O\u2019Malley, Pat. 2009. \u201cTheorizing Fines.\u201d Punishment and Society 11:67\u201383.",
        "Omi, Michael, Winant, Howard. 1986. Racial Formation in the United States: From the 1960s to the 1990s. New York: Routledge.",
        "Oshinsky, David M. 1996. Worse than Slavery: Parchman Farm and the Ordeal of Jim Crow Justice. New York: Simon and Schuster.",
        "Pager, Devah. 2003. \u201cThe Mark of a Criminal Record.\u201d American Journal of Sociology 108:937\u201375.",
        "Pager, Devah. 2005. \u201cWalking the Talk: What Employers Say Versus What They Do.\u201d American Sociological Review 70:355\u201380.",
        "Pager, Devah. 2007. Marked: Race, Crime and Finding Work in an Era of Mass Incarceration. Chicago: University of Chicago Press.",
        "Pager, Devah, Karafin, Diana. 2009. \u201cBayesian Bigot? Statistical Discrimination, Stereotypes, and Employer Decision-Making.\u201d Annals of the American Academy of Political and Social Sciences 621:70\u201393.",
        "Perkins, Colby R. 1993. \u201cEvaluating the Passel-Word Spanish Surname List: 1990 Decennial Census Post Enumeration Survey Results.\u201d Population Division, Working Paper No. 4. U.S. Bureau of the Census.",
        "Perkinson, Robert. 2008. Texas Tough: The Rise of a Prison Empire. New York: Metropolitan Books/Henry Holt.",
        "Quillian, Lincoln. 2008. \u201cDoes Unconscious Racism Exist.\u201d Social Psychology Quarterly 71:6\u201311.",
        "Quillian, Lincoln, Pager, Devah. 2001. \u201cBlack Neighbors, Higher Crime? The Role of Racial Stereotypes in Evaluations of Neighborhood Crime.\u201d American Journal of Sociology 107:717\u201367.",
        "Raudenbush, Stephen, Bryk, Anthony. 2002. Hierarchical Linear Models. Newbury Park, CA: Sage Publications.",
        "Reeves, Mimmie, Campbell, Richard. 1994. Cracked Coverage: Television News, the Anti-Cocaine Crusade and the Reagan Legacy. New York: Grisham.",
        "Reinarman, Craig, Levine, Harry G. 1997. Crack in America: Demon Drugs and Social Justice. Berkeley: University of California Press.",
        "Rosenthal, Alan, Weissman, Marsha. 2007. Sentencing for Dollars: The Financial Consequences of a Criminal Conviction. Syracuse, NY: Center for Community Alternatives, Justice Strategies.",
        "Ruback, R. Barry, Shaffer, Jennifer N., Logue, Melissa A. 2004. \u201cThe Imposition and Effects of Restitution in Four Pennsylvania Counties: Effects of Size of County and Specialized Collection Units.\u201d Crime & Delinquency 50:168\u201388.",
        "Sampson, Robert J., Raudenbush, Stephen W. 2004. \u201cSeeing Disorder: Neighborhood Stigma and the Social Construction of \u2018Broken Windows.\u2019\u201d Social Psychology Quarterly 67:319\u201342.",
        "Savelsberg, Joachim. 1992. \u201cLaw That Does Not Fit Society: Sentencing Guidelines as a Neoclassical Reaction to the Dilemmas of Substantivized Law.\u201d American Journal of Sociology 97:1346\u201381.",
        "Schlesinger, Traci. 2005. \u201cRacial and Ethnic Disparity in Pretrial Criminal Processing.\u201d Justice Quarterly 22:170\u201392.",
        "Schram, Sanford F., Soss, Joe, Fording, Richard C., Houser, Linda. 2009. \u201cDeciding to Discipline: Race, Choice, and Punishment at the Frontlines of Welfare Reform.\u201d American Sociological Review 74:398\u2013442.",
        "Sears, David O. 1988. \u201cSymbolic Racism.\u201d Pp. 53\u201384 in Eliminating Racism: Profiles in Controversy, edited by Katz, P. A., Taylor, D. A. New York: Plenum Press.",
        "Simon, Jonathan. 2007. Governing through Crime: How the War on Crime Transformed American Democracy and Created a Culture of Fear. New York: Oxford University Press.",
        "Snijders, Tom, Bosker, Roel. 1999. Multilevel Analysis: An Introduction to Basic and Advanced Multilevel Modeling. Thousand Oaks, CA: Sage.",
        "Soss, Joe, Fording, Richard C., Schram, Sanford F. 2008. \u201cThe Color of Devolution: The Politics of Local Punishment in an Era of Neo-Liberal Welfare Reform.\u201d American Journal of Political Science 52:536\u201353.",
        "Spohn, Cassia, Holleran, David. 2000. \u201cThe Imprisonment Penalty Paid by Young, Unemployed Black and Hispanic Male Offenders.\u201d Criminology 38:281\u2013306.",
        "Steen, Sara, Engen, Rodney, Gainey, Randy. 2005. \u201cImages of Danger and Culpability: Racial Stereotypic, Case Processing, and Criminal Sentencing.\u201d Criminology 4:435\u201368.",
        "Steffensmeier, Darrell, Demuth, Stephen. 2000. \u201cEthnicity and Sentencing Outcomes in U.S. Federal Courts: Who is Punished More Harshly?\u201d American Sociological Review 65:705\u2013729.",
        "Steffensmeier, Darrell, Demuth, Stephen. 2001. \u201cEthnicity and Judges\u2019 Sentencing Decisions: Hispanic-Black-White Comparisons.\u201d Criminology 39:145\u201378.",
        "Steffensmeier, Darrell, Ulmer, Jeffery, Kramer, John. 1998. \u201cThe Interaction of Race, Gender, and Age in Criminal Sentencing: The Punishment Cost of Being Young, Black, and Male.\u201d Criminology 36:763\u201398.",
        "Sykes, Bryan L., Piquero, Alex. 2009. \u201cStructuring and Recreating Inequality: Health Testing Policies, Race, and the Criminal Justice System.\u201d Annals of the American Academy of Political and Social Science 623:214\u201327.",
        "Takaki, Ronald. 1990. Iron Cages: Race and Culture in 19th Century America. New York: Oxford University Press.",
        "Tonry, Michael. 1996. Sentencing Matters. New York: Oxford University Press.",
        "Tonry, Michael. 1998. \u201cIntermediate Sanctions.\u201d In The Handbook of Crime and Punishment, edited by Tonry, M. New York: Oxford University Press.",
        "Tonry, Michael, Lynch, Mary. 1996. \u201cIntermediate Sanctions.\u201d Crime and Justice 20:99\u2013144.",
        "Travis, Jeremy. 2005. But They All Come Back: Facing the Challenges of Prisoner Reentry. New York: Urban Institute Press.",
        "Uggen, Christopher, Manza, Jeff, Thompson, Melissa. 2006. \u201cCitizenship, Democracy and the Civic Reintegration of Criminal Offenders.\u201d Annals of the American Association of Political Science Studies 605:281\u2013310.",
        "Ulmer, Jeffery, Bradley, Mindy. 2006. \u201cVariation in Trial Penalties among Serious Violent Offenses.\u201d Criminology 44:631\u201370.",
        "Ulmer, Jeffery, Kramer, John. 1996. \u201cCourt Communities under Sentencing Guidelines: Dilemmas of Formal Rationality and Sentencing Disparity.\u201d Criminology 34:383\u2013407.",
        "U.S. Census Bureau. American Community Survey, 2006. Tables B17020H and B170201 (http://www.census.gov/acs/www/).",
        "U.S. Drug Enforcement Administration. 2009. Drug Trends Washington (http://www.usnodrugs.com/drugtrends.htm?state=Washington).",
        "U.S. Department of Justice, Bureau of Justice Statistics. N.d. Survey of Inmates in State and Federal Correctional Facilities. Ann Arbor, MI: Inter-university Consortium for Political and Social Research [producer and distributor], 2007-02-28. ICPSR Nos. 6068; 2598; 4572. DOI: (http://dx.doi.org/10.3886/ICPSR06068); (http://dx.doi.org/10.3886/ICPSR02598); (http://dx.doi.org/10.3886/ICPSR04572).",
        "Warr, Mark. 2000. \u201cFear of Crime in the United States: Avenues for Research and Policy.\u201d Pp. 451\u201389 in Criminal Justice 2000, Vol. 4, Measurement and Analysis of Crime and Justice, edited by Duffee, D. Washington, DC: U.S. Department of Justice, National Institute of Justice.",
        "Weber, Max. 1968. Economy and Society. Berkeley: University of California Press.",
        "Western, Bruce. 2006. Punishment and Inequality in America. New York: Russell Sage Foundation.",
        "Western, Bruce, Beckett, Katherine. 1999. \u201cHow Unregulated is the U.S. Labor Market? Penal System as Labor Market Institution, 1980\u20131995.\u201d American Journal of Sociology 104:1030\u201360.",
        "Western, Bruce, McLanahan, Sara. 2000. \u201cFathers in Fragile Families: The Impact of Incarceration on Family Formation.\u201d Pp. 309\u2013324 in Families and Crime, edited by Fox, G. L. London: Oxford University Press.",
        "Western, Bruce, Pettit, Becky. 2005. \u201cBlack-White Wage Inequality, Employment Rates, and Incarceration.\u201d American Journal of Sociology 111:553\u201378.",
        "Wooldredge, John, Thistlethwaite, Amy. 2004. \u201cBilevel Disparities in Court Dispositions for Intimate Assault.\u201d Criminology 42:417\u201356.",
        "Word, David L., Perkins, R. Colby 1996. \u201cBuilding a Spanish Surname List for the 1990s (A New Approach to an Old Problem).\u201d Technical Working Paper No.13. Washington, DC: Population Division, U.S. Census Bureau.",
        "Zatz, Marjorie S. 1985. \u201cLos Cholos: Legal Processing of Chicano Gang Members.\u201d Social Problems 33:13\u201330."
    ],
    "title": "Courtesy Stigma and Monetary Sanctions",
    "issue": "2",
    "volume": "76",
    "year": 2011,
    "issn": "0003-1224",
    "journal": "American Sociological Review",
    "authors": [
        "Alexes Harris",
        " Heather Evans",
        " Katherine Beckett"
    ]
}