{
    "doi": "http://dx.doi.org/10.1177/0003122414541960",
    "abstract": "This article examines ethnic boundary crossing and its effects on estimates of ethnic disparities in children\u2019s outcomes in the context of Mexico, a country with the largest indigenous population in the Western hemisphere. The boundary that separates the indigenous and non-indigenous population is extremely fluid, as it is based on characteristics that can easily change within a generation, such as language use, cultural practices, and a subjective sense of belonging. Using data from the Mexican Census, I examine the ethnic classification of children of indigenous parents. I find that movement across the ethnic boundary depends on which of the two criteria currently recognized by the Mexican Census is used. Children of indigenous parents are much less likely to be classified as indigenous according to language proficiency, especially when their parents have higher levels of education. By contrast, when proxy self-identification is used as a criterion, children of indigenous parents are more likely to be classified as indigenous, and greater parental education results in higher odds that children will be classified as indigenous. The shift in children\u2019s indigenous classification with parental education strongly affects estimates of educational disparities between indigenous and non-indigenous children.",
    "sections": [
        {
            "title": "Introduction",
            "subsections": [
                {
                    "title": null,
                    "paragraphs": [
                        "Research on racial and ethnic stratification often compares socioeconomic outcomes across two or more demographic groups. Statistical models are frequently used, for example, to examine differences in educational attainment, occupational status, and income between individuals in different racial and ethnic categories, and to apportion the differences into various explanatory factors (e.g., Grodsky and Pager 2001; Jencks and Phillips 1998; Semyonov and Lewin-Epstein 2009; Western and Pettit 2005). In such studies, the racial and ethnic categories into which individuals are classified are assumed to be relatively well-defined and stable over time. Yet research shows that the social boundaries that define many racial and ethnic categories can change, and that individuals often engage in purposeful behavior to move between categories (Alba 2005; Alba and Nee 2003; Loveman and Muniz 2007; Montgomery 2011; Wimmer 2008a, 2008b). Such movement complicates the analysis of social disparities, particularly if the odds of crossing racial and ethnic boundaries are systematically related to the outcomes being measured. For example, if individuals who attain higher levels of education are thereby more likely to be classified in the least disadvantaged racial or ethnic category, then our estimates of racial and ethnic disparities in education will be misleading.",
                        "This study examines ethnic boundary crossing and its impact on estimates of educational disparities in the specific context of Mexico, a country with the largest indigenous population in the Western hemisphere (Layton and Patrinos 2006). Because of the ambiguity in racial and ethnic classification in Latin America, the region provides an important setting in which to study social boundaries. However, sociological research on boundary crossing has focused mostly on Afro-Latin American countries such as Brazil. Racial classification in these countries is indeed remarkably fluid, due in large part to the fact that individuals are classified based on perceptions of their physical appearance, and in particular, their skin color (Bailey 2009; Duany 2002; Gravlee 2005; Rodriguez 2000; Skidmore 1972, 1995; Telles 2004; Telles and Lim 1998). Perceptions of skin color are inherently subjective and are often influenced by other factors, including individuals' socioeconomic status. Brazilians with higher levels of education and income tend to be considered whiter, as captured by the saying \"money whitens\" (Telles 2002, 2004). A similar pattern is found across generations: Brazilian children of higher socioeconomic status parents are significantly more likely to be classified in whiter categories (Francis and Tannuri-Pianto 2013; Schwartzman 2007). This systematic whitening of higher-status individuals presents a serious problem for the study of racial stratification. In the extreme, the whitening of Brazilians with higher income or educational attainment may imply a reverse causal ordering between skin color and socioeconomic status, namely that individuals' status determines their racial classification, and at the very least it may lead to a biased estimation of the effect of skin color on socioeconomic outcomes.",
                        "In contrast to Afro-Latin American countries such as Brazil, in Indo-Latin American countries, which include not only Mexico but also most countries in Central America and the Andean region, the primary socially recognized ethnic distinction between the indigenous and non-indigenous populations is not based on phenotypical differences. The social boundary that separates the indigenous population is instead constructed around other criteria such as cultural practices, language use, and a subjective sense of belonging (Bartolome 1997; Harris 1964; Pitt-Rivers 1968). Such criteria are used to distinguish what are often referred to as ethnic groups, rather than racial categories, although some scholars prefer not to separate these two concepts (e.g., Loveman 1999; Wimmer 2008a). Ethnographic and historical studies in Mexico, for example, show that phenotype is not an important criterion for indigenous identification (Friedlander 1975; Knight 1990; Morner 1967; Pitt-Rivers 1968). However, just as with skin color classification in Afro-Latin American countries, movement across the social boundary separating indigenous and non-indigenous peoples is quite common and may, in turn, affect our estimates of social disparities. Yet we do not know the extent to which such movement is affected by socioeconomic status.",
                        "Whether individuals are more or less likely to shift their ethnic identification than their racial identification with increasing socioeconomic status is difficult to predict. On the one hand, ethnic boundaries might be even more fluid and amenable to change with upward social mobility, insofar as they are less influenced by phenotypical differences. As some researchers note, there are limits to the racial whitening process based on physical appearance in countries like Brazil (Telles 2004:95-98; Wade 1993). On the other hand, individuals may be less likely to shed their identification with a close-knit ethnic group with which they share a strong sense of belonging, the same language, and customs, even when they have attained a higher socioeconomic status. Following the distinction made by Brubaker (2004), skin color categories may often be described as cases of \"ethnicity without groups,\" whereas the indigenous category in Mexico and many other Latin American countries frequently involves actual groups.",
                        "The ambiguity in ethnic classification in Indo-Latin American countries such as Mexico has led to a long-standing debate regarding the most appropriate way to identify the indigenous population in national censuses and other official statistical sources (Friedlander 2006:207-208; Hernandez Bringas 2007; Serrano Carreto 2005; Valdes 1995, 2003). Until recently, the only system of classification used by the Mexican Census was based on individuals' proficiency in an indigenous language. Individuals were considered indigenous only if they spoke one of the country's many indigenous languages. Following critics who charged that language proficiency was an overly restrictive and externally imposed criterion for indigenous identification (e.g., Bartolome and Barabas 1996; Bonfil Batalla [1987] 1996), in 2000 the Mexican Census began allowing respondents to simply choose their own ethnicity and report that of other members of the household, including their children. This method of ethnic classification based on proxy self-identification is consistent with current practices by the U.S. Census, and with the spirit of international legislation that considers indigenous people's ability to identify their own ethnicity as a fundamental right (ILO 1989). Yet we do not know how use of this new criterion affects either the rate at which children will retain their parents' indigenous classification or estimates of the disadvantage faced by indigenous peoples.",
                        "In the analysis below I use data from the 2010 Mexican Census to examine the ethnic classification of children of indigenous parents. I specifically compare how parental education affects how children are identified under the two systems of classification--language proficiency and proxy self-identification. I also consider whether the Mexican government's recent support for multiculturalism, and in particular its policies intended to promote indigenous language education, encourage the indigenous classification of school-age children. Finally, I assess the impact that the shift in indigenous identification with greater parental education has on estimates of the educational disadvantage of indigenous children according to both classification systems."
                    ]
                }
            ]
        },
        {
            "title": "Ethnic Boundaries in Mexico",
            "subsections": [
                {
                    "title": null,
                    "paragraphs": [
                        "Researchers interested in understanding how ethnic and racial categories are socially constructed frequently use the concept of boundaries (Alba and Nee 2003; Barth 1969; Lamont 2000; Lamont and Molnar 2002; Lee and Bean 2004; Loveman and Muniz 2007; Tilly 1998, 2005; Wimmer 2008a). A social boundary may be broadly defined as any categorical distinction recognized by members of a society that affects their attitudes and behavior toward others (Alba and Nee 2003:59; Wimmer 2008a:975). Social boundaries are not fixed over time. Numerous studies show how racial and ethnic boundaries emerge and are defended or transformed by social actors (Brubaker 2004; Horowitz 1985; Tilly 1998; Wimmer 2008a; Zolberg and Woon 1999). Ethnic and racial boundaries also vary greatly in the extent to which they clearly demarcate categories of individuals. Some boundaries are unambiguous, such that everyone knows on which side of the boundary they are located. Alba (2005) refers to these as \"bright\" boundaries, in contrast to \"blurred\" boundaries that allow for differences in interpretation as well as greater flexibility in individuals' self-presentation.",
                        "Racial categories in Latin America are defined by extremely blurred social boundaries. In Afro-Latin American countries such as Brazil, for example, individuals are classified into multiple categories along a white-black continuum based largely on perceptions of skin color (Bailey 2009; Daniel 2006; Nobles 2000; Telles 2004). Due to the subjective nature of judgments about physical appearance, these racial categories are characterized by a high degree of ambiguity. The same individual may be considered black in one context and brown (moreno) in another. The same holds true across generations: the child of two black parents may be considered brown, and so on. However, movement across racial boundaries based on skin color is not completely random, but instead shows some systematic tendencies. In particular, higher socioeconomic status leads to a shift toward whiter categories. Using data from national household surveys, for example, Schwartzman (2007) demonstrates that Brazilian children of parents with higher levels of education tend to be classified in whiter categories. Similarly, Francis and Tannuri-Pianto (2013) find that higher family socioeconomic status is associated with lighter racial self-classification among Brazilian college students.",
                        "Ethnic categorization in Indo-Latin American countries such as Mexico has been less studied using survey data. However, evidence from ethnographic studies suggests that the boundary between the two main socially recognized ethnic categories--indigenous and non-indigenous--is also extremely blurred. As mentioned earlier, the indigenous population is not distinguished based on phenotypical characteristics but rather on language use, cultural practices, and a subjective sense of belonging. In their classic study of ethnic relations in Southeastern Mexico, Colby and van den Berghe (1961:783) describe the ease with which an indigenous person may cross the social boundary and be considered a ladino, as non-indigenous residents are called in that region of the country:",
                        "If an Indian acquires a fluent knowledge of Spanish, dresses in ladino clothing, and adopts ladino customs, he can \"pass\" the ethnic line. During his own lifetime his origins may be remembered and he may still be called an Indian, but he will be treated as a ladino for most everyday purposes. His children will definitely be considered to be ladinos.",
                        "Crossing of the ethnic boundary may therefore involve little else than learning the language and customs of the larger ladino (sometimes referred to as mestizo) population.",
                        "Being considered indigenous has historically been stigmatizing, leading many to consciously distance themselves from the indigenous category if at all possible (Bonfil Batalla [1987] 1996; Friedlander 1975; Nutini 1997; Pitt-Rivers 1968). Moreover, because an indigenous identity creates an impediment to entry into the middle and upper classes (Colby and van den Berghe 1961; Nutini 1997; Pitt-Rivers 1968), upwardly mobile individuals, in particular, may desire that they and their children be considered non-indigenous, which would lead to a systematic shift away from the indigenous category with greater parental socioeconomic status. This leads to the first hypothesis regarding the association between parental socioeconomic status and children's ethnic identification: the stigma associated with being considered indigenous will prompt indigenous parents with higher socioeconomic status to avoid classifying their children as indigenous. In the analysis below I test this stigmatization hypothesis against competing explanations."
                    ]
                }
            ]
        },
        {
            "title": "The Mexican State\u2019s New Multicultural Agenda and its Consequences for Indigenous identification",
            "subsections": [
                {
                    "title": null,
                    "paragraphs": [
                        "For much of the twentieth century, the Mexican government's official policy toward indigenous peoples was aimed at incorporating them into the nation through a process of assimilation into the larger mestizo culture (Bonfil Batalla [1987] 1996; Brading 1988; de la Pena 2005; Diaz Polanco 1991; Doremus 2001; Knight 1990; Stavenhagen 2002). While Mexico's indigenous heritage was glorified in a movement known as Indigenismo, contemporary indigenous culture was seen as backward and inconsistent with a project of modernization and national unification. Educational policy during this time was explicitly focused on the castilianization (castellanizacion) of the indigenous population, or its conversion to the Spanish language (de la Pena 2002; Stavenhagen 2002; Terborg, Garcia Landa, and Moore 2008; Tinajero and Englander 2011). Critics of government-sponsored education programs and economic assistance programs geared toward indigenous groups charged that they were motivated by a homogenizing agenda that suppressed alternative cultural identities (Bonfil Batalla [1987] 1996; Warman et al. 1970). Some authors in fact argued that the policies amounted to ethnocide, or the purposeful destruction of an ethnic group's cultural legacy (Bartolome and Barabas 1996; Bonfil Batalla [1987] 1996; Stavenhagen 2001).",
                        "As a result of political pressure from indigenous movement organizations, prominent intellectuals, and international agencies, the Mexican government's official position began to change in the 1990s. After decades of pursuing assimilationist policies criticized by many for suppressing indigenous identities, Mexican authorities embarked on a new policy course aimed explicitly at protecting and promoting indigenous languages and cultures (de la Pena 2006). The ratification of the International Labour Organization's (ILO) Indigenous and Tribal Peoples Convention (also known as ILO Convention 169) by the Mexican government in 1990 was particularly instrumental in this policy shift, as it legally committed the government to recognizing the country's ethnic diversity and expanding the rights of indigenous peoples. Article 4 of the Mexican constitution was amended in 1991 to proclaim Mexico to be \"a multicultural nation based originally upon its indigenous peoples.\" The article also required the government to \"protect and promote the development of [indigenous] languages, culture, practices, customs, resources and specific forms of social organization\" (translation from de la Pena 2006:287). Further amendments and new laws followed, including the General Law of Linguistic Rights in 2004. New agencies were created in charge of preserving indigenous cultures and languages, such as the National Commission for the Development of Indigenous Peoples (CDI) and the National Institute of Indigenous Languages (INALI).",
                        "Critics charge that the multicultural agenda enacted by governments throughout Latin America, including Mexico, protects only a limited set of cultural rights and leaves existing power relations and socioeconomic disparities unchanged (Hale 2002; Speed 2005). Nevertheless, the Mexican government's embrace of multiculturalism, however circumscribed, and in particular the greater respect for indigenous groups, may have contributed to a sense of ethnic pride and individuals' greater willingness to identify themselves and their children as indigenous (Lopez Santillan 2011:174-76). Because people with higher levels of education will generally be both more exposed to the multicultural message and also more receptive to it, we may expect a greater retention of the indigenous identity among the more educated. This leads to a second hypothesis regarding the association between parental socioeconomic status and children's ethnic classification: greater ethnic pride resulting from the new multicultural agenda will prompt indigenous parents with higher educational attainment to more frequently identify their children as indigenous. This ethnic pride hypothesis leads to an opposite prediction regarding the effect of parental socioeconomic status on children's indigenous identification as the stigmatization hypothesis discussed in the previous section.",
                        "Pride in their indigenous heritage is not the only reason why parents might seek to identify their children as indigenous. Parents could also choose to identify their children as indigenous for instrumental reasons. Research in other national contexts, such as Brazil, suggests that affirmative action policies recently implemented by the state create an incentive for individuals to identify as members of disadvantaged racial groups. Francis and Tannuri-Pianto (2012) find evidence of a shift in the racial identification of students applying to a major Brazilian university following implementation of a quota system in which 20 percent of admission slots were reserved for applicants who self-identify as black (negro). They attribute this shift, in part, to students' misrepresentation of their self-perceived race, but also to a genuine embrace of a black identity among those in the intermediate racial category (pardos). Such instrumental considerations are unlikely to play a major role in individuals' ethnic identification in Mexico. In contrast to Brazil, the Mexican government has not implemented affirmative action policies that might encourage individuals of higher socioeconomic status to identify themselves and their children as indigenous. Indigenous students are not generally given preferential treatment in university admissions. Educational programs geared toward indigenous schoolchildren are mostly concerned with providing bilingual education to children whose first language is not Spanish (Terborg et al. 2008). Government assistance programs are largely need-based, rather than targeted at specific ethnic groups. In particular, the conditional cash transfer program known as Oportunidades, by far the largest assistance program in Mexico, does not use indigenous identification as a criterion for qualification (Orozco and Hubert 2005; SEDESOL n.d.).1",
                        "In some limited contexts, claiming an indigenous identity may advance a professional career. In a recent ethnography of Mayan professionals in Southeastern Mexico, Lopez Santillan (2011) finds that a majority of these professionals are employed in public sector positions where their indigenous identity serves as an asset, such as in government agencies directly involved in indigenous affairs. However, this finding does not appear to extend to the private sector, where an indigenous identity does not generally serve as a resource for career advancement. Employment in government agencies of this sort is too small to have a large-scale effect on indigenous identification."
                    ]
                }
            ]
        },
        {
            "title": "Ethnic Classification In Mexico: Language Versus Proxy Self-Identification",
            "subsections": [
                {
                    "title": "Language Proficiency",
                    "paragraphs": [
                        "Until 2000, the sole criterion used for ethnic classification in the Mexican Census was an individual's ability to speak an indigenous language.2 Any person who could speak one of Mexico's many indigenous languages was considered indigenous (the 2010 Census identified 89 different indigenous languages). Language proficiency may be thought to provide a bright boundary between ethnic categories insofar as an individual who does not speak an indigenous language simply cannot be considered indigenous. For this reason, language proficiency is often considered a clearer measure of indigeneity compared to some alternatives (CONAPO 2001:165-66; de la Pena 2005:728; Layton and Patrinos 2006:29-30; Ramirez 2006; Valdes 1995). However, as Alba (2005:35-37) notes, language proficiency generally does not provide a bright boundary between ethnic categories because an individual may speak two languages, making ethnic categorization ambiguous. Another problem with using language proficiency is that it forces individuals to dichotomize what is essentially a continuous variable. An individual's ability to speak an indigenous language may fall anywhere in the spectrum from complete mastery of the language to a rudimentary understanding, yet the census simply asks whether the person is able to speak it. Where a respondent chooses to draw the line for oneself and one's children when answering the questionnaire is extremely subjective and amenable to purposeful interpretation.",
                        "A more substantive concern is whether language proficiency actually corresponds to the way indigenous ethnicity is defined in everyday life. Considerable anthropological research suggests that using language proficiency as a criterion for ethnic classification is at best an oversimplification of how group membership is defined among the different indigenous peoples in Mexico (e.g., Bartolome 1997; Bartolome and Barabas 1996; Bonfil Batalla [1987] 1996). For many indigenous groups, language proficiency is indeed a key defining characteristic, whereas for others it is much less important (Bartolome 1997:81-84). There are undoubtedly many cases of individuals who have lost the ability to speak a particular language but who nevertheless consider themselves, and are considered by others, as members of an indigenous group. It is much less common, however, for an individual to speak an indigenous language and yet not be considered a member of any indigenous group. Language proficiency is therefore an overly restrictive criterion for indigenous identification.",
                        "A substantial body of research in the sociology of language examines the factors associated with minority language loss across generations. Much of this literature focuses specifically on language shifts among U.S. immigrants, for whom language use is usually not a key defining characteristic of their ethnicity. Nevertheless, findings from this literature may help us formulate specific hypotheses about intergenerational loss of indigenous language proficiency, and hence indigenous identification according to the language criterion used by the Mexican Census. Most important for our purposes, research on language retention among second-generation immigrants in the United States finds a greater loss of proficiency in a minority language among children of parents with higher socioeconomic status. For example, Alba and colleagues (2002) find that immigrant children of parents with higher educational attainment are significantly more likely to speak only English at home. Similarly, Lutz (2006) finds greater family income to be associated with lower odds that Latino youth will speak Spanish. As Lutz (2006) notes, these findings are consistent with an assimilationist perspective according to which parents of higher socioeconomic status are more integrated into the dominant culture and are therefore less likely to transmit their language of origin to their children. Drawing on this assimilationist perspective, we may similarly hypothesize that indigenous parents of higher socioeconomic status in Mexico will be less likely to transmit their proficiency in an indigenous language to their children. These children will consequently not be classified as indigenous according to the language criterion used by the Mexican Census. Like the stigmatization hypothesis, the assimilationist perspective leads to the same expectation of a loss of indigenous classification with greater parental socioeconomic status when language proficiency is used as a criterion. Stigmatization may also play a direct role in language loss. Ethnographic work notes that to prevent discrimination, indigenous parents may purposely prevent their children from learning an indigenous language (Bartolome 1997; Lopez Santillan 2011:172-73).",
                        "Additional factors may also influence children's ability to speak the indigenous language of their parents. In his classic work on the sociology of language, Fishman (1972) argues that the rate of language loss for successive immigrant generations is associated with contextual factors such as the level of urbanization and the concentration of the immigrant group population in the community of residence. Fishman suggests that rural residents are less likely than urban dwellers to shift to the dominant language because they are more isolated. A larger concentration of speakers of the same minority language promotes language retention for similar reasons. The importance of the concentration of minority language speakers for the preservation of language across generations has been corroborated by numerous studies of immigrant language retention in the United States (e.g., Alba et al. 2002; Lieberson and Curry 1971; Stevens 1992; Veltman 1988). Stevens (1992) argues that intergenerational language shifts in the United States are also a function of the rate of intermarriage between English and non-English speakers. At the individual-level, Lutz (2006) finds that gender plays a significant role. She shows that Latino girls are significantly more likely than boys to retain the ability to speak Spanish well, which she suggests may be due to girls' greater verbal aptitude. In the analysis below I control for the effect of these various demographic and contextual factors, including children's gender, intermarriage among parents, rural residence, and concentration of indigenous language speakers in a municipality.",
                        "Finally, the Mexican government's embrace of the new multicultural agenda could have also encouraged the preservation of indigenous languages through the expansion of its indigenous language education program. In this program, indigenous children of preschool and primary school age are taught in their native language (Tinajero and Englander 2011). While critics argue that the government's efforts have been insufficient or ineffective (Warman 2003), the expansion of indigenous language instruction at schools could have helped some children retain their parents' language. In the statistical analysis, I therefore test the hypothesis that the presence of indigenous language schools in a municipality increases the retention of indigenous languages across generations. Following critics of the quality of instruction at these schools, the second part of the statistical analysis tests whether their presence improves educational outcomes for children."
                    ]
                },
                {
                    "title": "Language Proficiency",
                    "paragraphs": [
                        "Responding to pressures from indigenous rights activists who argued that language use was an externally imposed criterion for ethnic classification that resulted in an undercounting of the indigenous population, the long form of the 2000 Mexican Census introduced a question meant to capture individuals' self-identification (Friedlander 2006:207-208; INEGI 2000). Self-identification is usually considered the preferred method for ethnic classification, insofar as it allows individuals greater freedom to identify as they wish. International legislation has established indigenous people's ability to identify their own ethnicity as an individual and collective right. The ILO's Indigenous and Tribal Peoples Convention, to which Mexico became a signatory in 1990, specifically established self-identification as a \"fundamental criterion\" for determining who is to be considered indigenous and therefore subject to the guarantees afforded by the landmark treaty (Article 1, ILO 1989; ILO 2003). Partly as a result of such international legislation, as well as pressure from domestic groups, a Mexican constitutional reform inscribed a definition of indigenous identity based on individuals' self-perception into law in 2001 (de la Pena 2006).",
                        "One important limitation of the method used by the Mexican Census to collect individuals' ethnic identification is that a single individual within a household may answer the census questionnaire. A discrepancy could therefore arise between the informant's categorization of a household resident and that resident's own identification. This problem is not unique to the Mexican Census. Many other censuses and household surveys worldwide, including the U.S. and Brazilian Censuses, collect information about residents' race and ethnicity from a single informant. In an attempt to address this problem, the ethnic identification question was slightly revised in the 2010 Mexican Census questionnaire. Instead of simply asking whether a household resident is indigenous, the 2010 Census specifically asks whether the household member considers him or herself to be indigenous. While this phrasing constitutes a definite improvement over the 2000 Census, in that the informant is asked about each resident's own perception, an informant may not always be aware of how a resident would choose to self-identify. This method of ethnic classification is therefore best described as proxy self-identification. Studies using the ethnic and racial identification of household residents in population censuses and household surveys in other national contexts often cannot identify the specific informant (e.g., Marteleto 2012; Schwartzman 2007). Fortunately, the Mexican Census identifies the informant in each household. As explained in the methodological section, I can therefore ensure that information regarding parents' and children's ethnic self-identification is provided by the parents themselves.",
                        "Because it depends on individuals' subjective view of themselves and how they wish to be perceived by others, proxy self-identification generally provides a more blurred ethnic boundary than does a classification system based on language proficiency. All respondents have to do to abandon the often stigmatizing indigenous identity for themselves and their family is to say that they are not indigenous. Thus, if the stigmatization hypothesis is true and parents of higher socioeconomic status avoid the indigenous category for their children because of restrictions it imposes on their social aspirations, then we should observe a stronger negative association between parents' socioeconomic status and children's indigenous identification when proxy self-identification is used instead of language proficiency.",
                        "On the other hand, because it is less restrictive, proxy self-identification might retain individuals who have lost the ability to speak an indigenous language but who nevertheless feel connected to and proud of their indigenous heritage. It will be easier for highly educated parents who embrace the new multicultural message to claim an indigenous identity for themselves and their children if they are not required to speak an indigenous language. If the ethnic pride hypothesis is correct, we should therefore observe a stronger positive association between parents' socioeconomic status and children's indigenous proxy self-identification. In the statistical analysis, I examine the rate at which children of indigenous parents are classified in the same ethnic category as their parents when each classification system is used. I also compare the extent to which each classification system leads to a shift away from the indigenous category for children of parents with higher educational attainment."
                    ]
                }
            ]
        },
        {
            "title": "Data and Measurements",
            "subsections": [
                {
                    "title": "Other Predictors",
                    "paragraphs": [
                        "Parents' education may also affect children's ethnic classification through intermarriage (Duncan and Trejo 2011; Schwartzman 2007). If more educated indigenous men and women tend to marry non-indigenous partners, then their children may be less likely to be classified as indigenous because of their spouse's non-indigenous identification. A similar argument has been made with regard to minority language use (Stevens 1992). To control for the effect of intermarriage, I include as a predictor the indigenous identification of the other parent in regression models for both indigenous mothers and fathers. I distinguish separate categories for parents whose indigenous identification is unknown and for those who are not living in the household. The latter category is particularly important for mothers, because a large percentage of children do not live with their fathers. Moreover, there are significant differences in the percentage of absent fathers across ethnic categories. Compared to children of non-indigenous mothers, children of indigenous mothers are significantly less likely not to live with their fathers.6",
                        "I use two additional characteristics of parents as predictors of children's indigenous classification. First, older men and women may hold more negative views about indigenous peoples--views that were more prevalent in Mexico at earlier historical periods--and may therefore not want their children to identify as indigenous nor learn their parents' indigenous language. I therefore control for parents' age in regression models predicting children's classification. Second, children of indigenous parents who migrated out of their communities of origin are less likely to be classified as indigenous, because they have less contact with other members of their parents' ethnic group, compared to those who did not migrate. Also, individuals who leave their communities of origin may be precisely those with less attachment to their indigenous heritage, and may therefore be less likely to pass on their indigenous identification to their children. I therefore control for parents' migrant status using information about their place of birth. Any parent born in a different state is considered a migrant.",
                        "I also use children's age as a predictor of their indigenous classification. Older children may have a greater understanding of an indigenous language. On the other hand, children may move away from their parents' culture and traditions with age and thus be less likely to be identified as indigenous. Gender norms may also affect which children learn their parents' language or who carries on their communities' traditions. I therefore include a child's gender as a predictor of indigenous identification in all the regression models.",
                        "Several community-level characteristics are also expected to increase the odds that a child of an indigenous parent will be classified as indigenous. Children of indigenous parents growing up in predominantly indigenous communities should have higher odds of learning an indigenous language and identifying as indigenous, because they will have more frequent contact with other members of the indigenous group. I use the proportion of municipal residents age 5 years and older who speak an indigenous language, and the proportion identified as indigenous according to the 2010 Census, to control for the relative size of the indigenous population in the regression models for language proficiency and proxy self-identification, respectively.",
                        "To examine the impact of the Mexican government's education policies on retention of indigenous languages and indigenous self-identification, I include as a predictor in the regression models a dummy variable indicating the presence of indigenous schools in a municipality. Indigenous schools are administered by the Mexican Ministry of Public Education. These schools teach preschool and primary school children in indigenous languages, and should thus increase language retention across generations.7 Regression models also control for the level of urbanization of the city or town in which children reside. Four population sizes are distinguished: towns with fewer than 2,500 residents (baseline), 2,500 to 14,999 residents, 15,000 to 99,999 residents, and 100,000 residents or more. Language retention and indigenous identification should be lower in more urban areas where children are exposed to many more cultural influences. Finally, I include regional dummy variables as predictors to control for differences in attitudes toward indigenous peoples across regions of the country. Mexican states are grouped into five regions according to the Mexican National Institute of Statistics, Geography and Informatics (INEGI 2009), with the northwestern region used as the baseline category. Table 1 provides descriptive statistics for all variables."
                    ]
                }
            ]
        },
        {
            "title": "Results",
            "subsections": [
                {
                    "title": "Descriptive Results",
                    "paragraphs": [
                        "Figure 1 shows the percentage of individuals in different age groups who are classified as indigenous based on language proficiency and proxy self-identification according to the 2010 Mexican Census. As noted earlier, language proficiency constitutes a much more restrictive criterion for indigenous identification, and therefore results in a much smaller estimate of the indigenous population for every age group. Nationally, 42.1 percent of individuals classified as indigenous by proxy self-identification can speak an indigenous language, while 94.1 percent of those who can speak an indigenous language are classified as indigenous by proxy self-identification. In contrast to the percentage of indigenous language speakers, which generally declines for younger age groups, the relation between the percentage of individuals classified as indigenous using proxy self-identification and age is curvilinear. While not conclusive, the higher rates of proxy self-identification among younger cohorts is consistent with growing ethnic pride and a reclaiming of indigenous identity for children and young adults.",
                        "Figure 2 shows the relation between indigenous mothers' education and their children's ethnic classification according to the two criteria used by the Mexican Census. The sample of children in this figure is limited to those whose parents are both classified as indigenous, to control for the higher rate of intermarriage for mothers with more education. Overall, children of indigenous parents are much more likely to also be classified as indigenous when proxy self-identification is used as a criterion than when language proficiency is used. Among children of parents who are both classified as indigenous based on proxy self-identification, 89.9 percent are also classified as indigenous. By contrast, only 67.4 percent of children of parents who speak an indigenous language will be able to speak it themselves (the corresponding percentages are lower when only one parent is classified as indigenous). Second, the rate at which children are classified as indigenous based on language proficiency declines much more rapidly with mother's education. For example, the percentage of children sharing their mother's indigenous classification declines by 39.7 percent when mother's education increases from zero to nine years of education, while the percentage of children who are identified as indigenous using proxy self-identification declines by only 4.6 percent. In the multivariate analysis, I more formally test this relation between parental education and children's indigenous classification while controlling for many other individual- and community-level factors."
                    ]
                },
                {
                    "title": "Descriptive Results",
                    "paragraphs": [
                        "Table 2 shows results of the random-effects logit models predicting children's odds of being classified as indigenous based on language proficiency using mothers' and fathers' characteristics as predictors (left and right panels, respectively). As noted earlier, only children of mothers and fathers who speak an indigenous language are included in the sample used to test the models in each panel respectively. In all models presented, mothers' and fathers' educational attainment is strongly and significantly associated with lower odds that their children will be able to speak an indigenous language. For example, children of mothers who speak an indigenous language have 10.9 percent lower odds of speaking an indigenous language themselves for every additional year of mother's schooling, according to the most complete model (1 - exp(-.115)). This loss of indigenous classification based on language proficiency for children of more highly educated parents is consistent with findings from research on minority language use among second-generation immigrant children in the United States (Alba et al. 2002; Lutz 2006). However, in the Mexican case, the loss of language proficiency among children of indigenous language speakers takes on a greater significance because researchers and policymakers continue to use language proficiency to identify the indigenous population (e.g., Borja-Vega, Lunde, and Garcia Moreno 2007; CDI 2011; Ramirez 2006). Model 4 in each panel of Table 2 interacts parents' years of education with the community's level of urbanization. Results indicate very little difference in the association between parents' educational attainment and children's language proficiency by level of urbanization.",
                        "Intermarriage seems to partly account for the loss of indigenous language with parents' greater educational attainment, but it does not explain it entirely. For example, when father's indigenous language proficiency is introduced as a predictor of children's language proficiency in Model 3, the coefficient for mother's years of education is reduced by 15.8 percent. The other parent's ability to speak an indigenous language naturally increases the odds the child will speak it. Yet, having an absent parent also increases a child's odds of acquiring proficiency in an indigenous language, compared to having another parent who does not speak the language, particularly if the absent parent is the father. Intermarriage is a more important predictor of children's indigenous language proficiency in the regression models for fathers than in the models for mothers. Having a mother who speaks an indigenous language is more strongly associated with higher odds a child will also speak the language than is having a father who speaks an indigenous language (the difference is statistically significant).",
                        "Coefficients for the remaining predictors are broadly consistent with expectations. Older parents, who are probably influenced by older and more negative views about indigenous peoples in Mexico, are significantly less likely to transmit their knowledge of an indigenous language to their children. Similarly, migrant parents who left the indigenous communities in which they grew up, and are therefore probably less attached to their indigenous identity, are also significantly less likely to transmit their indigenous language to their children. By contrast, children's own demographic characteristics, namely gender and age, are only weakly associated with their ability to speak an indigenous language. Female children are no more likely than male children to speak the language, and older children are only slightly more likely to speak it.",
                        "With regard to the impact of community-level characteristics, results of the models presented in Table 2 indicate that living in municipalities where a higher proportion of residents speak an indigenous language is associated with higher odds that a child will also speak the language. Perhaps more important, the presence of indigenous schools in a municipality appears to strongly encourage greater retention of indigenous language proficiency across generations. Having at least one indigenous school in a municipality is associated with 44.1 percent higher odds that a child of an indigenous mother will learn the mother's language. This finding suggests the Mexican government's efforts have been successful in increasing indigenous language retention.8"
                    ]
                },
                {
                    "title": "Descriptive Results",
                    "paragraphs": [
                        "Table 3 shows results of the random-effects logit models predicting children's indigenous classification when proxy self-identification is used. Results are markedly different from those predicting children's classification based on language proficiency. Most important, parental education is positively associated with children's indigenous identification, in contrast to the negative association between parental education and children's language proficiency. The odds that a child will be identified as indigenous actually increase with every additional year of mother's and father's education, once all other relevant factors are controlled (Model 3 in both panels). Results from Model 4 further indicate that the association between parental education and children's indigenous identification varies by level of urbanization. In the most rural towns (those with fewer than 2,500 residents), both mother's and father's education is associated with slightly lower odds that a child will be identified as indigenous. However, in more urban areas, parents' education is associated with higher odds that children will be identified as indigenous.",
                        "The positive association between parental education and children's indigenous proxy self-identification is consistent with the ethnic pride hypothesis, according to which indigenous parents with higher educational attainment are more likely to claim an indigenous identity for themselves and their children. I hypothesized that indigenous parents with higher levels of education would have greater exposure to the new multicultural agenda promoted by the Mexican state. The multicultural discourse may also receive more widespread acceptance among educated parents in urban areas, thus explaining the stronger positive association in more urban settings.",
                        "Some other differences between results of the models predicting children's indigenous classification based on language proficiency versus proxy self-identification are evident. First, intermarriage is slightly less important for children's indigenous proxy self-identification than for their indigenous language proficiency. The coefficient for father's indigenous classification is significantly smaller in the regression models for indigenous mothers when proxy self-identification is used for classification than when language proficiency is used. Second, community-level factors play a less prominent role in children's indigenous proxy self-identification than in their language proficiency. For example, the proportion of municipal residents classified as indigenous appears to be less important for children's classification when proxy self-identification is used as a criterion than when language proficiency is used. Similarly, the presence of indigenous language schools appears to increase indigenous language maintenance among children of indigenous parents, but not their odds of being classified as indigenous based on proxy self-identification.9"
                    ]
                },
                {
                    "title": "Descriptive Results",
                    "paragraphs": [
                        "Results of the random-effects logit models indicate that municipal-level characteristics, such as proportion of indigenous residents and presence of indigenous schools, are important predictors of children's ethnic identification. If other municipal characteristics not included in the models are also associated with children's identification, and they are correlated with key explanatory variables such as parents' educational attainment, then results of the random-effects models may be biased due to endogeneity. To address this potential problem, I tested fixed-effects models using the same set of predictors as those in Tables 2 and 3 (except for the municipal-level predictors, because municipal differences are perfectly captured by the fixed effects). To conserve space, I tested only the most complete models using mother's language proficiency and proxy self-identification. Because estimating fixed-effects logit models is computationally prohibitive for large sample sizes such as the one extracted from the 10 percent sample of the census, I used linear probability models (LPM) instead (Wooldridge 2011:562-65). In these models, the probability that a child is classified as indigenous is assumed to be a linear function of the set of predictors. Results of the LPM models presented in Table 4 replicate all the key findings discussed previously. Because the dependent variable is now expressed as a probability instead of log odds, the scale of the coefficients is different. However, the relevant coefficients are statistically significant in the same direction. In particular, a mother's educational attainment is negatively associated with a child's indigenous language proficiency and positively associated with the probability that the child will be identified as indigenous. The probability that a child will be identified as indigenous also increases with the level of urbanization. The association between mother's education and children's proxy self-identification also increases with the level of urbanization.10"
                    ]
                }
            ]
        },
        {
            "title": "Ethnic Differences in Children\u2019s School Outcomes",
            "subsections": [
                {
                    "title": null,
                    "paragraphs": [
                        "The regression models presented in the previous sections examined the relation between parental education and children's indigenous categorization in Mexico using the two criteria recognized by the Mexican Census--language proficiency and proxy self-identification. Given how dramatically indigenous language proficiency is lost with parental education, it would seem that proxy self-identification is a more stable, and therefore preferable, criterion for indigenous classification in Mexico. Proxy self-identification may also be a preferable method of classification on theoretical grounds, as it allows individuals greater freedom to choose their own ethnicity. Language proficiency, however, identifies children who are less integrated into Mexican society and therefore more disadvantaged, and thus may be a better measure with which to study social inequality. In this section, I examine how the systematic shift in ethnic categorization with parents' education affects estimates of indigenous children's educational disadvantage in Mexico when each classification system is used.",
                        "I measure children's educational disadvantage based on whether they are in the appropriate grade at school for their age. All Mexican children should have started first grade by the time they are 7 years old, so any child whose age is no more than seven years greater than their last completed school year is considered to be in an age-appropriate grade or higher. Only children old enough to have completed first grade (i.e., children 8 years or older), but young enough to still be living with their parents (i.e., 15 years or younger), are included in this part of the analysis. Because I am interested in measuring the educational disadvantage of children categorized as indigenous compared to all other children, the sample now includes all Mexican children in this age group regardless of their ethnic classification. I use mothers' demographic characteristics as predictors of children's educational disadvantage, instead of fathers' characteristics, because many more children do not live with their fathers than their mothers, leading to many more omitted cases. To fully account for the association between parents' educational attainment and children's odds of being in an age-appropriate grade, I use as a predictor the average years of schooling of both parents for cases where both parents are present.11 I introduce logged household income as a predictor in one of the models to further test the association between socioeconomic status and children's educational disadvantage. As in the analysis presented in the previous section, only one child from each mother is selected at random to prevent over-representation of population groups with higher fertility rates and to preserve independence across cases.12",
                        "Table 5 shows results of the random-effects logit models predicting children's odds of being in an age-appropriate grade using both language proficiency and proxy self-identification as criteria for indigenous classification.13 Model 1 in both panels shows the disadvantage associated with having an indigenous mother. According to both criteria for ethnic classification, children of indigenous mothers have significantly lower odds of being in an age-appropriate grade, even when controlling for many other factors. However, children of mothers who speak an indigenous language are significantly more disadvantaged than children of mothers who identify only themselves, and not their children, as indigenous. The former have 38.7 percent lower odds of being in the age-appropriate grade, whereas the latter have 22.1 percent lower odds, compared to their counterparts with non-indigenous mothers. Coefficients for indigenous mothers in these models are particularly meaningful, because they also measure the hypothetical disadvantage of being an indigenous child if there was a perfect transmission of ethnicity across generations, that is, if every child of an indigenous mother were also considered to be indigenous, in which case the ethnicity of the mother and the child would be indistinguishable. This is approximately the coefficient we would observe for a child if indigenous identity was completely determined by ancestry.",
                        "Model 2 in both panels of Table 5 uses a child's own ethnic categorization instead of the mother's categorization as a predictor. Results indicate a statistically significant disadvantage in schooling for indigenous children according to both systems of classification. Once again, the disadvantage of children classified as indigenous according to language proficiency is much larger than that faced by those classified as indigenous based on proxy self-identification, suggesting that language proficiency is a better measure of disadvantage (the difference is statistically significant at the .05 level). A comparison of Models 1 and 2 in each panel further allows us to gauge the impact that the shift away from indigenous identification with greater parental education has on estimates of children's disadvantage with regard to schooling. The fact that the magnitude of the negative coefficient for indigenous children according to language proficiency is significantly larger than that of indigenous mothers, using the same criterion, suggests that only the most disadvantaged children will inherit the origin language and be classified as indigenous according to language proficiency. By contrast, in regression models where proxy self-identification is used as a criterion for classification, the magnitude of the negative coefficient for indigenous children is significantly smaller than that for indigenous mothers, suggesting that the opposite selection process operates: children who are slightly less disadvantaged will be classified as indigenous. This opposite pattern is consistent with expectations based on results presented in the previous section, in which children of more educated indigenous mothers were less likely to speak an indigenous language, but slightly more likely to be identified as indigenous.",
                        "Model 3 in both panels of Table 5 includes both the child's and the mother's ethnic identification as predictors of the odds that a child will be in an age-appropriate grade at school. Results indicate that being the child of an indigenous mother is associated with worse schooling outcomes, even after controlling for the child's own indigenous classification. In other words, children appear to be disadvantaged due to their mother's ethnicity, not just their own. However, when parents' educational attainment is introduced as a predictor in Model 4 in both panels, the magnitude of the coefficient for mother's ethnicity is substantially reduced, suggesting that the disadvantage of having an indigenous mother is largely explained by indigenous mothers' lower educational attainment. Note, however, that even after controlling for mother's ethnicity and educational attainment, children who are classified as indigenous based on language proficiency are still disadvantaged educationally, as are children of mothers classified as indigenous based on proxy self-identification (see Model 4 in both panels). Because these models also control for mother's education, the negative coefficient for a child's language proficiency is net of the shift in indigenous identification of the child with greater parental education found in the previous section.14 Adding logged household income as a predictor in Model 5 does not significantly affect the coefficients for the child's or mother's ethnicity.",
                        "Finally, results of the regression models in Table 5 suggest that the presence of indigenous schools in a municipality does not significantly improve children's educational outcomes. Moreover, in models not presented here, where the dummy variable for indigenous schools was interacted with children's indigenous classification, the presence of indigenous schools in a municipality did not increase indigenous children's odds of being in an age-appropriate grade. Although the Mexican government's indigenous language education programs appear to increase the retention of indigenous languages, they do not seem to improve indigenous children's educational outcomes."
                    ]
                }
            ]
        },
        {
            "title": "Conclusions",
            "subsections": [
                {
                    "title": null,
                    "paragraphs": [
                        "Because of the remarkable fluidity in racial and ethnic classification in Latin America, the region provides an important setting in which to study social boundaries. However, recent studies on boundary crossing focus mostly on Afro-Latin American countries such as Brazil, where racial classification is based on perceptions of skin color. In this article, I examined the ethnic boundary-crossing process in the specific context of Mexico. In contrast to Brazil, in Indo-Latin American countries such as Mexico, the primary socially recognized distinction between the indigenous and non-indigenous population is not based on phenotypical differences such as differences in skin color. The social boundary that separates the indigenous population from the rest of Mexican society is instead defined based on characteristics such as language use, cultural practices, and a subjective sense of belonging. Because individuals' indigenous classification is less constrained by their physical appearance, we would expect it to be even more fluid and amenable to change with upward social mobility. On the other hand, individuals' attachment to a particular indigenous group with which they share close personal ties and a sense of belonging may be stronger than attachment to a self-described skin color category, even among people with higher socioeconomic status. In the terminology used by Brubaker (2004) and others (Bailey 2009; Loveman 1999; Wimmer 2008a), individuals who consider themselves indigenous likely exhibit a higher level of \"groupness\" than do people in self-described skin color categories.15",
                        "The extent of movement across social boundaries in Mexico turns out to depend on the specific criteria used for ethnic classification. Results of the statistical analysis indicate a much larger loss of indigenous identification when language proficiency is used as a criterion for indigenous classification than when proxy self-identification is used. Children of indigenous parents are much less likely to be classified as indigenous according to language proficiency, especially when their parents have higher levels of educational attainment. By contrast, when proxy self-identification is used as a criterion, children of indigenous parents are more likely to be classified as indigenous, and greater parental education actually results in higher odds that children will be classified as indigenous.",
                        "The greater loss of indigenous language proficiency among children of parents with higher educational attainment is in some ways not surprising. Previous studies show a similar loss of minority language proficiency among children of more educated immigrant parents in the United States (Alba et al. 2002; Lutz 2006). However, the loss of indigenous language proficiency takes on a greater significance in Mexico, because researchers and policymakers continue to use the ability to speak an indigenous language as an indicator of ethnicity (e.g., Borja-Vega et al. 2007; CDI 2011; Ramirez 2006). Using language proficiency as a criterion for indigenous classification not only results in a lower estimate of the overall size of the indigenous population, but as demonstrated in the second part of the statistical analysis, it also leads to a higher estimate of the socioeconomic disadvantage faced by indigenous children.",
                        "By contrast, the greater tendency for children of more educated parents to be classified as indigenous when proxy self-identification is used as a criterion is more unexpected. A vast amount of research documents the stigma that is traditionally associated with being considered indigenous in the broader Mexican society (e.g., Bonfil Batalla [1987] 1996; Friedlander 1975; Knight 1990; Nutini 1997; Pitt-Rivers 1968). An indigenous identity constitutes a particular impediment for acceptance into the middle and upper classes (Colby and van den Berghe 1961; Nutini 1997; Pitt-Rivers 1968). It is therefore surprising that when people are allowed greater freedom to choose their own ethnic identification and that of their children, they more frequently choose to identify as indigenous. It is perhaps even more surprising that indigenous parents with higher socioeconomic status choose to identify their children as indigenous at higher rates than do parents of lower socioeconomic status, because the former have more to lose by doing so.",
                        "One possible explanation for the greater retention of indigenous identification among children of more educated parents is that the multicultural discourse promoted by indigenous organizations and by the Mexican government in recent decades has resulted in less stigmatization and greater ethnic pride, particularly among the most educated segments of the indigenous population who are more exposed to the multicultural message. The multicultural message may also receive more widespread acceptance among educated parents in urban areas, thus explaining the stronger positive association between parents' education and children's indigenous proxy self-identification in urban settings.16 Ironically, an unintended consequence of multiculturalism and its associated increase in indigenous pride may be an underestimation of the disadvantage faced by indigenous children. As demonstrated in the second part of the statistical analysis, estimates of indigenous children's educational disadvantage are lower when proxy self-identification is used, which may be due precisely to the fact that greater ethnic pride leads more educated parents to identify their children as indigenous.",
                        "Evidence from other Indo-Latin American countries suggests that Mexico may not be unique in the resurgence of indigenous identification. In Guatemala, the size of the population that identifies as indigenous increased by 6 percent during the 1990s. Layton and Patrinos (2006:28) argue that this rise in the self-identified indigenous population may be due to \"the increased comfort of some Guatemalans with their indigenous status after the peace accords and the Agreement on the Identity and Rights of Indigenous Peoples were signed in the mid 1990s.\" Mexico instituted similar changes to the laws governing the treatment of indigenous peoples, and consequently may also have experienced a resurgence of indigenous identification.17 The resurgence of indigenous identity in Latin America also resembles the increase in Native American self-identification in the United States during the 1970s and 1980s. Eschbach, Supple, and Snipp (1998) find that the increase in the tendency to self-report as Native American in the U.S. Census during the 1970s was particularly pronounced among the most educated. Just as in the Mexican case, the increase in Native American self-identification with education was highest in urban areas.",
                        "The way that indigenous peoples are identified in the population census and other official sources is changing rapidly not only in Mexico but in other Latin American countries as well (Layton and Patrinos 2006). Encouraged by indigenous rights activists and international organizations, many countries are moving toward a classification system based on self-identification instead of relying on language proficiency. It is therefore important to fully understand the implications of this shift in ethnic classification. Using self-identification to classify the indigenous population has, of course, many advantages. Compared to language proficiency, self-identification allows individuals greater freedom to identify as they wish, even when the information is provided by a proxy. The ability to identify one's own ethnicity is considered a fundamental right of indigenous peoples worldwide, according to international legislation (ILO 1989). However, self-identification likely captures a weaker form of ethnicity, more akin to what Gans (1979) calls \"symbolic ethnicity.\" Researchers have used the concept of symbolic ethnicity to describe the residual attachment that Americans descended from European immigrants feel toward a few superficial symbols taken from their ancestors' culture (Alba 1990; Gans 1979; Waters 1990). For many white Americans, ethnicity is a cultural resource devoid of the traditional social underpinnings, such as strong ties to co-ethnics and insertion into a web of social obligations. Similarly, for children of indigenous migrants to urban areas, identifying as indigenous may be based on attachment to a few cultural symbols without a personal connection to other members of the group, and with few social consequences.",
                        "For all its failings, language proficiency is more likely to capture a stronger form of ethnicity, with clear social implications. Speaking an indigenous language may, in practice, be a requirement for participating in group rituals, as well as for holding positions of responsibility within the community (known as cargos) and providing volunteer work for collective projects (known as tequios). Thus, in many cases language proficiency may indeed be an indicator of group membership (Bartolome 1997:81-84). At a more practical level, language proficiency is also more likely to capture the most disadvantaged segment of the indigenous population and could therefore be useful in targeting social programs. For these reasons, indigenous language proficiency should be retained as an alternative measure in the census and other sociodemographic surveys. Future work should endeavor to disentangle how much of the disadvantage experienced by children who speak an indigenous language is due to lower proficiency in the majority language and how much is due to other factors."
                    ]
                }
            ]
        }
    ],
    "references": [
        "Alba, Richard D. 1990. Ethnic Identity: The Transformation of White America. New Haven, CT: Yale University Press.",
        "Alba, Richard. 2005. \u201cBright vs. Blurred Boundaries: Second-Generation Assimilation and Exclusion in France, Germany, and the United States.\u201d Ethnic and Racial Studies 28(1):20\u201349.",
        "Alba, Richard, Logan, John, Lutz, Amy, Stults, Brian. 2002. \u201cOnly English by the Third Generation? Loss of Preservation of the Mother Tongue among the Grandchildren of Contemporary Immigrants.\u201d Demography 39(3):467\u201384.",
        "Alba, Richard D., Nee, Victor. 2003. Remaking the American Mainstream: Assimilation and Contemporary Immigration. Cambridge, MA: Harvard University Press.",
        "Bailey, Stanley R. 2009. Legacies of Race: Identities, Attitudes, and Politics in Brazil. Stanford, CA: Stanford University Press.",
        "Barth, Fredrik. 1969. \u201cIntroduction.\u201d Pp. 9\u201338 in Ethnic Groups and Boundaries, edited by Barth, F. Boston: Little Brown and Company.",
        "Bartolom\u00e9, Miguel Alberto. 1997. Gente de costumbre y gente de raz\u00f3n: Las identidades \u00e9tnicas en M\u00e9xico. Mexico: Siglo Veintiuno Editores.",
        "Bartolom\u00e9, Miguel Alberto, Barabas, Alicia Mabel.1996. La Pluralidad en Peligro. Mexico: Instituto Nacional de Antropolog\u00eda e Historia.",
        "Bonfil Batalla, Guillermo. [1987] 1996. M\u00e9xico Profundo: Reclaiming a Civilization. Austin: University of Texas Press.",
        "Borja-Vega, Christian, Lunde, Trine, Moreno, Vicente Garc\u00eda. 2007. Economic Opportunities for Indigenous Peoples in Mexico. Washington, DC: The World Bank.",
        "Brading, David A. 1988. \u201cManuel Gamio and Official Indigenismo in Mexico.\u201d Bulletin of Latin American Research 7(1):75\u201389.",
        "Brubaker, Rogers. 2004. Ethnicity without Groups. Cambridge, MA: Harvard University Press.",
        "Colby, Benjamin N., van den Berghe, Pierre L. 1961. \u201cEthnic Relations in Southeastern Mexico.\u201d American Anthropologist 63(4):772\u201392.",
        "Comisi\u00f3n Nacional para el Desarrollo de los Pueblos Ind\u00edgenas (CDI). 2005. Desarrollo Ind\u00edgena en 50 Municipios. Mexico: CDI.",
        "Comisi\u00f3n Nacional para el Desarrollo de los Pueblos Ind\u00edgenas (CDI). 2011. Acciones de Gobierno para el Desarrollo Integral de los Pueblos Ind\u00edgenas. Mexico: CDI.",
        "Consejo Nacional de Poblaci\u00f3n (CONAPO). 2001. La poblaci\u00f3n de M\u00e9xico en el nuevo siglo. Mexico: CONAPO.",
        "Daniel, G. Reginald. 2006. Race and Multiraciality in Brazil and the United States. University Park: Pennsylvania State University Press.",
        "de la Pe\u00f1a, Guillermo. 2002. \u201cSocial Citizenship, Ethnic Minority Demands, Human Rights and Neoliberal Paradoxes: A Case Study in Western Mexico.\u201d Pp. 129\u201356 in Multiculturalism in Latin America: Indigenous Rights, Diversity and Democracy, edited by Sieder, R. New York: Palgrave Macmillan.",
        "de la Pe\u00f1a, Guillermo. 2005. \u201cSocial and Cultural Policies Toward Indigenous Peoples: Perspectives from Latin America.\u201d Annual Review of Anthropology 34:717\u201339.",
        "de la Pe\u00f1a, Guillermo. 2006. \u201cA New Mexican Nationalism? Indigenous Rights, Constitutional Reform and the Conflicting Meanings of Multiculturalism.\u201d Nations and Nationalism 12(2):279\u2013302.",
        "D\u00edaz Polanco, H\u00e9ctor. 1991. Autonom\u00eda regional: La autodeterminaci\u00f3n de los pueblos indios. Mexico: Siglo Veintiuno Editores.",
        "Doremus, Anne. 2001. \u201cIndigenism, Mestizaje, and National Identity in Mexico during the 1940s and the 1950s.\u201d Mexican Studies/Estudios Mexicanos 17(2):375\u2013402.",
        "Duany, Jorge. 2002. The Puerto Rican Nation on the Move: Identities on the Island and in the United States. Chapel Hill: University of North Carolina Press.",
        "Duncan, Brian, Trejo, Stephen J. 2011. \u201cWho Remains Mexican? Selective Ethnic Attrition and the Intergenerational Progress of Mexican Americans.\u201d Pp. 285\u2013320 in Latinos and the Economy: Integration and Impact on Schools, Labor Markets, and Beyond, edited by Leal, D. L., Trejo, S. J. New York: Springer.",
        "Eschbach, Karl, Supple, Khalil, Snipp, C. Matthew. 1998. \u201cChanges in Racial Identification and the Educational Attainment of American Indians, 1970\u20131990.\u201d Demography 35(1):35\u201343.",
        "Fishman, Joshua A. 1972. The Sociology of Language: An Interdisciplinary Social Science Approach to Language in Society. Rowley, MA: Newbury House Publishers.",
        "Francis, Andrew M., Tannuri-Pianto, Maria. 2012. \u201cUsing Brazil\u2019s Racial Continuum to Examine the Short-Term Effects of Affirmative Action in Higher Education.\u201d Journal of Human Resources 47(3):754\u201384.",
        "Francis, Andrew M., Tannuri-Pianto, Maria. 2013. \u201cEndogenous Race in Brazil: Affirmative Action and the Construction of Racial Identity among Young Adults.\u201d Economic Development and Cultural Change 61(4):731\u201353.",
        "Friedlander, Judith. 1975. Being Indian in Hueyapan: A Study of Forced Identity in Contemporary Mexico. New York: St. Martin\u2019s Press.",
        "Friedlander, Judith. 2006. Being Indian in Hueyapan: A Revised and Updated Edition. New York: Palgrave Macmillan.",
        "Gans, Herbert J. 1979. \u201cSymbolic Ethnicity: The Future of Ethnic Groups and Cultures in America.\u201d Ethnic and Racial Studies 2(1):1\u201320.",
        "Gonz\u00e1lez Navarro, Mois\u00e9s. 1970. \u201cMestizaje in Mexico during the National Period.\u201d Pp. 145\u201369 in Race and Class in Latin America, edited by M\u00f6rner, M. New York: Columbia University Press.",
        "Gravlee, Clarence C. 2005. \u201cEthnic Classification in Southeastern Puerto Rico: The Cultural Model of \u2018Color.\u2019\u201d Social Forces 83(3):949\u201370.",
        "Grodsky, Eric, Pager, Devah. 2001. \u201cThe Structure of Disadvantage: Individual and Occupational Determinants of the Black-White Wage Gap.\u201d American Sociological Review 66(4):542\u201367.",
        "Hale, Charles R. 2002. \u201cDoes Multiculturalism Menace? Governance, Cultural Rights and the Politics of Identity in Guatemala.\u201d Journal of Latin American Studies 34(3):485\u2013524.",
        "Harris, Marvin. 1964. Patterns of Race in the Americas. Westport, CT: Greenwood Press.",
        "Hern\u00e1ndez Bringas, H\u00e9ctor Hiram. 2007. \u201cLa definici\u00f3n de la poblaci\u00f3n ind\u00edgena en el censo de poblaci\u00f3n del a\u00f1o 2000 en M\u00e9xico.\u201d Pp. 15\u201324 in Los indios de M\u00e9xico en el siglo XXI, edited by H\u00e9rnandez Bringas, H. Hiram. Mexico: UNAM, Centro Regional de Investigaciones Multidisciplinarias.",
        "Horowitz, Donald L. 1985. Ethnic Groups in Conflict. Berkeley: University of California Press.",
        "Instituto Nacional de Estad\u00edstica, Geograf\u00eda e Inform\u00e1tica (INEGI). 2000. XII Censo General de Poblaci\u00f3n y Vivienda 2000: Marco conceptual. Mexico: INEGI.",
        "Instituto Nacional de Estad\u00edstica, Geograf\u00eda e Inform\u00e1tica (INEGI). 2009. Compendios Estad\u00edsticos Regionales 2009. Mexico: INEGI.",
        "Instituto Nacional de Estad\u00edstica, Geograf\u00eda e Inform\u00e1tica (INEGI). 2011. Dise\u00f1o de la muestra censal 2010. Mexico: INEGI.",
        "International Labour Organization (ILO). 1989. Indigenous and Tribal Peoples Convention. Geneva: ILO (http://www.ilo.org/indigenous/Resources/Publications/WCMS_100897/lang-en/index.htm).",
        "International Labour Organization (ILO). 2003. ILO Convention on Indigenous and Tribal Peoples, 1989 [No. 169]: A Manual, rev. ed. Geneva: International Labour Organization.",
        "Christopher, Jencks, Phillips, Meredith, eds. 1998. The Black-White Test Score Gap. Washington, DC: Brookings Institution Press.",
        "Knight, Alan. 1990. \u201cRacism, Revolution, and Indigenismo: Mexico 1910\u20131940.\u201d Pp. 71\u2013113 in The Idea of Race in Latin America, 1870\u20131940, edited by Graham, R. Austin: University of Texas Press.",
        "Lamont, Mich\u00e8le. 2000. The Dignity of Working Men: Morality and the Boundaries of Race, Class and Immigration. Cambridge, MA: Harvard University Press.",
        "Lamont, Mich\u00e8le, Moln\u00e1r, Vir\u00e1g. 2002. \u201cThe Study of Boundaries in the Social Sciences.\u201d Annual Review of Sociology 28:167\u201395.",
        "Layton, Heather Marie, Patrinos, Harry Anthony. 2006. \u201cEstimating the Number of Indigenous Peoples in Latin America.\u201d Pp. 25\u201339 in Indigenous Peoples, Poverty and Human Development in Latin America, edited by Hall, G., Patrinos, H. A. New York: Palgrave Macmillan.",
        "Lee, Jennifer, Bean, Frank D. 2004. \u201cAmerica\u2019s Changing Color Lines: Immigration, Race/Ethnicity, and Multiracial Identification.\u201d Annual Review of Sociology 30:221\u201342.",
        "Lieberson, Stanley, Curry, Timothy J. 1971. \u201cLanguage Shift in the United States: Some Demographic Clues.\u201d International Migration Review 5(2):125\u201337.",
        "L\u00f3pez Santill\u00e1n, Ricardo. 2011. Etnicidad y Clase Media. Mexico: Universidad Aut\u00f3noma de M\u00e9xico.",
        "Loveman, Mara. 1999. \u201cIs \u2018Race\u2019 Essential?\u201d American Sociological Review 64(6):891\u201398.",
        "Loveman, Mara, Muniz, Jeronimo O. 2007. \u201cHow Puerto Rico Became White: Boundary Dynamics and Intercensus Racial Reclassification.\u201d American Sociological Review 72(6):915\u201339.",
        "Lutz, Amy. 2006. \u201cSpanish Maintenance among English-Speaking Latino Youth: The Role of Individual and Social Characteristics.\u201d Social Forces 84(3):1417\u201333.",
        "Marteleto, Leticia J. 2012. \u201cEducational Inequality by Race in Brazil, 1982\u20132007: Structural Changes and Shifts in Racial Classification.\u201d Demography 49(1):337\u201358.",
        "Montgomery, James D. 2011. \u201cThe Population Dynamics of Black-White-Mulatto Racial Systems.\u201d American Journal of Sociology 117(1):46\u201389.",
        "M\u00f6rner, Magnus. 1967. Race Mixture in the History of Latin America. Boston: Little, Brown.",
        "Nagel, Joane. 1995. \u201cAmerican Indian Ethnic Renewal: Politics and the Resurgence of Identity.\u201d American Sociological Review 60(6):947\u201365.",
        "Nobles, Melissa. 2000. Shades of Citizenship: Race and the Census in Modern Politics. Stanford, CA: Stanford University Press.",
        "Nutini, Hugo G. 1997. \u201cClass and Ethnicity in Mexico: Somatic and Racial Considerations.\u201d Ethnology 36(3):227\u201338.",
        "Orozco, M\u00f3nica, Hubert, Cecilia. 2005. La Focalizaci\u00f3n en el Programa de Desarrollo Humano Oportunidades de M\u00e9xico. Social Protection Discussion Paper No. 0531. Washington, DC: The World Bank.",
        "Pitt-Rivers, Julian. 1968. \u201cRace, Color, and Class in Central America and the Andes.\u201d Pp. 264\u201381 in Color and Race, edited by Franklin, J. Hope. Boston: Houghton Mifflin.",
        "Ram\u00edrez, Alejandro. 2006. \u201cMexico.\u201d Pp. 150\u201398 in Indigenous Peoples, Poverty and Human Development in Latin America, edited by Hall, G., Patrinos, H. A. New York: Palgrave Macmillan.",
        "Rodr\u00edguez, Clara E. 2000. Changing Race: Latinos, the Census, and the History of Ethnicity in the United States. New York: New York University Press.",
        "Schwartzman, Luisa Farah. 2007. \u201cDoes Money Whiten? Intergenerational Changes in Racial Classification in Brazil.\u201d American Sociological Review 72(6):940\u201363.",
        "Secretar\u00eda de Desarrollo Social (SEDESOL). N.d. M\u00e9todo de Identificaci\u00f3n y Permanencia de Hogares en Situaci\u00f3n de Pobreza del Programa Oportunidades. Mexico: SEDESOL (http://www.oportunidades.gob.mx/Portal/wb/Web/metodo_de_identificacion_de_hogares_en_situacion_d).",
        "Semyonov, Moshe, Lewin-Epstein, Noah. 2009. \u201cThe Declining Racial Earnings\u2019 Gap in the United States: Multi-level Analysis of Males\u2019 Earnings, 1960\u20132000.\u201d Social Science Research 38(2):296\u2013311.",
        "Serrano Carreto, Enrique. 2005. \u201cLa poblaci\u00f3n ind\u00edgena a trav\u00e9s de los censos mexicanos.\u201d Comisi\u00f3n Nacional para el Desarrollo de los Pueblos Ind\u00edgenas. Santiago de Chile: CEPAL.",
        "Skidmore, Thomas E. 1972. \u201cToward a Comparative Analysis of Race Relations since Abolition in Brazil and the United States.\u201d Journal of Latin American Studies 4(1):1\u201328.",
        "Skidmore, Thomas E. 1995. \u201cFact and Myth: Discovering a Racial Problem in Brazil.\u201d Pp. 91\u2013117 in Population, Ethnicity, and Nation-Building, edited by Goldscheider, C. Boulder, CO: Westview Press.",
        "Speed, Shannon. 2005. \u201cDangerous Discourses: Human Rights and Multiculturalism in Neoliberal Mexico.\u201d PoLAR: Political and Legal Anthropology Review 28(1):29\u201351.",
        "Stavenhagen, Rodolfo. 2001. La cuesti\u00f3n \u00e9tnica. Mexico: El Colegio de M\u00e9xico.",
        "Stavenhagen, Rodolfo. 2002. \u201cIndigenous Peoples and the State in Latin America: An Ongoing Debate.\u201d Pp. 24\u201344 in Multiculturalism in Latin America: Indigenous Rights, Diversity and Democracy, edited by Sieder, R. New York: Palgrave Macmillan.",
        "Stevens, Gillian. 1992. \u201cThe Social and Demographic Context of Language Use in the United States.\u201d American Sociological Review 57(2):171\u201385.",
        "Telles, Edward E. 2002. \u201cRacial Ambiguity among the Brazilian Population.\u201d Ethnic and Racial Studies 25(3):415\u201341.",
        "Telles, Edward E. 2004. Race in Another America: The Significance of Skin Color in Brazil. Princeton, NJ: Princeton University Press.",
        "Telles, Edward E., Lim, Nelson. 1998. \u201cDoes it Matter Who Answers the Race Question? Racial Classification and Income Inequality in Brazil.\u201d Demography 35(4):465\u201374.",
        "Terborg, Roland, Landa, Laura Garc\u00eda, Moore, Pauline. 2008. \u201cThe Language Situation in Mexico.\u201d Current Issues in Language and Planning 7(4):415\u2013518.",
        "Tilly, Charles. 1998. Durable Inequality. Berkeley: University of California Press.",
        "Tilly, Charles. 2005. Identities, Boundaries, and Social Ties. Boulder, CO: Paradigm Publishers.",
        "Tinajero, Guadalupe, Englander, Karen. 2011. \u201cBilingual-Intercultural Education for Indigenous Children: The Case of Mexico in an Era of Globalization and Uprisings.\u201d Intercultural Education 22(3):163\u201378.",
        "Torche, Florencia. 2010. \u201cEducational Assortative Mating and Economic Inequality: A Comparative Analysis of Three Latin American Countries.\u201d Demography 47(2):481\u2013502.",
        "Trejo, Guillermo. 2009. \u201cReligious Competition and Ethnic Mobilization in Latin America: Why the Catholic Church Promotes Indigenous Movements in Mexico.\u201d American Political Science Review 103(3):323\u201342.",
        "Trejo, Guillermo. 2012. Popular Movements in Autocracies: Religion, Repression, and Indigenous Collective Action in Mexico. New York: Cambridge University Press.",
        "Vald\u00e9s, Luz Mar\u00eda. 1995. Los indios en los censos de poblaci\u00f3n. Mexico: Universidad Nacional Aut\u00f3noma de M\u00e9xico.",
        "Luz Mar\u00eda, Vald\u00e9s , ed. 2003. Los indios mexicanos en los censos del a\u00f1o 2000. Mexico: Instituto de Investigaciones Jur\u00eddicas, UNAM.",
        "Veltman, Calvin J. 1988. The Future of the Spanish Language in the United States. New York: Hispanic Policy Development Project.",
        "Wade, Peter. 1993. Blackness and Race Mixture: The Dynamics of Racial Identity in Colombia. Baltimore, MD: Johns Hopkins University Press.",
        "Warman, Arturo. 2003. Los indios mexicanos en el umbral del milenio. Mexico: Fondo de Cultural Econ\u00f3mica.",
        "Warman, Arturo, Nolasco, Margarita, Bonfil, Guillermo, Olivera, Mercedes, Valencia, Enrique. 1970. De eso que llaman Antropolog\u00eda Mexicana. Mexico: Editorial Nuestro Tiempo.",
        "Waters, Mary C. 1990. Ethnic Options: Choosing Identities in America. Berkeley: University of California Press.",
        "Western, Bruce, Pettit, Becky. 2005. \u201cBlack-White Wage Inequality, Employment Rates, and Incarceration.\u201d American Journal of Sociology 111(2):553\u201378.",
        "Wimmer, Andreas. 2008a. \u201cThe Making and Unmaking of Ethnic Boundaries: A Multilevel Process Theory.\u201d American Journal of Sociology 113(4):970\u20131022.",
        "Wimmer, Andreas. 2008b. \u201cElementary Strategies of Ethnic Boundary Making.\u201d Ethnic and Racial Studies 31(6):1025\u201355.",
        "Wooldridge, Jeffrey M. 2011. Econometric Analysis of Cross Section and Panel Data, 2nd ed. Cambridge, MA: MIT Press.",
        "Yashar, Deborah J. 2005. Contesting Citizenship in Latin America: The Rise of Indigenous Movements and the Postliberal Challenge. Cambridge, UK: Cambridge University Press.",
        "Zolberg, Aristide R., Woon, Long Litt. 1999. \u201cWhy Islam Is Like Spanish: Cultural Incorporation in Europe and the United States.\u201d Politics & Society 27(1):5\u201338."
    ],
    "title": "Ethnic Identification and Its Consequences for Measuring Inequality in Mexico",
    "issue": "4",
    "volume": "79",
    "year": 2014,
    "issn": "0003-1224",
    "journal": "American Sociological Review",
    "authors": [
        "Andr\u00e9s Villarreal"
    ]
}