{
    "doi": "http://dx.doi.org/10.1093/esr/jcm015",
    "abstract": "This research investigates the mechanisms of change in gender beliefs in East and West Germany since reunification. Using repeated cross-sectional data from the German General Social Survey (ALLBUS), we examine how processes of cohort replacement and of intra-cohort change contributed to the changes in beliefs about gender ideology and about the consequences of women working for pay that occurred from 1982 to 2004 in the former West Germany and from 1991 to 2004 in the former East Germany. We find that while changes in gender beliefs occurred through both cohort replacement and within-cohort change in West Germany, changes in East Germany primarily occurred through processes of intra-cohort change. Heterogeneity in levels of schooling and employment status are important in accounting for variation in gender beliefs. We find support for the conclusion that there are continued changes in gender beliefs in the reunified Germany across time. However, we do not find that beliefs converged in the East and West following reunification. In fact, focusing on the period following reunification, we find that the gap in beliefs between the East and West actually increased between 1991 and 2004.",
    "sections": [
        {
            "title": "Introduction",
            "paragraphs": [
                "With the reunification of East and West Germany in 1990, significant demographic, social, and economic changes have occurred that affected the constituents of the 'new' Germany. One of the critical issues gaining recent attention is the changing position of women from the former German Democratic Republic (GDR), as well as other parts of Eastern Europe (e.g. Rueschemeyer, 1994; Haney, 2002). For former citizens of the GDR, the policies and norms surrounding female employment have changed dramatically with reunification. Many East German women lost their jobs and, those who did not, lost their entitlement to the benefits of the state socialist programs supporting working mothers. In 2000, East German women's unemployment rate was 20 per cent, significantly higher than the 9 per cent unemployment for West German men and women (Rosenfeld et al., 2004). The women who kept their jobs saw a one-third reduction in their income due to the disappearance of child-related benefits alone (Kolinsky, 1998). Shortly before reunification, the East German state was paying for 80 per cent of the cost of children (Ostner, 1998; Ostner et al., 2003). In this changing social and economic context, East German women have maintained their attachment to the labour force, in many cases choosing to forgo marriage and childbearing in order to prioritize their careers (Adler and Brayfield, 1997). According to Kolinsky (1998), the birth rate dropped to 60 per cent among East German women in the five years following reunification.1 Since then, the total fertility rate has increased steadily but has not reached the level of West German fertility (Kreyenfeld, 2003).",
                "These changes in marriage, fertility, and female labour force participation in reunified Germany have provided a rare opportunity to examine how beliefs, particularly beliefs about gender, respond to social change in the gendered division of labour (as indicated, for example, by changes in fertility and female labour force participation). How Germans have adapted to their new social reality will inform our understanding of the mechanisms of change in a population. Although previous research has examined how beliefs change in a population (Mason and Lu, 1988; Firebaugh, 1992; Neve, 1995; Alwin and Scott, 1996), this analysis is unique in that changes in gender beliefs are examined against the backdrop of the dramatic social and economic change in Germany following reunification. This 'natural experiment' allows us to examine the relative influence of period effects around the time of reunification and cohort effects in motivating population changes in gender beliefs. Did individuals maintain their beliefs from youth, preserving the gap in gender beliefs between East and West present at the time of reunification (Braun et al., 1994)? Did the new social context only influence the beliefs of cohorts reaching early adulthood in the new Germany? Or, alternatively, have even earlier-born cohorts from the East and West expressed increasingly similar beliefs about gender and family as time has passed since reunification? These are the questions that guide our investigation of gender beliefs in Germany. First, however, we situate our analysis in the larger context of the demographic transition, women's labour force participation, and changing gender beliefs in the West."
            ]
        },
        {
            "title": "Theoretical Background",
            "paragraphs": [
                "The changes described in Germany are situated in a broader context of demographic and social change over the past century in Europe and North America. Lesthaeghe (1995) has referred to these major changes in the nature and functioning of family life as the second demographic transition (Lesthaeghe, 1983; Lesthaeghe and Meekers, 1986; Lesthaeghe and Surkyn, 1988; Surkyn and Lesthaeghe, n.d.; Lesthaeghe 1998; Lesthaeghe and Neels, 2002). Birth rates have reached an all-time low throughout the industrialized world, with many Western countries now experiencing levels of fertility that are below replacement (Bongaarts, 2002; Morgan and Hagewen, 2005). Patterns of marriage formation have undergone revolutionary changes in the past several decades, suggesting an increased flexibility in the emerging norms about marriage and union formation (Schoenmaeckers and Lodewijckx, 1999). The practice of cohabitation before (or instead of) marriage has grown increasingly acceptable, especially in the Scandinavian countries and the Netherlands, and there has been a monumental increase in post-World War II rates of marital dissolution through divorce, especially in the US.",
                "Changes in patterns of fertility, nuptiality, and divorce have been accompanied by changes in the gender-based division of labour, and there are several indications of significant shifts in the greater acceptance of non-familial roles for women. Perhaps the most dramatic of these is the pervasive changes in women's labour- force participation--changes not simply due to shifting patterns of fertility, marriage, and divorce. There has been a steadily increasing trend towards employment in the paid labour- force by married women. This has occurred in virtually every country in Western Europe, as well as in North America, especially among those with young children (Bjornberg, 1992; Brewster and Rindfuss, 2000), although in Europe the changes are mainly seen in part-time employment (Rosenfeld and Birkelund, 1995). Of course, employment was the norm for women in pre-industrial society and it was only with industrialization that the roles of women and men became separate and that the role of the housewife emerged (Lupri, 1983). In the state-socialist nations of eastern Europe, high rates of female labour- force participation have been the norm in the post-World War II era and these patterns reflect a somewhat different reality for women (Rueschemeyer and Szelenyi, 1989), at least until the fall of Communism in Eastern Europe.",
                "Recent research in Australia, the Netherlands, Germany, Great Britain, and the United States shows that, in part as a consequence to changes in women's employment, attitudes and beliefs have become steadfastly more supportive of women's dual family and work roles (Cherlin and Walters, 1981; Scott et al., 1993, 1996; Evans, 1995; Alwin et al., 1996; Brewster and Padavic, 2000; Thornton and Young-DeMarco, 2001). Changes in beliefs and attitudes have been experienced to a greater extent among educated women, those with labour- force experience, and those with non-fundamentalist religious orientations (Thornton et al., 1983). These changes have occurred for both women and men, although changes for men have lagged behind those of women (e.g. Mason and Lu, 1988; Brewster and Padavic, 2000).",
                "Modern theories of social change rest on the idea that culture, social norms, and social behaviour change through two main mechanisms: (i) through intra-cohort change, or changes undergone by individuals (due to aging or period effects), and (ii) through cohort replacement, or the succession of cohorts or generations (Mannheim, 1952; Ryder, 1965). Underlying the cohort succession mechanism of social change is the assumption that beliefs are formed in youth and remain relatively stable thereafter (Alwin and McCammon, 2003). Methods of decomposing social change into intra-cohort change and cohort succession, linking processes of individual and social change, have been used in previous research to examine changes in attitudes and beliefs toward women's work and family roles in the United States and internationally (Mason and Lu, 1988; Firebaugh, 1992; Neve, 1995; Alwin and Scott, 1996). It is through a combination of both mechanisms that dramatic changes in gender beliefs have occurred in most Western countries over the last half-century.",
                "In explaining why individuals change their gender attitudes and beliefs, previous research has largely drawn on interest-based and exposure-based models of change in beliefs (Bolzendahl and Myers, 2004). According to interest-based models, individuals adopt egalitarian gender beliefs, when it is in their best interest to do so (Huber and Spitze, 1981; Morgan and Walker, 1983; Thornton et al., 1983; Mason and Lu, 1988). When a mother works outside the home, it becomes difficult for her to maintain the belief that maternal employment has a negative effect on children. In response to her labour force participation, a mother working for pay is likely to adopt a more progressive or egalitarian set of gender beliefs in order to maintain consistency in her behaviour and beliefs (Huber and Spitze, 1981; Thornton et al., 1983). Similarly, when women recognize they may need to financially support their household at some point during their lives, they are also more likely to reject a gendered division of labour that perpetuates the economic dependency of women.",
                "Exposure-based models, on the other hand, predict that individuals adopt egalitarian gender beliefs after being exposed to non-traditional ideologies through socialization, education, or personal experiences (Klein, 1984; Cassidy and Warren, 1996; Bolzendahl and Myers, 2004). According to exposure models, women's exposure to discrimination in the workplace and their recognition of their ability to perform 'male jobs' lead to the adoption of more liberal gender beliefs (Klein, 1984). Similarly, women and men who have been exposed to feminist ideology through higher education or have been socialized to support feminist ideals are also considered more likely to adopt egalitarian beliefs than those without such exposure.",
                "The interest-based and exposure-based models of gender belief acquisition and change found in the literature inform our analysis but, for several reasons, it is not possible, and/or appropriate, for us to test them directly. First, although the proposed mechanisms of change are different in the two theories, the predicted outcomes are not. For example, according to both theories, increased educational attainment is predicted to lead women to adopt more egalitarian gender beliefs either because of their increased employability which translates into an 'interest' in gender equality, or because of their exposure to egalitarian ideology (Luck and Hofacker, 2003). Second, these models explicitly deal with individual change over time--with individuals adopting beliefs or changing previously-held gender beliefs. Our data, however, do not lend themselves to the analysis of individual changes in beliefs over time. Rather, the strength of repeated cross-sectional data is that they allow for the decomposition of population-level changes into change motivated by cohort replacement and change motivated by intra-cohort change. Third, these models do not account for the necessity of employment for some groups of women. While some women may adapt their gender beliefs to achieve consistency between their beliefs and their behaviours, other women who must work out of necessity may be more reluctant to change their beliefs and instead maintain a distinction between their work obligations and their ideal gender beliefs (Lee, 2006). In other words, there is not necessarily a close fit between societal norms and behaviour (Hakim, 2003). Finally, these theories of gender belief acquisition and change do not take into account the cultural and institutional contexts in which work decisions are embedded. In the former East Germany, interest-based models of gender belief acquisition and change may not be appropriate given the different motivations for labour force participation than in West Germany, for example. In the East, women were compelled to work for pay by communist ideology whereas in the West, labour force participation was more of a personal choice. For these reasons, the focus of our analysis will be on examining the relative contribution of these different processes of change rather than on the individual-level mechanisms of change. At the same time, we consider women's labour force participation and schooling to be linked to gender beliefs, whether through interest-based or exposure-based mechanisms."
            ]
        },
        {
            "title": "The Case of Germany",
            "paragraphs": [
                "For cohorts growing up in the GDR, socialist theory promoted gender equality through the employment of women. Women did not choose between work for pay and family; rather, employment was the expectation for all women. By 1988, 83 per cent of women in the GDR were working for pay compared to only 55 per cent of their counterparts in the former West Germany or Federal Republic of Germany (FRG) (Pritchard, 2003). In fact, the GDR had the highest rate of female employment in the world (Pritchard, 2003).2 The family context for those who grew up in the GDR included enrollment in childcare from infancy and the full time employment of both parents. Social policy in the GDR served to support women as single mothers and also the integration of women in the workplace. East German women married and had children earlier than their West German peers because of government claims that postponing childbirth negatively affected children's health, housing policies that provided restricted goods and services to families, and restricted leisure and consumption (Huinink and Kreyenfeld, 2006). Benefits provided to single mothers unintentionally encouraged divorce and births out of wedlock in the GDR (Mayer, 2006). Policies such as the 'baby year' and shorter work hours for mothers served to keep mothers in the work force. Officially, GDR policy placed a premium on gender equality and set out to attain this through the integration of women in the workplace.",
                "Unofficially, however, women in the GDR continued to bear the responsibility for the family and household, despite their full-time participation in the labour market (Kolinsky and Nickel, 2003; Uhlendorff, 2003). Although women were employed in great numbers and wanted to work outside the home (Kolinsky, 2003), they were concentrated in low-pay, low-prestige occupations. Women accepted jobs below their qualification level in order to combine family and work for pay and companies often placed women in positions of lower responsibility in anticipation of the family-related absences that they would be taking (Engelbrech, 1991; Mayer, 2006). In this way, the outward appearance of gender equality in the GDR betrayed the underlying persistence of gendered family roles and a gender-segregated labour market.",
                "Among birth cohorts who grew up in the West, a different family and cultural context shaped their socialization. The single breadwinner family model was the ideal in the FRG and social policy sought to support this family form. According to Ostner (1993: 98): 'policies of the 1950s [in West Germany] followed the line 'neither Nazi nor GDR' and emphasized the role of the family as a bulwark against communism and other forms of totalitarianism.' Both officially and informally, cohorts socialized in the cultural context of the FRG are likely to have been taught that gender differences are important and that a woman's primary responsibility should be to her family. In fact, until 1977, married women were expected by law to specialize in unpaid caregiving and housework (Buchholz and Grunow, 2006). Unlike the contradiction between official policy and the reality of a gendered home life in the GDR, both the state and the family contexts of socialization in the FRG were highly gendered (Ostner, 1998; Ostner et al., 2003). In this way, the gender beliefs of West and East Germans were influenced by significantly different political and social contexts before reunification."
            ]
        },
        {
            "title": "Research Questions and Preliminary Evidence",
            "paragraphs": [
                "Using data from the German ALLBUS surveys (otherwise known as the German General Social Survey) from 1982 to 2004, we ask whether the differences in beliefs observed in the early 1990s between the two regions of Germany are still present in the early part of the 21st century, some 14 years after reunification in 1990. In addition, we address the question of the extent changes in beliefs about gender are uniform across birth cohorts. Specifically, are changes in beliefs about gender across Germany due to processes of cohort replacement (as has been identified in studies conducted in the United States and Western Europe), or to 'intra-cohort' change? And are the relative contributions of these factors to changes in gender beliefs similar across the major regions of reunified Germany?",
                "Much of the existing evidence suggests that regional differences in gender beliefs and attitudes have persisted. According to interest-based and exposure-based models of change in beliefs and attitudes, multiple factors (including schooling, parents' gender ideology, and own work experience) are related to an individual's adoption of, and change in, gender beliefs. Female labour force participation is a readily-available indicator of one possible impetus for changing beliefs in a population. East German women are more likely to work in full-time jobs and more likely to return to the labour market quickly following childbirth than their West German counterparts (Engelbrech, 1997; Ostner, 1998b; Schenk, 2003). Within three years of childbirth, 60 per cent of East German women are employed again, compared to 48 per cent of West German women (Schenk, 2003). Although East German women are faced with new pressures to withdraw from the labour force because of high levels of unemployment (especially among women) and decreased availability of child care, most East German women want to remain in the labour force. According to qualitative research conducted by Beck (2003), East German women want to continue to combine work for pay and family in their lives. In fact, 90 per cent of unemployed women in East Germany are actively looking for employment (Schenk, 2003) and only 3 per cent of East German women want to be housewives (Pritchard, 2003). Two-thirds of employed women in the former East Germany claim that they would work for pay even if they did not need the money (Engelbrech, 1991). Based on these findings, scholars have suggested that differences between the Eastern and Western regions will persist. According to Schenk (2003: 72): 'established gender relations [will] persist, even under the strain of structural and transformative change.'",
                "The question of convergence or maintenance of differences in gender beliefs remains unsettled, however. According to Holzler: 'it cannot be predicted whether these transformed living conditions will enable East Germans to retain their values and lifestyles or whether West German ways will ultimately prevail' (1998: 142). Other evidence suggests that some convergence between the Eastern and Western regions may be occurring among younger cohorts in particular. While Eastern women who had already acquired their training, had become established in their careers, and had launched their families from their homes benefited from reunification and were able to move further up the career ladder than would have been possible in the GDR, younger women found themselves more frequently unemployed, passed over for more desirable male candidates without family responsibilities (Beck, 2003; Kolinsky and Nickel, 2003). In this way, the effects of reunification on the employment of women in the East varied by life stage at the time of reunification. Once unemployed, some young East German women seem to be falling back on more traditional gendered behaviours. According to Beck (2003), these unemployed women are taking on a greater share of the household labour partly because of increased time availability and also partly to contribute more to the household in compensation for their lost wages. East German women are losing their economic independence in reunified Germany (Ostner, 1993). As Beck explains, however: 'this does not imply that women are happy with this development or that it cannot have a negative effect on their well being' (2003: 183). At the same time, there is some evidence that in the former West Germany, there has been a change both between and within birth cohorts in gender beliefs, with respondents expressing declining support for a gendered division of labour in the years following reunification (Hofacker and Luck, 2004; Luck, 2005, 2006). Ultimately, the question of whether East and West German women's gender beliefs have converged or maintained their differences must be examined empirically, with particular attention paid to birth cohort (differences in the social and familial context of childhood and early adulthood) and historical time (differences in the period of measurement of beliefs)."
            ]
        },
        {
            "title": "Methods",
            "paragraphs": [
                "We analyse cross-sectional data from the German ALLBUS, which included measures of gender beliefs in six surveys occurring in 1982, 1991, 1992, 1996, 2000, and 2004 (Zentralarchiv fur Empirische Sozialforschung, 2005). Although the time span of available data is short for studying changes in beliefs in a population, we feel that the unique historical context of the reunification of East and West Germany makes this an important research question to address, allowing us to examine how beliefs have changed in the 14 years following reunification.",
                "Gender beliefs are conceptualized as 'cognitive representations of \"what is\" ' the appropriate gendered division of labour in the family (Alwin, 2005). The ALLBUS gender belief questions were taken from the American General Social Survey (GSS), which measured beliefs about the consequences of women working for pay on the family and an egalitarian gender ideology (see Table 1). The English translations of these questions are given in Table 1. Agreement with the belief that there are benefits derived from women's employment outside the home and that women should engage in market activities indicates egalitarian gender beliefs. Although gender beliefs could also be conceptualized as encompassing, for example, women's legal rights or issues of biological differences between the sexes, in this research, we concentrate on gender beliefs pertaining to women and men's roles in the family and market. ",
                "The questions listed in Table 1 are organized by headings that describe the theoretical constructs pertaining to gender beliefs assessed in this study. In order to determine the extent to which our prior expectations regarding the dimensionality of the ALLBUS measures were confirmed, we performed separate exploratory factor analyses (using the variables listed in Table 1) in each of four subgroups, defined by sex and region, allowing for correlated factors, but without any restrictions on the number of factors. We also conducted separate factor analyses for each of the survey years (1982, 1991, 1992, 1996, 2000, and 2004), and for the entire data set. Generally, we found two factors emerged, consistent with our expectations (with a few exceptions). As shown in Table 1, the factor loadings from these analyses suggested that FEPRESCH, FECHILD, and BETIFWRK define the Consequences of Women Working factor, and that FEFAM, FEHELP, and RENOUNCE define the Gender Ideology factor. However, we found that FEFAM generally had high loadings on both factors, prompting its inclusion as a measure of both factors. While the Consequences of Women Working factor specifically taps respondents' beliefs about the positive and negative consequences for children and the family as a whole when a woman works for pay, the Gender Ideology factor more generally taps respondents' beliefs about the appropriate roles for men and women in a family. These results determined the pattern of loadings specified in our confirmatory factor model, as shown in Figure 1. Throughout our multivariate analyses, we employed a confirmatory factor model based on these specifications. The results show that, although there are some apparent differences, the overall level of association between the measures and the latent variables is similar across the four groups. ",
                "After a series of tests for measurement invariance (Horn and McArdle, 1992), we concluded that the factor patterns could be constrained equal across gender groups within region (see Table 2). Furthermore, despite some regional differences among the respondents in the factor pattern coefficients in the East and West German samples, we concluded that our analysis goals were served by placing constraints on these coefficients across these samples. ",
                "We examined patterns of family and labour force experience among men and women in the ALLBUS samples by country and gender. Generally, we found that the East and West German samples are of comparable age, although, in the 1996-2004 surveys, women in the West were slightly younger than the women in the East. A larger proportion of men in the East report being married at the time of the survey in 1991 and 1992 but, otherwise, similar proportions of respondents from the East and West report being currently married. Larger proportions of the East German men are not working compared to West German men, and larger proportions of East German women are working for pay compared to their counterparts in the West. Part-time employment is more prevalent among West German than East German women. Except in the early 1990s, East Germans are less likely to have children in the household. Finally, the East German men report higher levels of schooling while East German women report higher levels through the 1992 survey, after which West German women report higher levels.",
                "We hypothesize that later-born cohorts will be different from earlier-born cohorts given their differing exposures to egalitarian ideas over their lives. We expect that earlier-born individuals would be less likely to express egalitarian gender beliefs due to the time period in which they acquired their beliefs."
            ]
        },
        {
            "title": "Trends in Gender Beliefs",
            "paragraphs": [
                "We begin our analysis of these data by tracking the percentages of men and women giving egalitarian responses to the measures of gender beliefs.3Table 3 displays the percentage of such responses in the ALLBUS data set. Over this 22 year period spanning (for the FRG) from before reunification, 1982, to 15 years after the fall of the Berlin Wall, 2004, there is a clear pattern of increasing acceptance of an extrafamilial role for women. Overall, the belief that women working for pay are able to establish warm relationships with their children (FECHLD) and the belief that it is not necessarily the case that women should help their husbands with their careers instead of trying to get ahead themselves (FEHELP) garnered the most support. The lowest levels of egalitarian support surrounded the belief that a child is likely to 'suffer' if his or her mother works for pay (FEPRESCH). Men in the West show particular concern regarding this consequence of women working with only 30 per cent of men in the West in 2004 disagreeing with the belief that a child is likely to 'suffer.' While men and women in both the East and West expressed the most concern regarding this particular consequence of women working, still 77 per cent of East German women gave an egalitarian response to this question (FEPRESCH) in 2004. Clearly, the state socialist provision of child care and preschool for children virtually removed the belief that women's working outside the home would harm their children. ",
                "Comparing West and East Germany in 1991 (the first year that data were available for both regions), the proportion of East German respondents expressing egalitarian gender beliefs was, in most cases, 10-20 percentage points higher than the proportion of West German respondents. Although both West and East Germans increased their acceptance of egalitarian gender beliefs from 1991 to 2004, the gap in beliefs between East and West increased for most indicators of gender beliefs in the ALLBUS data across this historical period. Instead of a convergence in beliefs between East and West after reunification, there appears to be a divergence, with the greater level of egalitarian beliefs held by East Germans the year after reunification only intensifying 13 years later. This pattern of divergence is clear in the ALLBUS measures of both the consequences of women working for pay and gender ideology. This contradicts speculation that the culture and lifestyle of the West might dominate the East following reunification (Holzler, 1998).",
                "For most measures of gender beliefs, differences between East and West are greater than differences by gender. Women are, overall, more egalitarian in their gender beliefs than the men within region, and, in most cases, the percentage egalitarian responses increased more over this historical period among women than among men.",
                "The data show that the gender gap in egalitarian gender beliefs either persisted or slightly increased from 1982 to 2004, depending on the indicator of gender beliefs examined. There is clearly a liberalization of gender beliefs between 1982 and 2004 in West and East Germany, with both men and women expressing decreased concern regarding the negative consequences of women working and overall increased belief in the importance of women's market labour. Some of this change may result from individuals changing their outlook as they experience a broader view of the role of women in society, or this may result from the replacement of cohorts. From these trend data alone, however, we cannot determine whether the changes in egalitarian beliefs over this 22 year period are attributable to individual change or the succession of birth cohorts. We turn now to an examination of these questions."
            ]
        },
        {
            "title": "Decomposition of Secular Change",
            "paragraphs": [
                "Before examining the relative contributions of cohort succession and intra-cohort change to the secular change in gender beliefs, we considered different metrics for the measurement of birth cohort. Others have criticized the linear measurement of time (Brooks and Bolzendahl, 2004), and so we first examine the population by historically-relevant birth cohort-groupings to see if cohort groupings are meaningful or if it is appropriate to measure cohort effects linearly in our decomposition analysis.4 Overall, our results support a more or less linear trend in the relationship between birth year and gender beliefs.5 We conclude that a linear function accurately represents the relationship between historical time and gender beliefs, making analysis by historically-relevant cohort groupings unnecessary.",
                "In order to detect the extent to which the secular changes reported above are due to processes of cohort turnover, versus changes happening within cohorts, we performed a set of analyses aimed at partitioning the two sets of influences. Preliminary analyses suggest that cohort replacement has contributed to the change in gender beliefs. We examined differences by birth cohort in gender beliefs (analyses not shown) and found that there are statistically significant differences among cohorts on virtually all measures of gender beliefs, providing initial evidence for the cohort replacement mechanism of social change. The earliest-born cohorts--those who grew to adulthood in the pre-War unified Germany--have the most traditional views about the role of women, although the women and men from these cohorts in East Germany take a vastly more egalitarian stance on all issues.",
                "Standard quantitative techniques were used to decompose social change (SC in Tables 4 and 5), that is, the differences in levels of egalitarian beliefs at the beginning and end of the period of study, (Firebaugh, 1989; Alwin and Scott, 1996) into that attributable to: (i) cohort replacement (CR in Tables 4 and 5), and that attributable to (ii) intra-cohort change (IC in Tables 4 and 5). As shown in Tables 4 and 5, we conducted these analyses across several different time segments within the West German samples, in order to see whether there were differences over time periods in the contribution of cohort replacement and within-cohort components: (a) across the entire 22-year period for which data are available--1982-2004; (b) the early part of this period--1982-1991; and (c) the late part of the period--1991-2004 in the ALLBUS data. ",
                "The results in Tables 4 and 5 reveal that whereas the secular shifts in the Consequences factor from 1982 to 2004 are evenly split between the early and late periods, almost all of the change in gender ideology occurred during the early period, 1982-1991. This pattern holds for both West German men and women. In the East German samples, while there is evidence of both cohort replacement and intra-cohort change, the latter is a much greater contributor to the secular trend. In the West German samples, and across all time periods studied, cohort replacement contributes to social change in gender beliefs as much as, and sometimes more than, intra-cohort change. These results suggest that the patterns of change in West German respondents' beliefs are more equally reflections of processes linked to historical and social change, and cohort socialization, whereas among respondents in East Germany, changes introduced by historical change--principally those events and processes linked to reunification--are much more important than cohort socialization.",
                "The addition of schooling and employment controls accounts for some of the between-cohort change in gender beliefs observed in West Germany, but substantial cohort replacement effects remain even after controlling for cohort differences in these factors. In the East, secular change in gender beliefs in the late period (1991-2004) continues to be largely explained by intra-cohort change and at least a third of the initial cohort replacement effect is explained by controlling for schooling differences alone. In other words, in the East much of the change in gender beliefs occurring through processes of cohort replacement is attributable to increasing levels of schooling and labour force participation in later-born birth cohorts; however, very little of the secular trend is represented by cohort replacement in the East. By contrast, between one-third and a half of the between-cohort change in gender beliefs in the West can be explained for women, and 15-20 per cent can be explained for men, by both schooling and employment status. However, even after controlling for schooling and employment, both intra-cohort and within-cohort processes appear to be motivating the secular change in gender beliefs in the West. With the controls, it appears that much of the change in the West in the early period (1982-1991) is attributable to intra-cohort change while cohort replacement plays a greater role in producing the change, particularly in gender ideology, in the late period of observation, 1991-2004. This makes intuitive sense: around the time of reunification, West Germans were likely to change their gender beliefs as a result of their increased interaction with the East, while in the years following reunification, change in gender beliefs came to be attributable to the slower processes of cohort replacement."
            ]
        },
        {
            "title": "Conclusion",
            "paragraphs": [
                "We find support for the conclusion that there are continued changes in gender beliefs in the reunified Germany across time, and for differences in gender beliefs by region, gender, women's employment, birth cohort, and schooling. Over the 22-year period covered by the ALLBUS data, there are clear patterns of an increasing acceptance of an extrafamilial role for women among West Germans. There is a liberalization of gender beliefs over the time period we studied, with both men and women in both East and West Germany expressing decreased concern about the negative consequences of women working outside the home and overall increased belief in the importance of women's market labour. Despite the social and economic changes affecting them after reunification, men and women from the former GDR have been steadfast in their support of egalitarian beliefs about the participation of women in the labour force.",
                "Women are, overall, more egalitarian in their gender beliefs than the men regardless of region, and, in most cases, the percentage egalitarian responses increased more over this historical period among women than among men. Although there are differences between men and women for most measures of gender beliefs, differences between East and West are greater than differences by gender.",
                "We were keen to examine the differences in trends between the two Germanies from 1991 (the first year that data were available for both regions) through to the present time in order to see whether gender beliefs converged over this time. The ALLBUS data suggest that the differences between men and women in egalitarian gender beliefs either persisted or slightly increased across the period studied, but this depends upon the indicator of gender beliefs examined. As it has been reported, levels of support for egalitarian gender beliefs in the former GDR were much higher than in the West. And while both West and East Germans increased their acceptance of egalitarian gender beliefs over this time, the gap in beliefs between East and West actually increased--so rather than a convergence in beliefs that some would have predicted, some of our data suggests there has been a growing regional difference over the 13 years reported here. While West Germans have adopted more egalitarian gender beliefs since reunification, East Germans have not weakened their egalitarian gender beliefs as a result of their increased interaction with the West.",
                "Our analysis of the components of change in gender beliefs across the time period studied suggests there are very different processes accounting for secular change in gender beliefs in the Eastern region of Germany compared to the West. Our argument about the importance of the socialization of gender beliefs in childhood and young adulthood is strongly supported in these data, owing to the cohort differences observed and the role of cohort replacement in accounting for part of the secular trends. At the same time, our analyses of cohort patterns in East Germany show that the secular changes happening within cohorts are vastly more important than factors tied to cohort socialization, whereas in the West the contributions to social change are more nearly equally located within and between cohorts. The predominance of intra-cohort mechanisms of change in the East may indicate that cohorts born in different historical contexts received similar socialization or may instead be a reflection of the remarkably high level of support for egalitarian gender beliefs even among earlier birth cohorts, leaving little room for change in more recent birth cohorts. In either case, it does not seem that, as older cohorts are replaced by younger cohorts, gender beliefs in the East will become more like those in the West, but rather that convergence in beliefs between the East and West will only occur as older cohorts in the West are replaced by younger cohorts and as individuals in the West adopt more egalitarian gender beliefs.",
                "The authors thank Claudia Nau for helping with the translation of German-language publications, Michael Braun and Ryan McCammon for technical assistance involving the use and analysis of the ALLBUS data, and Hannah Bruckner and three anonymous reviewers for their helpful comments. Duane F. Alwin was supported by the Tracy Winfree and Ted H. McCourtney professorship in sociology and demography and Kristen S. Lee by the post-doctoral training program in the demography of aging at the Population Research Institute, Penn State University, funded by the National Institute on Aging (T32 AG00208-15)."
            ]
        }
    ],
    "references": [
        "http://dx.doi.org/10.1177/0730888497024002006",
        "http://dx.doi.org/10.1353/sof.2005.0005",
        "http://dx.doi.org/10.1111/padr.2002.28.issue-3",
        "http://dx.doi.org/10.1111/jomf.2000.62.issue-2",
        "http://dx.doi.org/10.1146/annurev.soc.26.1.271",
        "http://dx.doi.org/10.1016/S0049-089X(03)00041-3",
        "http://dx.doi.org/10.1177/089124396010003007",
        "http://dx.doi.org/10.2307/2095264",
        "http://dx.doi.org/10.1111/labr.1991.5.issue-3",
        "http://dx.doi.org/10.1007/BF00136392",
        "http://dx.doi.org/10.1111/padr.2003.29.issue-3",
        "http://dx.doi.org/10.1525/ctx.2002.1.3.27",
        "http://dx.doi.org/10.1080/03610739208253916",
        "http://dx.doi.org/10.1093/sf/60.1.150",
        "http://dx.doi.org/10.1177/095001709372005",
        "http://dx.doi.org/10.1023/A:1024992712815",
        "http://dx.doi.org/10.1177/0891243206286727",
        "http://dx.doi.org/10.2307/1973316",
        "http://dx.doi.org/10.2307/2808120",
        "http://dx.doi.org/10.1007/BF01796593",
        "http://dx.doi.org/10.1023/A:1021125800070",
        "http://dx.doi.org/10.2307/1972499",
        "http://dx.doi.org/10.1177/089124388002001004",
        "http://dx.doi.org/10.2307/3033851",
        "http://dx.doi.org/10.1006/ssre.1995.1006",
        "http://dx.doi.org/10.1146/annurev.soc.30.012703.110531",
        "http://dx.doi.org/10.2307/2090964",
        "http://dx.doi.org/10.1023/A:1006289321032",
        "http://dx.doi.org/10.1177/0038038596030003004",
        "http://dx.doi.org/10.1111/bmsp.1974.27.issue-2",
        "http://dx.doi.org/10.2307/2095106",
        "http://dx.doi.org/10.1111/j.1741-3737.2001.01009.x"
    ],
    "title": "Beliefs about Women's Labour in the Reunified Germany, 1991 2004",
    "issue": "4",
    "volume": "23",
    "authors": [
        "Kristen S. Lee",
        "Duane F. Alwin",
        "Paula A. Tufi\u015f"
    ]
}