{
    "doi": "http://dx.doi.org/10.1177/0003122420980422",
    "abstract": "",
    "sections": [
        {
            "title": "Introduction",
            "subsections": [
                {
                    "title": null,
                    "paragraphs": [
                        "American Sociological Review, 2020",
                        "Volume 85, Numbers 1-6",
                        "Published bimonthly by the American Sociological Association",
                        "Abascal, Maria. Contraction as a Response to Group Threat: Demographic Declineand Whites' Classification of People Who Are Ambiguously White......................298",
                        "Altomonte, Guillermina. Exploiting Ambiguity: A Moral Polysemy Approach to Variation in Economic Practices......................76",
                        "Araki, Satoshi. Educational Expansion, Skills Diffusion, and the Economic Value of Credentials and Skills......................128",
                        "Arora, Vineet M. See Alexandra Brewer. .....................247",
                        "Barry, Leanne. See David Melamed......................1123",
                        "Bea, Megan Doherty. See Kelly Musick. .....................639",
                        "Becker, Sascha O., Yuan Hsiao, Steven Pfaff, and Jared Rubin. Multiplex Network Ties and the Spatial Diffusion of Radical Innovations: Martin Luther's Leadership in the Early Reformation......................857",
                        "Benson, Alan. See Aruna Ranganathan......................573",
                        "Breen, Richard. See Seongsoo Choi. .....................353",
                        "Brewer, Alexandra, Melissa Osborne, Anna S. Mueller, Daniel M. O'Connor, Arjun Dayal, and Vineet M. Arora. Who Gets the Benefit of the Doubt? Performance Evaluations, Medical Errors, and the Production of Gender Inequality in Emergency Medical Education......................247",
                        "Brown, Hana E. Who Is an Indian Child? Institutional Context, Tribal Sovereignty, and Race-Making in Fragmented States......................776",
                        "Burdick-Will, Julia, Jeffrey A. Grigg, Kiara Millay Nerenberg, and Faith Connolly. Socially Structured Mobility Networks and School Segregation Dynamics: The Role of Emergent Consideration Sets......................675",
                        "Bursell, Moa, and Filip Olsson. On the Methodological Difficulty of Identifying Implicit Racial Beliefs and Stereotypes......................1117",
                        "Cabus, Sofie. See Deni Mazrekaj......................830",
                        "Calarco, Jessica McCrory. Avoiding Us vs. Them: How Schools' Dependence on Privileged \"Helicopter\" Parents Influences Enforcement of Rules......................223",
                        "Chavez, Koji. See Adia Harvey Wingfield. .....................31",
                        "Choi, Seongsoo, Inkwan Chung, and Richard Breen. How Marriage Matters for the Intergenerational Mobility of Family Income: Heterogeneity by Gender, Life Course, and Birth Cohort......................353",
                        "Chung, Inkwan. See Seongsoo Choi. .....................353",
                        "Cohen, Yinon. See Tali Kristal. .....................271",
                        "Connolly, Faith. See Julia Burdick-Will. .....................675",
                        "Correll, Shelley J., Katherine R. Weisshaar, Alison T. Wynn, and JoAnne Delfino Wehner. Inside the Black Box of Organizational Life: The Gendered Language of Performance Assessment......................1022",
                        "Daminger, Allison. De-gendered Processes, Gendered Outcomes: How Egalitarian Couples Make Sense of Non-egalitarian Household Practices......................806",
                        "Daniel, Meghan. See Claire Laurier Decoteau......................451",
                        "Dayal, Arjun. See Alexandra Brewer. .....................247",
                        "De Witte, Kristof. See Deni Mazrekaj......................830",
                        "Decoteau, Claire Laurier, and Meghan Daniel. Scientific Hegemony and the Field of Autism......................451",
                        "DellaPosta, Daniel. Pluralistic Collapse: The \"Oil Spill\" Model of Mass Opinion Polarization......................507",
                        "Desmond, Matthew, Andrew V. Papachristos, and David S. Kirk. Evidence of the Effect of Police Violence on Citizen Crime Reporting......................184",
                        "Doering, Laura B., and Kristen McNeill. Elaborating on the Abstract: Group Meaning-Making in a Colombian Microsavings Program......................417",
                        "Estep, Kevin, and Pierce Greenberg. Opting Out: Individualism and Vaccine Refusal in Pockets of Socioeconomic Homogeneity......................957",
                        "Faber, Jacob W. We Built This: Consequences of New Deal Era Interventionin America's Racial Geography......................739",
                        "Fong, Kelley. Getting Eyes in the Home: Child Protective Services Investigations and State Surveillance of Family Life......................610",
                        "Friedman, Sam, and Aaron Reeves. From Aristocratic to Ordinary: Shifting Modes of Elite Distinction......................323",
                        "Gonalons-Pons, Pilar. See Kelly Musick. .....................639",
                        "Greenberg, Pierce. See Kevin Estep. .....................957",
                        "Grigg, Jeffrey A. See Julia Burdick-Will. .....................675",
                        "Harknett, Kristen. See Adam Storer. .....................537",
                        "Hook, Jennifer L., and Eunjeong Paek. National Family Policies and Mothers' Employment: How Earnings Inequality Shapes Policy Effects across and within Countries......................381",
                        "Hsiao, Yuan. See Sascha O. Becker......................857",
                        "Ibarra, Jonathan M. See Victor M. Rios......................58",
                        "Kiley, Kevin, and Stephen Vaisey. Measuring Stability and Change in Personal Culture Using Panel Data......................477",
                        "Kirk, David S. See Matthew Desmond. .....................184",
                        "Kreager, Derek A. See David R. Schaefer. .....................709",
                        "Kristal, Tali, Yinon Cohen, and Edo Navot. Workplace Compensation Practices and the Rise in Benefit Inequality......................271",
                        "Leckie, George. See Philipp M. Lersch. .....................1084",
                        "Lersch, Philipp M., Wiebke Schulz, and George Leckie. The Variability of Occupational Attainment: How Prestige Trajectories Diversified within Birth Cohorts over the Twentieth Century......................1084",
                        "Levy, Brian L., Nolan E. Phillips, and Robert J. Sampson. Triple Disadvantage: Neighborhood Networks of Everyday Urban Mobility and Violence in U.S. Cities......................925",
                        "Mazrekaj, Deni, Kristof De Witte, and Sofie Cabus. School Outcomes of Children Raised by Same-Sex Parents: Evidence from Administrative Panel Data......................830",
                        "McNeill, Kristen. See Laura B. Doering......................417",
                        "Melamed, David, Leanne Barry, Bradley Montgomery, and Oneya F. Okuwobi. Measuring Racial Status Beliefs with Implicit Associations......................1123",
                        "Montgomery, Bradley. See David Melamed......................1123",
                        "Mueller, Anna S. See Alexandra Brewer. .....................247",
                        "Musick, Kelly, Megan Doherty Bea, and Pilar Gonalons-Pons. His and Her Earnings Following Parenthood in the United States, Germany, and the United Kingdom......................639",
                        "Navot, Edo. See Tali Kristal. .....................271",
                        "Nerenberg, Kiara Millay. See Julia Burdick-Will. .....................675",
                        "O'Connor, Daniel M. See Alexandra Brewer. .....................247",
                        "Okuwobi, Oneya F. See David Melamed......................1123",
                        "Olsson, Filip. See Moa Bursell. .....................1117",
                        "Osborne, Melissa. See Alexandra Brewer. .....................247",
                        "Paek, Eunjeong. See Jennifer L. Hook. .....................381",
                        "Papachristos, Andrew V. See Matthew Desmond. .....................184",
                        "Paxton, Pamela, Kristopher Velasco, and Robert W. Ressler. Does Use of Emotion Increase Donations and Volunteers for Nonprofits?.....................1051",
                        "Pfaff, Steven. See Sascha O. Becker......................857",
                        "Phillips, Nolan E. See Brian L. Levy. .....................925",
                        "Prieto, Greg. See Victor M. Rios......................58",
                        "Ranganathan, Aruna, and Alan Benson. A Numbers Game: Quantification of Work, Auto-Gamification, and Worker Productivity......................573",
                        "Rawlings, Craig M. Cognitive Authority and the Constraint of Attitude Change in Groups......................992",
                        "Reeves, Aaron. See Sam Friedman......................323",
                        "Reich, Jennifer A. Vaccine Refusal and Pharmaceutical Acquiescence: Parental Control and Ambivalence in Managing Children's Health......................106",
                        "Ressler, Robert W. See Pamela Paxton. .....................1051",
                        "Rios, Victor M., Greg Prieto, Jonathan M. Ibarra. Mano Suave-Mano Dura: Legitimacy Policing and Latino Stop-and-Frisk......................58",
                        "Romero, Mary. 2019 Presidential Address: Sociology Engaged in Social Justice......................1",
                        "Rubin, Jared. See Sascha O. Becker......................857",
                        "Sampson, Robert J. See Brian L. Levy. .....................925",
                        "Schaefer, David R., and Derek A. Kreager. New on the Block: Analyzing Network Selection Trajectories in a Prison Treatment Program......................709",
                        "Schneider, Daniel. See Adam Storer. .....................537",
                        "Schulz, Wiebke. See Philipp M. Lersch. .....................1084",
                        "Simmons, Michaela Christy. Becoming Wards of the State: Race, Crime, and Childhood in the Struggle for Foster Care Integration, 1920s-1960s......................199",
                        "Smith, Chris M. Exogenous Shocks, the Criminal Elite, and Increasing Gender Inequality in Chicago Organized Crime......................895",
                        "Storer, Adam, Daniel Schneider, and Kristen Harknett. What Explains Racial/Ethnic Inequality in Job Quality in the Service Sector?.....................537",
                        "Vaisey, Stephen. See Kevin Kiley......................477",
                        "Velasco, Kristopher. See Pamela Paxton. .....................1051",
                        "Wehner, JoAnne Delfino. See Shelley J. Correll......................1022",
                        "Weisshaar, Katherine R. See Shelley J. Correll......................1022",
                        "Wingfield, Adia Harvey, and Koji Chavez. Getting In, Getting Hired, Getting Sideways Looks: Organizational Hierarchy and Perceptions of Racial Discrimination......................31",
                        "Wynn, Alison T. See Shelley J. Correll......................1022",
                        "Zoorob, Michael. Do Police Brutality Stories Reduce 911 Calls? Reassessing an Important Criminological Finding......................176"
                    ]
                }
            ]
        }
    ],
    "references": [],
    "title": "Index",
    "issue": "6",
    "volume": "85",
    "year": 2020,
    "issn": "0003-1224",
    "journal": "American Sociological Review",
    "authors": [
        ""
    ]
}