{
    "doi": "http://dx.doi.org/10.1177/0003122416663917",
    "abstract": "The shift to more time-intensive and child-centered parenting in the United States is widely assumed to be positively linked to healthy child development, but implications for adult well-being are less clear. We assess multiple dimensions of parents\u2019 subjective well-being in activities with children and explore how the gendered nature of time potentially contributes to differences in mothers\u2019 and fathers\u2019 parenting experiences. Relying on nationally representative time diary data linked to respondents\u2019 feelings in activities from the 2010, 2012, and 2013 well-being module of the American Time Use Survey (N = 12,163 persons and 36,036 activities), we find that parents consistently report greater subjective well-being in activities with children than without. Mothers, however, report less happiness, more stress, and greater fatigue in time with children than do fathers. These gaps are relatively small and can be accounted for by differences in the activities that mothers and fathers engage in with children, whether other adults are present, and the quality of their sleep and leisure. We go beyond prior work on parental happiness and life satisfaction to document how contemporary parenting is woven differently into the lives of mothers and fathers.",
    "sections": [
        {
            "title": "Introduction",
            "subsections": [
                {
                    "title": null,
                    "paragraphs": [
                        "Growing evidence points to a cultural shift to more time-intensive and child-centered parenting in the United States (Hays 1996; Lareau 2002), a trend widely assumed to be linked to healthy child development (Kalil, Ryan, and Corey 2012; Lareau 2003, 2011). Implications of time with children for adult well-being are less clear. Most adults report strong childbearing desires and regard parenthood as central to a meaningful life (Hansen 2012; Morgan and King 2001). At the same time, being a parent comes with many stressors, particularly in the United States, where there is little public support for childrearing (Glass, Simon, and Andersson forthcoming; Margolis and Myrskyla 2011). A number of studies document lower subjective well-being among parents compared to people without children (Aassve, Goisis, and Sironi 2012; Hansen 2012; McLanahan and Adams 1987; Simon 2008; Stanca 2012; but see Herbst and Ifcher [forthcoming] for a recent departure), especially mothers (Bird 1997; Hansen 2012; Nomaguchi and Milkie 2003). A smaller crop of studies finds that parenting is a mixed bag, with some experiences being meaningful, joyful, or rewarding, and others that are frustrating, boring, or exhausting (Blair-Loy 2003; Deaton and Stone 2013). All of these conflicting emotions are succinctly captured in the well-publicized parenting article, and later book, All Joy and No Fun (Senior 2010, 2014). The intensity of positive and negative feelings in parenting may be especially true of mothers, who invest more heavily in the parental role for self-concept (Blair-Loy 2001; Simon 1992), are more involved in parenting (Musick and Bumpass 1999; Sayer, Bianchi, and Robinson 2004), and have less quality downtime to buffer parental strain (Bittman and Wajcman 2000; Burgard and Ailshire 2013; Craig and Mullan 2013; Mattingly and Bianchi 2003).",
                        "We rely on a novel data source and a novel approach to gain empirical insight into mothers' and fathers' subjective experiences in parenting. This study expands current research by (1) assessing reports from a large, nationally representative sample of well-being tied directly to time in selected activities throughout the day; (2) examining multiple aspects of subjective well-being, including negative, positive, and purpose-related dimensions; and (3) more fully accounting for gender differences in the nature of parents' time with children, tapping what the literature suggests may differentially shape mothers' and fathers' parenting experiences. Our approach contributes to knowledge about the contextual features that play into well-being in \"doing\" parenting, and in particular the ways in which parenting is woven differently into the lives of mothers and fathers."
                    ]
                }
            ]
        },
        {
            "title": "Background",
            "subsections": [
                {
                    "title": "Parenting and Subjective Well-Being",
                    "paragraphs": [
                        "Parenthood provides individuals with a sense of purpose, identity, and social connection (Hansen 2012), yet it also requires emotional and time commitments that may generate financial strain (Edin and Kefalas 2005; Warren and Tyagi 2003), marital dissatisfaction (Lawrence et al. 2008; Tweng, Campbell, and Foster 2003), and conflict in managing work and family (Craig 2007; Kimmel and Connelly 2007; Milkie et al. 2004; Sayer 2005). Increases in mothers' labor market hours and dual-earning families have coincided with what appear to be increasing time demands on parents (Bianchi 2000; Gauthier, Smeeding, and Furstenberg 2004). Recent studies document a shift in parenting norms and expectations toward more time-intensive and enrichment-oriented parenting (Hays 1996; Kalil et al. 2012; Lareau 2003). In the contemporary U.S. context, there is little policy support to mitigate the \"second shift\" associated with parenting (Hochschild 1989); for example, the United States is unique among its industrialized peers in providing no federal entitlement to paid parental leave (Glass et al. forthcoming; Gornick and Meyers 2005) and very limited public childcare support (Boeckmann, Misra, and Budig 2015). Consistent with these parenting-related stressors, a substantial body of work shows lower levels of subjective well-being among parents compared to men and women without children, although findings vary by the outcome measured and parents' circumstances (Aassve et al. 2012; Deaton and Stone 2013; Kohler, Behrman, and Skytthe 2005; Margolis and Myrskyla 2011; Mirowsky and Ross 2002; Myrskyla and Margolis 2014; Nomaguchi and Milkie 2003; Pollmann-Schult 2014; Woo and Raley 2005). These studies assess well-being as it relates to individuals' role status as parents, not to their time in parenting activities.",
                        "Many fewer studies examine the links between doing parenting activities and parents' emotional well-being. Results from this smaller body of work are somewhat mixed, although they tend toward more positive associations than those on parenthood and well-being. Kahneman and colleagues' 2004 study pioneered the day reconstruction method (DRM), which combines a time diary with questions about feelings in specific activities throughout the day. Their findings stand out in showing relatively negative outcomes. Based on a sample of 909 employed mothers in Texas, they found that \"taking care of my children\" ranked poorly on mean positive affect relative to other activities--below shopping and preparing food and barely above housework (see their Table 1). Tabulations from the 2010 WB-ATUS, collected via DRM, show that parents assess childcare as more meaningful than paid work, nonmarket work, and leisure, although also as more tiring (Wang 2013). Connelly and Kimmel (2015) elaborate on these findings using the same data and an aggregated measure of subjective well-being, finding high overall affect in childcare, particularly among fathers.",
                        "Greater enjoyment in childcare, particularly among fathers, is consistent with U.S. and British time use studies from the mid-1980s (Gershuny 2013; Sullivan 2013) and is further echoed in work by Nelson and colleagues (2013) and by Offer (2014). Nelson and colleagues use DRM applied to a sample of 186 parents and show greater positive emotion and meaning among parents--especially fathers--when engaged in childcare compared to other activities. Offer (2014) examines a broader set of activities with children among 693 advantaged, dual-earner parents. Data were collected using an experience sampling method, in which subjects respond to beeps throughout the day by recording details of what they were doing and how they were feeling. Relative to time away from children, mothers and fathers reported greater positive affect in shared meals and leisure with children; mothers (only) reported more stress in basic childcare.",
                        "The weight of the findings on well-being tied to particular activities shows that parents enjoy childcare and find it to be a meaningful activity. Yet consistent with the potential for strain associated with the emotional and time commitments of parenting, there is also evidence of fatigue and stress in childcare relative to other activities, particularly among mothers. Research is limited, however--particularly based on broadly representative samples--and questions remain open about how gendered meanings of time with children play into well-being in parenting (e.g., Campos et al. 2013; Larson, Richards, and Perry-Jenkins 1994; for a review, see Nelson, Kushlev, and Lyubomirsky 2014)."
                    ]
                },
                {
                    "title": "Parenting and Subjective Well-Being",
                    "paragraphs": [
                        "As noted, much of what we know about parental well-being is based on global assessments of well-being, largely with a positive valence, for example: \"All things considered, how satisfied are you with your life as a whole these days?\" and \"Taking all things together, how happy would you say you are?\" (Stanca 2012). Divorced from time use, they provide an evaluation of various aspects of life as a whole and, as such, are more sensitive to long-term aspirations, relative position, and notions of what is socially desirable (Kahneman and Krueger 2006; National Research Council 2012). Global assessments reflect different aspects of life than do measures more closely tied to experiences and they can have different correlates (see Deaton 2012; Kahneman and Deaton 2010). Deaton and Stone (2013) show that whereas global assessments of life satisfaction are consistently lower among parents, parents' reports of daily emotions are mixed; in particular, parents report more positive (joy) and negative (stress) emotions than do men and women without children in the home.",
                        "According to Kahneman and Krueger (2006:22), measures tied to activities \"have the advantage of minimizing the filter of memory and of connecting well-being to something that matters a great deal and can be varied--how people spend their time.\" Momentary assessments tend to be more reliable than global assessments. For example, they are less sensitive to questions that precede them in a survey (Kahneman and Krueger 2006; National Research Council 2012). They further mitigate threats to validity due to adaptation, or the tendency for people to eventually adjust their subjective well-being to changes in life circumstances (see Lucas et al. 2003). Finally, when asked across activities, momentary assessments provide leverage in teasing out stable, individual characteristics (e.g., a generally positive disposition) from the contexts in which activities take place.",
                        "Momentary assessments of well-being are more responsive than global measures to the specifics of context and allow for questions that go beyond who is happy to questions of when and why, providing a critical perspective on parental well-being and what plays into it. Subjective well-being (especially stress) matters for health (for a review, see Thoits 2010), and a growing literature emphasizes the importance of situational contexts in shaping emotions (Simon and Nath 2004). Focusing on well-being specifically tied to activities with children draws attention to how differences in the nature of time with children--the kinds of activities parents engage in, who else is present, and other contextual factors that spill into parent-child interactions--play into the joys and strains of parenting, and do so differently by gender."
                    ]
                },
                {
                    "title": "Parenting and Subjective Well-Being",
                    "paragraphs": [
                        "Scholarship and commentary point to an intensification of the role of parents over the past few decades, especially for mothers (Hays 1996; Lareau 2003; Sayer et al. 2004). Milkie and colleagues (2010) argue that time with children is now a \"critical barometer\" of model parenting. Most of the studies described earlier suggest that mothers are worse off in parenting than fathers. This may be due to the different meanings of parenting for mothers and fathers.",
                        "The salience of the parental identity for women may make them more protective of the role and vulnerable to threats--such as market work--to their ability to enact it (Blair-Loy 2001; Pollmann-Schult 2014; Sayer 2005; Simon 1992). Alongside more demanding expectations of motherhood, mothers' labor force participation rates have increased nearly 60 percent since 1965 (from 45 to 78 percent), and their average hours of market work more than tripled in this same time frame (Bianchi 2011). Despite an increasing \"provider\" role for mothers, the \"good mother\" role still carries expectations of primary caregiving. Conflicting ideologies of the good mother and good worker create tension and feelings of inadequacy (Blair-Loy 2003; Correll, Benard, and Paik 2007; Daly 2001; Rizzo, Schiffrin, and Liss 2013; Simon 1995). Indeed, most working mothers report feeling conflict between family and work (Parker and Wang 2013), and their perceived time deficits with children are more closely tied to their well-being than is the case for fathers (Nomaguchi, Milkie, and Bianchi 2005; Simon 1995).",
                        "The fatherhood role has long been viewed as intertwined--even synonymous--with the provider role (Marsiglio and Roy 2012; Taylor et al. 2013). Nonetheless, recent decades have seen a shift toward greater father involvement and its importance for men's fulfillment (Goldscheider, Bernhardt, and Lappegard 2015; Harrington, Van Deusen, and Humberd 2011; Milkie and Denny 2014). In contrast to the inflexibility of the good mother role, however, multiple models of good fathering have emerged that emphasize, to varying degrees, fathers' contributions as breadwinners and caretakers (Kaufman 2013). The existence of multiple acceptable models may make fathers less susceptible to role strain and difficult-to-meet social expectations and leave more room for enjoyment. With only one acceptable good mother model--committed, ever-available, deeply involved--mothers may more consistently derive meaning from parenting than fathers, but they may also experience more stress. Findings on gender differences in work-family conflict are mixed, at least in part because of differences in how conflict is measured. For example, mothers are more likely to say it is difficult to \"balance the responsibilities of their job and their family\" (Parker and Wang 2013), but fathers more often report feeling they have too little time with their children, which is strongly related to work hours (Milkie et al. 2004).",
                        "In part reflecting the ideologies of motherhood and fatherhood, differences in the nature of men's and women's time with children may factor into their emotional responses to parenting. Recent estimates show that married mothers' time in primary childcare is about two times higher, and overall time with children 1.5 times higher, than married fathers' time (Bianchi 2000; Parker and Wang 2013). Women do more of the day-to-day, time-inflexible basic care and management tasks related to childcare, and they spend a smaller share of their overall minutes with children in play (Raley, Bianchi, and Wang 2012; Sayer 2005; Sayer et al. 2004; Yeung et al. 2001). Mothers are also more often alone with their children than fathers (Craig and Mullan 2011; Kalil, Ryan, and Chor 2014; Raley et al. 2012). Bianchi (2000:412) related mothers' roles in the United States today to those of \"sweepers\" in soccer who do what they must to cover the goal: \"In protecting the goal, first things come first: Mothers may have the luxury of worrying about providing fun, stimulation, and educational outings for their children, but only after they can ensure that their children are clothed, well nourished, and safe.\" Fathers, even some with breadwinning spouses, tend to take on the secondary parent or \"helper\" role that allows for greater leeway and less responsibility (Larson et al. 1994; Latshaw and Hale 2016; Raley et al. 2012).",
                        "Perhaps not surprisingly, parents find routine childcare to be less pleasant than play or other leisure activities with children (Connelly and Kimmel 2015; Offer 2014). Basic caregiving tasks and solo care of children are indicators of who takes responsibility for children's needs, and as such are an important dimension of gender inequality in childcare (Doucet 2015). The unequal distribution of parental responsibilities and associated strains are linked to greater distress and anger among mothers than among fathers (Bird 1997; Ross and Van Willigen 1996). Limited empirical evidence suggests that the nature of mothers' time with children--in particular, their disproportionate share of basic and solo care--may contribute to lower well-being in mothering versus fathering.",
                        "The quantity and quality of downtime may also affect parents' well-being in time with children--and gender disparities in downtime may factor into differences in mothers' and fathers' experiences of parenting. Sleep deficits reduce cognitive function and are associated with poorer health, less enjoyment, and harsher parenting (Buxton and Marcelli 2010; Dunifon et al. 2013; Kahneman et al. 2004; Kronholm et al. 2009). A lack of free time and poor-quality free time are associated with heightened time pressure and reduced well-being (Bird and Fremont 1991; Mattingly and Sayer 2006; Nomaguchi et al. 2005). Increased free time for men is more strongly associated with reduced perceptions of time strain (\"feeling rushed\") than it is for women, indicating that leisure may not be as restorative for women as for men (Mattingly and Bianchi 2003; Mattingly and Sayer 2006; Nomaguchi et al. 2005).",
                        "Mothers spend somewhat less time in leisure than do fathers, but differences in parents' types of leisure activities are potentially more consequential for assessing gender differences in the quality of leisure (Craig and Mullan 2013; Mattingly and Bianchi 2003). Mothers more often organize leisure activities for the family, entailing monitoring and management that make leisure less relaxing (see Deem 1996). Consistent with this notion, Freysinger (1994) found that both parents enjoy leisure with children, but the benefit is greater for fathers than for mothers. Mothers multitask more often, resulting in more of their leisure being interrupted and \"contaminated\" by other activities (Bittman and Wajcman 2000; Craig and Mullan 2013; Mattingly and Bianchi 2003). Mothers also spend less of their leisure with adults only and more with children only (Bittman and Wajcman 2000; Mattingly and Bianchi 2003). Mattingly and Bianchi (2003) note that many parents cherish free time with children, and they suggest caution in assuming that leisure with children only is of lower quality than \"pure\" leisure spent with adults only; they nonetheless point out that this time is likely more constrained in its range of activities and necessarily involves being on task to respond to others' needs, and as such may be less restorative.",
                        "In contrast to the small gender gap in leisure that favors men, women report getting more sleep than men (Burgard and Ailshire 2013). Like leisure, however, evidence suggests that women's sleep may be less restorative than men's, with more interruptions (Hislop and Arber 2003; Maume, Sebastian, and Bardo 2009). Mothers respond to caregiving-related sleep interruptions more than fathers (Burgard and Ailshire 2013), and they also experience sleep disruptions due to more \"sentient\" activity, such as strategizing about family emotional management and keeping track of the to-do list (Venn et al. 2008). The lower quality of women's sleep and (potentially) leisure may thus reflect the strain of primary parenting and in turn affect the quality of family interactions (Burgard and Ailshire 2013; Mattingly and Bianchi 2003)."
                    ]
                },
                {
                    "title": "Parenting and Subjective Well-Being",
                    "paragraphs": [
                        "The sociodemographic characteristics of mothers and fathers may confound assessments of well-being in parenting (for a detailed discussion, see Deaton and Stone 2013; Herbst and Ifcher forthcoming). Parental happiness is positively associated with parental age, but negatively associated with the number of children one has (Kohler et al. 2005; Margolis and Myrskyla 2011). Findings are mixed on the link between parents' well-being and children's age: some find that parents of older children have less stress (Umberson, Pudrovska, and Reczek 2010); others find that parents with younger children report better psychological well-being, including lower levels of stress (Musick and Meier 2014; Nomaguchi 2012). Marcussen and Piatt (2005) show that social roles in family and work are differentially linked to well-being for blacks and whites, indicating race and ethnic well-being differences in parenting. Single parenthood and low income are stress factors in parenting (Bird 1997; Nomaguchi and Milkie 2003), and both are more common among mothers than fathers. Employed mothers report more fatigue in parenting than do non-employed mothers, but are otherwise better off in overall affect, particularly compared to non-employed single mothers (Meier et al. 2016). A strong body of research on social class differences in parenting suggests that parents (especially mothers) with higher education engage in more \"concerted cultivation\" and \"teaching\" types of childcare than do parents with lower education (Kalil et al. 2012; Lareau 2003, 2011), which may be particularly meaningful but also stressful."
                    ]
                },
                {
                    "title": "Parenting and Subjective Well-Being",
                    "paragraphs": [
                        "Features of parenting activities can also contribute to how they are experienced. With regard to the rhythms of family life, weekends tend to be more relaxing than weekdays, and activities in this context may be more enjoyable and less stressful, and parents may be less fatigued (Stone, Schneider, and Harter 2012). Prior research indicates peaks and troughs in parenting emotions throughout the day, with a notable trough around dinnertime (Campos et al. 2013), indicating that the time of day of parenting activities may contribute to how they are experienced. Furthermore, within a particular activity, emotions may vary according to the duration of the activity. Some research suggests the possibility of diminishing returns in time with children (Connelly and Kimmel 2015; Oster 2013). Finally, the location of parenting activities may shape how they are experienced. For example, parenting while at work may be particularly stressful due to role strain in the moment, compared to parenting activities at home or in other public places (e.g., parks or shopping malls)."
                    ]
                }
            ]
        },
        {
            "title": "Our Study",
            "subsections": [
                {
                    "title": null,
                    "paragraphs": [
                        "In summary, relative to the literature on how tasks are allocated, we know little about how parenting activities are associated with parental well-being. Limited research shows that parents enjoy their time with children, although mothers less so than fathers. Our review suggests that ideologies of good parenting, the nature of time with children, and the quality of downtime may all factor into gender differences in well-being in parenting, and that momentary, multidimensional assessments provide a useful lens with which to capture these gendered experiences. We draw on the well-being module in the ATUS that includes respondent reports of momentary well-being in three randomly selected activities throughout the day--an important resource for research on health and well-being, which to date has been based largely on global assessments \"divorced from measures of time use or context\" (National Research Council 2012:7).",
                        "Our study contributes to the literature in three primary ways. First, our focus on well-being tied directly to time use in a nationally representative sample sheds new light on how the day-to-day context of parenting plays into mothers' and fathers' well-being. Moreover, within-person variation in activities provides leverage in teasing out the effects of parenting from selection into parenthood--a vexing problem in studies of parental well-being.",
                        "Second, we assess costs and rewards of parenting and the possibility that this mix differs for mothers and fathers. Recent reviews point in particular to the importance of examining positive and negative dimensions of well-being (which are not always inversely related), as well as an indicator of meaning or purpose (Kapteyn et al. 2013; Krueger et al. 2009; OECD 2013; Stone and Mackie 2013). Hansen (2012) speculates that the body of literature demonstrating a negative relationship between parenthood and well-being errs in focusing on satisfaction and happiness, because the benefits of having children may come in the form of other affective rewards with positive valence, like meaning. We look systematically at the notion that parenting is a mixed bag of joy and strain (Deaton and Stone 2013; Senior 2014), examining positive, negative, and meaning-related dimensions of subjective well-being.",
                        "Third, we capture gender differences in time use that are potentially understated by common measurement strategies--for example, assessments of the quantity but not quality or nature of time use (Mattingly and Bianchi 2003; Raley et al. 2012). We exploit features of our diary data to examine details related to activity type, the presence of others, timing, and duration, and we use a broad definition of parenting that more fully accounts for what mothers and fathers do. Studies on time with children tend to focus on childcare activities like routine care, play, teaching, and management (e.g., Kalil et al. 2012; Sayer et al. 2004) or activities that involve direct engagement with children (Bianchi 2000; Bianchi and Robinson 1997). These miss much of parents' time with older children, overlook the supervisory demands of parenting, and capture only a fraction of parents' total time with children (Folbre et al. 2005; Offer 2014). We conceive of parenting as happening in various activities--beyond direct care and engagement--as parents and children progress through their daily routines. We expect that interactions with children ranging from brief and incidental to sustained and purposeful influence parental emotional well-being.",
                        "Our approach allows us to assess the following hypotheses, drawn broadly from the literature on parental well-being and gendered meanings of parenting:",
                        "Hypothesis 1: Parents experience more positive affect and meaning in time with children than without, but also more stress and fatigue, captured in a multidimensional assessment of subjective well-being.",
                        "Hypothesis 2: Mothers experience less positive affect, more stress, and more fatigue in time with children than do fathers, but also more meaning.",
                        "Hypothesis 3: Differences in the kinds of activities that mothers and fathers engage in with children, solo parenting, and sleep and leisure largely account for gender differences in positive affect, stress, and fatigue in parenting.",
                        "Hypothesis 4: Gender differences in the meaning mothers and fathers attribute to time with children reflect broader social expectations about parental roles and are not fully accounted for by differences in the context of mothers' and fathers' time with children."
                    ]
                }
            ]
        },
        {
            "title": "Method",
            "subsections": [
                {
                    "title": "Data: Well-Being Module of the American Time Use Survey",
                    "paragraphs": [
                        "We pool cross-sectional samples from the 2010, 2012, and 2013 American Time Use Surveys (ATUS) (Hofferth, Flood, and Sobek 2013). The ATUS is a time diary study of a nationally representative sample of Americans age 15 and older drawn from households in the Current Population Survey (CPS).1 ATUS respondents report on their activities over a 24-hour period from 4:00 a.m. of a specified day until 4:00 a.m. the following day, indicating the type of activity, as well as where, when, and with whom it occurred.2 Responses are recorded using Computer Assisted Telephone Interview procedures. Activities are coded using a six-digit, three-tier coding system, and over 400 activity categories are represented by the classification. Data are collected every day of the week, including holidays, with weekends oversampled. Among the diaries, 50 percent are about weekend days (25 percent each) and 50 percent are about weekdays (10 percent each day).",
                        "Critical to our analysis, the 2010, 2012, and 2013 rounds of the ATUS included a subjective well-being module tapping respondents' emotions in selected activities. All ATUS respondents were eligible for participation in the module, and there was minimal nonresponse on these questions (National Institute on Aging, Bureau of Labor Statistics, and U.S. Census Bureau 2014). Participants reported how they felt in three randomly sampled activities of at least five minutes in duration. Sleeping, grooming, and personal activities, as well as activities in which the respondent did not know or refused to report what they were doing, were not eligible for selection. Activity-level weights account for differences in the fraction of time in eligible activities and the probability of having an eligible activity selected (National Institute on Aging et al. 2014:5-6); they further account for the oversample of weekends and other aspects of the ATUS sample design. Weights are applied to all descriptive statistics.",
                        "Pooling over three administrations of the ATUS Well-Being Module affords sufficient sample size to take advantage of the rich, detailed nature of the time diary data. In all, the subjective well-being sample of the ATUS includes 34,565 men and women over the three ATUS cycles, for a total of 102,633 activities. We limit our sample to men and women with children under age 18 in the household, resulting in a final sample of 12,163 parents and 36,036 activities (composed of roughly a third from each of the 2012, 2013, and 2014 ATUS samples).3,4"
                    ]
                },
                {
                    "title": "Data: Well-Being Module of the American Time Use Survey",
                    "paragraphs": [
                        "Our outcomes tap five dimensions of subjective well-being. For each of three sampled activities, ATUS respondents were asked the following: (1) How happy did you feel during this time? (2) How sad did you feel during this time? (3) How stressed did you feel during this time? (4) How tired did you feel during this time? (5) How meaningful did you consider what you were doing? For each question, response options ranged from 0 (e.g., not at all happy, not sad at all) to 6 (e.g., very happy, very sad). The distributions of responses are (by and large) unimodal but skewed. We tested the sensitivity of our main results to our coding of subjective well-being. We generated dichotomous indicators of unhappiness, sadness, stress, fatigue, and low meaning, with 1 corresponding to approximately the lowest 25th percentile of well-being on each dimension. We found the same pattern of results whether we treated our outcome variables as quantitative or dichotomous (see Tables S1 and S2 in the online supplement [http://asr.sagepub.com/supplemental]).",
                        "The ATUS subjective well-being questions5 were initially tested in the Princeton Affect and Time Use Study (Krueger et al. 2009) and overlap in part with those in the Gallup World Poll and the European Social Survey (OECD 2013). Assessments attained via 24-hour recall (as in the ATUS well-being module) differ little from those assessed in real-time via beeper methodology (Kahneman et al. 2004). The ATUS questions represent key dimensions of Russell's (1980, 2003) circumplex model of core affect, positing positive/ negative and arousal dimensions: positive low arousal like contentment, positive high arousal like happiness, negative low arousal like sadness, and negative high arousal like stress. The repeated finding that positive emotions are highly correlated, whereas negative emotions are not (e.g., Kapteyn et al. 2013) justifies the exclusion of additional positive indicators and the inclusion of fatigue (negative low arousal). An item tapping meaning is further important, because such measures often cross positive-negative dimensions. Stone and Mackie (2013) suggest, for example, that one can find pleasure but little meaning in an activity like watching TV or, conversely, meaning but little pleasure in an activity like reading the same book repeatedly to a child. Taken together, happiness, sadness, stress, fatigue, and meaning allow a systematic assessment of the costs and rewards of parenting and the possibility that they differ for mothers and fathers.",
                        "We define parenting as being in an activity with a household child under age 18, based on responses to the activity-level question, \"Who was in the room with you?\" or \"Who accompanied you?\" (Bureau of Labor Statistics and U.S. Census Bureau 2016:51). As noted, this definition captures a broader range of activities and child ages than does childcare alone; whereas 32 percent of parents in our sample (42 percent of fathers and 25 percent of mothers) reported no childcare activities throughout the diary day, only 8 percent (10 percent of fathers and 6 percent of mothers) reported no time with children. In our well-being sample, there is substantial within-person variation among parents in activities with and without children: 24 percent reported no activities with children, 26 percent reported 1 activity, 26 percent reported 2, and 23 percent reported 3.",
                        "We constructed measures tapping aspects of time use, including activity type, solo parenting, and sleep and leisure, that we expect to differ by gender and contribute to differences in how mothers and fathers experience parenting. Our coding of broad activity type follows most closely that of Aguiar and Hurst (2007) and includes market work, nonmarket work, leisure, and care work. We show broad activity groupings for descriptive purposes but examine more specific categories of nonmarket work, leisure, and care work in our multivariable models. Market work includes all work for pay, meals and breaks at work, searching for a job, and applying for unemployment benefits. Nonmarket work encompasses work in the home, broken into the four more specific categories of cooking, cleaning, shopping, and other (e.g., running errands, yard work, and pet care). Leisure, or free time, also encompasses four more specific categories: watching television; socializing and relaxing; educational, civic, and religious activities; and eating and drinking. Detailed codes for nonmarket work and leisure approximate those developed by Kahneman and colleagues (2004).",
                        "Care work includes the care of adults and children. We further differentiate four categories of childcare, following the lead of prior studies (most closely Kalil et al. 2012; see also Guryan, Hurst, and Kearney 2008; Milkie et al. 2010; Sayer et al. 2004): routine, play, teaching, and management. Routine care includes direct physical care of children, looking after children, and caring for children. Play includes non-sport playing, sport playing, and doing arts and crafts, for example, giving a child a piggyback ride, building model planes, or riding bikes. Teaching activities encompass reading to or with a child, helping or teaching a child, activities related to children's education, and talking with or listening to a child. Finally, management encompasses attending children's events, waiting for or with children, picking up or dropping off children, activities related to children's health, and organizing or planning for children, for example, waiting for the school bus, planning play dates, or signing up for activities.",
                        "Our measure of solo parenting is based on the same \"who with\" question used to assess whether a respondent was engaged in an activity with a child. We coded whether the parent was engaged in the activity with children and no other adult. Along with basic caregiving, this serves as an indicator of parental responsibility.",
                        "We include two individual-level indicators of sleep and five of leisure as measured in the prior 24-hour period. Total sleep is a continuous variable that registers hours fathers and mothers reported sleeping, and disrupted sleep is a dichotomous indicator of three or more sleep episodes. A set of four continuous variables measure time in leisure: (1) with children only, (2) with adults only, (3) with children and adults, and (4) alone. These sum to total time in leisure over the diary day and tap the potential quality of leisure time, namely, the notion that \"pure\" adult-only leisure is more enjoyable and less stressful than leisure with children, particularly children only (Bittman and Wajcman 2000; Mattingly and Bianchi 2003). A fifth dichotomous measure taps leisure interruptions. Following Craig and Mullan (2013), we created a dummy variable to indicate that the diary contained two or more leisure-childcare sequences.6",
                        "Parents' sociodemographic characteristics include age (in years), number of children (one, two, or more), age of youngest child (younger than 6 years, 6 to 12 years, 13 and older), race/ethnicity (non-Hispanic White, non-Hispanic black, Hispanic, other), whether a spouse or partner is in the household, family income (under $25,000; $25,000 to $99,000; $100,000 or more; and missing information on income), employment status (full-time, part-time, not working for pay), whether the respondent is a college graduate, and whether the respondent is enrolled in school. We control for two other variables measured at the individual level: whether the diary was reported on a weekend day and survey year (2010, 2012, and 2013). At the activity level, we control for time of day (4 a.m. to 9 a.m., 9 a.m. to 2 p.m., 2 p.m. to 5 p.m., 5 p.m. to 9 p.m., and 9 p.m. to 4 a.m.), activity duration in hours, and location of activity (in public, at home, and at work, in response to a question asked about activities, \"Where were you?\")."
                    ]
                },
                {
                    "title": "Data: Well-Being Module of the American Time Use Survey",
                    "paragraphs": [
                        "We use methods that account for the multilevel nature of our data, in which activities at level one, the lower level, are nested within individuals at level two, the higher level (Allison 2009; see Offer and Schneider [2011] for a similar approach using time use data). Our outcomes--multiple dimensions of subjective well-being--are scored 0 to 6 and treated as quantitative variables, as noted earlier. We rely on random intercept models (also called multilevel or mixed models in the literature, estimated using xtreg, robust re in Stata for quantitative response variables). The basic model can be written as follows:",
                        "",
                        "for activity i and individual j where u0j is a person-specific random-error term representing unobserved characteristics of individual j and assumed independent of X's (activity-level covariates) and Z's (person-level covariates). We assess gender differences in parenting with gender interactions, and we control for characteristics at the individual and activity levels that potentially confound associations with subjective well-being. For each of five indicators of well-being, we estimate models that add in blocks the variables hypothesized to account for gender differences in parenting experiences: activity type, solo parenting, and the quality and quantity of sleep and leisure.",
                        "Random-effects models yield a weighted average of within- and between-level estimates, with the advantage of providing estimates for characteristics that are invariant across activities. Thus, we can assess the association between well-being in various activities with children, accounting for characteristics of individuals that structure the day, like sleep and leisure as well as the micro-level context of parenting activities, like whether respondents were parenting solo or with another adult. We test the sensitivity of our main findings using fixed-effects models that rely solely on within-person variation (estimated using xtreg, robust fe in Stata). Fixed-effects estimates account for any observed or unobserved differences between individuals, providing a tighter estimate of causal relationships between well-being and time with children (for a similar approach, see Flood and Genadek 2016)."
                    ]
                }
            ]
        },
        {
            "title": "Results",
            "subsections": [
                {
                    "title": "Descriptive Findings on Parents\u2019 Time with Children",
                    "paragraphs": [
                        "Table 2 shows key characteristics of activities, for the full sample and separately for fathers and mothers by whether they were with a child in the activity. This table provides a first look at differences in momentary well-being and parenting context by parent gender. The first set of rows shows mean levels of subjective well-being for the five well-being indicators. Across all indicators but fatigue, parents fare statistically significantly better in activities with their children than without. Compared to fathers, mothers report greater stress and fatigue in time with children.",
                        "The next set of rows shows activities grouped into broad categories. Parents (not surprisingly) are less often in market work and more often in care work when children are present. They are also more often in leisure activities when children are present, and this is especially true of fathers; indeed, most of fathers' time with children is in leisure. Additional gender differences can be seen in the more detailed activity types shown in the next set of rows. Mothers spend significantly more of their time with children in childcare, in particular, the potentially more onerous basic care and management tasks. They also spend more of their time in nonmarket work, including the more inflexible activities of cooking and cleaning. A greater share of fathers' time is in leisure, as noted, including three of our four leisure categories.",
                        "The final row of Table 2 shows the proportion of sampled activities in which the parent is alone with children--solo parenting. Mothers engaged in activities with their children are significantly more likely to be solo parenting: 49 percent of mothers' activities with children do not include another adult present compared to 32 percent of fathers' activities. This is true, in part, because women are much more likely than men to be parenting without a spouse or partner in the household. In our sample, 26 percent of women with children in the household are living without a spouse or partner, compared to 7 percent of men with children in the household (Table 1). Ancillary analyses show that even mothers with a partner in the household do more solo parenting than fathers (45 versus 30 percent, respectively).",
                        "Table 3 shows descriptives for diary day summaries of sleep and leisure (there is no within-person variation in these measures, thus we do not list separately activities with and without children present). Consistent with prior research comparing sleep for men and women, mothers get .45 hours (27 minutes) more sleep than fathers. But mothers are also more likely to suffer sleep interruptions than fathers (16 percent of mothers experience three or more sleep episodes compared to 9 percent of fathers), indicating lower sleep quality. Mothers spend significantly less time in leisure than do fathers (a total of .18 hours or 11 minutes less), and a greater proportion of their leisure time is with children only (1.17 of 6.04 hours, or 19 percent of all leisure for mothers versus 9 percent of all leisure for fathers). Mothers also experience more interrupted leisure than fathers: 27 percent of mothers experience their leisure time interrupted by childcare at least twice during the diary day compared to 14 percent of fathers, suggesting less continuous and relaxing free time.",
                        "In summary, descriptive results show that parents report greater subjective well-being in activities with children than without, and that mothers report more stress and fatigue in parenting than fathers. Mothers' lower subjective well-being is potentially due to differences in how they spend time with children and the quality of restorative time in sleep and leisure. As compared to fathers, mothers engage in more time-inflexible (and potentially more onerous) activities with children, like basic care, management, cooking, cleaning, and solo parenting. Although they sleep more, they experience more sleep interruptions, less leisure, and potentially lower quality leisure."
                    ]
                },
                {
                    "title": "Descriptive Findings on Parents\u2019 Time with Children",
                    "paragraphs": [
                        "In Table 4, we further explore differences between mothers' and fathers' subjective well-being in parenting by testing an interaction between time with children and gender. This term assesses any differences in subjective well-being between mothers and fathers in time with children relative to other uses of their time, thus factoring out any stable differences in subjective well-being between mothers and fathers. Model 1 includes gender (female), whether the respondent was with a child in the activity, the interaction between female and with a child, and individual- and activity-level controls. Model 2 tests the extent to which activity type and solo parenting account for differences between mothers and fathers in well-being while parenting. Model 3 removes these contextual features of activities and adds restorative time in sleep and leisure. Model 4 is a full model that includes all controls together. We show only key variables in Table 4 and include full model results in Table A1 in the Appendix.",
                        "Results demonstrate consistently better outcomes among parents in activities with children versus without: greater happiness and meaning and less sadness, stress, and fatigue. Parenting by gender interactions are statistically significant in Model 1 for three of our five outcomes: mothers are less happy, more stressed, and more fatigued than fathers in their time with children versus their time without. These gender differences are reasonably modest in size, however. For example, for happiness, Table 4 shows coefficients on time with children, female, and the parenting by gender interaction of .50, .06, and -.08, respectively, indicating that mothers score .42 points higher in time with children than in time without ([.50 + .06 - .08] - .06 = .42), and fathers score .50 points higher in time with children than in time without (.50 compared to the reference group, which is fathers in time without children). The interaction term of -.08 is the difference in gains to happiness associated with time with children for mothers versus fathers (.42 - .50), and it is small relative to the overall gains. Having a partner in the household--another benchmark consistently associated with well-being in the literature (Musick and Bumpass 2012)--is associated with a .23 increase in happiness in this model (results not shown).",
                        "Gender differences in stress and fatigue are of a similar magnitude to those in happiness, although the overall gains associated with parenting are smaller. For example, the stress relief associated with parenting is -.07 ([-.16 + .17 + .09] - .17) for mothers and -.16 for fathers, yielding a difference of .09. There are no discernible gender differences in sadness or meaning. Of note, however, the typical increase in meaning associated with parenting is substantial: parents average .75 points higher on meaning in time with children versus without, amounting to over 40 percent of the meaning score's standard deviation (1.77).",
                        "Gender differences in well-being with children are dampened substantially when we add details on the contextual features of parenting. Adding activity type and solo parenting in Model 2, mothers' lower level of happiness and higher level of stress in parenting are no longer statistically significant. The estimate of fatigue in parenting changes little with the inclusion of these variables in Model 2. In results not shown, we find that controlling for either activity type or solo parenting is sufficient to dampen parenting by gender interactions in happiness and stress; moreover, results are similar whether we account for broad or detailed activity codes.",
                        "In Model 3, which includes sleep and leisure, we find that mothers' relative happiness, stress, and fatigue detriments are robust to the inclusion of our measures of restorative time. The gender by parenting interaction is modestly reduced, but it remains statistically significant. When considering all controls together in Model 4, gender differences in well-being in parenting are all rendered statistically insignificant. That is, activity type and solo parenting account for mothers' lower levels of happiness and stress in parenting, and these activity features, along with gender differences in sleep and leisure, account for mothers' higher levels of fatigue in parenting. While neither activity features nor restorative time on their own (in Models 2 and 3, respectively) account for gender differences in fatigue in parenting, together they reduce to statistical insignificance the gender differences in fatigue while parenting. The reduction in the interaction terms across models, and drop to statistical insignificance in full models, provide suggestive evidence of mediation. The reduction in the size of the gender by parenting interaction from Model 1 to Model 4 is statistically significant in the case of stress. In models of happiness and fatigue, the confidence bands around the interaction coefficients overlap across models.",
                        "Mothers engage in different activities with children and more often parent on their own than do fathers. These variables are largely associated with well-being in expected ways, and when added in Model 2 (and Model 4) appear to account, at least in part, for mothers' lower levels of happiness and higher stress and fatigue in parenting. Mothers do more time-inflexible tasks like basic childcare, childcare management, cooking, and cleaning with their children than do fathers, and fathers engage in more leisure with children. Cooking and cleaning are generally associated with poorer subjective well-being relative to leisure activities. Whereas childcare tends to be associated with better outcomes than nonmarket work and some types of leisure, basic childcare and childcare management rank low across all dimensions of subjective well-being relative to other forms of childcare, in particular, play. Indeed, play is associated with the highest levels of well-being of the various activities examined. And associations are large--for example, the difference in happiness in playing with children versus watching television is .78 points, or about half a standard deviation in mean happiness (Table 2). Mothers are more often alone with children, and solo parenting is associated with lower well-being for all indicators but sadness.",
                        "The nature of mothers' sleep and leisure is also different from fathers'. These differences do little to explain gender differences in parenting happiness and stress, but together they appear to contribute to gender differences in parenting fatigue (Models 3 and 4). In particular, mothers experience more sleep disruptions than do fathers, and these are associated with less happiness, and more sadness, stress, and fatigue. The magnitude of associations between disrupted sleep and well-being, moreover, is reasonably strong--for example, often on par or stronger than having a spouse or partner (see Table A1 in the Appendix). Mothers sleep more than fathers, and sleep hours reduce stress and fatigue (thus they have little to do with mothers' lower well-being in parenting). Nor do measures of leisure appear to do much to account for gender differences; their associations with well-being among parents are nonetheless interesting. Parents tend to report the highest level of well-being in leisure time with children and adults together, and the lowest level of well-being in leisure time alone. Leisure time with adults only and leisure time with children only both tend to be positively associated with well-being. Surprisingly, given common assumptions about leisure quality, leisure interrupted by childcare activities is not associated with reduced well-being.",
                        "We ran sensitivity analyses (results available upon request) to check the robustness of our findings to model specification. First, we ran models separately by gender to test whether key results were sensitive to gender interactions with variables other than time with children. Models for mothers and fathers resulted in the same pattern of findings, although with many more contrasts to digest given our interest in multiple outcomes. Second, we examined parenting by gender models in a fixed-effects framework, relying exclusively on within-person variation to identify well-being differences among parents in activities with and without children present. All individual-level covariates drop from our estimation equations (e.g., main gender associations, sleep, leisure), and the approach fully accounts for all individual characteristics (observed and unobserved) that are invariant across activities. These models produced the same key findings with respect to parenting and gender differences as reported in Table 4, providing evidence that our findings are not driven by unobserved differences in parents' individual characteristics."
                    ]
                }
            ]
        },
        {
            "title": "Discussion",
            "subsections": [
                {
                    "title": null,
                    "paragraphs": [
                        "We set out to understand links between parenting and subjective well-being and how they differ for mothers and fathers, contributing to the literature in three key ways. First, our focus on momentary well-being in parenting activities draws attention to how the nature and context of time use contribute to differences in parents' subjective well-being, shedding new light on how the demands of caring for children are borne. Work in this area is sparse, particularly based on large, nationally representative samples. We show that parents find great enjoyment in time with their children, largely consistent with the limited prior work (e.g., Nelson et al. 2013; but see Kahneman et al. 2004). This is a key insight that comes from assessing feelings while doing parenting activities with children, as opposed to global indicators of well-being among parents. Although somewhat mixed, on balance, global indicators point to a negative link between well-being and parenthood (e.g., Simon 2008). We noted that assessments tied specifically to activities are more reliable than global indicators of well-being (Kahneman and Krueger 2006; Lucas et al. 2003; NRC 2012), and within-person variation offers leverage in estimating factors that play into well-being. Perhaps more critically for differences in what they show, momentary assessments also tap different aspects of well-being, shifting the emphasis from what life circumstances contribute to general well-being to what contextual features shape it moment to moment.",
                        "Our second contribution to the literature is a systematic assessment of the potentially mixed bag of parenting, examining positive, negative, and meaning-related dimensions of subjective well-being. Much prior work on parental well-being is based on general assessments of well-being--often happiness and satisfaction--limiting our understanding of the potential costs and rewards of parenting. We expected parents would experience both more positive and more negative feelings in time with children than without, but we found no domain in which parenting was associated with worse outcomes. Nonetheless, we did find variation across measures; namely, parents reported substantially greater happiness and meaning in activities with children, but smaller reductions in stress and fatigue. Furthermore, including negative dimensions of well-being--namely stress and fatigue--were important in capturing gender differences in parenting experiences, albeit reasonably modest differences. Parenting is thus indeed associated with mixed emotions, bringing greater happiness and fulfillment but not necessarily relaxation. Yet this mix of feelings is overall more positive than would be suggested by Senior's (2010, 2014) oft-cited \"all joy and no fun.\" It is worth reiterating that our findings regarding parents' generally positive affect in time with children is in relation to other uses of their time. Positive feelings in time with children may thus reflect feeling rushed or guilty in time away from children, as discussed in popular accounts of parenting (e.g., Pickert 2012; see also Milkie, Raley, and Bianchi 2009).",
                        "Our third key contribution to the literature on parenting and well-being is a careful consideration of aspects of gendered time that often go unaccounted for in studies of men's and women's family roles. These include a broader conception of parenting (as all time in activities with children) and indicators of the quality of time, including activity type, whether other adults are present, and restorative time in sleep and leisure. We hypothesized that mothers would experience less positive affect, more stress, and more fatigue in time with children than would fathers, but also more meaning. We further expected that differences in the nature of mothers' and fathers' time would largely account for gender differences in positive affect, stress, and fatigue in parenting. Consistent with these expectations, we found that mothers were less happy, more stressed, and more fatigued than fathers in time with children. We showed, too, that these gender differences were reduced to statistical insignificance by controls for the quality of mothers' and fathers' time. Mothers spend more time with children in relatively onerous activities like basic childcare, childcare management, cooking, and cleaning, whereas fathers spend more time in activities high in enjoyment and low in stress, like play and leisure. Mothers do more solo parenting, experience more sleep disruptions, and have less leisure, all associated with detriments in well-being. Prior work has examined differences in how mothers and fathers allocate time along these various dimensions, but our study is the first to assess how together they play into mothers' and fathers' well-being in parenting.",
                        "Our proposed mechanisms were generally associated with subjective well-being in expected directions, with the exception of time in leisure with children only. Prior literature has discussed the presence of children in leisure activities as a potential \"contaminant\" of free time, constraining the range of activities and imposing a burden of care (Bittman and Wajcman 2000; Mattingly and Bianchi 2003). Without measures to directly assess feelings in leisure time, authors have been cautious to note that many parents take great pleasure in time with children and may be no better off in their \"pure\" leisure without them (e.g., Mattingly and Bianchi 2003). We find leisure with children may not be as restorative as other forms of leisure, but nor is it a negative experience in the context of other daily activities, consistent with parents' generally positive affect in time with children. Leisure with adults and children--family time--was most strongly associated in our models with positive affect. Leisure with no one else present--alone time--was negatively associated with well-being. Free time is an important indicator of quality of life, and how it relates to well-being merits a separate inquiry.",
                        "We posited that mothers' greater investments in children would mean greater strain but also more meaning in parenting relative to fathers. Although we found evidence of greater strain, we found no evidence of greater meaning among mothers; both mothers and fathers rated time with children as very meaningful. This suggests that the added investments associated with mothering do not contribute to mothers' momentary well-being, above and beyond fathers'. They may factor into gender differences in more global assessments of satisfaction or fulfillment, but even so, momentary assessments are key aspects of well-being, with small moments summing to day-to-day enjoyment. Stress and fatigue play further into longer-term health (Thoits 2010)--and we expect also into interactions with children and ultimately the quality of family relationships.",
                        "The child development literature stresses the importance of mothers' time for children's well-being (e.g., Kalil et al. 2012; Raley 2014), and the ideology of intensive mothering suggests that mothers' time is irreplaceable (Hays 1996). Thus we might assume that in allocating their time, mothers are trading off their well-being against the well-being of their children. But recent work based on the Panel Study of Income Dynamics Child Development Supplement (Milkie, Nomaguchi, and Denny 2015) questions this notion, finding that the sheer quantity of maternal time is not associated with well-being among young children, and its relationship to well-being among adolescents is mixed. Are mothers' stress and fatigue in interactions with children mediating factors? Would families be better off if mothers, like fathers, spent less time overall with children, engaged in more enjoyable activities with children, and carved out more downtime? Are mothers' time allocations necessary to \"cover the goal\" (Bianchi 2000:412), or could parental roles be redefined to allow both mothers and fathers more flexibility in their time with children?",
                        "The ATUS well-being sample allows us to make considerable strides in understanding well-being in parenting, yet limitations remain. Although we have time diaries from women and men, we have data from only one respondent per household at one point in time. Couple-level data would allow further exploration into questions about time trade-offs among family members. And panel data would make it possible to assess how time trade-offs are made in association with other family and work-related transitions, for example, following the birth of a child or entry into full-time employment. As noted, our measures capture important aspects of gender differences in the nature of time use, which together help explain gender differences in parenting experiences. Some aspects of mothering remain unmeasured here--and are indeed impossible to capture using the ATUS, including the background tracking of the family to-do list that is likely associated with multitasking and emotional strain (Milkie et al. 2009; Offer and Schneider 2011). These difficult-to-measure differences remain important avenues for further research, as do questions of \"why\" behind gendered patterns in time use--for example, whether due to the reluctance of fathers to do more or of mothers to step back from pervasive expectations of intensive mothering (see Allen and Hawkins 1999). Formal mediation analysis could further help quantify particular pathways linking gendered time and parenting experiences. Our goal was to look broadly at the contextual features that play into parenting; we show that parents enjoy time with their children, but mothers' involvement carries more strain than fathers'. These gender differences have potentially important implications for families and point to questions about our models of parenthood and the supports available to them."
                    ]
                }
            ]
        }
    ],
    "references": [
        "Aassve, Arnstein, Goisis, Alice, Sironi, Maria. 2012. \u201cHappiness and Childbearing across Europe.\u201d Social Indicators Research 108(1):65\u201386.",
        "Abraham, Katharine G., Helms, Sara, Presser, Stanley. 2009. \u201cHow Social Processes Distort Measurement: The Impact of Survey Nonresponse on Estimates of Volunteer Work in the United States.\u201d American Journal of Sociology 114(4):1129\u201364.",
        "Aguiar, Mark, Hurst, Erik. 2007. \u201cMeasuring Trends in Leisure: The Allocation of Time over Five Decades.\u201d Quarterly Journal of Economics 122(3):969\u20131006.",
        "Allen, Sarah M., Hawkins, Alan J. 1999. \u201cMaternal Gatekeeping: Mothers\u2019 Beliefs and Behaviors that Inhibit Greater Father Involvement in Family Work.\u201d Journal of Marriage and Family 61(1):199\u2013212.",
        "Allison, Paul D. 2009. Fixed Effects Regression Models. Newbury Park, CA: Sage.",
        "Bianchi, Suzanne M. 2000. \u201cMaternal Employment and Time with Children: Dramatic Change or Surprising Continuity?\u201d Demography 37(4):401\u2013414.",
        "Bianchi, Suzanne M. 2011. \u201cChange and Time Allocation in American Families.\u201d ANNALS of the American Academy of Political and Social Science 638(1):21\u201344.",
        "Bianchi, Suzanne M., Robinson, John. 1997. \u201cWhat Did You Do Today? Children\u2019s Use of Time, Family Composition, and the Acquisition of Social Capital.\u201d Journal of Marriage and the Family 59(2):332\u201344.",
        "Bird, Chloe E. 1997. \u201cGender Differences in the Social and Economic Burdens of Parenting and Psychological Distress.\u201d Journal of Marriage and the Family 59(4):809\u2013823.",
        "Bird, Chloe E., Fremont, Allen M. 1991. \u201cGender, Time Use, and Health.\u201d Journal of Health and Social Behavior 32(2):114\u201329.",
        "Bittman, Michael, Wajcman, Judy. 2000. \u201cThe Rush Hour: The Character of Leisure Time and Gender Equity.\u201d Social Forces 79(1):165\u201389.",
        "Blair-Loy, Mary. 2001. \u201cCultural Constructions of Family Schemas: The Case of Women Finance Executives.\u201d Gender & Society 15(5):687\u2013709.",
        "Blair-Loy, Mary. 2003. Competing Devotions: Career and Family among Women Executives. Cambridge, MA: Harvard University Press.",
        "Boeckmann, Irene, Misra, Joya, Budig, Michelle J. 2015. \u201cCultural and Institutional Factors Shaping Mothers\u2019 Employment and Working Hours in Postindustrial Countries.\u201d Social Forces 93(4):1301\u201333.",
        "Bureau of Labor Statistics and U.S. Census Bureau. 2016. American Time Use Survey User\u2019s Guide: Understanding ATUS 2003 to 2015. Retrieved July 15, 2016 (http://www.bls.gov/tus/atususersguide.pdf).",
        "Burgard, Sarah A., Ailshire, Jennifer A. 2013. \u201cGender and Time for Sleep among U.S. Adults.\u201d American Sociological Review 78(1):51\u201369.",
        "Buxton, Orfeu M., Marcelli, Enrico. 2010. \u201cShort and Long Sleep Are Positively Associated with Obesity, Diabetes, Hypertension, and Cardiovascular Disease among Adults in the United States.\u201d Social Science & Medicine 71(5):1027\u201336.",
        "Campos, Belinda, Wang, Shu-wen, Plaksina, Tatyana, Repetti, Rena L., Schoebi, Dominik, Ochs, Elinor, Beck, Margaret E. 2013. \u201cPositive and Negative Emotion in the Daily Life of Dual-Earner Couples with Children.\u201d Journal of Family Psychology 27(1):76\u201385.",
        "Connelly, Rachel, Kimmel, Jean. 2015. \u201cIf You\u2019re Happy and You Know It: How Do Mothers and Fathers in the US Really Feel about Caring for Their Children?\u201d Feminist Economics 21(1):1\u201334.",
        "Correll, Shelley J., Benard, Stephen, Paik, In. 2007. \u201cGetting a Job: Is There a Motherhood Penalty?\u201d American Journal of Sociology 112(5):1297\u20131339.",
        "Craig, Lyn. 2007. Contemporary Motherhood: The Impact of Children on Adult Time. Aldershot, UK: Ashgate Publishing.",
        "Craig, Lyn, Mullan, Killian. 2011. \u201cHow Mothers and Fathers Share Childcare: A Cross-National Time-Use Comparison.\u201d American Sociological Review 76(6):834\u201361.",
        "Craig, Lyn, Mullan, Killian. 2013. \u201cParental Leisure Time: A Gender Comparison in Five Countries.\u201d Social Politics 20(3):329\u201357.",
        "Daly, Kerry J. 2001. \u201cDeconstructing Family Time: From Ideology to Lived Experience.\u201d Journal of Marriage and Family 63(2):283\u201394.",
        "Deaton, Angus. 2012. \u201cThe Financial Crisis and the Well-Being of Americans.\u201d Oxford Economic Papers 64(1):1\u201326.",
        "Deaton, Angus, Stone, Arthur A. 2013. \u201cTwo Happiness Puzzles.\u201d American Economic Review 103(3):591\u201397.",
        "Deem, Rosemary. 1996. \u201cNo Time for a Rest? An Exploration of Women\u2019s Work, Engendered Leisure and Holidays.\u201d Time & Society 5(1):5\u201325.",
        "Doucet, Andrea. 2015. \u201cParental Responsibilities: Dilemmas of Measurement and Gender Equality.\u201d Journal of Marriage and Family 77(1):224\u201342.",
        "Dunifon, Rachel, Kalil, Ariel, Crosby, Danielle A., Su, Jessica Houston. 2013. \u201cMothers\u2019 Night Work and Children\u2019s Behavior Problems.\u201d Developmental Psychology 49(10):1874\u201385.",
        "Edin, Kathryn, Kefalas, Maria. 2005. Promises I Can Keep: Why Poor Women Put Motherhood Before Marriage. Berkeley: University of California Press.",
        "Flood, Sarah, Genadek, Katie. 2016. \u201cTime for Each Other: Work and Family Constraints among Couples\u201d Journal of Marriage and Family 78(1):142\u201364.",
        "Folbre, Nancy, Yoon, Jayoung, Finnoff, Kade, Fuligni, Allison Sidle. 2005. \u201cBy What Measure? Family Time Devoted to Children in the United States.\u201d Demography 42(2):373\u201390.",
        "Freysinger, Valeria J. 1994. \u201cLeisure with Children and Parental Satisfaction: Further Evidence of a Sex Difference in the Experience of Adult Roles and Leisure.\u201d Journal of Leisure Research 26(3):212\u201326.",
        "Gauthier, Anne H., Smeeding, Timothy M., Furstenberg, Frank F. 2004. \u201cAre Parents Investing Less Time in Children? Trends in Selected Industrialized Countries.\u201d Population and Development Review 30(4):647\u201371.",
        "Gershuny, Jonathan. 2013. \u201cNational Utility: Measuring the Enjoyment of Activities.\u201d European Sociological Review 29(5):996\u20131009.",
        "Glass, Jennifer, Simon, Robin W., Andersson, Mathew A. Forthcoming. \u201cParenthood and Happiness: Effects of Work-Family Reconciliation Policies in 22 OECD Countries.\u201d American Journal of Sociology.",
        "Goldscheider, Frances, Bernhardt, Eva, Lappeg\u00e5rd, Trude. 2015. \u201cThe Gender Revolution: A Framework for Understanding Changing Family and Demographic Behavior.\u201d Population and Development Review 41(2):207\u2013239.",
        "Gornick, Janet C., Meyers, Marcia K. 2005. Families That Work: Policies for Reconciling Parenthood and Employment. New York: Russell Sage.",
        "Guryan, Jonathan, Hurst, Erik, Kearney, Melissa. 2008. \u201cParental Education and Parental Time with Children.\u201d Journal of Economic Perspectives 22(3):23\u201346.",
        "Hansen, Thomas. 2012. \u201cParenthood and Happiness: A Review of Folk Theories versus Empirical Evidence.\u201d Social Indicators Research 108(1):29\u201364.",
        "Harrington, Brad, Van Deusen, Fred, Humberd, Beth. 2011. The New Dad: Caring, Committed and Conflicted. Boston, MA: Boston College Center for Work & Family. Retrieved June 22, 2015 (http://www.bc.edu/content/dam/files/centers/cwf/pdf/FH-Study-Web-2.pdf).",
        "Hays, Sharon. 1996. The Cultural Contradictions of Motherhood. New Haven, CT: Yale University Press.",
        "Herbst, Chris M., Ifcher, John. Forthcoming. \u201cThe Increasing Happiness of U.S. Parents.\u201d Review of Economics of the Household.",
        "Hislop, Jenny, Arber, Sara. 2003. \u201cSleepers Wake! The Gendered Nature of Sleep Disruption among Mid-Life Women.\u201d Sociology 37(4):695\u2013711.",
        "Hochschild, Arlie Russell (with Machung, Anne ). 1989. The Second Shift: Working Parents and the Revolution at Home. New York: Viking Penguin. (Re-issued 2003, 2011).",
        "Hofferth, Sandra L., Flood, Sarah M., Sobek, Matthew. 2013. American Time Use Survey Data Extract System: Version 2.4 [Machine-readable database]. Maryland Population Research Center, University of Maryland, College Park, MD, and Minnesota Population Center, University of Minnesota, Minneapolis, MN.",
        "Kahneman, Daniel, Deaton, Angus. 2010. \u201cHigh Income Improves Evaluation of Life but Not Emotional Well-Being.\u201d Proceedings of the National Academy of Sciences of the United States of America 107(38):16489\u201393.",
        "Kahneman, Daniel, Krueger, Alan B. 2006. \u201cDevelopments in the Measurement of Subjective Well-Being.\u201d Journal of Economic Perspectives 20(1):3\u201324.",
        "Kahneman, Daniel, Krueger, Alan B., Schkade, David A., Schwarz, Norbert, Stone, Arthur A. 2004. \u201cA Survey Method for Characterizing Daily Life Experience: The Day Reconstruction Method.\u201d Science 306(5702):1776\u201380.",
        "Kalil, Ariel, Ryan, Rebecca, Chor, Elise. 2014. \u201cTime Investments in Children across Family Structures.\u201d ANNALS of the American Academy of Political and Social Science 654(1):150\u201368.",
        "Kalil, Ariel, Ryan, Rebecca, Corey, Michael. 2012. \u201cDiverging Destinies: Maternal Education and Investments in Children.\u201d Demography 49(4):1361\u201383.",
        "Kapteyn, Arie, Lee, Jinkook, Tassot, Caroline, Vonkova, Hana, Zamarro, Gema. 2013. Dimensions of Subjective Well-Being. Center for Economic and Social Research, University of Southern California. Retrieved June 21, 2015 (https://cesr.usc.edu/documents/WP_2013_005.pdf).",
        "Kaufman, Gayle. 2013. Superdads: How Fathers Balance Work and Family in the 21st Century. New York: NYU Press.",
        "Kimmel, Jean, Connelly, Rachel. 2007. \u201cMothers\u2019 Time Choices: Caregiving, Leisure, Home Production, and Paid Work.\u201d Journal of Human Resources 42(3):643\u201381.",
        "Kohler, Hans-Peter, Behrman, Jere R., Skytthe, Axel. 2005. \u201cPartner + Children = Happiness? The Effects of Partnerships and Fertility on Well-Being.\u201d Population and Development Review 31(3):407\u2013445.",
        "Kronholm, Erkki, Sallinen, Mikael, Suutama, Timo, Sulkava, Raimo, Era, Pertti, Partonen, Timo. 2009. \u201cSelf-Reported Sleep Duration and Cognitive Functioning in the General Population.\u201d Journal of Sleep Research 18(4):436\u201346.",
        "Krueger, Alan B., Kahneman, Daniel, Fischler, Claude, Schkade, David, Schwarz, Norbert, Stone, Arthur A. 2009. \u201cTime Use and Subjective Well-Being in France and the US.\u201d Social Indicators Research 93(1):7\u201318.",
        "Lareau, Annette. 2002. \u201cInvisible Inequality: Social Class and Childrearing in Black Families and White Families.\u201d American Sociological Review 67(5):747\u201376.",
        "Lareau, Annette. 2003. Unequal Childhoods: Race, Class, and Family Life. Berkeley: University of California Press.",
        "Lareau, Annette. 2011. Unequal Childhoods: Race, Class, and Family Life, 2nd Edition with an Update a Decade Later. Berkeley: University of California Press.",
        "Larson, Reed W., Richards, Maryse H., Perry-Jenkins, Maureen. 1994. \u201cDivergent Worlds: The Daily Emotional Experience of Mothers and Fathers in the Domestic and Public Spheres.\u201d Journal of Personality and Social Psychology 67(6):1034\u201346.",
        "Lawrence, Erika, Cobb, Rebecca J., Rothman, Alexia D., Rothman, Michael T., Bradbury, Thomas N. 2008. \u201cMarital Satisfaction across the Transition to Parenthood.\u201d Journal of Family Psychology 22(1):41\u201350.",
        "Latshaw, Beth E., Hale, Stephanie I. 2016. \u201c\u2018The Domestic Handoff\u2019: Stay-at-Home Fathers\u2019 Time Use in Female Breadwinner Families.\u201d Journal of Family Studies 22(2):97\u2013120.",
        "Lucas, Richard E., Clark, Andrew E., Georgellis, Yannis, Diener, Ed. 2003. \u201cReexamining Adaptation and the Set Point Model of Happiness: Reactions to Changes in Marital Status.\u201d Journal of Personality and Social Psychology 84(3):527\u201339.",
        "Marcussen, Kristen, Piatt, Liz. 2005. \u201cRace Differences in the Relationship between Role Experiences and Well-Being.\u201d Health: An Interdisciplinary Journal for the Social Study of Health, Illness and Medicine 9(3):379\u2013402.",
        "Margolis, Rachel, Myrskyla, Mikko. 2011. \u201cA Global Perspective on Happiness and Fertility.\u201d Population and Development Review 37(1):29\u201356.",
        "Marsiglio, William, Roy, Kevin. 2012. Nurturing Dads: Fatherhood Initiatives beyond the Wallet. New York: Russell Sage Foundation.",
        "Mattingly, Marybeth J., Bianchi, Suzanne M. 2003. \u201cGender Differences in the Quantity and Quality of Free Time: The US Experience.\u201d Social Forces 81(3):999\u20131030.",
        "Mattingly, Marybeth J., Sayer, Liana C. 2006. \u201cUnder Pressure: Gender Differences in the Relationship between Free Time and Feeling Rushed.\u201d Journal of Marriage and Family 68(1):205\u2013221.",
        "Maume, David J., Sebastian, Rachel A., Bardo, Anthony R. 2009. \u201cGender Differences in Sleep Disruption among Retail Food Workers.\u201d American Sociological Review 74(6):989\u20131007.",
        "McLanahan, Sara, Adams, Julia. 1987. \u201cParenthood and Psychological Well-Being.\u201d Annual Review of Sociology 13:237\u201357.",
        "Meier, Ann, Musick, Kelly, Flood, Sara, Dunifon, Rachel. 2016. \u201cMothering Experiences: How Single Parenthood and Employment Structure the Emotional Valence of Parenting.\u201d Demography 53(3): 649\u201374.",
        "Milkie, Melissa A., Denny, Kathleen E. 2014. \u201cChanges in the Cultural Model of Father Involvement: Descriptions of Benefits to Fathers, Children, and Mothers in Parents\u2019 Magazine, 1926\u20132006.\u201d Journal of Family Issues 35(2):223\u201353.",
        "Milkie, Melissa A., Kendig, Sarah M., Nomaguchi, Kei M., Denny, Kathleen E. 2010. \u201cTime with Children, Children\u2019s Well-being and Work-Family Balance among Employed Parents.\u201d Journal of Marriage and the Family 72(5):1329\u201343.",
        "Milkie, Melissa A., Mattingly, Marybeth J., Nomaguchi, Kei M., Bianchi, Suzanne M., Robinson, John P. 2004. \u201cThe Time Squeeze: Parental Statuses and Feelings about Time with Children.\u201d Journal of Marriage and Family 66(3):739\u201361.",
        "Milkie, Melissa A., Nomaguchi, Kei M., Denny, Kathleen. 2015. \u201cDoes the Amount of Time Mothers Spend with Children or Adolescents Matter?\u201d Journal of Marriage and Family 77(2):355\u201372.",
        "Milkie, Melissa A., Raley, Sara B., Bianchi, Suzanne M. 2009. \u201cTaking on the Second Shift: Time Allocations and Time Pressures of U.S. Parents with Preschoolers.\u201d Social Forces 88(2):487\u2013518.",
        "Mirowsky, John, Ross, Catherine E. 2002. \u201cDepression, Parenthood, and Age at First Birth.\u201d Social Science and Medicine 54(8):1281\u201398.",
        "Morgan, S. Philip, King, Rosalind Berkowitz. 2001. \u201cWhy Have Children in the 21st Century?\u201d European Journal of Population 17(1):3\u201320.",
        "Musick, Kelly, Bumpass, Larry. 1999. \u201cHow Do Prior Experiences in the Family Affect Transitions to Adulthood?\u201d Pp. 69\u2013102 in Transitions to Adulthood in a Changing Economy: No Work, No Family, No Future, edited by Booth, A., Crouter, A. C., Shanahan, M. J. Westport, CT: Praeger Publishers.",
        "Musick, Kelly, Bumpass, Larry. 2012. \u201cRe-Examining the Case for Marriage: Union Formation and Changes in Well-Being.\u201d Journal of Marriage and Family 74(1):1\u201318.",
        "Musick, Kelly, Meier, Ann. 2014. \u201c(How) Do the Strains and Joys of Mothering Change as Children Age?\u201d Presented at the Society for Longitudinal and Life Course Studies International Conference, October 9, Lausanne, Switzerland.",
        "Myrskyla, Mikko, Margolis, Rachel. 2014. \u201cHappiness: Before and After the Kids.\u201d Demography 51(5):1843\u201366.",
        "National Institute on Aging, Bureau of Labor Statistics, and U.S. Census Bureau. 2014. American Time Use Survey (ATUS) Data Dictionary: 2010, 2012, and 2013 Well-Being Module Data. Retrieved July 15, 2016 (http://www.bls.gov/tus/wbmintcodebk.pdf).",
        "National Research Council (NRC) Panel on Measuring Subjective Well-Being in a Policy-Relevant Framework. 2012. The Subjective Well-Being Module of the American Time Use Survey: Assessment for Its Continuation. Washington, DC: The National Academies Press. Retrieved September 15, 2014 (http://www.ncbi.nlm.nih.gov/books/NBK109558/).",
        "Nelson, S. Katherine, Kushlev, Kostadin, English, Tammy, Dunn, Elizabeth W., Lyubomirsky, Sonja. 2013. \u201cIn Defense of Parenthood: Children Are Associated With More Joy than Misery.\u201d Psychological Science 24(1):3\u201310.",
        "Nelson, S. Katherine, Kushlev, Kostadin, Lyubomirsky, Sonja. 2014. \u201cThe Pains and Pleasures of Parenting: When, Why, and How Is Parenthood Associated with More or Less Well-Being?\u201d Psychological Bulletin 140(3):846\u201395.",
        "Nomaguchi, Kei M. 2012. \u201cParenthood and Psychological Well-Being: Clarifying the Role of Child Age and Parent\u2013Child Relationship Quality.\u201d Social Science Research 41(2):489\u201398.",
        "Nomaguchi, Kei M., Milkie, Melissa A. 2003. \u201cCosts and Rewards of Children: The Effects of Becoming a Parent on Adults\u2019 Lives.\u201d Journal of Marriage and Family 65(2):356\u201374.",
        "Nomaguchi, Kei M., Milkie, Melissa A., Bianchi, Suzanne M. 2005. \u201cTime Strains and Psychological Wellbeing: Do Dual-Earner Mothers and Fathers Differ?\u201d Journal of Family Issues 26(6):759\u201392.",
        "OECD. 2013. OECD Guidelines on Measuring Subjective Well-Being. Paris: OECD Publishing. Retrieved October 6, 2014 (http://dx.doi.org/10.1787/9789264191655-en).",
        "Offer, Shira. 2014. \u201cTime with Children and Employed Parents\u2019 Emotional Well-Being.\u201d Social Science Research 47:192\u2013203.",
        "Offer, Shira, Schneider, Barbara. 2011. \u201cRevisiting the Gender Gap in Time-Use Patterns: Multitasking and Well-Being among Mothers and Fathers in Dual-Earner Families.\u201d American Sociological Review 76(6):809\u2013833.",
        "Oster, Emily. 2013. \u201cWhy You Shouldn\u2019t Work Less.\u201d Slate, January 8. Retrieved June 20, 2015 (http://www.slate.com/articles/double_x/doublex/2013/01/work_life_crunch_why_you_shouldn_t_spend_fewer_hours_at_work.html).",
        "Parker, Kim, Wang, Wendy. 2013. Modern Parenthood: Roles of Moms and Dads Converge as They Balance Work and Family. Washington, DC: Pew Research Center. Retrieved October 6, 2014 (http://www.pewsocialtrends.org/2013/03/14/modern-parenthood-roles-of-moms-and-dads-converge-as-they-balance-work-and-family/).",
        "Pickert, Kate. 2012. \u201cAre You Mom Enough? Why Attachment Parenting Drives Some Mothers to Extremes\u2014and How Dr. Bill Sears Became Their Guru.\u201d Time Magazine, May 10. Retrieved July 1, 2015 (http://time.com/606/the-man-who-remade-motherhood/).",
        "Pollmann-Schult, Matthias. 2014. \u201cParenthood and Life Satisfaction: Why Don\u2019t Children Make People Happy?\u201d Journal of Marriage and Family 76(2):319\u201336.",
        "Raley, Sara. 2014. \u201cTime Use, Inequality, and Child Well-Being.\u201d Pp. 999\u20131031 in Handbook of Child Well-Being: Theories, Methods and Policies in Global Perspective, edited by Ben-Arieh, A., Casas, F., Fr\u00f8nes, I., Korbin, J. E. Dordrecht, the Netherlands: Springer.",
        "Raley, Sara, Bianchi, Suzanne M., Wang, Wendy. 2012. \u201cWhen Do Fathers Care? Mothers\u2019 Economic Contribution and Fathers\u2019 Involvement in Child Care.\u201d American Journal of Sociology 117(5):1422\u201359.",
        "Rizzo, Kathryn M., Schiffrin, Holly H., Liss, Miriam. 2013. \u201cInsight into the Parenthood Paradox: Mental Health Outcomes of Intensive Mothering.\u201d Journal of Child and Family Studies 22(5):614\u201320.",
        "Ross, Catherine E., Van Willigen, Marieke. 1996. \u201cGender, Parenthood, and Anger.\u201d Journal of Marriage and the Family 58(3):572\u201384.",
        "Russell, James A. 1980. \u201cA Circumplex Model of Affect.\u201d Journal of Personality and Social Psychology 39(6):1161\u201378.",
        "Russell, James A. 2003. \u201cCore Affect and the Psychological Construction of Emotion.\u201d Psychological Review 110(1):145\u201372.",
        "Sayer, Liana C. 2005. \u201cGender, Time and Inequality: Trends in Women\u2019s and Men\u2019s Paid Work, Unpaid Work and Free Time.\u201d Social Forces 84(1):285\u2013303.",
        "Sayer, Liana C., Bianchi, Suzanne M., Robinson, John P. 2004. \u201cAre Parents Investing Less in Children? Trends in Mothers\u2019 and Fathers\u2019 Time with Children.\u201d American Journal of Sociology 110(1):1\u201343.",
        "Senior, Jennifer. 2010. \u201cAll Joy and No Fun: Why Parents Hate Parenting.\u201d New York Magazine, July 4. Retrieved July 1, 2015 (http://nymag.com/news/features/67024/).",
        "Senior, Jennifer. 2014. All Joy and No Fun: The Paradox of Modern Parenthood. New York: HarperCollins.",
        "Simon, Robin W. 1992. \u201cParental Role Strains, Salience of Parental Identity and Gender Differences in Psychological Distress.\u201d Journal of Health and Social Behavior 33(1):25\u201335.",
        "Simon, Robin W. 1995. \u201cGender, Multiple Roles, Role Meaning, and Mental Health.\u201d Journal of Health and Social Behavior 36(2):182\u201394.",
        "Simon, Robin W. 2008. \u201cThe Joys of Parenthood, Reconsidered.\u201d Contexts: Understanding People in Their Social Worlds 7(2):40\u201345.   Abstract",
        "Simon, Robin W., Nath, Leda E. 2004. \u201cGender and Emotion in the United States: Do Men and Women Differ in Self-Reports of Feelings and Expressive Behavior?\u201d American Journal of Sociology 109(5):1137\u201376.",
        "Stanca, Luca. 2012. \u201cSuffer the Little Children: Measuring the Effect of Parenthood on Well-Being Worldwide.\u201d Journal of Economic Behavior and Organization 81(3):742\u201350.",
        "Stone, Arthur A., Mackie, Christopher, eds. 2013. Subjective Well-Being: Measuring Happiness, Suffering, and Other Dimensions of Experience. Washington, DC: National Academies Press.",
        "Stone, Arthur A., Schneider, Stefan, Harter, James K. 2012. \u201cDay-Of-Week Mood Patterns in the United States: On the Existence of \u2018Blue Monday\u2019, \u2018Thank God it\u2019s Friday\u2019 and Weekend Effects.\u201d Journal of Positive Psychology 7(4):306\u2013314.",
        "Sullivan, Oriel. 2013. \u201cWhat Do We Learn about Gender by Analyzing Housework Separately From Child Care? Some Considerations from Time-Use Evidence.\u201d Journal of Family Theory and Review 5(2):72\u201384.",
        "Taylor, Paul, Parker, Kim, Morin, Rich, Cohn, D\u2019Vera, Wang, Wendy. 2013. The New American Father. Washington, DC: Pew Research Center. Retrieved October 6, 2014 (http://www.pewsocialtrends.org/2013/06/14/the-new-american-father/).",
        "Thoits, Peggy A. 2010. \u201cStress and Health: Major Findings and Policy Implications.\u201d Journal of Health and Social Behavior 51(1):S41\u2013S53.",
        "Twenge, Jean M., Campbell, W. Keith, Foster, Craig A. 2003. \u201cParenthood and Marital Satisfaction: A Meta-Analytic Review.\u201d Journal of Marriage and Family 65(3):574\u201383.",
        "Umberson, Debra, Pudrovska, Tetyana, Reczek, Corinne. 2010. \u201cParenthood, Childlessness, and Well-Being: A Life Course Perspective.\u201d Journal of Marriage and Family 72(3):612\u201329.",
        "Venn, Susan, Arber, Sara, Meadows, Robert, Hislop, Jenny. 2008. \u201cThe Fourth Shift: Exploring the Gendered Nature of Sleep Disruption among Couples with Children.\u201d British Journal of Sociology 59(1):79\u201397.",
        "Wang, Wendy. 2013. Parents\u2019 Time with Kids More Rewarding Than Paid Work\u2014and More Exhausting. Washington, DC: Pew Research Center. Retrieved October 6, 2014 (http://www.pewsocialtrends.org/2013/10/08/parents-time-with-kids-more-rewarding-than-paid-work-and-more-exhausting/).",
        "Warren, Elizabeth, Tyagi, Anne. 2003. The Two-Parent Trap: Why Middle-Class Parents Are Going Broke. New York: Basic.",
        "Woo, Hyeyoung, Raley, R. Kelly. 2005. \u201cA Small Extension to \u2018Costs and Rewards of Children: The Effects of Becoming a Parent on Adults\u2019 Lives.\u2019\u201d Journal of Marriage and Family 67(1):216\u201321.",
        "Yeung, W. Jean, Sandberg, John F., Davis-Kean, Pamela E., Hofferth, Sandra L. 2001. \u201cChildren\u2019s Time with Fathers in Intact Families.\u201d Journal of Marriage and Family 63(1):136\u201354."
    ],
    "title": "How Parents Fare",
    "issue": "5",
    "volume": "81",
    "year": 2016,
    "issn": "0003-1224",
    "journal": "American Sociological Review",
    "authors": [
        "Kelly Musick",
        " Ann Meier",
        " Sarah Flood"
    ]
}