{
    "doi": "http://dx.doi.org/10.1093/esr/jcp030",
    "abstract": "This article aims to examine gender and cohort differences in life-course occupational mobility in Britain and in particular the strength of the effects of career entry on subsequent upward or downward mobility. Does a \u2018bad start\u2019 in working life typically result in being trapped in the bottom tier of the occupational hierarchy or can it represent a stepping-stone towards more rewarding positions? Are there any gender differences in the effects of low entry occupations on subsequent careers? If so, are these differences stable or changing over time? Using large-scale data from the National Child Development Study and the British Cohort Study, we investigate individuals\u2019 occupational careers between the ages of 16 and 34 using an occupational scale based on the hourly average earnings of full-time workers. Although women's and men's career patterns in Britain have become more similar over time, women face the greatest and growing hindrance to career advancement from low level entry jobs. Entering at the bottom of the occupational hierarchy is more likely to represent a trap for women, while for men it is rather a stepping-stone to more favourable positions.",
    "sections": [
        {
            "title": "Introduction and Background",
            "paragraphs": [
                "Recent studies reveal that the school-to-work transition has become more precarious in advanced societies (e.g. Mills and Blossfeld, 2005; Blossfeld et al., 2008). This is particularly evident in the highly flexible and deregulated British labour market, characterized by relatively weak employment protection and a great deal of early 'job hopping' among young people. Some studies of early labour market careers in Britain have thus concentrated, in a comparative perspective, on the effects of institutional features, such as the educational and training system and forms of labour market regulation, or on the effects of educational expansion and structural change in labour demand (e.g. Gangl, 2002; Scherer, 2005). Other studies have been concerned with the impact of entry via temporary jobs on subsequent careers (e.g. Booth et al., 2002; Giesecke and Gross, 2004; Gash, 2004; Schmelzer, 2008) or with problems of 'over-education' in the early stage of employment (e.g. Brynin, 2002; Scherer, 2004). However, relatively little is known about the impact on subsequent work histories of entry into the labour market in low level occupations--'bad entry'--or about gender differences in this respect or about changes over time This article addresses these questions on the basis of data from two British birth cohort studies relating to people born in 1958 and 1970. More specifically, the article focuses on the implications of 'bad entry' for rates of job-to-job mobility and for the chances of upward and the risks of downward movement.",
                "There are two main theoretical approaches of relevance to our concerns. The first derives from mainstream human capital theory. In this case, the central argument (e.g. Sicherman and Galor, 1990) is that part of the returns to education come in the form of a higher probability of occupational upgrading. Relatively highly educated employees may be temporarily observed in bad jobs for which they seem to be overqualified; but these jobs provide them with skills that will later enable them to move into higher level occupations. Labour market entry via such jobs can be rational for employees and also for employers. It can be regarded as entailing an apparent short-term mismatch, at the beginning of employment careers, but one which creates the basis for subsequent upward mobility. This argument can be labelled as the 'stepping-stone' hypothesis.",
                "The second approach derives from 'labour market segmentation theory' (Doeringer and Piore, 1971). Employers are seen as having increasingly conflicting goals. They are forced to employ more and more workers in flexible positions, but also they need to invest in the maintenance and trust of their workforce. This leads to a segmentation of the labour market, into 'core' and 'periphery'. The core segment offers long-term, stable employment with structured and predictable career opportunities. But jobs on the periphery have lower skill requirements, lower wages, fewer career prospects, and higher risks of job loss and unemployment. Moreover, flows between the two segments of the labour market are limited, resulting in employees who enter bad jobs on the periphery becoming stuck there. Peripheral jobs tend to be considered by potential employers as in themselves signals of a job applicant's lack of qualifications and skills. These jobs are not accompanied by the same opportunities for further (general or specific) training that could provide the human capital required for upward mobility. In contrast to the stepping-stone hypothesis therefore, this theoretical approach offers the 'entrapment' hypothesis.",
                "In the light of these two differing approaches, we pose two research questions. The first is: Do bad entry jobs have implications for career development which differ by gender? For example, could it be that the stepping-stone hypothesis is more applicable in the case of men's early careers, but the entrapment hypothesis in the case of women's? Gender differences in the effect of initial placement on career advancement might arise in a number of ways.",
                "First, although women of recent generations are better educated than men in a number of advanced societies including Britain (Makepeace et al., 2003), those women entering low-level occupational positions may still have lower qualifications than their male counterparts and/or fewer opportunities for further training in initial jobs (Escriche, 2007) and thus be less likely to achieve career advancement.",
                "Second, more recent cohorts of women in the UK show increased participation in part-time work over their early careers (Connolly and Gregory, 2008) which may lead to them acquiring less human capital than men as a result of a lower level of participation in on-the-job training.",
                "Third, a bad entry may influence individuals' own perceptions of their market value and discourage them from applying for better jobs and make them more likely to remain in the peripheral segment of the labour market. These 'discouraging' effects may be stronger for women than men through mechanisms such as 'psychological capital' that is found to generate differences in young women's and men's evaluations of their own abilities (Sullivan, 2006).",
                "Fourth, women may be less concerned with rapid job promotion than men when they choose an occupation or a 'career path'. They may rather prefer having jobs which give them more opportunities to reconcile work and family commitments or have a more convenient geographic location or are more 'sociable' in character (Hakim, 2000). In this case we might expect to see women making fewer 'good' job changes and more 'bad' job changes, at least in terms of earnings or opportunities for further promotions.",
                "Our second research question focuses on whether there are changes over time: If gender differences in the consequences of bad entry jobs do exist, are these differences stable or widening or narrowing? Two contrasting possibilities can be identified.",
                "On the one hand, recent labour market developments could lead to diminishing gender differences in the effects of initial occupations on career trajectories. In the UK labour market over the last decades there are several indications of the position of women gradually improving relative to that of men. By the millennium, the employment rates of women had become very similar to those of men and the pay of women in full-time employment had risen substantially (Nickell, 2001). This was chiefly the result of women's levels of qualification rising faster than those of men. Parallel to this, British men's labour market opportunities appear to have been worsening. The risk of a substantial decline in real pay increased from the beginning of 1980s through to the mid-1990s, irrespective of qualifications (Nickell et al., 2002). Moreover, there is evidence that a growing proportion of recent generations of men, especially the less well educated, are facing high turbulence during their early labour market careers and an increasing risk of downward occupational mobility (Golsch, 2006b).",
                "On the other hand, the feminized expansion of low-quality jobs may tend to increase gender differences in the impact of first jobs on subsequent employment histories. Owing to the expansion of the service sector and also to technological change, all advanced societies appear to have experienced a large increase in demand both for highly qualified personnel and for workers in low-skilled and low-paid jobs. In other words, employment structures have tended to polarize. This tendency is already well-documented for the UK over the 1990s, where many of the rapidly growing low-level jobs are in fact highly feminized--e.g. care and education assistants, hospital ward assistants (Goos and Manning, 2007; Eurofound, 2008). The chances of making career advancement from such jobs are likely to be low (e.g. Hultin, 2003).",
                "A number of recent studies have analysed occupational mobility in Britain but most have either been limited to males or have focused on specific aspects of mobility other than those that concern us here (see Joshi and Hinde, 1993; Harper, 1995; Dolton and Kidd, 1998; Heitmueller, 2004). Rather few have examined gender differences in occupational mobility and with somewhat conflicting results. Tomkins and Twomey (2000) investigated aggregate movements between occupations, and concluded that men are still much more likely than women to move up on a pay-based career ladder. In contrast, Dex et al. (2008) found that gender differences in career mobility have been decreasing in Britain. However, neither of these studies focused on the effect of the occupational level of entry position on subsequent work-life mobility.",
                "Moreover, the few earlier studies of this issue have also produced mixed findings. Nickell (1982) concluded that the best predictor of men's occupational position in later life, as measured by average hourly earnings, is position on first entry into the labour market. Golsch's (2006a, b) results also emphasize the importance of first occupational level in contemporary Britain. She found that for recent cohorts, for both sexes, the higher the socio-economic status of entry jobs, the better the chance of further status gains and the lower the risk of status loss over the employment history. However, Jacobs (1999), while reporting that first occupational status explains a significant part of both women's and men's status 15 years later, also found important gender differences. In particular, for women, but not for men, the importance of entry position appeared to decline over time relative to that of qualifications.",
                "In sum, previous empirical findings do not give a clear picture of the impact of the occupational level of first jobs on mobility chances and risks in the course of individuals' working lives in modern Britain. In particular, in assessing the applicability of the stepping-stone and the entrapment scenarios, rather little attention has been given to possible gender differences in the effects of first occupational level and to the extent to which such differences may be either decreasing or increasing in the context of wider changes in the labour market. It is on these issues that we now focus."
            ]
        },
        {
            "title": "Data and Design",
            "paragraphs": [
                "Ideally, to answer our research questions we need longitudinal data from more than one cohort.1 For our present purposes, we use the data-set of the National Child Development Study (NCDS) in conjunction with that of the British Cohort Study (BCS70). The NCDS comprises data referring to all children born in Great Britain in 1 week in March 1958, which were collected at birth and then in seven further surveys at ages 7, 11, 16, 23, 33, 42, and 46. The BCS70 relates to all children born in Great Britain in 1 week in April 1970, for whom data were collected at birth and again in six further sweeps at ages 6, 10, 16, 26, 30, and 34. In both cases the original cohort comprised around 17,000 children. These data provide a good opportunity to examine whether or not the consequences of a bad start on subsequent career trajectories have changed over time in Britain, and especially since the two cohorts entered the labour market under significantly different conditions.",
                "Members of the 1958 cohort faced fairly severe economic recession early in their working lives. Unemployment and inflation were growing problems through the 1970s and early 1980s and large-scale deindustrialization also took place. But, on the other hand, women in this cohort were among the first who had the benefit of equal opportunities policies and legislation--as is reflected in the absence of any major sex differences in educational qualifications and in the high proportion of women in gainful employment. In contrast, when the least qualified people of the 1970 cohort left full-time education at age 16 the labour market was buoyant. However, unemployment rose again after 1990, and then gradually decreased from 1993, but this development was coupled with deregulation of the labour market and increasing employment 'flexibility' (Dex and McCulloch, 1997; Burchell et al.2002). As a result, the employment opportunities of new school leavers declined significantly in the late 1980s and early 1990s (OECD, 1998), and career-entry processes became longer and more likely to include short-term and part-time employment, periods of non-employment and further training (Taylor, 2000). On the other hand, the proportion of school leavers with high levels of qualifications was higher in this cohort than in the 1958 cohort, and especially in the case of women.",
                "Our basic concern here is to design analyses that will enable us first to make comparisons of the experience of life-course occupational mobility of women and men in the two cohorts; then, secondly, to examine how occupational position at labour market entry influences subsequent career mobility. Therefore, we use survey sweeps conducted at age 23 and 33 in the case of NCDS, and those conducted at age 26, 30 and 34 in the case of BCS70 to reconstruct cohort members' job histories between the ages of 16 and 33/34. The data-sets include recalled information on each job respondents had held2: the timing of job changes recorded in months, the occupation in each job3 and whether cohort members were employed full-time or part-time.4 In the subsequent analyses we consider only 'significant' jobs: i.e. those that lasted at least 6 months and were taken up between the age when cohort members first left full-time education5 and age 33/34. This is the most recent age for which we have data on both cohorts, but which can be assumed to imply a stage of 'occupational maturity' (Breen, 1994).",
                "Given that we use several different sweeps of two longitudinal surveys, the problem of missing data emerges. Both the NCDS and the BCS70 have suffered considerable attrition of respondents across successive surveys as well as a non-negligible amount of item non-response. However, various analyses of attrition and non-response have been undertaken and, so far, results are encouraging in suggesting that no major biases are being created (Nathan, 1999; Hawkes and Plewish, 2006).",
                "Since our main concern is with examining the chances of moving up or down the occupational hierarchy we first need to construct an occupational scale. This raises the problem of what one means by the quality of occupations. There is a wide range of attributes of occupations that may matter to people. Accordingly, there are a number of ways and methods to design an occupational ranking schema (see Goldthope and Hope, 1974, Treiman, 1977, Stewart et al., 1980, Nickell, 1982, Ganzeboom and Treiman, 1996, Warren et al., 1998, Chan and Goldthorpe, 2004). In this article we use pay as the basis of ranking occupations since it is one of the most important attributes of occupational quality.",
                "We first took the earnings data from the 2002 UK New Earnings Survey and ranked the 77 two-digit codes of occupations according to their mean hourly wage rates (full-time employees excluding overtime).6 We then converted the ranking into scores between 1 and 100, which therefore represent relative positions within the occupational distribution (full details are available from authors).7 The scale was constructed in a gender-neutral manner as we used the combined occupational wage rates of both men and women as the basis of the ranking. However, one might still be concerned that applying a 'gender-neutral' scale is problematic since women and men are distributed unevenly across occupations, and also may have different pay within occupations. In order to check whether or not our 'gender-neutrality' assumption is met, we produced occupational scores for the two sexes separately in the same way as described above. Then, the scores for women and men were compared in a scatter plot. The results, not shown here, reveal that there is a remarkably high correlation (0.918) between women's and men's scores. Moreover, there are only a few occupational categories for which women's and men's scores appear to be markedly different. Child-care occupations, store clerks and administrative officers have somewhat lower scores on the men's scale than on the women's scale, while the reverse is the case for assembly line-workers, article, plastic and related process operatives and metal working process operatives. In sum, these results give strong support to our occupational scale being largely gender-neutral."
            ]
        },
        {
            "title": "Results",
            "paragraphs": [
                "In order to provide a general context for the analyses that follow, we first document the amounts of occupational mobility that women and men experienced over their early employment careers (Table 1). The figures of the table derive from the so-called 'cumulative spells table' in which each cell entry represents a job and these jobs are cross-classified by occupational levels (Halpin, 1992). The only difference between our table and a standard intra-generational mobility table is that while the latter cross-classifies respondents by their first and last occupations, ours takes all respondents' jobs into account, and cross-classifies job j by job j + 1.8 Thus, respondents with more job changes contribute more transitions to this cross-classification. ",
                "When defining occupational mobility, we use two approaches. In the first exercise, upward mobility is recorded if a job shift entails any increase in occupational score, i.e. when the score attached to job j + 1 is higher than that of job j. When the shift leads to any decrease in score, it is taken as downward mobility. In the second exercise we consider only 'significant' mobility, defined as at least a 20-percentage-point increase or decrease in the occupational scores between two consecutive jobs (Blossfeld et al., 2006).",
                "From the panel of 'all moves' in Table 1, a fairly substantial decrease in the amount of occupational mobility occurs between the two cohorts, especially for women. More individuals in the 1970 than in the 1958 cohort remained at the same occupational level if they changed jobs. However, for women this increase in occupational stability across cohorts was the net outcome of a 10-percentage-point decrease in downward mobility together with a relatively steady rate of upward mobility. For men, the rate of downward mobility hardly changed between the two cohorts, while the amount of upward mobility decreased by five percentage-points. The second panel of Table 1, which describes significant movements, shows essentially the same pattern of results.",
                "Overall, the findings of Table 1 suggest that women's and men's occupational mobility patterns in Britain have been converging in the most recent decades. There are a number of possible explanations for this trend. First, as noted above, the qualification gap between women and men has been narrowing. Second, marriage is occurring increasingly later in people's lives, and having a child--which can still be considered as one of the most important limitations on women's employment opportunities--is strongly related to (delayed) marriage (Steele et al., 2005). Third, the gap out of employment due to childbirth is getting progressively shorter (e.g. Macran et al., 1996), and shorter breaks tend to help women retain their occupational level (McCulloch and Dex, 2001). Fourth, maternity leave has been extended to greater numbers of women, making it possible for a growing proportion of women to return to the job they held before childbirth (McKie et al., 2001), thus maintaining their occupational status. Fifth, as noted, men's labour market opportunities have been worsening in many respects since the early 80's. Sixth, occupational mobility over the life-course is decreasing for women and men alike, because the recruitment process to professional, administrative, and managerial positions is now more often made directly among new graduates rather than through upward work-life mobility (Gershuny, 1993).",
                "Figure 1 displays the distribution of women and men according to the levels of their first occupation, for the two cohorts separately. For this purpose we create, within our occupational scale, five broad levels, each covering ~20 per cent of the distribution of scores. Low level jobs at labour market entry are more frequent for women than for men: almost one-half of women are found in the two lowest levels of the occupational ranking. Moreover, the proportion of women with an entry occupation in the lowest level (cleaners, catering workers, sales assistants, hairdressers, beauticians, etc.) has increased between the two cohorts.9 Also, there is a striking gender difference in the proportion of entrants at middling-level positions: men are clearly over-represented here. Finally, presumably as a consequence of technological changes and growing demands for highly qualified employees, the proportion of those with initial jobs in the highest levels of the occupational distribution appears to have increased between the two cohorts, but somewhat more for men than for women. ",
                "In order to address the determinants of individuals' probability of finding their first significant employment in low level jobs, we take bad entry or not as the dichotomous dependent variable in a logistic regression model and focus on individuals' educational attainment and social origins10 as potential determinants. The results--not shown here but available upon request--are much as might be expected.",
                "Controlling for educational attainment, we find scarcely any significant effects of social origins on the probability of entering at the bottom level of the occupational hierarchy.11 In contrast, the effects of education themselves are marked. Lower educational attainment is associated with a much greater risk of having one's first job in the lowest occupational level, but more so for women than for men. In order to investigate formally gender differences in the educational composition of those who entered the labour market via bad jobs, we pooled the data for women and men for each cohort, and included qualification-by-gender interactions in the regression model. The coefficients suggest, first, that women with a degree are somewhat less likely than men with the same qualification to be found at entry in the lowest level of the occupational distribution, and, second, that women with less than intermediate qualifications (O level or equivalent) are more likely than their male counterparts to start out in bad jobs in both cohorts. This points to the important conclusion that women with bad entry jobs appear to be more homogeneous and more dominated by the less well educated than is the case for men.12",
                "We now consider the consequences of entry job for future occupational mobility. For this investigation, we take into account all job moves that men and women in our two birth cohorts have experienced up to age 34. An initial characterization of individuals' occupational trajectories for those who entered via a lowest level occupation is displayed in Figure 2 using five categories: ",
                "(i) stability (no move out of the lowest occupational level up to age 34); (ii) steady upward mobility (moves consistently towards higher occupational levels); (iii) counter mobility13 between the bottom and next-to-bottom levels of the occupational hierarchy; (iv) counter mobility of other kinds (upward moves to the third or higher levels of the occupational hierarchy, but followed by a return to the lowest occupational level); and (v) instability (upward and downward moves but not leading back to the lowest level). The proportions of those with stable occupational trajectories are considerably higher for women than for men in both cohorts. This means that a non-negligible minority of women who had bad entry jobs did not move out subsequently, even for a short period, from the lowest levels of the occupational distribution. Moreover, among women the proportion of counter mobiles is also higher than among men, and, it may be added, more than a half of the women's counter mobility group are those who moved between jobs in the bottom and next-to-bottom levels of our occupational scale. These findings point to clear gender differences in the consequences of bad entry jobs for later occupational careers.",
                "In order to seek for the underlying causes, we now turn to event-history techniques. We model the hazard of upward and downward moves. By 'hazard' we mean the likelihood of an event--in this case, an upward or a downward occupational shift--occurring in a particular month of a job. Upward (downward) mobility is defined as a significant--i.e. at least 20 percentage-point--increase (decrease) on the occupational scale. Tables 2 and 3 report the effects of labour market entry via jobs at differing occupational levels on the hazard of upward and downward mobility, separately for women and men, and controlling for a range of individual characteristics.14 A set of time-varying controls capture aspects of individuals' work experience gained up to the point of entering their current jobs: linear and squared forms of cumulative amounts of work experience (measured in years) and the percentage of previous labour force experience spent in part-time employment. The models also include an age dummy indicating whether or not the respondent is older than 25 at the start of the job spell. Since previous research (e.g. Jacobs, 1999; Connolly and Gregory, 2005) suggests that individuals' mobility chances depend on their past occupational mobility histories, the models incorporate a set of time-varying dummy variables to characterize women's and men's occupational trajectories up to the point of entering their current jobs. The following categories are distinguished: no occupational change of greater than 20 percentage points; at least one upward move, but no downward move; at least one downward move, no upward move; both kinds of move. We also include a time-varying measure for highest educational level attained by the time of entering current job. Finally, two covariates describe the current job held by the respondent: occupational level and a dummy for part-time employment.15 The estimation is performed by piecewise exponential models (Blossfeld and Rohwer, 2002).16",
                "The more general findings from this analysis are the followings. Occupational moves of either kind were found to be most probable when women and men had worked in their job for at least one but no more than two years. Then, negative duration dependence prevails: the longer the job spell, the lower the probability of an upward or downward occupational move. The coefficients for employment experience suggest that risks of downward mobility are higher during the first years of employment careers for both genders: the more work experience individuals accumulated, the lower their probability of moving downwards. However, while women's chances of moving upwards appear to be unaffected by their amount of work experience, men's probabilities of an upward move are clearly higher in the very early stages of their employment histories when they have not yet accumulated much experience. Men of the 1958 cohort who had a higher proportion of their employment careers in part-time jobs were more likely to move downwards but did not seem less likely to move upwards on the career ladder. However, in the case of the 1970 cohort, as for women in both cohorts, men who had more past experience in part-time jobs did not appear to be at greater risk of downward or upward mobility after controlling for other experiences. It can also be seen that in the case of the 1958 cohort, age does not affect either women's or men's occupational mobility. However, for women in the 1970 cohort, a negative effect of age is visible, and any kind of move is more probable below age 25.",
                "Qualifications have a fairly systematic effect on the hazards of women's and men's occupational mobility. Overall, the higher the educational level attained, the more likely an individual is to move up on the occupational ladder. Likewise, higher levels of education generally appear to decrease the risk of downward mobility. Finally, women and men who experienced occupational shifts in either direction were more likely to move than those who had a stable occupational career, and especially in the case of the 1970 cohort. This is evidence for path dependence applying to both genders. The estimates further document clear effects for current occupation. First, the better the occupation, the lower the chance of upward and the higher the risk of downward occupational mobility. Second, holding a part-time job significantly decreases women's chances of upward mobility in both cohorts. At the same time, part-time posts make downward moves more probable, but only for the members of the 1958 cohort.17 In the case of men, part-timers of the 1970 cohort have better chances to move upwards, but they also face higher risks of moving downwards, as compared to their counterparts in full-time posts.",
                "However, in this article, it is the effects of initial occupational position that are of primary interest. In the 1958 cohort, those women whose entry jobs are in the next-to-top level of our occupational scale (e.g. health and social welfare associate professionals) have the best opportunities to move up even further in the occupational hierarchy--controlling for other factors. But in the 1970 cohort such women have no better chances to experience upward shifts than those who entered the labour market in occupations in the third level (e.g. as clerks, travel attendants). Also, a marked cohort difference exists in the chances of upward mobility for women with a first job in the lowest level of occupations. In the 1970 cohort the hazard of an upward move for those starting in bad entry jobs is 25 per cent (e-0.287 - 1) lower than for those who entered the labour market in the third level. For the 1958 cohort the rates of upward mobility are rather similar for these two groups of women.18",
                "Figure 2 suggested that for a substantial proportion of women who entered the labour market via the lowest occupational level, any upward movement might be rather transient. The relevant coefficients of Table 2 confirm this view. Being in the lowest occupational level at entry into the labour market does increase women's risk of downward mobility in the course of their early employment histories. The risk increased for women in the 1958 cohort by 20 per cent (e0.184 - 1) and by almost 40 per cent (e0.330 - 1) in the case of 1970 cohort--as compared to those whose initial job was at the third level. The significant positive coefficient for members of the 1970 cohort, who started in a job in the second level, can be taken as further evidence of the growing hindrance to career advancement that stems from low-level entry jobs.19 In both cohorts alike, entering the labour market at the highest occupational level, makes later downward mobility much less probable, again underlining the crucial role of initial occupation in subsequent mobility chances and risks.",
                "For men, as for women, a high-level entry job appears to 'protect' against the risk of downward mobility, and more so for those born in 1970 than in 1958.20 Moreover, entering the labour market via a high quality job makes it more probable that men will experience further upward mobility over the early employment career. However, in contrast with women, men with low-level entry occupations do not appear to face great difficulties in moving up the occupational hierarchy in either cohort. In the 1958 cohort those who started their careers in the next-to-bottom occupational level are more likely than their counterparts in the third level to experience occupational mobility of any kind.",
                "Having established a clear association between initial occupational level and the hazards of subsequent upward and downward mobility, we move on to the further question of whether or not this association varies by levels of qualification. One could expect, for instance, chances of upward moves and risks of downward moves for those with bad starts to vary by differing levels of qualification, and differently so for women and men. To examine this question, we take a hypothetical person and use the appropriate model to calculate the predicted probabilities of her or his being upwardly and downwardly mobile if her/his first job is in the bottom level of the occupational hierarchy and if she/he has differing levels of qualification (Figure 3). Other characteristics were set as 5 years of work experience, never had a part-time job, had at least one upward move up to the point of entering her/his current job, and holding a current job with the mean occupational score. ",
                "There is in fact scarcely any gender difference in the hazard of upward mobility. However, a marked gender difference shows up, irrespective of level of qualification, in the likelihood of a downward move: this is much higher for our hypothetical woman than for a corresponding man. This further indicates that although women with bad entry jobs would appear to have fairly similar chances to men to move up the occupational hierarchy, their relatively improved position tends to be transient; they are more likely subsequently to make a downward shift than men, and even if they are well educated.",
                "We can also calculate the predicted hazards of upward and downward mobility for the same hypothetical person but now fixing her/his first occupation in the third level of our occupational scale (Figure 4). In this case, the hazard of upward mobility appears to be higher for our hypothetical woman than for a corresponding man, especially in the 1970 cohort and especially if she has some tertiary education. A woman with tertiary education in the 1970 cohort does not seem to be more likely to move downwards than a man with the same levels of qualification. This would suggest that, given a higher level entry job, a well-educated woman's chances to move upwards increase and that her qualifications are an effective protection against downward mobility. "
            ]
        },
        {
            "title": "Discussion and Conclusions",
            "paragraphs": [
                "In this article we have investigated the impact of low-level entry jobs on subsequent life-course occupational mobility in Britain. We have noted two different theoretical approaches that give rise to contrasting 'stepping-stone' and 'entrapment' hypotheses, and we have presented empirical findings relevant to the evaluation of these hypotheses by focussing on two particular questions: first, are there gender differences in the effect of bad entry jobs on further career trajectories, and, second, insofar as such differences exist, are they changing over time--i.e. between two birth cohorts.",
                "Our analyses show that an overwhelming majority of men who entered the labour market via low level jobs not only got out of these positions with a relatively high probability but also managed to maintain their more advantaged occupational position over their early employment careers. For many male workers, therefore, initial employment in the lowest level of the occupational hierarchy was a stepping-stone rather than a trap, and may indicate a period of investment in human capital or a period of 'experiment' in order to find the most suitable career path.",
                "However, for women, entering the labour market in a job in the lowest occupational level appears to be a major disadvantage, with negative consequences for their subsequent career advancement that cannot be fully offset over time. Although women are able to get out of an initial low level job at a fairly similar rate to men with the same level of qualifications, their improved occupational position seems to be more transient. They are much more likely than men to experience subsequent downward mobility, in most cases back to their initial low occupational level. Moreover, even if women moved upwards on the occupational scale, a significant proportion of these shifts are quite 'short-distance', to the second lowest level of the hierarchy at most, so that women with low quality entry jobs tend to be hovering between the two bottom levels of the occupational hierarchy over their careers to a far greater extent than men. In sum, the evidence for women suggests that starting their employment careers at the lowest level of the occupational hierarchy is a 'trap' rather than a 'stepping-stone'.",
                "Furthermore, we find evidence that gender differences in the effect of bad entry jobs on subsequent career chances have widened over time--that is, between the two cohorts we consider here. In the case of women the detrimental effects of starting a career in the lowest occupational level appear to be more pronounced for the 1970 cohort than for the 1958 cohort. This means that not only did a higher proportion of women in the 1970 cohort have bad entry jobs but also that their chances of mobility out of these jobs were clearly lower than those of women in the 1958 cohort. This suggests that the polarization of women's employment and occupational structures intensified in the nineties and that this, together with growing insecurity in the labour market, led to a still lower probability of career advancement out of the lowest occupational positions for women than for men.",
                "We have been concerned in this article with establishing the extent of, in gender and cohort differences in the effects of bad entry on individuals' later occupational trajectories in relation to the 'trap' and 'stepping stone' hypotheses. However our research also allows us to put forward some suggestions regarding the mechanisms that may underlie our empirical findings that would merit further investigation. Our findings clearly show that women in low quality jobs, whether born in 1958 or 1970, tend to form a more homogenous group than their male counterparts, in which women with low levels of human capital predominate. This may help to explain why women with a bad entry found it harder to achieve occupational upgrading in their later careers. At the same time, though, our results do not support the expectation that the growing frequency of part-time employment during early working life might be responsible for women's reduced career chances and greater career risks. And our analyses also show that the probability of getting out of the lowest level of the occupational hierarchy is not all that closely related to women's educational attainment--the chances being quite low even for the relatively well educated. This then suggests that some distinctive features of women's motivations, aspirations or work orientations might be operating.",
                "In summary, the findings of this article indicate that overall, British women's career opportunities improved a good deal in the 1980s and 1990s, and their occupational trajectories, at least up to age 34, have become more similar to those of men. However, considerable differences remain, and are if anything increasing, between the labour market experience of those who began their employment careers in fairly favourable occupational positions and those who entered the labour market in bad jobs. In general, our results would support the claim by Bihagen and Ohls (2006) that the focus of research on the higher levels of the occupational hierarchy should be matched by an equal interest in gender inequalities at lower levels, and underlines the need to explore in greater depth the mechanisms that create and sustain these inequalities.",
                "This research was produced as part of an ESRC funded Priority Network on Gender Inequalities (GeNet), grant number RES-225-25-2001. For helpful comments on earlier drafts of this article, we are indebted to John Goldthorpe, Heather Joshi and Jenny Neuburger as well as two anonymous reviewers of this review."
            ]
        }
    ],
    "references": [
        "http://dx.doi.org/10.1111/j.1467-954X.2006.00600.x",
        "http://dx.doi.org/10.1111/ecoj.2002.112.issue-480",
        "http://dx.doi.org/10.1177/0049124194023002001",
        "http://dx.doi.org/10.1177/095001702321587406",
        "http://dx.doi.org/10.1177/095001709372004",
        "http://dx.doi.org/10.1093/esr/jch033",
        "http://dx.doi.org/10.1111/j.1468-0297.2007.02116.x",
        "http://dx.doi.org/10.1111/boer.1998.50.issue-4",
        "http://dx.doi.org/10.1111/ecoj.2007.117.issue-520",
        "http://dx.doi.org/10.1177/09500170222119254",
        "http://dx.doi.org/10.1006/ssre.1996.0010",
        "http://dx.doi.org/10.1080/1461669042000231456",
        "http://dx.doi.org/10.1177/053901847201100511",
        "http://dx.doi.org/10.1162/rest.89.1.118",
        "http://dx.doi.org/10.1111/j.1468-0084.1995.mp57003005.x",
        "http://dx.doi.org/10.1111/rssa.2006.169.issue-3",
        "http://dx.doi.org/10.1111/poqu.1987.58.issue-4",
        "http://dx.doi.org/10.1111/sjpe.2004.51.issue-3",
        "http://dx.doi.org/10.1177/0730888402239326",
        "http://dx.doi.org/10.1111/gwao.1999.6.issue-1",
        "http://dx.doi.org/10.1177/0950017096010002005",
        "http://dx.doi.org/10.1017/S0047279401006262",
        "http://dx.doi.org/10.2307/2297139",
        "http://dx.doi.org/10.1111/obes.2001.63.issue-s1",
        "http://dx.doi.org/10.1111/ecoj.2002.112.issue-476",
        "http://dx.doi.org/10.1177/09500172004042774",
        "http://dx.doi.org/10.1093/esr/jci036",
        "http://dx.doi.org/10.1086/261674",
        "http://dx.doi.org/10.1353/dem.2005.0038",
        "http://dx.doi.org/10.1080/000368400322886",
        "http://dx.doi.org/10.1177/0049124198027001001"
    ],
    "title": "Bad Start: Is There a Way Up? Gender Differences in the Effect of Initial Occupation on Early Career Mobility in Britain",
    "issue": "4",
    "volume": "26",
    "year": 2010,
    "issn": "0266-7215",
    "journal": "European Sociological Review",
    "authors": [
        "Erzs\u00e9bet Bukodi",
        "Shirley Dex"
    ]
}