{
    "doi": "http://dx.doi.org/10.1177/0022146518792286",
    "abstract": "Housing assistance policies may lead to improved mental health for children and adolescents by improving housing quality, stability, and affordability. We use a unique data linkage of the National Health Interview Survey and U.S. Department of Housing and Urban Development administrative data to examine the impact of housing assistance on parent-reported mental health outcomes for children ages 2 to 17 (N\u2009= 1,967). We account for selection into housing assistance using a pseudo-waitlist method that compares children receiving assistance to those who will enter housing assistance within two years of their interview. Compared to those in the pseudo-waitlist group, we find that children living in public housing have better mental health outcomes. We do not find similar benefits for children receiving vouchers. Our results suggest that housing assistance policies can have a positive impact on mental health among disadvantaged children.",
    "sections": [
        {
            "title": "Introduction",
            "subsections": [
                {
                    "title": null,
                    "paragraphs": [
                        "There are large socioeconomic differences in mental health among children in the United States, driven in large part by disparities in access to advantageous social environments and by differential exposure to social stressors (McLeod and Shanahan 1996; Reiss 2013). One pathway linking socioeconomic status to mental health inequality in the United States is housing, particularly the ability of families to afford high-quality housing in a high-opportunity location (Newman and Holupka 2015). In 2015, 84% of renters in the bottom income quintile spent more than 30% of their income on housing, and 70% spent at least half (Joint Center for Housing Studies of Harvard University 2017). Growing more severe since the financial crisis and the Great Recession (Houle 2014), this trend may have significant implications for mental health among children in disadvantaged families. Policies that improve housing may have a beneficial impact on the mental health of disadvantaged children and adolescents.",
                        "Federal housing assistance programs aim to provide affordable, stable, and high-quality housing to low-income families (U.S. Department of Housing and Urban Development [HUD] 2017). As of 2017, HUD provided housing assistance to approximately 5 million families, including nearly 3 million children (Center on Budget and Policy Priorities 2017). Assisted households are expected to pay 30% of their incomes to rent with the difference subsidized by HUD.1 HUD benefits allow assisted households to purchase higher-quality housing and more stable housing than they would otherwise be able to afford while freeing up household income that can be invested in other health-promoting goods (Fertig and Reingold 2007).",
                        "Experimental and quasiexperimental evidence suggests that housing assistance during childhood imparts long-term economic benefits that extend into adulthood (Andersson et al. 2016). Given strong evidence that mental health conditions in childhood impact adult outcomes (Currie and Stabile 2006), the impact of housing assistance on child mental health is a particularly relevant question. Although recent studies indicate that housing assistance is associated with improvements in physical and mental health, chronic disease management, and healthcare access and use for adults (Fenelon et al. 2017; Keene, Guo, and Murillo 2018; Pfeiffer 2018; Simon et al. 2017), there are relatively few studies examining whether housing assistance improves child outcomes (Slopen et al. 2018). While the Moving to Opportunity study provided important experimental evidence of the effect of housing assistance type on short- and long-run outcomes, it did not consider the impact of any assistance versus none.",
                        "This study improves upon shortcomings of previous research to examine whether HUD housing assistance programs are associated with improved child mental health. We leverage a unique data set that merges longitudinal administrative data with a nationally representative household health survey. We use a quasiexperimental approach that controls for unobserved selection into HUD assistance, and we consider differences by housing assistance program type and child's age."
                    ]
                }
            ]
        },
        {
            "title": "Background",
            "subsections": [
                {
                    "title": "Housing and Children\u2019s Mental Health",
                    "paragraphs": [
                        "Children who experience persistent poverty or economic instability are likely to have more socioemotional problems than their advantaged counterparts, a pattern that has been found with respect to a number of mental health and behavioral measures (Lee and Jackson 2017; Reiss 2013). HUD housing assistance may ameliorate some of the negative effects of poverty on low-income children by providing superior physical quality and neighborhood context, affordability, and better parental mental health, which may impact child mental health (Kull and Coley 2014).",
                        "Improvement in housing quality and reductions in overcrowding are likely to increase cognitive stimulation and psychosocial well-being for children (Thomson et al. 2009). In addition to physical quality, growing up in a neighborhood with high rates of poverty or violence may be detrimental to mental health in childhood and adolescence, and can reduce social and economic mobility in adulthood (Chetty, Hendren, and Katz 2016; DeLuca and Rosenblatt 2010). Reductions in neighborhood disadvantage or improvements in neighborhood social capital can have mental health benefits during adolescence (Dupere, Leventhal, and Vitaro 2012). Improvements in housing affordability could help families free up resources to spend on healthcare, transportation, education, and leisure activities (Newman and Holupka 2015). High rent burden and unstable housing can have direct impacts on parents' mental health, which can affect the well-being of children by increasing child maltreatment (Warren and Font 2015). Decreases in rent burden could also reduce the stress that is known to accompany poverty (Burgard, Seefeldt, and Zelner 2012; Gladstone, Boydell, and McKeever 2006) and can limit the frequency of evictions or unexpected moves (Desmond and Kimbro 2015)."
                    ]
                },
                {
                    "title": "Housing and Children\u2019s Mental Health",
                    "paragraphs": [
                        "In 2016, the HUD provided housing assistance to approximately 5 million families, including nearly 3 million children under 18 (HUD 2016). Housing assistance is primarily provided through three major programs that are administered by local public housing agencies (PHAs): public housing (1.1 million current households), housing choice vouchers (2.2 million households), and multifamily housing (1.5 million households). The public housing program refers to entire developments of subsidized housing owned and operated by PHAs. Although past public housing developments were often high-density towers, newer-construction projects tend to be less dense and are more likely to be directly integrated within mixed-income neighborhoods than their predecessors (Lloyd and Helms 2016). The concentration of assisted families in public housing may permit relatively efficient delivery of services, such as healthcare or food assistance (Digenis-Bury et al. 2008; Meyers et al. 1993). High density of public housing has also been a source of criticism in academic and policy circles, given the expectation that a concentration of poverty was responsible for reducing life chances for disadvantaged children (Popkin and Edin 2016).",
                        "The housing choice vouchers program was developed to alleviate concerns associated with the concentration of residents in public housing (Fischer 2015). Vouchers allow recipients to enter the private housing market by providing a housing subsidy that is paid on the renter's behalf directly to landlords that rent properties that meet HUD quality standards (Center on Budget and Policy Priorities 2017). Voucher values are set to cover the difference between 30% of beneficiaries' incomes and the fair market rent, set by HUD at the 40th percentile of rents in the metropolitan area. Vouchers are highly portable, allowing renters to take their voucher to any qualified property in the United States.",
                        "Multifamily housing programs involve privately owned housing developments that reserve a certain number of housing units for rent at below-market rates, with the difference in price subsidized by HUD. Although multifamily housing involves a number of different individual HUD programs and roughly one quarter of all subsidized units in the United States, there are few existing studies on its impact on child outcomes and no studies focusing on child mental health (Kucheva 2018; Newman and Harkness 2002).",
                        "Unlike other federal safety-net programs, like the Supplemental Nutrition Assistance Program or Medicaid, HUD's housing assistance programs are not entitlements. The demand for housing assistance exceeds the supply of assisted housing units. In 2015, only one in four renters with incomes below HUD's income eligibility threshold for housing assistance received housing assistance, and there were nearly twice as many low-income renters that paid over 50% of their incomes in rent or lived in substandard housing as there were people receiving housing assistance (HUD 2017).2 To manage the excess demand for benefits, PHAs may establish waitlists. The mean wait time for housing assistance is currently 26 months, although it can be more than five years in many U.S. cities (HUD 2016)."
                    ]
                },
                {
                    "title": "Housing and Children\u2019s Mental Health",
                    "paragraphs": [
                        "There are a number of challenges to studying the relationship between housing assistance and child outcomes that relate largely to the lack of high-quality nationally representative data on both housing assistance participation and health outcomes (Slopen et al. 2018). Much of the previous work on housing assistance focuses on local or convenience samples (Jacob, Ludwig, and Miller 2013; Shiono et al. 1997) or has limitations associated with survey self-reports of housing assistance participation (Shroder and Martin 1996). There are also difficulties in establishing causality in the relationship between housing assistance and child outcomes. HUD-assisted families have average incomes of 24% of the area median (HUD 2016), and many have experienced periods of homelessness (Helms, Sperling, and Steffen 2017). Few studies have used rigorous methods to control for selection bias in the relationship between housing assistance and health, and thus many past conclusions may be biased.",
                        "Only two published studies since 1990 have examined the impact of housing assistance on children's psychological well-being, mental health, or behavior. Using parent-reported information on housing assistance, Coley et al. (2013) showed little evidence for an effect of self-reported housing assistance participation on child behavior issues but suggested that access to assisted housing may lead to less growth in internalizing problems over time. However, this effect may also trade off with greater stress as a result of neighborhood quality and housing market affordability. Similarly, using administrative HUD data linked to the Panel Study of Income Dynamics, Newman and Holupka (2017) found no general relationship between housing assistance and child behavior problems but showed conditional effects. Children with the fewest behavior problems show a benefit from housing assistance, while high-risk children show negative impacts.",
                        "Some other studies have used quasiexperimental approaches to study other child outcomes, though not directly mental health, with the balance of evidence suggesting no significant impact of housing assistance on child outcomes (Fertig and Reingold 2007; Jacob et al. 2013). Currie and Yelowitz (2000) used an instrumental-variables approach to study the impact of public housing on children's educational outcomes. They found that although children in public housing experience poor outcomes compared to children in private housing, this effect disappears when they adjust for selection into public housing, although they rely on self-reported public housing residence. Another study used propensity score matching techniques and found that access to HUD housing assistance was associated with reduced blood lead levels in children (Ahrens et al. 2016), which can be a risk factor for behavior problems. Finally, one experimental study indicates that vouchers have only modest effects on child mortality in Chicago (Jacob et al. 2013). A critical assessment of the existing literature indicates that relatively little is known about the general impact of receiving federal housing assistance on children's outcomes, and we are left without answers to many questions surrounding the potential for housing assistance to function as an upstream investment in children's health and well-being."
                    ]
                },
                {
                    "title": "Housing and Children\u2019s Mental Health",
                    "paragraphs": [
                        "Differences in the contextual and policy characteristics of HUD's major housing programs have been of great interest to researchers in terms of their expected benefits for health and socioeconomic outcomes (Jacob, Kapustin, and Ludwig 2015). The neighborhood dynamics involved in public housing construction in the post-World War II period have been especially controversial, and much of the current stigma surrounding public housing reflects its association with economic and racial segregation (Popkin et al. 2000). Public housing is a unique institution, in that it concentrates a population of housing-assisted households in a small geographic area. Historically, public housing projects were very-high-density developments, and population density in public housing today remains high relative to the average in U.S. cities (HUD 2016).3 A number of recent studies have suggested that the density of subsidized households in public housing developments may actually promote some benefits for residents, particularly surrounding the development of social networks and sources of social support (Clampet-Lundquist 2010; Keene and Ruel 2013). Residents of public housing are more likely than those receiving vouchers to report informal support and assistance among residents (Keene and Geronimus 2011), and a recent analysis of Moving to Opportunity indicated that social connectedness was an important mediator of housing mobility effects on boys' psychological distress (Schmidt, Glymour, and Osypuk 2017).",
                        "The social network benefits of living in public housing may be tempered if public housing exposes children to more disadvantaged neighborhoods than before they entered. The overhaul of HUD's approach to housing assistance policy--from a focus on public housing to a focus on housing vouchers--was directly related to concerns about the characteristics of neighborhoods formed by dense public housing projects (Popkin et al. 2000). Housing mobility programs seek to enable low-income families to access higher-opportunity neighborhoods than they would otherwise be able to afford (Keels et al. 2005). Vouchers may be expected to have positive effects on children's mental health if they provide access to greater neighborhood opportunity or reduce exposure to neighborhood disorder and violence (Carlson et al. 2012). Receipt of vouchers has been linked to reduced mental distress in low-income mothers in Hawaii (Garg et al. 2013) and improved socioemotional status in some subsets of adolescents in the Moving to Opportunity study (Nguyen et al. 2016).",
                        "In contrast, literature on social ties in mixed-class and mixed-race neighborhoods suggests that there may be short-term downsides to moving to high-opportunity neighborhoods. Voucher recipients, particularly those of color, may experience a greater burden of discrimination and may be more likely to be excluded from social and economic benefits once arriving in the high-opportunity location (de Souza Briggs 1998). Moving to new neighborhoods can increase exposure to social stressors, including new neighborhood social norms, changes to social networks, and experiences of racism (DeLuca, Garboden, and Rosenblatt 2013; Turney, Kissane, and Edin 2013), which might attenuate positive effects of vouchers on children's mental health.",
                        "Families receiving housing choice vouchers may also experience greater residential instability relative to families in public housing. Among families relocated with vouchers after public housing demolition in the early 2000s, 40% had moved again within two years of the initial relocation (Buron, Levy, and Gallagher 2007). In contrast, only 9% of families who moved to another public housing development following relocation ended up moving within two years. Given qualitative evidence that public housing provides greater residential stability (Goetz 2013; Manzo 2014), we may expect positive impacts of public housing on children's mental health (Suglia, Duarte, and Sandel 2011).",
                        "This study draws on a nationally representative data linkage that combines data from a national household survey with administrative records on episodes of housing assistance participation in order to examine the impact of receiving housing assistance on children's mental health. We apply a quasiexperimental waitlist design to account for unobserved factors that select families into housing assistance and isolate the causal effects on children's outcomes, focusing on differences between housing programs and by children's age."
                    ]
                }
            ]
        },
        {
            "title": "Data and Methods",
            "subsections": [
                {
                    "title": "Sample",
                    "paragraphs": [
                        "The final data set included 20,642 linkage-eligible Sample Child respondents (ages 2 to 17) interviewed by NHIS (2001, 2004 to 2012), of whom 1,990 were receiving housing assistance at the time of the interview or within two years. Of these children, 3 were missing on the mental health outcomes, 1 was missing on sociodemographic characteristics, and 19 did not have an available census tract identifier. The resulting sample included 1,967 children. Of these, 1,536 children were current housing assistance recipients: 305 in public housing, 970 in housing choice vouchers, and 261 in multifamily housing. Additionally, 431 respondents would enter housing assistance within two years of their interview, the mean waiting period to enter HUD housing (HUD 2016)."
                    ]
                },
                {
                    "title": "Sample",
                    "paragraphs": [
                        "We examined three outcomes of child mental health: the abridged Strengths and Difficulties Question-naire (SDQ) symptom score, a dichotomous indicator of whether the child had a likely socioemotional problem (a clinical threshold on the SDQ scale), and a report of whether the child experienced emotional difficulties. The SDQ is a five-item parent-report screening tool for child socioemotional problems over the past six months (He et al. 2013). Individual items consisted of Likert-scale questions in which a knowledgeable adult reported on a child's level of worry, unhappiness, behavior, attention, and social interactions, with scores on individual items ranging from 0 to 2 (\"not true\" to \"certainly true\"). For each child, we calculated total SDQ symptom scores, which ranged from 0 to 10, with increasing values indicating poorer mental health. The scale is highly predictive of clinician-diagnosed mental illness and mental health service use and has been validated across diverse populations (Goodman 2001, Palmieri and Smith 2007). We also modeled SDQ scores as a binary indicator of likely socioemotional problems--defined as a score of 6 or above (Classi et al. 2012). The SDQ was administered in the NHIS 2001 to 2007 and 2010 to 2012, so our sample for the analysis examining this outcome is limited to data from 2001 to 2007 and 2010 to 2012. Finally, we used a single-item adult-reported indicator denoting whether the child experienced emotional difficulties. The parent-reported child emotional difficulty indicator was available from 2001 to 2012. The parent responded to the question, \"Overall, do you think that [child] has difficulties in any of the following areas: emotions, concentration, behavior, or being able to get along with other people?\" Responses to this question are strongly related to subsequent use of mental health services (Goodman 2001)."
                    ]
                },
                {
                    "title": "Sample",
                    "paragraphs": [
                        "The primary independent variable of interest was whether the child lived in a household receiving HUD housing assistance on the date of the interview. We first examined housing assistance using a naive indicator of assistance, comparing children receiving housing assistance to those not receiving housing assistance at the time of interview. In order to address the potential of selection bias, we exploited the timing of assistance, comparing children currently receiving housing assistance with children in a pseudo-waitlist comparison group--those who will enter assisted housing within two years. The mean length of waitlists for HUD housing was 26 months in 2016. During our analysis period, the length ranged from 18 to 26 months (HUD 2016). As a result, pseudo-waitlist individuals were likely to resemble those on HUD waitlists. This approach accounted for unobserved time-invariant differences between individuals who obtain housing assistance and those who do not, since all pseudo-waitlist individuals eventually enter housing assistance. This approach has been applied in previous work on HUD housing assistance and adult health (Fenelon et al. 2017; Simon et al. 2017). It is possible that there were unobserved factors that influenced which housing program respondents would ultimately enter. This may reflect self-selection or differences across PHAs in the number of housing units in each housing program. For program-specific models, pseudo-waitlist children were coded based on the HUD program they would eventually enter (e.g., pseudo-waitlist for public housing)."
                    ]
                },
                {
                    "title": "Sample",
                    "paragraphs": [
                        "Our covariates from the NHIS included individual characteristics, including age (coded as 2 to 5, 6 to 12, and 13 to 17 years), sex, and race-ethnicity (non-Hispanic white, non-Hispanic black, Hispanic, other); and family characteristics, including family structure (one parent, two parents partnered/married), highest level of education in the household (less than high school, high school, more than high school), family income-to-poverty ratio (<50%, 50% to 99%, 100% to 199%, 200%+), household employment status (any worker in household, no workers in household), and census region of residence."
                    ]
                },
                {
                    "title": "Sample",
                    "paragraphs": [
                        "We merged individual records with year-specific socioeconomic and demographic characteristics of census tracts. Characteristics came from the 2000 Census Summary File 3 and the 2010-to-2014 American Community Survey and were linearly interpolated for missing years. We used principal components analysis to generate three neighborhood indexes commonly used in studies of housing programs (Oakley and Burchfield 2009). The first component (\"disadvantage\") was loaded with the family poverty rate, the percentage receiving public assistance, and percentage female-headed households. The second component (\"instability\") was associated with percentage living in a different house five years prior and percentage renter-occupied housing, and inversely with percentage single-family housing. The third component (\"vacancy\") was loaded with percentage vacant housing and percentage living in a different house (see online Appendix A for full component analysis and variable loadings). Indexes were normalized to have a mean of 0 and a standard deviation of 1. We also included a measure of neighborhood racial composition, categorizing tracts as either mostly white (>80%), mostly black (>80%), mostly Hispanic/Latino (>50%), or mixed race (all other compositions), consistent with several prior studies (e.g., Fenelon et al. 2017; Wagmiller 2008)."
                    ]
                },
                {
                    "title": "Sample",
                    "paragraphs": [
                        "First, we examined the relationship between housing assistance and each mental health outcome using a naive indicator of housing assistance (current assistance vs. no assistance). In this set of models, the comparison group was children not receiving housing assistance at the time of the interview. We then compared these models to the pseudo-waitlist models that restricted the comparison group to future housing assistance recipients. We reported models unadjusted for covariates and models adjusting for individual and family characteristics. We modeled the continuous outcome using linear regression (reporting linear coefficients) and dichotomous outcomes using logistic regression (reporting odds ratios).",
                        "To examine differences by type of housing program, we tested for multiplicative interactions between housing assistance status (current vs. pseudo-waitlist) and program type (public housing, vouchers, multifamily housing). We reported the result of this interaction test in addition to the effects of housing assistance stratified by program type. To examine differences in the effects of housing assistance by child's age, we tested interactions between housing assistance status and age groups (2 to 5, 6 to 12, 13 to 17) and report results stratified by age group. Finally, we examined the role that neighborhood context plays in the link between housing assistance and mental health, including neighborhood variables as covariates in the adjusted model. All analyses accounted for the complex survey design of the NHIS and incorporated adjusted weights."
                    ]
                },
                {
                    "title": "Sample",
                    "paragraphs": [
                        "To examine the robustness of our pseudo-waitlist approach, we used an event-study framework that considered whether there were trends in mental health for pseudo-waitlist children in the months prior to entering housing assistance.4 The model predicted continuous SDQ symptom scores as a function of the timing of the interview relative to entry into housing assistance. If there were steady improvements in mental health for children prior to entering housing assistance, our pseudo-waitlist approach may have been biased. The lack of significant trends leading up to housing assistance would suggest that our design is robust to time-varying factors that could be correlated with entrance into HUD."
                    ]
                }
            ]
        },
        {
            "title": "Results",
            "subsections": [
                {
                    "title": "Sensitivity Analysis",
                    "paragraphs": [
                        "The results of an event-study model are shown in Figure 1, examining model coefficients with respect to time before entering housing and time since entered housing. The graph shows coefficients for the SDQ symptom score in six-month intervals relative to entry into housing assistance. Overall, there appears to be no significant trend in mental health prior to entering housing assistance for pseudo-waitlist children, as well as no evidence of a trend in mental health with greater duration spent in housing assistance (results are similar for the other two outcomes). These findings provide assurance of the robustness of our pseudo-waitlist design."
                    ]
                }
            ]
        },
        {
            "title": "Discussion",
            "subsections": [
                {
                    "title": "Limitations",
                    "paragraphs": [
                        "Our study has limitations that should be noted. First, although the HUD housing data represent a longitudinal record, given that the NHIS is collected in repeated cross-sections, we are unable to examine changes in individual mental health over time. The ideal approach would be to examine changes in mental health symptoms for the same individuals before and after entry into housing assistance, but the data preclude such an analysis. Second, although our approach mimics a natural experiment, it is not random assignment, and it is possible there are concurrent changes that occur alongside housing assistance (e.g., policy changes related to the supply of housing) that are correlated with children's mental health and behavior. We address this possibility in two ways. First, we include models in the online Appendix D that control for state of residence to adjust for possible geographic differences in the length of the actual waitlist. These results are unchanged from those of our main analysis. Second, the results of the event-study analysis (Figure 1) do not indicate significant changes in mental health prior to entering housing assistance, although relatively small samples limit statistical power. Previous studies have demonstrated that a particularly disadvantaged period directly prior to entering HUD housing, the so-called Ashenfelter's dip, does not explain improvements in healthcare access for adults entering housing (Simon et al. 2017). Third, our results demonstrate the effects of housing assistance on children who actually receive it rather than children in eligible families (Shroder 2002). Since families that are able to obtain assistance may themselves be relatively select, the impacts on children who do not receive housing assistance are uncertain. Finally, our measures of child mental health do not include clinical assessments, although the SDQ has been validated as highly indicative of eventual clinical diagnoses (Goodman 2001)."
                    ]
                }
            ]
        },
        {
            "title": "Conclusion",
            "subsections": [
                {
                    "title": null,
                    "paragraphs": [
                        "Although the number of subsidized housing units supported by HUD has grown since the 1990s, it has not kept pace with the scope of the housing affordability problem in the United States, with severe implications for the stability and economic circumstances of low-income families (Desmond 2016). Our results suggest that this trend is also likely to have significant impacts on the mental health and well-being of children in these families who might benefit from access to affordable housing. Future work should consider in more detail the specific mechanisms that link housing assistance to improvements in children's outcomes. Specifically, research should devote particular attention to differences across major housing assistance programs. Our findings imply that increased investments in affordable housing through federal housing assistance can be a means to improve population health by leveraging the social determinants of health, and may function as a means to reduce socioeconomic and racial-ethnic disparities in health and well-being among children. Furthermore, investment in federal affordable housing programs for children may have important impacts on later-life outcomes as well. To the extent that improvements in health among children lead to better outcomes throughout the life course, housing assistance may be a vital lever for addressing later-life differences in health, health behaviors, and long-term quality of life."
                    ]
                }
            ]
        }
    ],
    "references": [
        "Ahrens, Katherine A., Haley, Barbara A., Rossen, Lauren M., Lloyd, Patricia C., Aoki, Yutaka. 2016. \u201cHousing Assistance and Blood Lead Levels: Children in the United States, 2005\u20132012.\u201d American Journal of Public Health 106(11):2049\u201356.",
        "Andersson, Fredrik, Haltiwanger, John C., Kutzbach, Mark J., Palloni, Giordano E., Pollakowski, Henry O., Weinberg, Daniel H. 2016. \u201cChildhood Housing and Adult Earnings: A Between-siblings Analysis of Housing Vouchers and Public Housing.\u201d Working Paper No. 22721, National Bureau of Economic Research, Cambridge, MA.",
        "Blewett, Lynn A., Rivera Drew, Julia A., Griffin, Risa, King, Miram L., Williams, Kari C. W. 2016. \u201cNational Health Interview Survey, Version 6.2.\u201d Minneapolis: University of Minnesota. Retrieved June 16, 2017 (http://www.nhis.ipums.org).",
        "Boudreaux, Michel H., Fenelon, Andrew, Slopen, Natalie. Forthcoming. \u201cMisclassification of Rental Assistance in the National Health Interview Survey: Evidence and Implications.\u201d Epidemiology.",
        "Burgard, Sarah A., Seefeldt, Kristin S., Zelner, Sarah. 2012. \u201cHousing Instability and Health: Findings from the Michigan Recession and Recovery Study.\u201d Social Science & Medicine 75(12):2215\u201324.",
        "Buron, Larry F., Levy, Diane K., Gallagher, Maggie. 2007. Housing Choice Vouchers: How Hope VI Families Fared in the Private Market. Issue Brief No. 3. Washington, DC: Urban Institute.",
        "Carlson, Deven, Haveman, Robert, Kaplan, Thomas, Wolfe, Barbara. 2012. \u201cLong-term Effects of Public Low-income Housing Vouchers on Neighborhood Quality and Household Composition.\u201d Journal of Housing Economics 21(2):101\u201320.",
        "Center on Budget and Policy Priorities. 2017. \u201cFact Sheet: Federal Rental Assistance.\u201d Retrieved January 12, 2018 (http://www.cbpp.org/sites/default/files/atoms/files/4\u201313\u201311hous\u2013US.pdf).",
        "Chetty, Raj, Hendren, Nathaniel, Katz, Lawrence F. 2016. \u201cThe Effects of Exposure to Better Neighborhoods on Children: New Evidence from the Moving to Opportunity Experiment.\u201d American Economic Review 106(4):855\u2013902.",
        "Chyn, Eric. Forthcoming. \u201cMoved to Opportunity: The Long-run Effect of Public Housing Demolition on Labor Market Outcomes of Children.\u201d American Economic Review.",
        "Clampet-Lundquist, Susan. 2010. \u201c\u2018Everyone Had Your Back\u2019: Social Ties, Perceived Safety, and Public Housing Relocation.\u201d City & Community 9(1):87\u2013108.",
        "Classi, Peter, Milton, Den\u00e1i, Ward, Sarah, Sarsour, Khaled, Johnston, Joseph. 2012. \u201cSocial and Emotional Difficulties in Children with ADHD and the Impact on School Attendance and Healthcare Utilization.\u201d Child and Adolescent Psychiatry and Mental Health 6(1):33\u201340.",
        "Coley, Rebekah Levine, Leventhal, Tama, Lynch, Alicia Doyle, Kull, Melissa. 2013. \u201cRelations between Housing Characteristics and the Well-being of Low-income Children and Adolescents.\u201d Developmental Psychology 49(9):1775\u201389.",
        "Currie, Janet, Yelowitz, Aaron. 2000. \u201cAre Public Housing Projects Good for Kids?\u201d Journal of Public Economics 75(1):99\u2013124.",
        "Currie, Janet, Stabile, Mark. 2006. \u201cChild Mental Health and Human Capital Accumulation: The Case of ADHD.\u201d Journal of Health Economics 25(6):1094\u2013118.",
        "Cutts, Diana Becker, Meyers, Alan F., Black, Maureen M., Casey, Patrick H., Chilton, Mariana, Cook, John T., Geppert, Joni, Ettinger de Cuba, Stephanie, Heeren, Timothy, Coleman, Sharon. 2011. \u201cUS Housing Insecurity and the Health of Very Young Children.\u201d American Journal of Public Health 101(8):1508\u201314.",
        "DeLuca, Stefanie, Garboden, Philip M. E., Rosenblatt, Peter. 2013. \u201cSegregating Shelter How Housing Policies Shape the Residential Locations of Low-income Minority Families.\u201d Annals of the American Academy of Political and Social Science 647(1):268\u201399.",
        "DeLuca, Stefanie, Rosenblatt, Peter. 2010. \u201cDoes Moving to Better Neighborhoods Lead to Better Schooling Opportunities? Parental School Choice in an Experimental Housing Voucher Program.\u201d Teachers College Record 112(5):1443\u201391.",
        "Desmond, Matthew. 2016. Evicted: Poverty and Profit in the American City. New York, NY: Crown.",
        "Desmond, Matthew, Kimbro, Rachel Tolbert. 2015. \u201cEviction\u2019s Fallout: Housing, Hardship, and Health.\u201d Social Forces 94(1):295\u2013324.",
        "de Souza Briggs, Xavier. 1998. \u201cBrown Kids in White Suburbs: Housing Mobility and the Many Faces of Social Capital.\u201d Housing Policy Debate 9(1):177\u2013221.",
        "Digenis-Bury, Eleni C., Brooks, Daniel R., Chen, Leslie, Ostrem, Mary, Horsburgh, C. Robert. 2008. \u201cUse of a Population-based Survey to Describe the Health of Boston Public Housing Residents.\u201d American Journal of Public Health 98(1):85\u201391.",
        "Dup\u00e9r\u00e9, V\u00e9ronique, Leventhal, Tama, Vitaro, Frank. 2012. \u201cNeighborhood Processes, Self\u2013efficacy, and Adolescent Mental Health.\u201d Journal of Health and Social Behavior 53(2):183\u201398.",
        "Fauth, Rebecca C., Leventhal, Tama, Brooks-Gunn, Jeanne. 2008. \u201cSeven Years Later: Effects of a Neighborhood Mobility Program on Poor Black and Latino Adults\u2019 Well-being.\u201d Journal of Health and Social Behavior 49(2):119\u201330.",
        "Fenelon, Andrew, Mayne, Patrick, Simon, Alan E., Rossen, Lauren M., Helms, Veronica, Lloyd, Patricia, Sperling, Jon, Steffen, Barry L. 2017. \u201cHousing Assistance Programs and Adult Health in the United States.\u201d American Journal of Public Health 107(4):571\u201378.",
        "Fertig, Angela R., Reingold, David A. 2007. \u201cPublic Housing, Health, and Health Behaviors: Is There a Connection?\u201d Journal of Policy Analysis and Management 26(4):831\u201360.",
        "Fischer, Will. 2015. Research Shows Housing Vouchers Reduce Hardship and Provide Platform for Long-term Gains among Children. Washington, DC: Center on Budget and Policy Priorities.",
        "Garg, Arvin, Burrell, Lori, Tripodis, Yorghos, Goodman, Elizabeth, Brooks-Gunn, Jeanne, Duggan, Anne K. 2013. \u201cMaternal Mental Health During Children\u2019s First Year of Life: Association with Receipt of Section 8 Rental Assistance.\u201d Housing Policy Debate 23(2):281\u201397.",
        "Gladstone, Brenda McConnell, Boydell, Katherine M., McKeever, Patricia. 2006. \u201cRecasting Research into Children\u2019s Experiences of Parental Mental Illness: Beyond Risk and Resilience.\u201d Social Science & Medicine 62(10):2540\u201350.",
        "Goetz, Edward G. 2012. \u201cThe Transformation of Public Housing Policy, 1985\u20132011.\u201d Journal of the American Planning Association 78(4):452\u201363.",
        "Goetz, Edward G. 2013. \u201cToo Good to Be True? The Variable and Contingent Benefits of Displacement and Relocation among Low-income Public Housing Residents.\u201d Housing Studies 28(2):235\u201352.",
        "Goodman, Robert. 2001. \u201cPsychometric Properties of the Strengths and Difficulties Questionnaire.\u201d Journal of the American Academy of Child & Adolescent Psychiatry 40(11):1337\u201345.",
        "He, Jian-Ping, Burstein, Marcy, Schmitz, Anja, Merikangas, Kathleen R. 2013. \u201cThe Strengths and Difficulties Questionnaire (SDQ): The Factor Structure and Scale Validation in US Adolescents.\u201d Journal of Abnormal Child Psychology 41(4):583\u201395.",
        "Helms, V. E., Sperling, Jon, Steffen, Barry L. 2017. A Health Picture of HUD-assisted Adults, 2006\u20132012. Washington, DC: U.S. Department of Housing and Urban Development.",
        "Houle, Jason N. 2014. \u201cMental Health in the Foreclosure Crisis.\u201d Social Science & Medicine 118:1\u20138.",
        "Jacob, Brian A., Kapustin, Max, Ludwig, Jens. 2015. \u201cThe Impact of Housing Assistance on Child Outcomes: Evidence from a Randomized Housing Lottery.\u201d Quarterly Journal of Economics 130(1):465\u2013506.",
        "Jacob, Brian A., Ludwig, Jens, Miller, Douglas L. 2013. \u201cThe Effects of Housing and Neighborhood Conditions on Child Mortality.\u201d Journal of Health Economics 32(1):195\u2013206.",
        "Joint Center for Housing Studies of Harvard University. 2017. The State of the Nation\u2019s Housing 2017. Cambridge, MA: Harvard University.",
        "Kalousov\u00e1, Lucie, Evangelist, Michael. 2018. \u201cRent Assistance and Health: Findings from Detroit.\u201d Housing Studies. Advance online publication. doi:10.1080/02673037.2018.1441977",
        "Keels, Micere, Duncan, Greg J., DeLuca, Stefanie, Mendenhall, Ruby, Rosenbaum, James. 2005. \u201cFifteen Years Later: Can Residential Mobility Programs Provide a Long-term Escape from Neighborhood Segregation, Crime, and Poverty.\u201d Demography 42(1):51\u201373.",
        "Keene, Danya E., Geronimus, Arline T. 2011. \u201cCommunity-based Support among African American Public Housing Residents.\u201d Journal of Urban Health 88(1):41\u201353.",
        "Keene, Danya E., Guo, Monica, Murillo, Sascha. 2018. \u201c\u2018That Wasn\u2019t Really a Place to Worry about Diabetes\u2019: Housing Access and Diabetes Self-management among Low-income Adults.\u201d Social Science & Medicine 197:71\u201377.",
        "Keene, Danya E., Ruel, Erin. 2013. \u201c\u2018Everyone Called Me Grandma\u2019: Public Housing Demolition and Relocation among Older Adults in Atlanta.\u201d Cities 35:359\u201364.",
        "Kennedy-Hendricks, Alene, Schwartz, Heather L., Griffin, Beth Ann, Burkhauser, Susan, Green, Harold D., Kennedy, David P., Pollack, Craig Evan. 2015. \u201cHealth Implications of Social Networks for Children Living in Public Housing.\u201d Health & Place 36:145\u201351.",
        "Kucheva, Yana. 2018. \u201cSubsidized Housing and the Transition to Adulthood.\u201d Demography 55(2):617\u201342.",
        "Kull, Melissa A., Coley, Rebekah Levine. 2014. \u201cHousing Costs and Child Functioning: Processes through Investments and Financial Strains.\u201d Children and Youth Services Review 39:25\u201338.",
        "Lee, Dohoon, Jackson, Margot. 2017. \u201cThe Simultaneous Effects of Socioeconomic Disadvantage and Child Health on Children\u2019s Cognitive Development.\u201d Demo-graphy 54(5):1845\u201371.",
        "Lloyd, P. C., Helms, V. E. 2016. NCHS\u2013HUD Linked Data: Analytic Considerations and Guidelines. Hyattsville, MD: Office of Analysis and Epidemiology, National Center for Health Statistics.",
        "Lloyd, P. C., Helms, V. E., Simon, Alan E. 2017. Linkage of 1999\u20132012 National Health Interview Survey and National Health and Nutrition Examination Survey Data to U.S. Department of Housing and Urban Development Administrative Records. Vital and Health Statistics Series 1, No. 60. Hyattsville, MD: U.S. Department of Health and Human Services, Centers for Disease Control and Prevention, and National Center for Health Statistics.",
        "Manzo, Lynne C. 2014. \u201cOn Uncertain Ground: Being at Home in the Context of Public Housing Redevelopment.\u201d International Journal of Housing Policy 14(4):389\u2013410.",
        "McLeod, Jane D., Shanahan, Michael J. 1996. \u201cTrajectories of Poverty and Children\u2019s Mental Health.\u201d Journal of Health and Social Behavior 37(3):207\u201320.",
        "Meyers, Alan, Rubin, Dana, Napoleone, Maria, Nichols, Kevin. 1993. \u201cPublic Housing Subsidies May Improve Poor Children\u2019s Nutrition.\u201d American Journal of Public Health 83(1):115.",
        "Newman, Sandra J. 2008. \u201cDoes Housing Matter for Poor Families? A Critical Summary of Research and Issues Still to Be Resolved.\u201d Journal of Policy Analysis and Management 27(4):895\u2013925.",
        "Newman, Sandra J., Harkness, Joseph M. 2002. \u201cThe Long-term Effects of Public Housing on Self-sufficiency.\u201d Journal of Policy Analysis and Management 21(1):21\u201343.",
        "Newman, Sandra J., Holupka, C. Scott. 2015. \u201cHousing Affordability and Child Well-being.\u201d Housing Policy Debate 25(1):116\u201351.",
        "Newman, Sandra, Holupka, C. Scott. 2017. \u201cThe Effects of Assisted Housing on Child Well-being.\u201d American Journal of Community Psychology 60(1/2):66\u201378.",
        "Nguyen, Quynh C., Rehkopf, David H., Schmidt, Nicole M., Osypuk, Theresa L. 2016. \u201cHeterogeneous Effects of Housing Vouchers on the Mental Health of US Adolescents.\u201d American Journal of Public Health 106(4):755\u201362.",
        "Oakley, Deirdre, Burchfield, Keri. 2009. \u201cOut of the Projects, Still in the Hood: The Spatial Constraints on Public-housing Residents\u2019 Relocation in Chicago.\u201d Journal of Urban Affairs 31(5):589\u2013614.",
        "Palmieri, Patrick A., Smith, Gregory C. 2007. \u201cExamining the Structural Validity of the Strengths and Difficulties Questionnaire (SDQ) in a US Sample of Custodial Grandmothers.\u201d Psychological Assessment 19(2):189\u201398.",
        "Pfeiffer, Deirdre. 2018. \u201cRental Housing Assistance and Health: Evidence from the Survey of Income and Program Participation.\u201d Housing Policy Debate 28(4):515\u201333.",
        "Popkin, Susan J., Buron, Larry F., Levy, Diane K., Cunningham, Mary K. 2000. \u201cThe Gautreaux Legacy: What Might Mixed-income and Dispersal Strategies Mean for the Poorest Public Housing Tenants?\u201d Housing Policy Debate 11(4):911\u201342.",
        "Popkin, Susan J., Edin, Kathryn. 2016. No Simple Solutions: Transforming Public Housing in Chicago. Lanham, MD: Rowman & Littlefield.",
        "Reiss, Franziska. 2013. \u201cSocioeconomic Inequalities and Mental Health Problems in Children and Adolescents: A Systematic Review.\u201d Social Science & Medicine 90:24\u201331.",
        "Schmidt, Nicole M., Glymour, M. Maria, Osypuk, Theresa L. 2017. \u201cHousing Mobility and Adolescent Mental Health: The Role of Substance Use, Social Networks, and Family Mental Health in the Moving to Opportunity Study.\u201d SSM\u2013Population Health 3:318\u201325.",
        "Shiono, Patricia H., Rauh, Virginia A., Park, Mikyung, Lederman, Sally A., Zuskar, Deborah. 1997. \u201cEthnic Differences in Birthweight: The Role of Lifestyle and Other Factors.\u201d American Journal of Public Health 87(5):787\u201393.",
        "Shroder, Mark. 2002. \u201cDoes Housing Assistance Perversely Affect Self-sufficiency? A Review Essay.\u201d Journal of Housing Economics 11(4):381\u2013417.",
        "Shroder, Mark, Martin, Marge. 1996. New Results from Administrative Data: Housing the Poor, or, What They Don\u2019t Know Might Hurt Somebody. Washington, DC: U.S. Department of Housing and Urban Development, Office of Policy Development and Research.",
        "Simon, Alan E., Fenelon, Andrew, Helms, Veronica, Lloyd, Patricia C., Rossen, Lauren M. 2017. \u201cHUD Housing Assistance Associated with Lower Uninsurance Rates and Unmet Medical Need.\u201d Health Affairs 36(6):1016\u201323.",
        "Slopen, Natalie, Fenelon, Andrew, Newman, Sandra, Boudreaux, Michel H. 2018. \u201cHousing Assistance and Child Health in the United States: A Systematic Review.\u201d Pediatrics 141(6):e20172742.",
        "Suglia, Shakira Franco, Duarte, Cristiane S., Sandel, Megan T. 2011. \u201cHousing Quality, Housing Instability, and Maternal Mental Health.\u201d Journal of Urban Health 88(6):1105\u201316.",
        "Thomson, Hilary, Thomas, Sian, Sellstrom, Eva, Petticrew, Mark. 2009. \u201cThe Health Impacts of Housing Improvement: A Systematic Review of Intervention Studies from 1887 to 2007.\u201d American Journal of Public Health 99(S3):S681\u201392.",
        "Turney, Kristin, Kissane, Rebecca, Edin, Kathryn. 2013. \u201cAfter Moving to Opportunity: How Moving to a Low-poverty Neighborhood Improves Mental Health among African American Women.\u201d Society and Mental Health 3(1):1\u201321.",
        "U.S. Department of Housing and Urban Development. 2016. Picture of Subsidized Households. Washington, DC: U.S. Department of Housing and Urban Development. Retrieved June 16, 2017 (https://www.huduser.gov/portal/datasets/picture/about.html).",
        "U.S. Department of Housing and Urban Development. 2017. Worst Case Housing Needs: 2017 Report to Congress. Washington, DC: U.S. Department of Housing and Urban Development. Retrieved December 12, 2017 (https://www.huduser.gov/portal/sites/default/files/pdf/Worst-Case-Housing-Needs.pdf).",
        "Wagmiller, Robert L. 2008. \u201cMale Nonemployment in White, Black, Hispanic, and Multiethnic Urban Neighborhoods, 1970\u2212 2000.\u201d Urban Affairs Review 44(1):85\u2013125.",
        "Warren, Emily J., Font, Sarah A. 2015. \u201cHousing Insecurity, Maternal Stress, and Child Maltreatment: An Application of the Family Stress Model.\u201d Social Service Review 89(1):9\u201339."
    ],
    "title": "The Impact of Housing Assistance on the Mental Health of Children in the United States",
    "issue": "3",
    "volume": "59",
    "year": 2018,
    "issn": "0022-1465",
    "journal": "Journal of Health and Social Behavior",
    "authors": [
        "Andrew Fenelon",
        " Natalie Slopen",
        " Michel Boudreaux",
        " Sandra J. Newman"
    ]
}