{
    "doi": "http://dx.doi.org/10.1177/0022146510394862",
    "abstract": "Epidemiological research typically focuses on the intensity, frequency, or duration of physical activity, without consideration of the socially meaningful dimensions of exercise. The authors use data from the 1998 National Health Interview Survey (N = 17,455) and information on participation in 15 exercise behaviors to examine educational differences in exercise among non-Hispanic whites, non-Hispanic blacks, and Mexican Americans. Factor analysis identifies three types of exercise: team sports (e.g., basketball, football), fitness activities (e.g., running, weight lifting), and activities that require the use of specialized facilities (e.g., golf, tennis). Cultural capital and human capital perspectives offer insight into different dimensions of the relationship between education and exercise. Whites disproportionately undertake facility-based exercise, blacks tend toward team and fitness activities, and Mexican Americans gravitate toward team sports. Our findings offer insight into the social stratification of health and can aid the design of public health interventions.",
    "sections": [
        {
            "title": "Introduction",
            "subsections": [
                {
                    "title": null,
                    "paragraphs": [
                        "Epidemiological research on physical activity typically focuses on energy expenditure--as indicated by the intensity, frequency, or duration of physical activity--and finds that more active individuals have better health and lower risks of death (Blair et al. 1992). But a narrow focus on the link between energy expenditure and health overlooks the socially meaningful aspects of exercise. Individuals do not simply \"expend calories,\" but rather, they accomplish physical activity through meaningful behaviors that reflect their identities and social circumstances, such as participating in sports or athletic activities, walking or bicycling for transportation, or working in strenuous occupations. Our study focuses on the stratification of leisure time exercise, which can aid efforts to promote health in the United States.",
                        "Education and race-ethnicity are important markers of social position in the United States that have established relationships with physical activity. Compared to whites and more educated individuals, blacks, Hispanics, and less educated individuals exercise less often (U.S. Department of Health and Human Services 2000). Less is known about education and racial-ethnic differences in participation in particular kinds of exercise, which is important for three reasons. First, insight into disparities in socially meaningful types of exercise can inform interventions that aim to increase physical activity and improve health outcomes. Evidence of racial-ethnic and educational differences in types of exercise would suggest the importance of tailoring interventions to particular subpopulations. Second, types of exercise may vary in their ability to improve strength, control weight, or increase cardiovascular fitness. Groups who disproportionately undertake types of exercise that routinely lead to injury or require intense physical contact may be unable to sustain those behaviors in midlife or later life, leading to exercise disparities across the life course. Finally, understanding racial-ethnic and educational differences in specific types of exercise can illuminate how the stratification of society shapes health behaviors, one dimension of broader lifestyles (Bourdieu 1984; Weber 1958) and a key predictor of other life chances, including long and healthy lives. Thus, we focus on exercise patterns in a nationally representative sample of non-Hispanic whites (henceforth whites), non-Hispanic blacks (henceforth blacks), and Mexican Americans."
                    ]
                }
            ]
        },
        {
            "title": "Health Lifestyles and types of Exercise",
            "subsections": [
                {
                    "title": "Education and Types of Exercise",
                    "paragraphs": [
                        "The literature presents two different perspectives on the relationship between education and exercise. First, the human capital perspectives suggests that, ceteris paribus, individuals with more education are more likely to exercise and to participate in additional kinds of exercise because they are more knowledgeable about the benefits of exercise and are better able to maintain exercise regimens. Education promotes cognitive skills, including reasoning, logic, motivation, and judgment; builds a strong sense of personal control; and improves individuals' abilities to integrate health behaviors into a coherent health lifestyle and to put those lifestyles into practice (Mirowsky and Ross 2003). Highly educated individuals may also be able to better manage their schedules in ways that facilitate exercise (Mullahy and Robert 2008).",
                        "Research that uses a human capital perspective typically focuses on the frequency, duration, or intensity of physical activity rather than on specific activities. For example, Droomers et al. (1998) model the relationship between education and a dichotomous indicator of participation in any leisure time physical activity, including walking or cycling to shops, gardening, or sports participation. They find that psychosocial resources that are consistent with the human capital perspective--an internal locus of control, an openness to new ideas, greater feelings of emotional security, lower levels of nervousness, and taking an active role in resolving problems--explain roughly half of the relationship between education and physical activity.",
                        "The human capital perspective suggests that education will be associated positively with participation in all types of exercise. Individuals with greater cognitive resources, with a stronger sense of personal control, and who are better able to manage their time (Mirowsky and Ross 2003; Mullahy and Robert 2008) should be better equipped to participate in any type of exercise that is commonly practiced in the United States. Furthermore, because human capital encourages openness to innovation and new ideas (Droomers et al. 1998), education should also be positively associated with participation in a greater number of exercise behaviors.",
                        "Second, the cultural capital perspective suggests that highly educated individuals use lifestyles--including health behaviors and patterns of consumption--to reinforce their differences from lower-status individuals (Bourdieu 1984; Weber 1958). Formal education entails the acquisition of skills and knowledge but also affords individuals greater status and might be associated with tastes for particular kinds of exercise, due to their interactions with others within the family, at school, or in other social settings (Bourdieu 1984; DiMaggio 1982). Although more-educated individuals bring more material and psychosocial resources to bear on their health maintenance efforts, the cultural capital perspective suggests that high-status individuals might gravitate toward only some types of exercise.",
                        "Some differences in leisure and sports activities are consistent with the cultural capital perspective. Low-education groups may participate in sports that are characterized by direct physical contact and domination and displays of strength, energy, effort, or pain because they value the type of physical contact that is discredited by the dominant class (Bourdieu 1984). In contrast, high-status individuals might undertake activities that emphasize fitness, grace, and leaner body types, such as strenuous aerobic sports, moderate weight training, or competitive sports that limit physical contact (Bourdieu 1984; Scheerder et al. 2002; Stempel 2005; Wilson 2002). Stempel (2005) categorized various exercise behaviors as fitness (e.g., aerobics, running, swimming) or competition (e.g., golf, basketball, tennis, football) oriented, and found that education was positively associated with participation in both fitness and competitive activities, although the effect of education was weaker for competitive sports.",
                        "In contrast to the human capital perspective, the cultural capital perspective suggests that highly educated individuals will distinguish themselves from less educated individuals by choosing some exercise behaviors and avoiding others. Research on cultural practices finds that high-status individuals appreciate a diverse array of high-status and middle-status musical or artistic genres but avoid genres that are associated with low-status individuals (Bryson 1996; DiMaggio 1987; Peterson and Kern 1996; Peterson and Simkus 1992). Although we do not have an a priori assumption about what sports or athletic activities are high, middle, or low status, the cultural capital perspective does suggests that education should be positively associated with some (presumably high- or middle-status) activities but not with other (presumably lower-status) activities. Furthermore, high-status groups are \"omnivorous\" in their tastes and often participate in a greater variety of high- and middle-status activities than low-status individuals (Peterson and Kern 1996). Thus, we expect that education will be positively associated with the number of some, but not all, types of exercise."
                    ]
                },
                {
                    "title": "Education and Types of Exercise",
                    "paragraphs": [
                        "There are black/white differences in some kinds of cultural and sports participation. There is little research regarding the leisure activities of Mexican Americans; indeed, we advance prior work by specifically examining Mexican Americans. Blacks are more likely than whites to participate in team sports, some fitness activities, and volunteer activities but are less likely to participate in outdoor activities, such as camping and hiking (Floyd et al. 1994; Stamps and Stamps 1985). Blacks and whites also engage in different cultural activities, even after adjusting for socioeconomic status (DiMaggio and Ostrower 1990; Peterson and Simkus 1992).",
                        "Racial-ethnic differences in school quality (Card and Krueger 1992; Roscigno and Ainsworth-Darnell 1999), the availability of recreational facilities across segregated communities (Giles-Corti and Donovan 2002), perceived constraints and historically limited leisure opportunities (Johnson, Bowker, and Cordell 2001; Kelly 1983), and social psychological processes related to collective ethnic identity (Hartmann 2000; Ogden and Hilt 2003; Wacquant 2004) are all likely to influence racial-ethnic differences in exercise behaviors. Authority figures, role models, and peers can encourage individuals to view sports as a form of cultural expression, a means for shaping racial identities, or the most effective way to pursue social mobility (Carrington 2010; Hartmann 2000; Ogden and Hilt 2003). Sports can also help marginalized groups deal with social disorder in their communities, while allowing them to resist (or sometimes reinforce) racial stereotypes (Carrington 2010; Wacquant 2004).",
                        "We also examine whether racial-ethnic differences in exercise behaviors vary with education. For example, racial-ethnic differences in exercise behaviors may narrow with increasing education. Although low-status blacks and Hispanics may be socially and economically marginalized, higher levels of education offer opportunities for better-paying work in more prestigious occupations, a greater likelihood of marrying a highly educated spouse, and the resources to live in safer and less segregated communities (DiMaggio and Mohr 1985; Iceland and Wilkes 2006). Higher levels of education may increase the incentives for blacks and Mexican Americans to acquire the cultural preferences of whites. Because success in many high-status occupations requires individuals to establish a base of relatively affluent clients (Grodsky and Pager 2001), highly educated blacks (and potentially Mexican Americans) may pursue leisure activities that facilitate meetings with prospective clients by offering access to the social settings that are enjoyed by high-status whites (DiMaggio and Ostrower 1990). Consistent with this perspective, Floyd and colleagues (1994) find that black/white differences in spending time in the outdoors, playing sports or games, enjoying fine arts, or participating in social activities close with increasing education.",
                        "In contrast, racial-ethnic differences in physical activity may widen with increasing education. Advancing education may result in competition among racial-ethnic groups, thereby leading blacks and Mexican Americans to pursue leisure activities that diverge from those of whites to maintain their racial or ethnic solidarity, bolster collective action, and increase their political power (DiMaggio and Ostrower 1990; Peterson and Simkus 1992). Furthermore, blacks have historically attended lower-quality schools than whites (Card and Krueger 1992), and blacks have less access to cultural resources at home or in school, and benefit less from those resources, than their white peers (Roscigno and Ainsworth-Darnell 1999). Thus, blacks (and potentially Mexican Americans) may receive fewer economic returns or different cultural returns to a given level of education than whites. Consistent with this perspective, DiMaggio and Ostrower (1990) find that black/white differences in performing arts attendance increase with education."
                    ]
                },
                {
                    "title": "Education and Types of Exercise",
                    "paragraphs": [
                        "In sum, three aims guide our article. First, we will examine the relationship between education and participation in different types of exercise. Second, we will examine exercise differences among whites, blacks, and Mexican Americans. Finally, we will examine whether racial-ethnic differences in exercise close or widen with increasing education."
                    ]
                }
            ]
        },
        {
            "title": "Data and Method",
            "subsections": [
                {
                    "title": "Variables and Measurement",
                    "paragraphs": [
                        "The SAPM uses a yes/no question to ask about participation in 15 activities: \"In the past 2 weeks (outlined on calendar), beginning Monday, and ending this past Sunday, have you done any of the following exercises, sports, or physically active hobbies . . . ?\" The activities include walking, running, aerobics, stretching/yoga, weight lifting, cycling, stair climbing, baseball, basketball, volleyball, soccer, football, swimming, tennis, and golf. We excluded activities that had low levels of participation and strong regional or seasonal aspects (e.g., skiing). Respondents were coded as 1 if they participated in each activity and 0 otherwise.",
                        "We use the 15 dummy variables for the specific activities to create two sets of dependent variables. First, exploratory tetrachoric factor analysis with varimax rotation identifies exercise types from the 15 behaviors. We identify three factors, standardize them to have a standard deviation of 1, and add a constant so that the minimum value on each factor is 0. Second, we create three dependent variables that are the sum of the number of activities in which each individual participates, for each type of exercise. The count variables allow us to examine the predictors of the number of activities of a given type, a key element of the human and cultural capital perspectives.",
                        "There are important differences between the two sets of dependent variables. The factor scores provide a linear index of each respondent's adherence to a given factor, based on their behaviors, where all behaviors are weighted according to their factor loadings. The count variables incorporate less information about the underlying factors because they give equal weight to all exercise behaviors of a given type and zero weight to behaviors that are not of a given type. In return, the count variables allow us to differentiate between those who undertake no exercise of a given type and those who participate in one or more exercise behaviors of a given type.",
                        "Our key independent variables are education and race-ethnicity. Education is at the center of both human capital and cultural capital theories (Bourdieu 1984; Mirowsky and Ross 2003) and is coded continuously as the number of years of school completed (range 0 to 20). Race-ethnicity is coded as non-Hispanic white, non-Hispanic black, and Mexican American.",
                        "Our analyses include several control variables. Age is measured in years, divided by 10, so that our coefficients can be interpreted in terms of decades of age. We square the age variable because our data indicate that the relationship between age and exercise is monotonic but changes more quickly with increasing age (Greenland 1995). We exclude the linear term for age because neither our data nor prior research suggests a reversal in the relationship between age and exercise in the age range we examine. Sex is dichotomous. Census region and interview quarters are coded categorically to capture geographic and seasonal variation in exercise. Family income is adjusted for family size, divided by 10,000, and logged to reduce its skew (Krueger et al. 2003). Employment status is coded dichotomously as employed or not employed. We include a count of the number of income sources received, per family member, as a proxy for household wealth (Krueger et al. 2003)."
                    ]
                },
                {
                    "title": "Variables and Measurement",
                    "paragraphs": [
                        "We use the following strategy to model the factors and the numbers of activities. First, we estimate a baseline model that adjusts for education, race-ethnicity, and the control variables. We adjust for family income, employment status, and the income portfolio in all models because we want to focus on the human capital or cultural capital dimensions of education rather than on the pecuniary returns to education that might also shape exercise patterns. A second model, for the factor scores only, further includes interactions between education and race-ethnicity to examine whether racial-ethnic differences widen or close with increasing education. Interactions (not shown) between education and race-ethnicity were not significant in the models for the numbers of activities; perhaps due to computational demands.",
                        "We use linear regression to model the factors for the types of exercises and zero-inflated Poisson (ZIP) regression to model the count variables. Almost 40 percent of adults do not participate in any of the 15 activities. ZIP models assume that the population is composed of a mixture of two latent groups: those who will never participate in any activities and those who have a non-zero probability of participating in one or more activities, even if they are not observed to participate in any activity (Long and Freese 2006). ZIP models allow us to separately model nonparticipation and participation in the number of exercises of a given type, an important element of the human capital and cultural capital perspectives. The Bayesian information criterion shows that the ZIP model fits our data better than Poisson, negative binomial, or zero-inflated negative binomial models (not shown).",
                        "We use the National Center for Health Statistics' five publicly released multiple imputation data files for the socioeconomic variables (Schenker et al. 2006), because our data have relatively high levels of missing data for family income and, to a lesser extent, employment status and receipt of various income sources. STATA 10.0 software (StataCorp 2007) allows us to incorporate sample weights and to correct our standard errors for the multistage sampling frame used by the NHIS (National Center for Health Statistics 1998)."
                    ]
                }
            ]
        },
        {
            "title": "Results",
            "subsections": [
                {
                    "title": null,
                    "paragraphs": [
                        "Table 1 shows the three factors that emerge from the exploratory factor analysis; we consider behaviors as part of a factor if they have a factor loading of .50 or higher. The first factor captures fitness exercises that do not require the participation of others and that promote cardiovascular fitness, greater flexibility, or strength. The seven fitness exercises include walking, running, aerobics, stretching, weight lifting, cycling, and stair climbing. The second factor captures five team sports that require the participation of others, including baseball, basketball, volleyball, soccer, and football, and that may sometimes take place in workplace or community leagues. Running also loads highly on the team factor, perhaps because many team sports entail running.3 The third factor includes three facility-based exercises--swimming, golf, and tennis--that require access to specialized facilities, including swimming pools, tennis courts, and golf courses. Those facilities may require expensive club memberships or usage fees, but some communities provide public facilities at free or subsidized rates.",
                        "Table 2 presents means and standard deviations for the continuous variables and proportions for the dummy variables. We also present bivariate correlations with each of the variables and the team, fitness, and facility-based factors. The factors have means ranging from 1.97 for the fitness factor to 3.63 for the facility-based factor. Respondents average 13.5 years of education, and education is positively correlated with the fitness and facility-based factors but not with the team factor. Being white is negatively correlated with the team factor but is positively correlated with the fitness and facility-based factors. In contrast, being black or Mexican American is positively correlated with the team factor but is negatively correlated with the fitness and facilities factors.",
                        "Table 3 presents linear regression models that predict each factor with education and race-ethnicity, while adjusting for the other variables. Model 1 shows that education is negatively associated with the team sport factor. Compared to whites, blacks are .17 standard deviations higher and Mexican Americans are .11 standard deviations higher on the team sport factor, given that the dependent variable has a standard deviation of 1. Model 2 includes the interactions between education and race-ethnicity. The coefficient for education indicates a negative relationship between education and the team sport factor for whites. However, the interaction terms indicate less negative relationships between education and team sport participation among blacks (p < .01) and Mexican Americans (p < .10). A Wald test indicates that the interaction terms for education by race-ethnicity are jointly significant (p = .003).",
                        "Figure 1 graphs the predicted values from model 2 for education and race-ethnicity while holding all other covariates at their means. Although the variable for the years of education range from 0 to 20, we graph the range from 8 to 16 years because it contains 89 percent of the respondents and is the range with the greatest overlap among whites, blacks, and Mexican Americans.4 Education has a negative relationship with the team sports factor among whites but has a weaker negative relationship among Mexican Americans and a positive relationship among blacks.",
                        "Models 3 and 4 on Table 3 examine the fitness factor. Model 3 shows that each additional year of education is associated with a .07 standard deviation increase in the fitness factor. Compared to whites, blacks are .12 standard deviations higher on the fitness factor. The interactions in model 4 show that the slope for education is positive among whites and is not significantly different among blacks. But the slope for education among Mexican Americans is significantly less positive than among whites.",
                        "Models 5 and 6 on Table 3 show the linear regression coefficients for the facility-based exercise factor. Model 5 shows that a one-year increase in education is associated with a .03 standard deviation increase in the facilities factor. In contrast to the findings for team and fitness factors, blacks and Mexican Americans both have significantly lower values on the facilities factor than whites after adjusting for other sociodemographic variables. In model 6, the coefficient for education indicates a positive relationship between education and the facilities factor for whites. However, the interaction terms are negative, indicating that the relationship between education and the facilities factor is weaker for blacks (p < .001) and Mexican Americans (p < .10) than for whites. Figure 2 graphs the results from model 6. Education has a slightly negative relationship with the facilities factor among blacks, a modest positive relationship among Mexican Americans, and a stronger positive relationship among whites.",
                        "Table 4 presents the results from ZIP models for the number of exercise activities of a given type. The first column (labeled inflate) for each model presents coefficients for the logged odds that respondents will report zero activities. The second column (labeled count) presents Poisson regression coefficients for the number of activities for those who have a non-zero probability of participating in any activities.",
                        "In model 1, the inflate column shows that each additional year of education is associated with 11 percent (= [1 - e-.112]*100) lower odds of participating in zero team sports. Furthermore, compared to whites, blacks have .61 (=e-.488) times and Mexican Americans have .35 (=e-1.056) times the odds of participating in zero team sports. The count column shows that education is not significantly associated with the number of team sports, but blacks are marginally (p < .10) more likely than whites to participate in more team sports.",
                        "In model 2, the inflate column shows that each additional year of education is associated with 13 percent ([1 - e-.138]*100) lower odds of participation in zero fitness exercises, and Mexican Americans have higher logged odds of participating in zero fitness exercises than whites. The count column shows that each year of education is associated with a 4.9 percent ([1 - e.048]*100) increase in the number of fitness exercises, and blacks participate in 12 percent ([1 - e.116]*100) more fitness activities than whites.",
                        "In model 3, the inflate column shows that each year of education is associated with 24 percent ( [1 - e-.277]*100) lower odds of participating in zero facility-based activities. Blacks have 4.8 (e1.561) times the odds of whites of participating in zero facility-based exercises. The count column shows that each year of education is associated with a 6 percent ([1 - e.06]*100) increase in the number of facility-based exercises, and Mexican Americans are only marginally (p < .10) more likely to undertake fewer facility-based activities than whites."
                    ]
                }
            ]
        },
        {
            "title": "Discussion",
            "subsections": [
                {
                    "title": "Strengths and Limitations",
                    "paragraphs": [
                        "Our study has several strengths. First, we use a nationally representative sample of adults ages 25 to 60 that includes questions on 15 common exercise behaviors, a greater number than has been examined in some prior studies (Scheerder et al. 2002; Wilson 2002). Second, our findings are consistent with research from several countries and across nearly a half century that shows that low-status groups more often undertake team sports that entail direct physical contact, whereas more educated individuals disproportionately pursue fitness activities (Bourdieu 1984; Scheerder et al. 2002; Stempel 2005; Wilson 2002). Finally, our analyses include Mexican Americans and use a survey that interviews participants in either English or Spanish.",
                        "Several limitations of our study also warrant mention. Our results provide valuable insight into the relationship between education and types of exercise, but our data do not include measures of cognitive orientations, attitudes, or beliefs that would allow a more direct test of the human capital and cultural capital theories. Concomitantly, our data do not include variables that allow us to explore the cultural orientations or access to exercise facilities that might explain racial-ethnic differences in participation in different kinds of exercise. Due to space limitations, we did not explore gender differences in types of exercise, although men and women have differential access to workplace exercise leagues and might apply different meanings to similar sports (Bolin and Granskog 2003).",
                        "Although these data are the best available for our analyses, they are more than a decade old. More recent data that ask detailed questions about exercise include fewer respondents (e.g., the National Health and Nutrition Examination Survey), which limits their ability to examine Mexican Americans. Our results are similar across age groups (see note 1) and are consistent with findings from other countries and other time periods (Bourdieu 1984; Scheerder et al. 2002; Wilson 2002), but future work with longitudinal data could better distinguish among cohort and age trends in exercise."
                    ]
                },
                {
                    "title": "Strengths and Limitations",
                    "paragraphs": [
                        "Our research specifically examines health behaviors (what people do) rather than health statuses (what people are) because behaviors can offer insight into how social factors are transformed into health outcomes. Our finding that education and race-ethnicity have different relationships with team, fitness, and facility-based activities emphasizes the varied social meanings of exercise behaviors. Ross (2000) makes a similar point when she finds that neighborhood poverty and education levels have different relationships with walking than with leisure time exercise. Broad measures of physical activity may be useful for examining the impact of caloric expenditure on obesity or mortality but provide limited insight into sociological concerns about how social factors shape meaningful health behaviors.",
                        "Our findings could aid the design of effective public health interventions to promote physical activity. Consistent with the human capital perspective, higher levels of education may prompt individuals to pursue any physical activity. But public health interventions might be more effective if they also recognize that members of different education and racial-ethnic groups gravitate toward certain types of exercise, either because of their limited access to recreational facilities (Giles-Corti and Donovan 2002) or because of different exercise preferences (DiMaggio and Ostrower 1990; Ogden and Hilt 2003). Furthermore, strenuous team sports that are more commonly practiced among blacks, Mexican Americans, and less educated individuals may be more difficult to pursue in midlife and later life, potentially resulting in increasing exercise disparities across the life course. Widening racial-ethnic gaps in various types of exercise, with increasing education, may also illuminate the origins of racial-ethnic and educational disparities in other health outcomes.",
                        "Our findings also have implications for social stratification more broadly. Prior research shows that racial-ethnic and educational differences in leisure or cultural activities can reinforce distinctions between groups (Bryson 1996; Carrington 2010; DiMaggio and Mohr 1985; DiMaggio and Ostrower 1990). While differences in exercise behaviors may shape health promotion, different lifestyles might also have implications for outcomes that are more often studied in the stratification literature (Bourdieu 1984; Weber 1958)--such as earnings or the educational attainment of offspring--that have been linked to other leisure and cultural practices (DiMaggio 1982; DiMaggio and Mohr 1985; Roscigno and Ainsworth-Darnell 1999). Future research could examine whether some types of exercise are associated with cultural knowledge or social contacts that promote economic success. If so, then public health interventions might balance the importance of promoting various kinds of exercise in a diverse population with concerns about reinforcing social inequalities across education and racial-ethnic groups."
                    ]
                }
            ]
        }
    ],
    "references": [
        "Berry, Brent. 2007. \u201cDisparities in Free Time Inactivity in the United States: Trends and Explanations.\u201d Sociological Perspectives 50:177\u2013208.",
        "Blair, S. N., Kohl, H. W., Gordon, N. F., Paffenbarger, R. S. 1992. \u201cHow Much Physical Activity Is Good for Health?\u201d Annual Review of Public Health 13:99\u2013126.",
        "Bolin, Anne, Granskog, Jane. 2003. Athletic Intruders: Ethnographic Research on Women, Culture, and Exercise. Albany: State University of New York Press.",
        "Bourdieu, Pierre. 1984. Distinction: A Social Critique of the Judgment of Taste. Translated by Nice, R. Cambridge, MA: Harvard University Press.",
        "Brownson, Ross C., Boehmer, Tegan K., Like, Douglas A. 2005. \u201cDeclining Rates of Physical Activity in the United States: What Are the Contributors?\u201d Annual Review of Public Health 26:421\u201343.",
        "Bryson, Bethany. 1996. \u201c\u2018Anything but Heavy Metal\u2019: Symbolic Exclusion and Musical Dislikes.\u201d American Sociological Review 61:884\u201399.",
        "Card, David, Krueger, Alan B. 1992. \u201cSchool Quality and Black-White Relative Earnings: A Direct Assessment.\u201d Quarterly Journal of Economics 107:151\u2013200.",
        "Carrington, Ben. 2010. Race, Sport, and Politics: The Sporting Black Diaspora. London: Sage Publications.",
        "Caspersen, Carl J., Powell, Kenneth E., Christenson, Gregory M. 1985. \u201cPhysical Activity, Exercise, and Physical Fitness: Definitions and Distinctions for Health-Related Research.\u201d Public Health Reports 100:126\u201331.",
        "Cockerham, William C. 2000. \u201cThe Sociology of Health Behavior and Health Lifestyles.\u201d Pp. 159\u201372 in Handbook of Medical Sociology, 5th ed., edited by Bird, C. E., Conrad, P., Fremont, A. M. Upper Saddle River, NJ: Prentice Hall.",
        "DiMaggio, Paul. 1982. \u201cCultural Capital and School Success: The Impact of Status Culture Participation on the Grades of U.S. High School Students.\u201d American Sociological Review 47:189\u2013201.",
        "DiMaggio, Paul. 1987. \u201cClassification in Art.\u201d American Sociological Review 52:440\u201355.",
        "DiMaggio, Paul, Mohr, John. 1985. \u201cCultural Capital, Educational Attainment, and Marital Selection.\u201d American Journal of Sociology 90:1231\u201361.",
        "DiMaggio, Paul, Ostrower, Francie. 1990. \u201cParticipation in the Arts by Black and White Americans.\u201d Social Forces 68:753\u201378.",
        "Droomers, M., Schrijvers, C. T. M., Van De Mheen, H., Mackenbach, J. P. 1998. \u201cEducational Differences in Leisure-Time Physical Inactivity: A Descriptive and Explanatory Study.\u201d Social Science and Medicine 47:1665\u201376.",
        "Floyd, Myron F., Shinew, Kimberly J., McGuire, Francis A., Noe, Francis P. 1994. \u201cRace, Class, and Leisure Activity Preferences: Marginality and Ethnicity Revisited.\u201d Journal of Leisure Research 26:158\u201373.",
        "Giles-Corti, Billie, Donovan, Robert J. 2002. \u201cThe Relative Influence of Individual, Social, and Physical Environment Determinants of Physical Activity.\u201d Social Science and Medicine 54:1793\u20131812.",
        "Greenland, Sander. 1995. \u201cDose-Response and Trend Analysis in Epidemiology: Alternatives to Categorical Analysis.\u201d Epidemiology 6:356\u201365.",
        "Grodsky, Eric, Pager, Devah. 2001. \u201cThe Structure of Disadvantage: Individual and Occupational Determinants of the Black-White Wage Gap.\u201d American Sociological Review 66:542\u201367.",
        "Hartmann, Douglas. 2000. \u201cRethinking the Relationships between Sport and Race in American Culture: Golden Ghettos and Contested Terrain.\u201d Sociology of Sport Journal 17:229\u201353.",
        "Iceland, John, Wilkes, Rima. 2006. \u201cDoes Socioeconomic Status Matter? Race, Class, and Residential Segregation.\u201d Social Problems 53:248\u201373.",
        "Johnson, Cassandra Y., Bowker, J. M., Cordell, Ken. 2001. \u201cOutdoor Recreation Constraints: An Examination of Race, Gender, and Rural Dwelling.\u201d Southern Rural Sociology 17:111\u201333.",
        "Kelly, John R. 1983. Leisure Identities and Interactions. Boston, MA: George Allen and Unwin.",
        "Krueger, Patrick M., Chang, Virginia. 2008. \u201cBeing Poor and Coping with Stress: Health Behaviors and the Risk of Death.\u201d American Journal of Public Health 98:889\u201396.",
        "Krueger, Patrick M., Rogers, Richard G., Hummer, Robert A., LeClere, Felicia B., Bond Huie, Stephanie A. 2003. \u201cSocioeconomic Status and Age: The Effect of Income Sources and Portfolios on Adult Mortality in the United States.\u201d Sociological Forum 18:465\u201382.",
        "Long, J. Scott, Freese, Jeremy. 2006. Regression Models for Categorical Dependent Variables Using Stata. College Station, TX: Stata Press.",
        "Mirowsky, John, Ross, Catherine E. 2003. Education, Social Status, and Health. Hawthorne, NY: Aldine de Gruyter.",
        "Mullahy, John, Robert, Stephanie A. 2008. \u201cNo Time to Lose? Time Constraints and Physical Activity.\u201d Working Paper No. 14513, National Bureau of Economic Research, Cambridge, MA.",
        "National Center for Health Statistics. 1998. Data File Documentation, National Health Interview Survey [MRDF]. Hyattsville, MD: National Center for Health Statistics and Centers for Disease Control and Prevention [editor].",
        "Ogden, David C., Hilt, Michael L. 2003. \u201cCollective Identity and Basketball: An Explanation for the Decreasing Number of African-Americans on America\u2019s Baseball Diamonds.\u201d Journal of Leisure Research 35:213\u201328.",
        "Peterson, Richard A., Kern, Roger M. 1996. \u201cChanging Highbrow Taste: From Snob to Omnivore.\u201d American Sociological Review 61:900\u20137.",
        "Peterson, Richard A., Simkus, Albert. 1992. \u201cHow Musical Tastes Mark Occupational Status Groups.\u201d Pp. 152\u201386 in Cultivating Differences: Symbolic Boundaries and the Making of Inequality, edited by Lamont, M., Fournier, M. Chicago: University of Chicago Press.",
        "Roscigno, Vincent J., Ainsworth-Darnell, James W. 1999. \u201cRace, Cultural Capital, and Educational Resources: Persistent Inequalities and Achievement Returns.\u201d Sociology of Education 72:158\u201378.",
        "Ross, Catherine E. 2000. \u201cWalking, Exercise, and Smoking: Does Neighborhood Matter?\u201d Social Science and Medicine 51:265\u201374.",
        "Scheerder, Jeroen, Vanreusel, Bart, Taks, Marijke, Renson, Roland. 2002. \u201cSocial Sports Stratification in Flanders 1969\u20131999: Intergenerational Reproduction of Social Inequalities.\u201d International Journal for the Sociology of Sport 37:219\u201345.",
        "Schenker, Nathaniel, Raghunathan, Trivellore E., Chiu, Pei-Lu, Makuc, Diane M., Zhang, Guangyu, Cohen, Alan J. 2006. \u201cMultiple Imputations of Missing Income Data in the National Health Interview Survey.\u201d Journal of the American Statistical Association 101:924\u201333.",
        "Stamps, S. M., Stamps, M. B. 1985. \u201cRace, Class and Leisure Activities of Urban Residents.\u201d Journal of Leisure Research 17:40\u201356.",
        "StataCorp. 2007. Stata Statistical Software: Release 10.0. College Station, TX: Stata Press.",
        "Stempel, Carl 2005. \u201cAdult Participation Sports as Cultural Capital: A Test of Bourdieu\u2019s Theory of the Field of Sports.\u201d International Review for the Sociology of Sport 40:411\u201332.",
        "U.S. Department of Health and Human Services. 2000. Healthy People 2010: Understanding and Improving Health. 2nd ed. Washington, DC: U.S. Government Printing Office.",
        "Wacquant, Lo\u00efc. 2004. Body and Soul: Notebooks of an Apprentice Boxer. New York: Oxford University Press.",
        "Weber, M. 1958. From Max Weber: Essays in Sociology, edited by Gerth, H. H., Mills, C. W. New York: Oxford University Press.",
        "Wilson, Thomas C. 2002. \u201cThe Paradox of Social Class and Sports Involvement: The Roles of Cultural and Economic Capital.\u201d International Review for the Sociology of Sport 37:5\u201316."
    ],
    "title": "Education and Racial-Ethnic Differences in Types of Exercise in the United States",
    "issue": "2",
    "volume": "52",
    "year": 2011,
    "issn": "0022-1465",
    "journal": "Journal of Health and Social Behavior",
    "authors": [
        "Jarron M. Saint Onge",
        " Patrick M. Krueger"
    ]
}