{
    "doi": "http://dx.doi.org/10.1093/esr/jcy024",
    "abstract": "We study ethnic discrimination in the sharing economy using the example of online carpooling marketplaces. Based on a unique data set of 16,624 real rides from Germany, we estimate the effects of drivers\u2019 perceived name origins on the demand for rides. The results show sizable ethnic discrimination\u2014a discriminatory price premium of about 32 per cent of the average market price. Further analyses suggest that additional information about actors in this market decreases the magnitude of ethnic discrimination. Our findings broaden the perspective of ethnic discrimination by shedding light on subtle, everyday forms of discrimination in social markets, inform ongoing discussions about ways to address discrimination in an era in which markets gradually move online, and respond to increasingly recognized limitations of experimental approaches to study discrimination.",
    "sections": [
        {
            "title": "Introduction",
            "paragraphs": [
                "Decades of social science research provide evidence of ethnic and racial discrimination in various areas of society and in numerous countries (Pager, 2007; Pager and Shepherd, 2008; Rich, 2014). Despite a long history of policy responses and the introduction of anti-discrimination legislation designed to attenuate ethnic and racial disparities, discrimination appears to persist (Pager, Bonikowski and Western 2009). Discrimination studies continue to enjoy attention, as discrimination is seen as one of the key mechanisms for explaining enduring economic and social inequality in society. Online markets offer a new perspective on the diverse settings in which ethnic discrimination can occur and provide new channels to test assumptions about why and how members of ethnic or racial groups are being discriminated against (Zussman, 2013; Edelman, Luca and Svirsky, 2017).",
                "We join this effort by examining the extent and the causes of ethnic discrimination in Europe's largest online carpooling market. We compile a new data set of 16,624 carpooling rides offered in Germany by programmatically collecting ride information from an online platform. We estimate the effect of drivers' perceived name origin on the demand for their offered rides (clicks on offer). To group names into perceived ethnic backgrounds, we conducted a separate online survey with 1,577 participants who rated a total of 1,381 unique first names to distinguish the associated origin of drivers. Participants distinguished between typically German names and names with an Arab, Turkish, or Persian origin. Combined these three groups represent the largest and most recognizable immigrant community in Germany.1 Previous studies found that this particular group is disproportionately affected by discrimination (Diehl et al., 2013; Blommaert, Coenders and van Tubergen 2014).",
                "In carpooling markets, private individuals use online platforms to offer seats in their car for a particular ride. Carpooling websites have become serious competitors for conventional bus and train providers across Europe, in particular in low-budget segments of the transportation market.2 Carpooling offers mid- to long-distance rides from city to city rather than short taxi rides within cities (like services such as Uber).",
                "Carpooling platforms are a compelling application for ethnic discrimination studies for several reasons. First, carpooling is not only an economic market where riders select drivers with the best economic value (e.g. price per distance). Carpooling is also a social market. The decision to acquire the service is linked to spending one-off time with a stranger, i.e. the driver. The element of face-to-face personal interaction in a non-professional setting distinguishes carpooling platforms from labour or consumer good markets where ethnic discrimination has been studied (Doleac and Stein, 2013; Ewens, Tomlin and Wang, 2014; Ayres, Banaji and Jolls, 2015). Carpooling may thus help to draw attention to ethnic discrimination in social situations and reveal subtle, everyday forms of discrimination that may otherwise go unnoticed.",
                "Second, online markets such as carpooling are ideally suited to isolate ethnic effects. We are able to observe all characteristics that are visible to the customer, including the driver rating, experience, and the car. This set-up allows us to overcome issues related to both experimental designs--because we do not introduce an artificial treatment that would otherwise not occur in this way3--and many observational studies which may suffer from omitted variable bias.4 For example, audit studies have often been criticized for introducing additional unobserved factors such as demeanour and socio-economic background that may 'pollute' the treatment. Our analysis controls for every signal available to the consumer.",
                "Third, we exploit variation in the information about drivers to test assumptions about the mechanisms driving ethnic discrimination. Additional information about the driver--such as the rating and experience--could work as a trust signal for consumers (Abrahao et al., 2017); however, previous evidence is unclear about whether additional information offsets ethnic discrimination (Ahmed, Andersson and Hammarstedt, 2010; Nunley, Owens and Howard, 2011).",
                "Fourth, we provide tentative evidence that ethnic discrimination effects are not driven by social class bias--a common dilemma given that many ethnic groups in Germany are over-represented among lower social classes.",
                "Our results indicate large ethnic discrimination effects. Controlling for all observable information, drivers with an Arab/Turkish/Persian sounding name attract significantly less interest in their offers (fewer clicks on the offer) than drivers with typically German names. To achieve the same demand compared to a driver with a typical German name, the average driver with an Arab/Turkish/Persian sounding name would have to offer the ride at 32 per cent less than the price for an average ride. Group differences cannot be explained by any other observable characteristic associated with the driver or the offered ride and are robust against a series of robustness checks.",
                "Consumers appear to use the name as a proxy signal to infer the 'true' value of the ride in economic, safety, and social terms. When rich information about the driver is available (i.e. high-rating profile picture), ethnic discrimination decreases, as consumers rely less on the name.",
                "Our findings have important implications for policy. First, ethnic discrimination occurs in social online market platforms. This expands the view from traditional discrimination studies in the labour market and housing to more subtle, everyday forms of unequal treatment. The results draw attention to other sectors with stronger social interaction elements, including the service and care sector or group environments such as membership in clubs, associations, and interest groups. Second, insights into the mechanisms of discrimination can be the starting point for policy design aimed at reducing disparities (Nunley, Owens and Howard, 2011; Guryan and Charles, 2013). Our results suggest that providing more relevant context information about market actors may be a powerful strategy to reduce discrimination effects. As such, our results inform the discussion around the need for anti-discrimination efforts in markets that increasingly operate online. While consumers and service providers are often protected against discrimination in traditional, offline markets (for instance hiring, housing, hospitality, and consumer goods), similar provisions do not exist in online markets (see Edelman, Luca and Svirsky, 2017) and are difficult to prosecute."
            ]
        },
        {
            "title": "Evidence and Mechanisms of Ethnic Discrimination",
            "paragraphs": [
                "Ethnic and racial discrimination can be defined as differential treatment that leads to unequal outcomes based entirely on ascribed features such as race, ethnic background, name origin, and foreign appearance (Blank, Dabady and Citro, 2004).",
                "Recent reviews document discrimination effects in employment, housing, credit, and commodity markets in many countries (Pager and Shepherd, 2008; Rich, 2014). The strongest evidence for ethnic discrimination is based on studies employing experimental designs (Rich, 2014). These studies show that racial or ethnic groups often are--ceteris paribus--disadvantaged in terms of access to labour markets (interview invitations, call back rates, wage offers, treatment in interviews), and the housing market (renting, buying, or selling apartments and houses).",
                "More recent studies have made advances in two ways: first, they have broadened the application of discrimination studies to other markets (Nunley, Owens and Howard, 2011; Gneezy, List and Price, 2012; Doleac and Stein, 2013; Zussman, 2013; Bryson and Chevalier, 2015; Edelman, Luca and Svirsky, 2017). Second, researchers have fine-tuned experiments to test hypotheses about why discrimination occurs opposed to whether it occurs (Gneezy, List and Price, 2012; Guryan and Charles, 2013).",
                "In terms of relevant mechanisms, much of the literature across the various domains traditionally attempts to discern whether discrimination stems primarily from taste-based discrimination (racial animus/prejudice) or from statistical discrimination (asymmetric information).",
                "In the case of taste-based discrimination (Becker, 1971), the driver of discrimination is a negative disposition towards certain groups. In our case, an individual may suffer 'disutility' resulting from contact with a specific ethnic group. As such, taste-based discrimination relies on the presence of prejudice. Prejudice in return can loosely be defined as an affective, mostly unfavourable feeling towards a person or group member based solely on their group membership.",
                "In the case of statistical discrimination, differential treatment based on race and ethnic background arises from incomplete or asymmetric information about the productivity of actors (Phelps, 1972; Arrow, 1973).5 When limited information about a product or an individual is available, agents rely on observable group characteristics (such as ethnic group, race) to make inferences about the individual. Another class of statistical discrimination models focuses on the reliability of the information that employers have about individual productivity (Aigner and Cain, 1977; Altonji and Blank, 1999). At the core of both of these strands of statistical discrimination is the notion that a lack of information leads the employer to treat individuals as members of groups (Guryan and Charles, 2013).6",
                "Past evidence on the dominant form of ethnic discrimination remained inconclusive, as support for either mechanism varies considerably across studies (Ewens, Tomlin and Wang, 2014). However, recent (experimental) studies point to the importance of statistical discrimination (rather than tastes) for explaining why discrimination persists (Altonji and Pierret, 2001; List, 2004; Zussman, 2013; Ewens, Tomlin and Wang, 2014; Bryson and Chevalier, 2015). Growing evidence in favour of statistical discrimination may be good news for policymakers given that information asymmetries may more easily be addressed than deep-rooted prejudice. In practice, statistical and taste-based discrimination are difficult to isolate in experimental and non-experimental study designs. Similar to taste-based discrimination, statistical discrimination relies on the concept of stereotypes in the form of certain beliefs associated with a group. It is not clear where stereotypes originate and whether they are related or congruent with the concept of prejudice. This complicates interpreting evidence for one or the other.",
                "Our study avoids a framing of statistical vs. taste-based discrimination as mutually exclusive mechanisms. We examine the role of information on its own merit while we are aware that previous research has interpreted information effects as indicative of statistical discrimination (Nunley, Owens and Howard, 2011). Rather than discerning the origins of ethnic discrimination, our primary aim with this study is to examine how additional information affects ethnic discrimination levels. In addition, responding to critiques of experimental studies (Heckman, 1998), we take advantage of rich observational data covering real interactions occurring in a real market."
            ]
        },
        {
            "title": "Ethnic Discrimination in Online Carpooling",
            "paragraphs": [
                "Our study joins the effort of leveraging online markets--in our case, the largest German online carpooling market--for the study of ethnic discrimination. Carpooling markets match drivers that offer available seats in their car to riders that look for affordable one-off transport between cities. Riders can search rides by departure/arrival town and date. Besides the place, day and time of departure, the price for a seat, and a number of other ride-specific characteristics, carpooling offers show the first names of the drivers. We estimate the effect of an Arab/Persian/Turkish sounding first name on the demand of offered rides as measured by clicks. Arab/Turkish/Persian sounding names are associated with the largest and most recognizable immigrant community in Germany (mostly descendants of low-skilled guest workers that arrived since the 1960s). Previous studies have highlighted that members of the Arab/Turkish/Persian community appear disproportionately affected by discrimination (Diehl et al., 2013; Blommaert, Coenders and van Tubergen, 2014) in Europe.",
                "We interpret group differences in clicks net off all observable characteristics of the driver and the offered ride as evidence for ethnic discrimination.",
                "In this brief section, we formulate three different possible outcomes to our research question of whether and why ethnic discrimination exists in carpooling markets: (i) no distinct discrimination effects, (ii) discrimination effects unaffected by information, and (iii) discrimination effects sensitive to the information provided.",
                "Regarding (i), we propose that it is plausible to expect no distinct ethnic discrimination effect owing to the particular context of carpooling and our study design. First, carpooling consumers are on average younger than the general population (Destatis, 2017). Second, rides provide transport between urban centres which suggest that the customers are also more likely to be liberal. Third, sharing a ride with a stranger already requires a certain level of trust. Fourth, online market platforms have been shown to reduce information asymmetries associated with productivity and correct biases against certain groups (Agrawal, Lacetera and Lyons, 2013). Accordingly, it would not be surprising to find no significant discrimination effects given that we control for all observable information about the ride and the driver. In this light any effect that we may find is likely conservatively small compared to ethnic discrimination in other contexts and with other sub-populations in the German society.",
                "Regarding (ii), in our setting, traditional taste-based ethnic discrimination approaches suggest that potential consumers discriminate against drivers with a foreign name, because they simply wish to avoid contact with a member of a specific ethnic group. In carpooling, this means that we would expect discrimination effects regardless of variation in other information about the driver. Compared to commodity markets, taste-based ethnic discrimination may be more pronounced in carpooling, as the customer is spending several hours with someone from another ethnic group in a narrow space (a car). In this case, simply the fact that the driver is associated with another ethnic group should lead to unequal treatment regardless of other observable characteristics of the ride or the driver. In other words, we would expect that variation in the information provided about the 'quality' of the driver should not affect ethnic discrimination.",
                "Regarding (iii), in our setting, statistical discrimination approaches commonly assume that potential riders use the name of a driver as a signal to infer the 'true value' of the ride. Following this approach, the value of the ride depends on the degree of provided information about a ride rather than exclusively on the name origin of the driver. One advantage of our large data set is that we can test for different stereotypes. We hypothesize that a negative ethnic effect on clicks could generally be driven by three different sets of considerations: (i) price and comfort relative to distance, (ii) personal safety, and (iii) the social value.",
                "Based on a narrow economic perspective, consumers simply click on the ride that offers the cheapest price relative to the distance travelled. Other factors may include the car quality as an indication how fast and comfortable the ride will be. In our setting, we control for the distance of the ride, the price, and the car comfort.",
                "Other consumers may choose an offer based on how secure they perceive the ride. Security has to be inferred from other available information, as there is no objective indicator of security and safety on the platform. We assume that consumers use the name of the driver as two signals for perceived safety of a ride. First, it is a common stereotype that 'migrants', especially males, commit more crimes (Fitzgerald, Curtis and Corliss, 2011; Trager and Kubrin, 2014).7 The other common safety-related stereotype could be that foreigners drive less safely because traffic regulations are less strict or less enforced in their origin countries. To the best of our knowledge, there is virtually no reliable comparable data to prove or disprove this stereotype, but surveys suggest that the stereotype exists.8",
                "Finally, the value of a particular ride (and as a result, demand for that ride) may be driven by the desire for pleasant social interaction. We know from previous research that certain ethnic groups are disadvantaged, for example, in flat sharing markets--a market where choices include social interaction (Przepiorka, 2011). Consumers may click on those offers that suggest the most enjoyable time during the ride. Sharing a ride means sharing private space, as carpoolers sit in close proximity. Again, the name of the driver could be a proxy for language. Pleasant conversation is less likely if the driver speaks a different language and possibly listens to 'foreign' music. We estimate an interaction effect with music and dialogue preferences to test this assumption. Studies on online dating have shown that clear ethnic/racial preferences exist that commonly disadvantage minorities (Robnett and Feliciano, 2011; Lin and Lundquist, 2013; Jakobsson and Lindholm, 2014). Similar to those markets, consumers in carpooling markets may be driven by homophily preferences, i.e. looking to meet drivers who are most like them (see McPherson, Smith-Lovin and Cook, 2001). Again, the name would signal greater social distance given that the large majority of consumers are Germans.",
                "As there is no direct indicator for safety or sociability, consumers have to rely on other available information, including the name. We argue that the user rating, number of ratings, and the driver experience are suitable aggregate proxies for both categories. A bad user rating or low experience suggests that the ride may be less safe and less pleasant. Similar to studies that attempt to test statistical discrimination, we will interact the ethnic indicator with other indicators about productivity signals, in this case, the user rating and experience (Nunley, Owens and Howard, 2011; Blommaert, Coenders and van Tubergen, 2014; Ewens, Tomlin and Wang, 2014). Similar to Nunley, Owens and Howard (2011), we argue that consumers' relative weight on beliefs regarding the trustworthiness of drivers with an ethnically distinct name diminishes as other pertinent information about credibility becomes available. The scarcer the other information about the 'true' safety and 'fun' of the ride, the more consumers rely on stereotypes regarding the perceived name origin. In our design, the user rating is based on experience of the driver (how many rides he or she has offered in the past) and the customer satisfaction. The user rating is a strong signal about the trustworthiness of provided information online and the 'true' productivity of the ride. We use additional proxies of safety and sociability to test the effect of additional information including the profile picture (homophily, trust), talking and music preferences (sociability), and gender (safety).9"
            ]
        },
        {
            "title": "Data and Methods",
            "paragraphs": [
                "In this section, we first present details of the data collection process and then elaborate on the empirical methods.",
                "We compile a new data set with the aim to achieve a meaningful balance between internal and external validity of discrimination effects. Using one of the largest online carpooling platforms in Germany, we compile a data set of 16,624 observations (i.e. rides) in Germany that were listed online between 16 July 2015 and 27 July 2015.10 According to the provider, the platform offered 250,000 rides in 2013 and 2014. The platform has 30 million members in 22 countries. According to the company's website, 10 million users use the website every quarter. Based on access to an Application Programming Interface, in short API, we collected information on all observable information on the offered rides and the drivers. The visual interface (see Figure 1) shows information about age, gender, user picture if available, user rating, car, timing and stops of the ride, price, available seats, and some preferences of the driver (smoking, music, talking). ",
                "Rides shown in Figure 1 are offered by drivers travelling from Rostock to Berlin. For instance, the first driver offered a seat for his ride at the price of 11 Euros. He has two positive user ratings from earlier interactions on the market. Furthermore, he prefers to talk during the trip and does not mind riders to travel with their pets. In contrast to the other ride offers in Figure 1, the driver did not upload a picture.",
                "Due to volume and restrictions from the provider, not all rides in the market could be collected. As a result, we selected routes between the largest cities in all 16 German states (Lander). Carpooling is more common between urban centres due to supply and demand for rides. Our strategy allowed us to approximate a balanced geographical representation of observed rides for different regions in Germany. As a second step, we included additional large cities in regions with larger populations, particularly regions with higher shares of ethnic minority residents. Oversampling of urban areas was necessary to ensure a sufficient sample of drivers with foreign-sounding names (see Figure 2). ",
                "The data were collected in two steps: first, we pulled data from the API and, second, we used the programming language Python to automatically access the website four times a day at equal intervals between 16 July 2015 and 27 July 2015. Accessing the website in addition to pulling API data was necessary for retrieving information about our main dependent variable, the number of clicks that each ride in our sample received.",
                "We assess group differences regarding demand for offered rides on the carpooling platform. Demand is measured by clicks. We regress the maximum number of clicks that a ride received until departure using a negative binomial regression (see Supplementary Figure B1 for distribution of clicks).11 In the analysis, the number of clicks is adjusted for the number of days that the offer was displayed online until departure.",
                "We restrict our sample in several ways: first, we drop rides that depart after the end of our observation period (right-censoring). This is necessary to obtain an accurate measure of maximum clicks before departure. Second, we restrict the sample to rides that were uploaded no sooner than 7 days before we began the data collection. One week is an appropriate time window given that most rides are uploaded a few days before departure. Third, we drop cross-border rides, as consumers are most likely not German and clicks are inflated as affected rides are also listed in carpooling platforms for neighbouring countries, where the provider also operates. Fourth, we limit our sample to routes (e.g. departure city: Munich--arrival city: Berlin) that have more than one offered ride per day and have at least one driver with an Arab/Turkish/Persian name.12 This step is important to ensure that we can observe a counterfactual, i.e. consumers cannot discriminate against drivers from another ethnic group if there are none. It is important to note that all our models additionally control for route and volume (number of offered rides per route and day). The final sample for the analysis of clicks includes 16,624 rides, including 528 rides with an Arab/Turkish/Persian driver.",
                "As our main independent variable regarding discrimination, we use the first name of the driver to infer whether the name is 'typically Arab/Turkish/Persian' or 'typically German'. Names signal membership to a particular ethnic group (regardless of whether the signal is true) and 'ignite' potential stereotypes (Bertrand and Mullainathan, 2004; Booth, Leigh and Varganova, 2012).",
                "Driven by concerns about the objectiveness and reliability of name ratings, we conducted a large online survey in which respondents were asked to rate driver names that we extracted from our carpooling sample. In total, 1,577 student raters participated in the survey. The origin of 1,381 unique first names was on average rated by 20 student raters (SD = 4.6).13 As carpooling riders are younger than the national average (Destatis, 2017), students represent a reasonable approximation of typical riders. Table 1 shows the most frequent names by perceived name origin. ",
                "For the analysis, we use an 80 per cent cut-off for determining an Arab/Turkish/Persian name. That is, the driver is considered to have an Arab/Turkish/Persian name if four of five raters (i.e. 16 of 20 raters per name on average) considered the name to be typically 'Arab, Turkish or Persian'. We also report results for the continuous measure of Arab/Turkish/Persian name origin variable in percentage points (see Figure 4 below). We grouped Arab/Turkish/Persian sounding first names together because they are difficult to distinguish for the average resident in Germany and are commonly associated as being from the same world region.14 Members of this broad group are associated with the largest and most recognizable immigrant community in Germany (mostly descendants of low-skilled guest workers that arrived since the 1960s). Previous studies have highlighted that members of the Arab/Turkish/Persian community appear disproportionately affected by discrimination (Diehl et al., 2013; Blommaert, Coenders and van Tubergen, 2014).",
                "For the analysis of mechanisms, we exploit variation in information about each offered ride. We estimate the interaction effect of an Arab/Turkish/Persian first name with the user rating associated with each offered ride. The rating score is an average of past riders' general evaluation of their ride with the respective driver who offered it. Past riders can rate the driver retrospectively. As a result, the rating is a strong signal of safety, sociability, and overall trustworthiness. To test the sociability argument in particular, we estimate an interaction of the name with the profile picture and the music and dialogue preference. Drivers that provide a profile picture as personal information likely increase their trustworthiness. The profile picture may also function as a proxy for sociability perceptions. The 'talking preference' indicates whether the driver is interested in talking during the ride which we use as one additional measurement for the sociability argument. Finally, we estimate an interaction with name and gender. We assume that negative stereotypes regarding the safety of rides with Arab/Turkish/Persian drivers largely apply to male drivers.",
                "Controls include all the information that is observable to consumers, including information about the offered ride (route, time, and distance) and the driver such as age and gender (see Supplementary Table A2 and A3 for a full description and distribution of all model variables). Regardless of ride and driver information, the clicks on offer may simply be driven by the size of the potential user population, which varies considerably across the sampled cities and regions in Germany. For this reason, we control for the demand side using a route identifier for all routes in our sample."
            ]
        },
        {
            "title": "Results",
            "paragraphs": [
                "The analysis confirms substantial discrimination effects in Germany's online carpooling market. Drivers with Arab/Turkish/Persian names attract less demand (measured in clicks) than drivers with typical German names for the same ride. Controlling for all observable characteristics of the ride and the driver that are visible to consumers, we find that drivers with an Arab/Turkish/Persian sounding name obtain on average seven clicks less than a driver with a typical German name (significant at P < 0.01, see Figure 3 and Supplementary Table A3). Seven clicks represent approximately 13 per cent of the average number of clicks per offered ride in the sample (51 clicks). In a separate step, we calculate the average discriminatory price premium, i.e. the average willingness to pay to avoid riding with an Arab/Turkish/Persian driver. Dividing the name coefficient by the price coefficient indicates that Arab/Turkish/Persian drivers would have to offer their rides on average 4.20 EUR cheaper than German drivers to achieve the same number of clicks. This accounts for 32 per cent of the average price of an average ride in our sample. This discriminatory price premium increases to 34 per cent when setting covariates to different values, for example, a male, 30-year-old Arab/Turkish/Persian driver with little experience offering a ride over 300 kilometres in a comfortable car on a Sunday afternoon. ",
                "Figure 3 uses the 80 per cent cut-off to determine drivers with an Arab/Turkish/Persian name. Figure 4 reports the result for the continuous measure of Arab/Turkish/Persian name origin (the percentage of survey respondents who rated the name to be typically Arab/Turkish/Persian). Disparities between Arab/Turkish/Persian and German drivers increase with the degree of certainty that the name is associated with an Arab/Turkish/Persian background (see Figure 4). ",
                "In the second part of the analysis, we turn to the role of information for ethnic discrimination. Our tests suggest that disparities between groups depend on the variation of information about individual drivers.",
                "Figure 5 shows that drivers with an Arab/Turkish/Persian name are disadvantaged against German drivers when they have no or low ratings. Disparities appear to vanish when both drivers have equally high user ratings. The interaction effect is statistically significant at P < 0.01 (see Supplementary Table A3). Similar results for the number of user ratings and the driver experience corroborate these findings (see Supplementary Figure B2 and B3). ",
                "The findings for the user rating, number of ratings, and experience suggest that consumers place less weight on the name of the driver when other relevant information is available. This is consistent with the statistical discrimination hypothesis as the name of the driver may be used as one more source of information about the perceived 'value' of the ride.",
                "We conduct a number of additional indirect tests to approximate different motives (as discussed in Section Ethnic Discrimination in Online Carpooling). There may be at least two possible sources of stereotypes. First, consumers may be concerned with safety, since carpooling entails sharing a ride with a stranger. Given stereotypes regarding crime and driving styles among 'foreigners', we hypothesized that statistical discrimination may be driven by safety concerns. Our results provide indirect evidence that this is the case. First, ethnic discrimination effects are larger for males compared to females (see Supplementary Figure B4). This is consistent with the assumption that stereotypes regarding crime and driving styles apply particularly to male foreigners (Trager and Kubrin, 2014). Consumers may generally feel less safe with a male driver with an Arab/Turkish/Persian sounding name compared to a male German driver. Female drivers with an Arab/Turkish/Persian sounding name may not be disadvantaged compared to female German drivers given that the crime stereotype largely applies to males. However, sample size limitations regarding female drivers with foreign names (N = 31) do not allow us to infer that females are not subject to discrimination. The effect is smaller but not 0 (see Supplementary Figure B4 and Supplementary Table A4).",
                "Second, Arab/Turkish/Persian drivers without a profile picture are much more disadvantaged than drivers from the same ethnic group with a profile picture (see Supplementary Figure B5).15 We interpret the profile picture to be a trust-enhancing measure. Ethnic stereotypes regarding safety may simply have more room to engage imagination when users do not know what the driver looks like.",
                "Third, we suspected that consumers may select rides based on sociability considerations. Drivers with an Arab/Turkish/Persian name could be discriminated against when consumers assume that 'foreign' drivers may not speak the language or do not share similar music tastes which could make the joint ride less enjoyable. In fact, our findings show that Arab/Turkish/Persian drivers are less disadvantaged when they have indicated a preference for talking during the ride (see Supplementary Figure B6). We speculate that consumers interpret a talking preference for foreigners as a sign of good German language skills. In contrast, a preference against talking may simply be interpreted as a potential language barrier. This could explain why the positive effect of talking preference on clicks is considerably larger for Arab/Turkish/Persian drivers compared to German drivers.",
                "The results for music preference could be interpreted in a similar vein (see Supplementary Figure B7). Our findings show that Arab/Turkish/Persian drivers are more disadvantaged when they indicate a preference for music during the ride. Again, consumers may infer that a music preference implies a lack of willingness to talk which, in turn, could be perceived as a language barrier. In addition, consumers may assume that drivers with an Arab/Turkish/Persian name might want to listen to ethnic music which could reduce the enjoyment of the ride for German consumers who may be less likely to share similar tastes.",
                "In sum, our results document substantial ethnic discrimination in Germany's carpooling market. Our findings highlight the power of information about drivers. The more useful information is provided about drivers with foreign-sounding names, the less likely they are to be discriminated. We provided tentative evidence that safety and sociability considerations may drive this information effect. Our results are robust against a series of checks, including different samples, variable operationalization, estimators, and potential social class bias (see the Appendix for details).",
                "One important potential source of bias is perceived social class given that Arab and Turkish migrant communities are over-represented among lower social classes in Germany. We compare the effects of typically Arab/Turkish/Persian names with the effect of typically Anglo-Saxon names (i.e. Steven, Justin, and Kevin). Studies in the German context have shown that Anglo-Saxon names in Germany are associated with low social class (Kaiser, 2010). The effect of such names, however, is not statistically significant and not negative. As such, we provide tentative findings that the ethnic penalty appears to be robust against social class bias."
            ]
        },
        {
            "title": "Summary and Discussion",
            "paragraphs": [
                "Recent ethnic discrimination studies increasingly make use of online market data to better understand when and why ethnic discrimination occurs. We aim to contribute to this effort with a novel application of ethnic discrimination in Europe's largest online carpooling market (i.e. Germany). We argue that there are four aspects that make our study a valuable contribution to existing research. First, carpooling is a social market that involves one-off, face-to-face interaction in a non-professional setting. This unique setting broadens the scope of ethnic discrimination research to more subtle, diverse, and everyday interactions where ethnic minorities may face unequal treatment. Second, the social element of this market and the fact that we are able to measure all relevant observable characteristics allow us to test assumptions regarding the mechanisms driving ethnic discrimination. We focus in particular on the effects of information. Third, the advantage of our application is that we observe real actors making real decisions in real markets while being able to control all relevant factors that may influence consumer choice. Using observational data while holding all relevant confounders constant is a key advantage of our study and responds to the critique of experimental methods that might create rare and artificial situations (Heckman, 1998). Fourth, we can provide tentative analysis to disentangle social from ethnic cues which is a limitation of many ethnic discrimination studies.",
                "We find evidence of substantial ethnic discrimination in Germany's carpooling market. Drivers with Arab/Turkish/Persian sounding names obtain--ceteris paribus--less demand (on average 13 per cent fewer clicks) compared to German drivers. The average Arab/Turkish/Persian driver in our analysis would have to offer his ride 4.20 EUR cheaper than the average German driver to achieve the same demand, a discriminatory price premium that is equivalent to 32 per cent of the price for an average ride. This finding is robust against a broad range of checks.",
                "Discrimination of drivers with Arab/Turkish/Persian names persists despite the relatively young and urban consumer composition in this particular market. Therefore, the estimated discrimination effect may be conservative compared to other everyday social interactions with ethnic minorities in the German society. Our findings are consistent with other recent studies that show ethnic/racial discrimination effects in other online consumer markets (Ayres, Banaji and Jolls, 2015; Przepiorka, 2011; Robnett and Feliciano, 2011; Doleac and Stein, 2013; Zussman, 2013; Blommaert, Coenders and van Tubergen, 2014; Edelman, Luca and Svirsky, 2017). Discrimination against individuals with Arab, Persian, and Turkish sounding names is consistent with findings in other studies across Europe (Blommaert, Coenders and van Tubergen, 2014; Rich, 2014; Gaddis and Ghoshal, 2015).",
                "One main result of our study is that ethnic disparities decrease depending on the level of relevant information that is available about the service provider (the driver). Higher user ratings, a higher number of ratings, and information on driver experience decrease ethnic discrimination. In fact, ethnic disparities seem to disappear entirely for the highest rated drivers. This shows that stereotypes regarding particular ethnic groups become more salient and active when other information that could signal trust is scarce. In other words, discrimination is more pervasive in information-scarce environments. Consumers appear to use the name origin as a signal for other relevant information that is otherwise not available. Previous studies have argued that such information effects are consistent with statistical discrimination. We are cautious to make strong judgments on the relative importance of statistical and taste-based ethnic discrimination in general, as we do not have the tools to adequately isolate taste-based discrimination. Regardless of relative importance, the strong effects of information, including user ratings, deserve attention in its own merit and support some previous evidence that suggests that information can ameliorate discrimination effects (Ahmed, Andersson and Hammarstedt, 2010; Nunley, Owens and Howard, 2011; Abrahao et al., 2017).",
                "Common statistical discrimination assumes that discriminatory behaviour is based on stereotypes which are commonly difficult to capture empirically. Our data allowed us to provide a number of indirect tests of underlying stereotypes that might drive discrimination. Unlike conventional studies in the area of employment, for example, stereotypes in carpooling do not (only) revolve around low productivity, low educational achievement, or work ethics. Our analysis suggests that safety and sociability considerations apply. The results show that customers may have--ceteris paribus--less trust in a driver with a foreign name and that foreign drivers may signal a lower social value, for example, because they may speak a different language and prefer different music during the ride. Tentative evidence suggests that these effects are not driven by social class bias.",
                "Our findings have implications for policy. The results underscore the importance of a general discussion about anti-discrimination legislation in the Internet age. It is possible that due to one-to-one communication in online markets, discrimination goes largely undetected and unsanctioned. Moreover, our findings suggest that the type and level of information provided matters for the degree of discrimination, providing a useful leverage point for policy makers. The magnitude of ethnic discrimination decreases with an increase of available context information about individual actors. Growing evidence in support of statistical discrimination is good news for policymakers (as compared to taste-basted discrimination), as information is often more malleable to policy than deep-rooted prejudice. In cases where adding context information is not possible, another strategy is to remove the information or signal (ethnic cue) that induces unequal treatment of some users, i.e. the name. Without the name it is harder to assign (ethnic) group membership, and thus harder for stereotypes to be activated. Which approaches are most effective depends on the context and remains an empirical question. It is clear, however, that online markets are increasingly under pressure to find solutions. The online apartment-sharing platform Airbnb--for example--has recently introduced changes to growing evidence of discrimination on their platform (see Edelman, Luca and Svirsky, 2017).16 The start-up adopted new non-discrimination policies and systems to address user complaints. Airbnb is now promising to allow guests to book without prior approval or screening by the host and to reduce the prominence of pictures on guests' profiles in favour of more 'objective', reputation-enhancing information.",
                "Our study also faces certain limitations. Unfortunately, information about the consumers of the rides is not available. We were also not able to match more disaggregated regional population statistics. This information would allow us to disaggregate effects by location and look at how population attitudes may correlate with discriminatory behaviour. Future comparative research is also needed to assess to which extent discrimination varies across national contexts and different ethnic groups. In addition, more research is needed to study the effect of gender in online market discrimination. Our results suggest that ethnic penalties are smaller for women compared to men; however, our sample size of female drivers was too small to explore gender-specific processes in more detail.",
                "In summary, our results have illustrated the power of a name and the information associated with it. We find that the name is used as a proxy for the trustworthiness of actors in a social market environment. Foreign-sounding drivers are trusted less than German drivers when information is scarce. When more information is provided about both drivers, discrimination decreases to levels that are statistically undistinguishable from 0. In other words, when little is known about the quality of a ride, drivers with typical German names enjoy a certain 'blind trust premium' that cannot be explained by any relevant quality indicator. Unique to our social market scenario, we were able to provide indication that discrimination in social markets is based on assumptions regarding safety and the social value of spending time with a member of another ethnic group in terms of language barriers and tastes (e.g. music preference). Our findings highlight the role of ethnic discrimination in subtle, everyday social interactions between ethnic groups and the powerful role of information to influence discrimination.",
                "Jasper Dag Tjaden works at the UN Migration Agency's Global Migration Data Analysis Centre. He earned his PhD from the University of Bamberg including research stays at the City University of New York and the Minnesota Population Centre. His research provides insights into migration, integration, educational inequality, and discrimination. His work has been published in leading journals in sociology, including Social Science Research, Acta Sociologica, and Zeitschrift fur Soziologie, as well as in numerous reports commissioned by the European Union and the UN Migration Agency.",
                "Carsten Schwemmer is a Research Associate and Doctoral Student at the Political Sociology Chair of Bamberg University. He is working on computational methods for conducting social research, with special focus on natural language processing and ethnic minority studies. He is also interested in political sociology, xenophobia, and social media studies. His work has appeared in leading journals in political science, including the European Journal of Political Research and Party Politics.",
                "Menusch Khadjavi is an Assistant Professor of Economics and Ethics at Christian-Albrechts-University Kiel and the Kiel Institute for the World Economy, Germany. He earned his PhD from the University of Hamburg in 2013. His research provides insights into morally relevant behavior in economics, including emotional motivation and extrinsic incentives, charitable giving, corruption, procedural preferences, and the private provision of public goods. His work has been published in leading journals in economics, including Games and Economic Behavior and Management Science. He has been a visiting scholar at UC San Diego, UC Berkeley and Columbia University.",
                "Supplementary data are available at ESR online.",
                "The authors would like to thank the three anonymous reviewers for their time and constructive feedback. The authors are also grateful for comments on previous versions from Uri Gneezy, Ruud Koopmans, Jack DeWaard, Marc Helbling, Sebastian Wenz, and Cornelia Kristen. The research was conducted independently by the authors and does not necessarily reflect the views of the International Organization for Migration (IOM). The research was not conducted in the corresponding author's capacity as staff of the IOM.",
                "For some periods during the research conducted for this paper, Jasper Dag Tjaden was financially supported by the German Research Foundation through their Excellence Initiative and the Fulbright Commission."
            ]
        }
    ],
    "references": [
        "http://dx.doi.org/10.1073/pnas.1604234114",
        "http://dx.doi.org/10.3368/le.86.1.79",
        "http://dx.doi.org/10.1177/001979397703000204",
        "http://dx.doi.org/10.1016/S1573-4463(99)30039-0",
        "http://dx.doi.org/10.1162/003355301556329",
        "http://dx.doi.org/10.1111/1756-2171.12115",
        "http://dx.doi.org/10.7208/chicago/9780226041049.001.0001",
        "http://dx.doi.org/10.1257/0002828042002561",
        "http://dx.doi.org/10.1093/sf/sot124",
        "http://dx.doi.org/10.1111/obes.2012.74.issue-4",
        "http://dx.doi.org/10.1016/j.labeco.2015.03.002",
        "http://dx.doi.org/10.1080/1369183X.2013.833705",
        "http://dx.doi.org/10.1111/ecoj.2013.123.issue-572",
        "http://dx.doi.org/10.1257/app.20160213",
        "http://dx.doi.org/10.1162/REST_a_00365",
        "http://dx.doi.org/10.1177/0010414011421768",
        "http://dx.doi.org/10.1177/0002716215580095",
        "http://dx.doi.org/10.1111/ecoj.2013.123.issue-572",
        "http://dx.doi.org/10.1257/jep.12.2.101",
        "http://dx.doi.org/10.1080/01494929.2013.879554",
        "http://dx.doi.org/10.1086/673129",
        "http://dx.doi.org/10.1162/003355304772839524",
        "http://dx.doi.org/10.1146/annurev.soc.27.1.415",
        "http://dx.doi.org/10.1353/jhr.2012.0032",
        "http://dx.doi.org/10.1016/j.jebo.2011.06.028",
        "http://dx.doi.org/10.1177/0002716206294796",
        "http://dx.doi.org/10.1177/000312240907400505",
        "http://dx.doi.org/10.1146/annurev.soc.33.040406.131740",
        "http://dx.doi.org/10.1515/zfsoz-2011-0203",
        "http://dx.doi.org/10.1093/sf/89.3.807",
        "http://dx.doi.org/10.1111/ecoj.2013.123.issue-572"
    ],
    "title": "Ride with Me--Ethnic Discrimination, Social Markets, and the Sharing Economy",
    "issue": "4",
    "volume": "34",
    "year": 2018,
    "issn": "0266-7215",
    "journal": "European Sociological Review",
    "authors": [
        "Jasper Dag Tjaden",
        "Carsten Schwemmer",
        "Menusch Khadjavi"
    ]
}