{
    "doi": "http://dx.doi.org/10.1177/0022146510395026",
    "abstract": "Gay neighborhoods serve as vital places for gay men\u2019s socializing, yet few studies have examined their contributions to gay men\u2019s health\u2014either directly or indirectly via residents\u2019 social networks. Drawing from theoretical perspectives on community and networks, we test hypotheses concerning whether gay neighborhoods and social network factors are associated with patterns of recent illicit drug use among a sample of 740 urban gay men from New York City. Higher odds of drug use were observed among individuals who resided in gay neighborhoods, had networks composed predominantly of other gay men, and had increased socialization with gay men. Network factors did not mediate associations between gay neighborhoods and drug use. These findings highlight the need to better contextualize the health risks faced by gay men by accounting for both neighborhood and network structures.",
    "sections": [
        {
            "title": "Introduction",
            "subsections": [
                {
                    "title": null,
                    "paragraphs": [
                        "In the extensive literature on gay men's health issues, the topic of drug use has received significant attention. While not an acute health problem for all users, drug use has been identified as a risk factor for participation in unprotected sex, the acquisition of STDs and HIV, and other mental and physical health problems (Stall et al. 2001). For these reasons, drug use remains an important public health issue for gay men, whose use rates are higher than those of heterosexual men (Skinner and Otis 1996). Furthermore, subcultures involving particular kinds of drug use have been identified among gay men, indicating the presence of gay cultural norms surrounding the use of certain drugs (Crosby et al. 1998; Green 2003). These drugs primarily include \"club drugs,\" such as cocaine, methamphetamine, and ecstasy (Kelly, Parsons, and Wells 2006). Many of these substances are discussed, distributed, and used in a variety of gay social venues, including dance clubs and bars; health promotion campaigns have targeted the use of these drugs within such venues (Nanin et al. 2006). Many of these venues are concentrated in gay enclaves.",
                        "The importance of gay enclaves suggests the need for analyzing the social context of gay men's health behaviors, but few studies have examined contextual influences on gay men's health. Exceptions include studies on \"circuit parties\" as environments for sexual and substance use risks (Mansergh et al. 2001) and Internet use for finding sexual partners (Benotsch, Kalichman, and Cage 2002). Some scholars have called for further research on how gay community factors influence the health of gay men (Latka et al. 2006). Coinciding with such calls, recent research has demonstrated the influence of \"neighborhood effects\" on a range of health outcomes (Robert 1999), yet almost none of this research has focused on sexual minorities.",
                        "The present study considers how gay community context influences the drug use of urban gay men. Drawing primarily from the sociological literatures on community and social networks, our examination of drug use is guided by theoretical perspectives on the experience of gay community, specifically testing hypotheses concerning gay neighborhoods and social networks. In doing so, our study extends research in the areas of both gay men's health and neighborhood health effects."
                    ]
                }
            ]
        },
        {
            "title": "Background",
            "subsections": [
                {
                    "title": "Neighborhood Effects on Health",
                    "paragraphs": [
                        "Neighborhood health effects research has emerged in order to better understand how residential contexts influence residents' health behaviors and outcomes independently of residents' individual characteristics. This body of research has implicated factors such as neighborhood socioeconomic status (Weden, Carpiano, and Robert 2008), residential stability (Boardman 2004), and community social relations (Carpiano 2008) as key contextual influences on individual health. Despite mounting evidence regarding the role of neighborhood context for the health of residents from a variety of demographic groups (Robert 1999), virtually no neighborhood effects research has focused on gay men. This oversight is significant for the lives of many gay men, given the importance of gay neighborhoods in urban areas."
                    ]
                },
                {
                    "title": "Neighborhood Effects on Health",
                    "paragraphs": [
                        "Demographic evidence indicates that gay men are more likely to live in urban areas, many in what can be classified as gay neighborhoods, also referred to as \"gay enclaves,\" \"gay ghettos,\" or the colloquial term \"gayborhoods\" (Black et al. 2000; Levay and Nonas 1995). Examples include Chelsea in New York and the Castro in San Francisco. Gay neighborhoods are visible places where gays, lesbians, and other sexual minorities live, work, and play, although gay men tend to dominate these areas as well as the related businesses, residences, and overall social life (Levay and Nonas 1995). Historically, gay neighborhoods have had many of the institutional and business cornerstones of any other community--restaurants, cafes, churches, political groups, and theaters--and these institutions are critical public representations of gay life, especially given that, even in gay enclaves, gay men constitute a minority of the neighborhood population. Yet the noted rise of gay assimilation has increased gay residential concentration in other neighborhoods (Rosser, West, and Reinmeyer 2008). Consequently, it is now necessary to conceptually distinguish gay enclaves from other neighborhoods with substantial gay populations. Some neighborhoods, after all, have significant gay populations but lack the concentration of gay institutions and amenities specific to gay enclaves. Nevertheless, we theorize that enclaves with a publicly visible gay presence, as well as a concentration of male same-sex households, are critical with regard to neighborhood effects.",
                        "Gay neighborhoods have garnered attention in studies of social movements (Castells in Susser 2002) and other aspects of gay life (Binnie and Valentine 1999), but few studies have examined the health implications of these environments. Ironically, most of the research on gay men's health frequently samples participants in gay neighborhoods to study individual risk behaviors, but it has not explicitly examined neighborhood factors that may facilitate or impede certain health risks. To our knowledge, only one multilevel study has examined the role of neighborhood gay population concentration; that study found a positive association with consistent condom use among men who have sex with men (Frye et al. 2008)."
                    ]
                },
                {
                    "title": "Neighborhood Effects on Health",
                    "paragraphs": [
                        "How might gay neighborhoods be associated with the drug use of gay men? Like ethnic communities, gay neighborhoods can be considered places where marginalized people find resources (i.e., safe spaces). Hence, we can conjecture that gay neighborhoods are potentially beneficial, detrimental, or even unimportant, to well-being. Subcultural theory guides our consideration of such processes for individual drug use.",
                        "Subcultural theory (Fischer 1984:36) argues that urbanism (particularly the \"critical mass\" and increased contact of individuals sharing a lifestyle) creates viable subcultures that serve as \"meaningful environments for urban residents.\" Fischer (1975:1323) defines a \"subculture\" as \"a set of modal beliefs, values, norms, and customs associated with a relatively distinct social subsystem (a set of interpersonal networks and institutions) that exists within a larger social system and culture.\" Thus, the presence of this \"critical mass\" facilitates the creation and support of institutions that \"structure, envelop, protect, and foster\" a subculture, and thereby poses implications for individual and collective behavior (Fischer 1975:1326).",
                        "Though initially proposed as an ecologic theory to understand the \"unconventionality\" of urban life (i.e., a gamut of behaviors that deviate from societal norms), subcultural theory does specify cross-level processes (Fischer 1995). Therefore, we argue that this perspective is a useful guiding framework for considering how gay neighborhood environments matter for the behaviors of gay men. Prior research by Green (2003:440) suggests a need to consider gay institutions, such as gay bars and dance clubs, as facilitating certain health behaviors by \"operating as launch pads for gay life\"--serving as places to meet other gay men and disseminate information as well as places to encounter aspects of gay socialization. Urban gay neighborhoods serve as important institutions themselves or, at a minimum, operate as critical locations for such institutions and socialization. Given this contention, we examine how gay neighborhoods are associated with drug use among gay men, both directly and through their impact on gay men's social networks.",
                        "The term \"gay ghetto\" remains problematic because many individuals residing in neighborhoods with concentrations of gay institutions are not gay. Furthermore, the term masks the freer agency that contemporary gays and lesbians have with regard to choice of residence, which is an outgrowth of the liberalization of attitudes on homosexuality in the United States (Loftus 2001). Yet, from the perspective of subcultural theory, increased concentrations of gay residents may contribute to a local culture of increased openness to gay social practices and beliefs. This environment can contribute positively to the quality of life of gay residents by facilitating freedom in better realizing, experiencing, and ultimately expressing their identity in healthy ways, while avoiding discrimination and the need to keep certain beliefs and practices \"closeted.\" This element of protection allows for a place where gay men can visibly display their gay identity, avoid having to justify themselves to others, and develop romantic and platonic relationships without fear (Levay and Nonas 1995). Furthermore, by living in such communities, gay men can share stories and experiences and, in turn, create solidarity, which allows for the development of a collective history, social support, and trust--all of which have implications for the creation and maintenance of norms and behavior.",
                        "This subcultural theoretical perspective gives rise to two contrasting situations and hypotheses. First, it can be conjectured that, via subculturally established norms, gay neighborhoods can foster a local culture that promotes or facilitates certain behaviors among its residents. In the case of drugs, the \"safe space\" culture of a gay neighborhood may provide a protective environment that buffers the impact of social anomie of gay residents who may have used drugs to cope with stigmatization experienced elsewhere. In this regard, it may serve to reduce minority stress and adverse coping accompanying such stress (Meyer 1995). Also, given that gay neighborhoods are often locations targeted for public health initiatives, health promotion campaigns and interventions focused on gay men's health issues may discourage illicit drug use. We term this the \"gay neighborhood as health promoter hypothesis.\"",
                        "A second conjecture is that the institutionalization of certain subcultural norms within the neighborhood may promote unhealthy activities (Carpiano 2008; Portes 1998), such as a drug subculture (Green 2003; Mattison et al. 2001). In this regard, the circulation of these norms within the neighborhood may support a subculture of permissiveness, which may enable and reinforce unhealthy behaviors. Gay men who reside in gay neighborhoods--particularly those neighborhoods with high concentrations of gay nightlife venues--may be at greater risk for immersing themselves in a subculture that promotes drug use, given that they may also be isolated from countervailing social norms. In addition, the concentration of such individuals in such a neighborhood may enable a pooling of problematic resources to occur, facilitating the availability of drugs, and thus heightening, for all in the neighborhood, the exposure opportunity to use drugs. We term these potential harmful neighborhood effects the \"gay neighborhood drug subculture hypothesis.\""
                    ]
                },
                {
                    "title": "Neighborhood Effects on Health",
                    "paragraphs": [
                        "It is important to recognize that gay communities should not be viewed solely in terms of geographic community, particularly in light of the reported decline of gay neighborhoods (Rosser et al. 2008) and their contested importance in the experience of \"gay community\" for many urban gay men (Woolwine 2000). Community is best understood as an experience rather than a place and as such depends upon networks of social relations marked by the experience of mutual recognition, obligation, and interaction, not simply by territory. Thus, a sense of gay community may not be organized primarily within neighborhoods; gay community may be less spatially bounded and overlap with or negate the role of geographic community. One such form of gay community involves face-to-face interactions beyond neighborhood relations that include friends and others similar to oneself (Woolwine 2000). This conception of community warrants looking beyond neighborhoods to consider the social networks of gay men, both in terms of diversity and intensity of interaction with network members."
                    ]
                },
                {
                    "title": "Neighborhood Effects on Health",
                    "paragraphs": [
                        "The diversity and intensity of a person's social ties pose important implications for socialization, access to resources, and personal actions (Degenne and Forse 1999), due to the patterning of the network and obligations built into the network. As Adams and Allan (1998:8) argue, \"The structural characteristics of the networks in which people are embedded become part of the context of their interactions.\" Thus, context is deeply rooted in the manner in which networks of social relations are composed.",
                        "Friendships have been recognized as an important part of gay men's psychological and social development (Nardi 1999). Woolwine (2000) found that friendships with other gay men were a major way in which community was experienced. As such, considerations of community among gay men must account for the networks of social relations in which they are embedded, which may shape health behaviors as well.",
                        "The role of social networks in gay men's health has been examined since the start of the AIDS epidemic, but these studies have primarily focused on sexual behavior. Studies of men who have sex with men reveal that individuals with strong social ties to the gay community tend to engage in safer sexual practices and have higher social support for discussing sexual matters (O'Donnell et al. 2002). Yet O'Donnell and colleagues (2002) argue that a gay network can be a \"two-edged sword\" when it comes to unsafe sexual practices: Access to a gay network may reinforce norms about healthy behaviors, but it may also introduce gay men to social relationships that diminish their ability to successfully negotiate healthy behaviors--essentially, constituting \"downsides\" of social capital where embeddedness in networks can present constraints and norms of conformity that can lead to undesirable outcomes (Portes 1998).",
                        "We contend that this argument has relevance for studying drug use as well. Prior research has shown that the odds of ecstasy use were 2.5 times higher among men who have sex with men who reported that more than half of their friends were gay or bisexual (Klitzman et al. 2002). Yet, moving beyond the presence or absence of such ties, it is also important to account for the composition of social networks, given that patterns of social interaction are typically neither random nor equal among all network members. Hence, in studying the role of gay men's social networks, we examine not simply the presence of gay social ties but instead the breadth and depth of ties via (1) the diversity of social ties and (2) the intensity of socialization with gay men.",
                        "Our consideration of network features is informed by Granovetter's work on embeddedness and action. Granovetter (1985:487) argued that rather than conceptualizing actors as either atomized individuals abstracted from context or \"oversocialized\" automatons whose actions are solely determined by structure, research should recognize that \"attempts at purposive action are instead embedded in concrete, ongoing systems of social relations.\" Granovetter's argument, concerned with economic actions, has relevance for understanding drug use, since peer culture and embeddedness have been linked to substance use (Granfield and Cloud 2001). McCarthy and Hagan (1995) have noted the parallels between Granovetter's assertions and the theory of differential association (Sutherland and Cressey 1994), which proposes that behaviors such as drug use are learned in interactions within intimate personal groups and in contexts where the behavior is defined more favorably than unfavorably. Prior empirical tests of differential association theory have found strong evidence for its utility in explaining drug use (MacDonald 1989). Both of these theoretical orientations situate personal drug use within the context of network socialization, forcing the need to examine the characteristics of individuals' social networks.",
                        "With respect to network diversity, we hypothesize that a more restricted range of network ties poses greater risk for drug use. As noted by McPherson, Smith-Lovin, and Cook (2001:415), \"Homophily limits people's social worlds in a way that has powerful implications for the information they receive, the attitudes they form, and the interactions they experience.\" Thus, having predominantly gay social ties means that one is exposed to a more limited range of norms than someone with a more diverse network (i.e., one also composed of lesbians and heterosexuals). While such a homophilous network is not necessarily bad, it may have significant implications for gay men, given their high prevalence of substance use. As noted above, higher odds of ecstasy use were observed among men who have sex with men reporting that a majority of friends were gay or bisexual (Klitzman et al. 2002). In light of these perspectives, we conjecture that gay men with homophilous networks--networks composed predominantly of gay men, or \"gaycentric networks\"--are associated with higher likelihood of drug use than those with more diverse networks.",
                        "The more intensely one is embedded in a subculture, the more likely one may engage in behaviors normative to that subculture, regardless of the overall proportion of one's social ties linked to that subculture. As argued by Green (2003), drug use or abstention occurs as gay men conform to the subcultures in which they are embedded. Hence, we conjecture that increased socialization with gay men will present greater exposure to the risk of drug use."
                    ]
                },
                {
                    "title": "Neighborhood Effects on Health",
                    "paragraphs": [
                        "Theorizing about gay community and drug use also necessitates asking the question: How might gay neighborhoods and social networks overlap in their association with drug use? Prior research has shown that neighborhoods play an important role in shaping social networks (Small 2007) and that neighborhood-based networks influence individual residents' health (Carpiano 2007, 2008). Yet little quantitative neighborhood health effects research specifically examines neighborhood factors in tandem with the actual social network compositions of residents or considers how social network factors may mediate the relationship between neighborhood and health outcomes. This approach is distinct from the common approach in neighborhood social capital and health research, which assesses residents' ratings of the quality of social ties in the neighborhood as a contextual feature of that neighborhood (e.g., Browning and Cagney 2002; Carpiano 2007).",
                        "If gay neighborhoods are characterized by compositional and cultural features specific to gay life, then, from the perspective of subcultural theory, such neighborhoods should matter for the formation of the social networks of those who live there--social networks that prior literature has found to be associated with drug use. We evaluate the validity of this argument by testing the mediating roles of social network form and intensity for the associations between gay neighborhoods and drug use.",
                        "The mediation analyses will give rise to evidence that can support one of two explanations. First, if evidence for mediation is found, it would be consistent with the hypothesis that gay neighborhoods remain an important influence on the sociability of gay men even though residents may also be members of non-neighborhood networks. In this regard, we can assert that neighborhoods influence drug use by shaping social network composition. Second, if evidence for mediation is not present, but the possession of a gay-centric network or intensity of socialization with gay men are associated with drug use, then such findings would indicate that networks are significant influences of drug use regardless of residence."
                    ]
                }
            ]
        },
        {
            "title": "Study Hypotheses",
            "subsections": [
                {
                    "title": "Neighborhood Hypotheses",
                    "paragraphs": [
                        "Hypothesis 1a (gay neighborhood as health promoter hypothesis): Gay enclaves will be associated with lower odds of drug use.",
                        "Hypothesis 1b (gay neighborhood drug subculture hypothesis): Gay enclaves will be associated with higher odds of drug use."
                    ]
                },
                {
                    "title": "Neighborhood Hypotheses",
                    "paragraphs": [
                        "Hypothesis 2 (social network diversity hypothesis): Gay men who have a network composed predominantly of gay men will have higher odds of drug use compared to gay men with more diverse networks.",
                        "Hypothesis 3 (intensity of socialization hypothesis): Increased socialization with gay men will be associated with higher odds of drug use."
                    ]
                },
                {
                    "title": "Neighborhood Hypotheses",
                    "paragraphs": [
                        "Hypothesis 4a: Possession of a gay-centric network will mediate the association between gay enclaves and drug use.",
                        "Hypothesis 4b: Increased socialization with gay men will mediate the association between gay enclaves and drug use."
                    ]
                }
            ]
        },
        {
            "title": "Method",
            "subsections": [
                {
                    "title": "Data Set",
                    "paragraphs": [
                        "To test these hypotheses, we use data from the Sex and Love (SnL) survey, which was collected at two large gay lifestyle-themed events held in New York City in 2005. The events were expos at which information about community services as well as gay-themed products were on exhibit by both community-based organizations and for-profit companies in an effort to target members of the gay, lesbian, and bisexual (GLB) community. Thus, these events were neither gay pride events nor events at gay bars and clubs, which enabled the assessment of a broad cross-section of the GLB community. Entrance required paid admission, but discount passes were widely available and free admission passes were provided to GLB- and HIV-related community organizations. This approach has been used in numerous studies, including those focused on GLB persons (Benotsch et al. 2002), and research has shown that it provides data comparable to those obtained from other approaches (Halkitis and Parsons 2002). The SnL survey was not designed for the purpose of the present study, but the breadth of information collected and sample size make it a novel data set for testing our hypotheses.",
                        "The survey took approximately 15 minutes to complete. Individuals were invited by a research assistant to complete the self-administered survey, which contained items concerning perceptions of GLB life, the GLB community, and health issues. Those who agreed to participate were given a pencil and a survey on a clipboard, and they were encouraged to move to nearby seating areas for privacy. A movie pass was provided as an incentive."
                    ]
                },
                {
                    "title": "Data Set",
                    "paragraphs": [
                        "Due to the survey being administered at New York City events, we limited our analysis to respondents based on two criteria: sexual identity and geographic proximity to such events. First, we excluded men who identified as \"bisexual\" or \"straight.\" Second, all respondents lived in the five boroughs of New York City or nearby New Jersey areas served by the Port Authority Trans-Hudson (PATH) train routes. We included residents of these PATH areas because this service allows frequent, rapid, and inexpensive passage to New York. Even though these respondents lived outside of New York City, they can easily access the city and take full advantage of gay events and organizations. This access is unique compared with that afforded residents of other suburbs. Of the 843 respondents who fit these two criteria, 740 (87.8 percent) had complete information on measures required for our analyses and thus comprise our final analytic sample, which includes men from 136 distinct zip codes (ranging from 1 to 79 respondents per zip code, with an average of 5.4)."
                    ]
                },
                {
                    "title": "Data Set",
                    "paragraphs": [
                        "Our dependent variables concerning drug use were obtained from questions asking whether a respondent had used the following drugs during the past three months: ecstasy, methamphetamine, cocaine, marijuana, and poppers. In addition, we evaluated polydrug use by creating a dependent variable concerning whether a respondent used any two or more of these drugs in the past 30 days. Each of these variables was coded dichotomously (1 = yes and 0 = no). Table 1 presents the reported prevalence of each drug."
                    ]
                },
                {
                    "title": "Data Set",
                    "paragraphs": [
                        "To test our hypotheses, we operationalized gay community constructs using neighborhood- and respondent-specific variables.",
                        "The survey obtained information on respondents' zip codes. Therefore, our neighborhood measures are assessed at the zip code level using census data (U.S. Census Bureau 2010). The size of geographic areas associated with zip codes allows for the zip code to approximate local neighborhood areas.",
                        "We assessed gay neighborhoods in two ways: local knowledge obtained via ethnographic social mapping and census data.",
                        "Gay enclave is a dichotomous item coded 1 if the zip code was part of a gay enclave and 0 if it was not. The first and second authors coded the zip codes in the analytic sample as being a \"gay enclave\" based on the analysis of census data as well as on ethnographic social mapping focused on the gay population. Ethnographic social mapping, through the use of participant observation, can be used to delineate patterns of socializing and thus create a \"social map\" (Clatts, Davis, and Atillasoy 1995). Given our concern for visible gay life in identifying gay enclaves, the development of social maps included the identification of gay social venues. Participant observation by the second author documented clusters of gay venues forming the basis of social maps of visible gay life. These social maps were confirmed via systematic content analysis of gay institutions documented in two citywide gay publications. Factors that led to a zip code being coded as a gay enclave included the presence of multiple gay institutions. An isolated gay institution was insufficient to indicate a gay enclave.",
                        "In addition to social mapping, we measured gay residential concentration using a census-derived measure of the percentage of male same-sex households in a neighborhood. Using both forms of data, we identified locations as gay enclaves. To be clear, many gay men live in nongay neighborhoods, but such locations do not have the visible gay institutions or historically identifiable gay spaces that gay enclaves do. For example, Manhattan has several areas that have been historically and culturally gay enclaves (e.g., the West Village, Chelsea). Conversely, none of the zip codes included in our sample from the Bronx have similar histories. The point biserial correlation between gay enclave and male same-sex households was .493. Separate analyses using the enclave and census measures yielded similar results. In light of this, we present the findings for models using the gay enclave variable.",
                        "Based on prior neighborhood effects research, we included measures of concentrated affluence/disadvantage and residential stability to control for other socioeconomic, cultural, and demographic processes.",
                        "To assess the relative concentrations of poverty and affluence, we included the Index of Concentration at the Extremes (ICE; Casciano and Massey 2008), calculated as the number of households living in affluence (more than $60,000) minus the number of poor households (below the official poverty level), divided by the total number of households. The ICE can range from -1 (all households having incomes at or below the poverty level) to +1 (all households having incomes greater than or equal to $60,000), with .0 indicating a balance of affluent and disadvantaged households. Due to the census data income categories, we used the cutoff of $19,999 to approximate the poverty level. The ICE enables us to use a single indicator to account for both concentrated poverty and affluence--two neighborhood socioeconomic constructs hypothesized to have differing implications for various outcomes but which are often highly correlated, thus problematizing the assessment of their respective influences (Carpiano, Lloyd, and Hertzman 2009).",
                        "We also assessed residential stability using a census-derived measure: the percentage of residents who lived in the neighborhood for at least five years."
                    ]
                },
                {
                    "title": "Data Set",
                    "paragraphs": [
                        "We assessed two aspects of social networks. Socializes with gay men was measured with a single item asking respondents the degree to which they socialize with gay men. This item was assessed using a four-point scale ranging from 0 = never to 3 = always.",
                        "Respondents' social network composition was calculated using a composite item created from four variables similar to the above variable, but for socialization with lesbians, bisexuals, and heterosexuals in addition to gay men. The response scales for these four items were collapsed into four binary categories of 0 = never/sometimes and 1 = frequently/always. Using these variables, we coded each respondent's network composition by whether one had a gay-centric network (i.e., socializes frequently/always with only gay men) or another network type (e.g., socializes frequently/always with other groups as well). Sensitivity analyses revealed similar results regardless of whether respondents who did not have a gay-centric network reported socializing with all four groups or any combination of the groups. Thus, we coded social network composition as 1 = gay-centric or 0 = other network type. Even though our two network variables use a similar measure, their point biserial correlation (rpb = .089) indicates that they capture two different--yet overlapping--aspects of social networks: intensity and range of network ties.",
                        "Our models also included control variables for perceived attachment to the gay community as well as respondent-level sociodemographic factors. Given that our sample was recruited from gay-themed events, which could present biases by including respondents who are more likely to be involved in the gay community, we controlled for perceived attachment to the gay community using a three-item scale asking respondents the degree to which they perceived themselves on a four-point scale (1 = strongly disagree to 4 = strongly agree) as (1) having a \"strong sense of belonging to the GLB community,\" (2) having \"a lot of pride in the GLB community,\" and (3) feeling \"a strong sense of attachment towards the GLB community.\" Cronbach's alpha for this scale was .90, indicating high internal reliability.",
                        "Age was coded as three categorical variables: 18-30 (referent in regression models), 31-40, and 41 or older. Education was coded as a binary variable: 0 = less than a bachelor's degree or 1= bachelor's degree or higher = 1. Income was a binary variable indicating less than $60,000 income (coded 0) or $60,000 or more (coded 1). Race-ethnicity was measured using dummy variables for black, Latino, and other race-ethnicity, with white as the referent category. We also controlled for relationship status (0 = single and 1 = partnered), self-reported HIV status (0 = negative/unknown and 1 = positive), and data collection site. The descriptive statistics are detailed in Table 1."
                    ]
                },
                {
                    "title": "Data Set",
                    "paragraphs": [
                        "Based on the nested structure of the data and our multilevel theoretical rationale, we analyzed the data using binary logistic and linear multilevel (random intercept) regression models in HLM version 6.08 (Raudenbush et al. 2004). A random intercept model is one of the most basic forms of multilevel models in that it specifies only the intercept to vary across neighborhoods and thus includes a single random effect in addition to fixed effects for all model parameters (Luke 2004; Snijders and Bosker 1999). Given that our sample includes individuals nested within neighborhoods, we specified a two-level model for each outcome, whereby respondent-level variables are specified at level 1 and neighborhood-level variables are specified at level 2. For each logistic regression model, we report the odds ratios (OR) and 95 percent confidence intervals; for each linear model, we report the unstandardized slopes and standard errors. Relationships with a p-value <= .05 are reported as statistically significant.",
                        "Our test for mediation entails a three-step process outlined by Baron and Kenny (1986) and Kenny (2010). In step 1, we assess the direct association between gay enclave and drug use in a model that does not include social network factors. In step 2, we introduce social network factors into the previous model to determine the degree to which the relationship between gay enclave and the drug outcome changes. In step 3, we assess the direct association between the mediating social network factors and gay enclave by regressing each mediator on gay enclave. If mediation is present, not only should the association between gay enclave and a drug use outcome be completely or partially reduced in magnitude when a social network variable is entered into the model, but also gay enclave should be correlated with that social network variable. Interpretation of mediation is based on the magnitude of observed coefficients in each step and not simply statistical significance (Kenny 2010)."
                    ]
                }
            ]
        },
        {
            "title": "Results",
            "subsections": [
                {
                    "title": "Neighborhood and Network Characteristics",
                    "paragraphs": [
                        "Table 2 presents the results for tests of the hypotheses regarding (1) gay enclaves and (2) social network characteristics. For each of the six drug use outcomes, the results for five models are shown: Model 1 shows the association for gay enclave; model 2 introduces controls for neighborhood concentrated disadvantage/affluence and residential stability; models 3 and 4 introduce separately the two social network variables; and model 5 includes all neighborhood and network variables. Each model controls for respondents' perceived attachment to the gay community, sociodemographic characteristics, and site of data collection.",
                        "Gay enclave residence is directly associated with the use of methamphetamine and ecstasy. For methamphetamine, living in a gay neighborhood has in model 1 an odds ratio of 3.93, indicating that it is significantly associated with a 293 percent ([3.93 - 1.00] x 100) increase in the odds of use during the past three months. This initial association increases by nearly 17 percent after controlling for the other neighborhood variables in model 2, but in models 3 and 4, gay enclave demonstrates little change in magnitude from the model 2 estimate when the gay-centric networks measure is introduced in model 3 and when the socializes with gay men measure is introduced in model 4. When both social network variables are included in the final model (model 5), the net change in the estimate for gay enclave from the initial model is approximately 10 percent.",
                        "A similar pattern emerges for ecstasy; the initial estimate for gay neighborhood (OR = 2.41) increases by more than 16 percent after controlling for other neighborhood confounders (OR = 2.79). However, after controlling for both network factors in model 5, the estimate for gay enclave (OR = 2.41) is consistent with the model 1 estimate.",
                        "Network factors were more consistently associated with drug use, with one or both factors showing significant associations with all outcomes other than marijuana use. In the final models (model 5), having a gay-centric network was associated with a 521 percent and 169 percent increase in the respective odds of methamphetamine and polydrug use. The measure socializes with gay men was found to be positively associated with four of six outcomes (cocaine, ecstasy, poppers, and polydrug use) once controlling for gay-centric network, with odds ratios ranging in magnitude from 1.55 (poppers) to 2.26 (ecstasy) in the final models (model 5)."
                    ]
                },
                {
                    "title": "Neighborhood and Network Characteristics",
                    "paragraphs": [
                        "Table 3 shows the results for models that regress the social network factors on gay enclave (model 1), all neighborhood variables (model 2), and all neighborhood variables and social network variables (model 3). Each model controls for perceived attachment to the gay community, sociodemographic factors, and site of data collection.",
                        "The positive association between gay-centric network and gay neighborhood in model 1 (OR = 2.14) is reduced to 1.94 in model 2 after controlling for other neighborhood confounders, and it loses statistical significance. Model 3 introduces the measure socializes with gay men, for which the estimate (OR = 1.66) approaches, but does not achieve, statistical significance.",
                        "For socializes with gay men, models 1 through 3 indicate that it is not significantly associated with gay enclave. Furthermore, model 3 indicates that having a gay-centric network is not significantly associated with the level of socialization, and the coefficient for gay enclave remains relatively the same as the model 1 estimate.",
                        "In light of these findings, both gay-centric networks and intensity of socialization with gay men are only associated with drug use directly: They do not mediate the association between gay neighborhoods and drug use. The latter assessment is based on three criteria (Baron and Kenny 1986; Kenny 2010). Even though each social network variable is directly associated with one or more drug use outcomes, the results in Table 2 (models 3-5) indicate that both network factors have little respective contributions to altering the magnitude of association between living in a gay enclave and the drug outcomes. Furthermore, as detailed in Table 3, neither network variable is significantly associated in multivariate models with either each other or the measure for residence in a gay enclave. Collectively, this evidence suggests that the networks factors are not mediating the association between gay enclaves and drug use outcomes."
                    ]
                }
            ]
        },
        {
            "title": "Discussion",
            "subsections": [
                {
                    "title": "Theory",
                    "paragraphs": [
                        "Our findings lend some evidence to the \"gay neighborhood drug subculture hypothesis,\" wherein residence in gay neighborhoods would be associated with greater risk for drug use due to the institutionalization of subcultural norms that may promote unhealthy activities. This idea of a subculture of gay men's health risks has been documented in prior studies (e.g., Green 2003; Mattison et al. 2001), but the role of neighborhood environment has received limited explicit attention. Whereas Green (2003:440) highlighted nightclubs as important institutions for facilitating drug use, our findings suggest that gay neighborhoods also serve to facilitate such behavior by serving as \"launch pads\" for gay life--aspects of which, similar to any other subculture or collective lifestyle (Cockerham 2007; Frohlich, Corin, and Potvin 2001), may be health-risky. It is noteworthy that ecstasy and methamphetamine (incidentally, the two drugs with the lowest prevalence of use in our sample) are the drugs associated with gay enclave residence. These drugs are explicitly tied to the club drug phenomenon (Green 2003; Kelly et al. 2006), and a significant concentration of gay dance clubs are found in gay enclaves. Indeed, these venues comprise a noteworthy proportion of visible gay establishments that define such neighborhoods as gay enclaves. The concentration of such venues may serve as a means of residentially pooling men more involved in club cultures and the drug practices associated with them--that is, some men may gravitate to enclaves because of their proximity to gay clubs. In other instances, some men may move to gay enclaves for other reasons yet routinely experience the norms and ethos of the club subcultures by virtue of their proximity.",
                        "The network characteristics of having a gay-centric network and more intense levels of socialization with gay men were more commonly associated with drug use. For network diversity, we hypothesized that gay men with gay-centric networks would have a higher likelihood of drug use (due to a more limited range of norms) than gay men with more diverse networks. The evidence supporting this hypothesis was limited to methamphetamine and polydrug use. In other words, those with limited networks were enabled in the use of methamphetamine--a stigmatized drug but one used as a sexual facilitator by gay men (Nanin and Parsons 2006)--and the combination of drugs. Conversely, those with diverse networks may be further inhibited against methamphetamine use by norms stigmatizing methamphetamine use among these other network groups.",
                        "For level of socialization with gay men, we hypothesized that the more intensely one is embedded in a subculture, the more likely one will engage in subculturally normative behaviors, regardless of the overall proportion of social ties that are part of that subculture. Our findings provided strong evidence supporting this hypothesis: Higher levels of socialization with gay men were associated with higher odds of using ecstasy, cocaine, and poppers, as well as polydrug use. These findings are consistent with arguments that drug use occurs as gay men conform to the subcultures in which they are embedded (Green 2003).",
                        "In addition to the direct associations of gay neighborhoods and social networks with drug use, we assessed potential indirect relationships. Our findings suggest that network factors do not mediate the association between gay neighborhoods and drug use. Living in a gay neighborhood is directly associated with use of methamphetamine and ecstasy. Hence, this serves as evidence that, despite discussion of their declining significance, gay neighborhoods still play some role in shaping the lives of gay men who live in these locations. Nevertheless, neither social network factor--possessing a gay-centric network, which was associated with methamphetamine and polydrug use, and level of socialization with gay men, which was associated with several drugs--was associated with gay neighborhood residence. These findings are logical in light of the increasing role of the Internet and other nongeographic gay community forums for meeting gay men for friendship, sex, and other activities (Rosser et al. 2008; Woolwine 2000). Collectively, these findings offer support for both neighborhood- and network-driven community influences on drug use."
                    ]
                },
                {
                    "title": "Theory",
                    "paragraphs": [
                        "In terms of our theoretical framework, our analysis is able to examine the association between neighborhood factors and individual drug use, but it is unable to examine (1) cultural aspects of the network characteristics we studied and (2) neighborhood versus non-neighborhood social ties. Ideally, such information would have provided useful insight regarding potential mechanisms, but as noted above, few studies have even examined whether gay neighborhoods are associated with individual health. This study, therefore, is an important initial step into examining the role of neighborhood community for drug use and gay men's health in general.",
                        "In terms of methodology, it is important to note several issues. First, the data were self-reported. Though efforts were made to provide quiet, secure spaces, the survey was completed at a public event, which may have enabled socially desirable responses. Second, the self-report nature may also lead to recall biases with regard to recollection of drug use behaviors. However, drug use was assessed during a recent time period (past three months), which limited the potential for recall bias. Third, the data collection took place at public events and thus occurred through methods other than random sampling. Therefore, in terms of external validity, the data may not fully generalize to the urban gay population as a whole, particularly to men who do not participate in GLB-themed events. Yet these events collectively attract a broad cross-section of the GLB community. With respect to internal validity, we statistically controlled for the potential confounding influence of attachment to the gay community, a bias that could be introduced via sampling individuals from GLB-themed events. Overall, we observed an equivalent pattern of findings from models with and without perceived gay community attachment, thereby increasing our confidence that our results are not attributable to sampling bias. Fourth, the cross-sectional nature of our data raises the issue of selection factors into gay enclaves versus other neighborhoods that may account for the limited enclave effects we observed. While we found that gay enclaves were associated with only two drug use outcomes, we also found no evidence for mediation, which limits the ability to argue that our observed enclave effects are simply due to network factors. Finally, supplemental multivariate analyses (not shown here) revealed that none of the individual-level variables examined in this study were associated with a respondent living in a gay enclave. Thus, while the data do not allow us to completely rule out selection factors, when considered collectively, these findings give us greater confidence that the gay enclave effects we did find are not simply attributable to personal factors that differentially select individuals into gay enclaves versus other neighborhoods.",
                        "Despite these limitations, our study extends research in the areas of gay men's health and neighborhood health effects in several ways. First, we utilized a multilevel conceptual approach (motivated by theoretical ideas in community sociology) to consider the influence of gay neighborhoods on individuals' use of drugs. Second, we improved upon the small body of prior neighborhood effects research on gay health issues by relying on social mapping in addition to census data to better understand the dynamics of gay neighborhoods. Third, we improved upon prior research of gay men's social networks by examining both the intensity and diversity of social network interactions for individual drug use. Fourth, we examined the interplay of neighborhood and social networks, something that is often overlooked in the literature on neighborhood effects."
                    ]
                },
                {
                    "title": "Theory",
                    "paragraphs": [
                        "In light of these findings and the paucity of neighborhood effects research using data from gay communities, we suggest several directions for future research. First, given that drug use has implications for sexual activity, future studies should consider examining these health behaviors individually and in tandem (i.e., \"Party and Play,\" the use of drugs while having sex).",
                        "Second, similar to existing research on neighborhood social capital and health, using ecometric techniques (Raudenbush and Sampson 1999) or noncensus data (Cummins et al. 2005) to assess features of the neighborhood environment can provide better insight as to why neighborhoods may be associated with certain health outcomes for gay men. Census measures are certainly helpful in this regard, but they have their limitations in adequately capturing aspects of the local community culture.",
                        "Third, given the strong associations found for network factors, future studies of gay men's health need to incorporate more extensive measures of network ties, including not only indicators of the intensity of socialization with specific groups but also indicators of the proportion of one's ties who are members of those groups. Such measures can better assess the roles of various \"strong\" and \"weak\" ties (Granovetter 1973) for health issues. Likewise, the use of ego-centered network methods and life history interviews for assessing the social ties of those who use specific drugs can help illuminate how networks may facilitate or prevent drug use, providing insights into whether any observed association is attributable to processes of selection (i.e., when drug users seek out and socialize with other drug users) or assimilation (when peer influence leads to drug use).",
                        "In conclusion, this study highlights the importance of recognizing that two types of community contexts--gay neighborhoods and social networks--have implications for the health of gay men. Therefore, in order to better understand--and intervene upon--the processes underlying the health risks faced by this vulnerable population, it is necessary to contextualize these risks. As such, it remains imperative to move beyond a focus on the individual-level factors in their lives and consider the role of the social contexts in which their health-related decisions and actions take place."
                    ]
                }
            ]
        }
    ],
    "references": [
        "Adams, Rebecca G., Allan, Graham. 1998. \u201cContextualizing Friendship.\u201d Pp. 1\u201317 in Placing Friendship in Context, edited by Adams, R. G., Allan, G. Cambridge, England: Cambridge University Press.",
        "Baron, Reuben M., Kenny, David A. 1986. \u201cThe Moderator\u2013Mediator Variable Distinction in Social Psychological Research: Conceptual, Strategic, and Statistical Considerations.\u201d Journal of Personality and Social Psychology 51:1173\u201382.",
        "Benotsch, Eric G., Kalichman, Seth, Cage, Maggi. 2002. \u201cMen Who Have Met Sex Partners via the Internet: Prevalence, Predictors, and Implications for HIV Prevention.\u201d Archives of Sexual Behavior 31:177\u201383.",
        "Binnie, Jon, Valentine, Gill. 1999. \u201cGeographies of Sexuality\u2014A Review of Progress.\u201d Progress in Human Geography 23:175\u201387.",
        "Black, Dan, Gates, Gary, Sanders, Seth, Taylor, Lowell. 2000. \u201cDemographics of the Gay and Lesbian Population in the United States: Evidence from Available Systematic Data Sources.\u201d Demography 37:139\u201354.",
        "Boardman, Jason D. 2004. \u201cStress and Physical Health: The Role of Neighborhoods as Mediating and Moderating Mechanisms.\u201d Social Science and Medicine 58:2473\u201383.",
        "Browning, Christopher R., Cagney, Katherine. 2002. \u201cNeighborhood Structural Disadvantage, Collective Efficacy, and Self-Rated Physical Health in an Urban Setting.\u201d Journal of Health and Social Behavior 43:383\u201399.",
        "Carpiano, Richard M. 2007. \u201cNeighborhood Social Capital and Adult Health: An Empirical Test of a Bourdieu-Based Model.\u201d Health and Place 13:639\u201355.",
        "Carpiano, Richard M. 2008. \u201cActual or Potential Neighborhood Resources and Access to Them: Testing Hypotheses of Social Capital for the Health of Female Caregivers.\u201d Social Science and Medicine 67:568\u201382.",
        "Carpiano, Richard M., Lloyd, Jennifer E. V., Hertzman, Clyde. 2009. \u201cConcentrated Affluence, Concentrated Disadvantage, and Children\u2019s Readiness for School: A Population-Based, Multi-Level Investigation.\u201d Social Science and Medicine 69:420\u201332.",
        "Casciano, Rebecca, Massey, Douglas S. 2008. \u201cNeighborhoods, Employment, and Welfare Use: Assessing the Influence of Neighborhood Socioeconomic Composition.\u201d Social Science Research 37:544\u201358.",
        "Clatts, Michael C., Davis, W. Rees, Atillasoy, Aylin. 1995. \u201cHitting a Moving Target: The Use of Ethnographic Methods in the Development of Sampling Strategies for the Evaluation of AIDS Outreach Programs for Homeless Youth in New York City.\u201d National Institute on Drug Abuse Research Monograph 157:117\u201335.",
        "Cockerham, William C. 2007. Social Causes of Health and Disease. Malden, MA: Polity Press.",
        "Crosby, G. Michael, Stall, Ron D., Paul, Jay P., Barrett, Donald C. 1998. \u201cAlcohol and Drug Use Patterns Have Declined between Generations of Younger Gay-Bisexual Men in San Francisco.\u201d Drug and Alcohol Dependence 52:177\u201382.",
        "Cummins, Steven, Macintyre, Sally, Davidson, Sharon, Ellaway, Anne. 2005. \u201cA Methodology for Measuring Neighbourhood Social and Material Context: Generation and Interpretation Using Routine and Non-Routine Data.\u201d Health and Place 11:249\u201360.",
        "Degenne, Alain, Forse, Michel. 1999. Introducing Social Networks. Thousand Oaks, CA: Sage.",
        "Fischer, Claude S. 1975. \u201cToward a Subcultural Theory of Urbanism.\u201d American Journal of Sociology 80:1319\u201341.",
        "Fischer, Claude S. 1984. The Urban Experience. 2nd ed. New York: Harcourt Brace Jovanovich.",
        "Fischer, Claude S. 1995. \u201cThe Subcultural Theory of Urbanism: A Twentieth-Year Assessment.\u201d American Journal of Sociology 101:543\u201377.",
        "Frohlich, Katherine L., Corin, Ellen, Potvin, Louise. 2001. \u201cA Theoretical Proposal for the Relationship between Context and Disease.\u201d Sociology of Health and Illness 23:776\u201397.",
        "Frye, Victoria, Koblin, Beryl, Chin, John, Beard, John, Blaney, Shannon, Halkitis, Perry, Vlahov, David, Galea, Sandro. 2008. \u201cNeighborhood-Level Correlates of Consistent Condom Use among Men Who have Sex with Men: A Multi-Level Analysis.\u201d AIDS Behavior 14:974\u201385.",
        "Granfield, Robert, Cloud, William. 2001. \u201cSocial Context and \u2018Natural Recovery\u2019: The Role of Social Capital in the Resolution of Drug-Associated Problems.\u201d Substance Use and Misuse 36:1543\u201370.",
        "Granovetter, Mark S. 1973. \u201cThe Strength of Weak Ties.\u201d American Journal of Sociology 78:1360\u201380.",
        "Granovetter, Mark S. 1985. \u201cEconomic Action and Social Structure: The Problem of Embeddedness.\u201d American Journal of Sociology 91:481\u2013510.",
        "Green, Adam Isaiah. 2003. \u201c\u2018Chem Friendly\u2019: The Institutional Basis of \u2018Club-Drug\u2019 Use in a Sample of Urban Gay Men.\u201d Deviant Behavior 24:427\u201347.",
        "Halkitis, Perry N., Parsons, Jeffrey T. 2002. \u201cRecreational Drug Use and HIV-Risk Sexual Behavior among Men Frequenting Gay Social Venues.\u201d Journal of Gay and Lesbian Social Services 14(4):19\u201338.",
        "Kelly, Brian C., Parsons, Jeffrey T., Wells, Brooke E. 2006. \u201cPrevalence and Predictors of Club Drug Use among Club-Going Young Adults in New York City.\u201d Journal of Urban Health 83:884\u201395.",
        "Kenny, David A. 2010. \u201cMediation.\u201d Retrieved January 28, 2010 (http://davidakenny.net/cm/mediate.htm).",
        "Klitzman, Robert L., Greenberg, Jason D., Pollack, Lance M., Dolezal, Curtis. 2002. \u201cMDMA (\u2018Ecstasy\u2019) Use, and Its Association with High Risk Behaviors, Mental Health, and Other Factors among Gay/Bisexual Men in New York City.\u201d Drug and Alcohol Dependence 66:115\u201325.",
        "Latka, Mary, Koblin, Beryl, Halkitis, Perry, Putnam, Sara, Galea, Sandro, Vlahov, David, Frye, Victoria. 2006. \u201cThe Urban Environment and Sexual Risk Behavior among Men Who Have Sex with Men.\u201d Journal of Urban Health 83:308\u201324.",
        "Levay, Simon, Nonas, Elizabeth. 1995. City of Friends: A Portrait of the Gay and Lesbian Community in America. Cambridge, MA: MIT Press.",
        "Loftus, Jeni. 2001. \u201cAmerica\u2019s Liberalization in Attitudes toward Homosexuality, 1973 to 1998.\u201d American Sociological Review 66:762\u201382.",
        "Luke, Douglas A. 2004. Multilevel Modeling. Thousand Oaks, CA: Sage.",
        "MacDonald, Patrick T. 1989. \u201cCompeting Theoretical Explanations of Cocaine Use: Differential Association versus Control Theory.\u201d Journal of Contemporary Criminal Justice 5(2):73\u201388.",
        "Mansergh, Gordon, Colfax, Grant N., Marks, Gary, Rader, Melissa, Guzman, Robert, Buchbinder, Susan. 2001. \u201cThe Circuit Party Men\u2019s Health Survey: Findings and Implications for Gay and Bisexual Men.\u201d American Journal of Public Health 91:953\u201358.",
        "Mattison, Andrew M., Ross, Michael W., Wolfson, Tanya, Franklin, Donald HNRC Group. 2001. \u201cCircuit Party Attendance, Club Drug Use, and Unsafe Sex in Gay Men.\u201d Journal of Substance Abuse 13(1-2):119\u201326.",
        "McCarthy, Bill, Hagan, John. 1995. \u201cGetting into Street Crime: The Structure and Process of Criminal Embeddedness.\u201d Social Science Research, 24: 1, 63\u201395.",
        "McPherson, Miller, Smith-Lovin, Lynn, Cook, James M. 2001. \u201cBirds of a Feather: Homophily in Social Networks.\u201d Annual Review of Sociology 27:415\u201344.",
        "Meyer, Ilan H. 1995. \u201cMinority Stress and Mental Health in Gay Men.\u201d Journal of Health and Social Behavior 36:38\u201356.",
        "Moore, Spencer, Daniel, Mark, Gauvin, Lise, Dube, Laurette. 2009. \u201cNot All Social Capital Is Good Social Capital.\u201d Health and Place 15:1071\u201377.",
        "Nanin, Jose E., Parsons, Jeffrey T. 2006. \u201cClub Drug Use and Risky Sex among Gay and Bisexual Men in New York City.\u201d Journal of Gay and Lesbian Mental Health, 10:111\u201322.",
        "Nanin, Jose E., Parsons, Jeffrey T., Bimbi, David S., Grov, Christian, Brown, Justin T. 2006. \u201cCommunity Reactions to Campaigns Addressing Crystal Methamphetamine Use among Gay and Bisexual Men in New York City.\u201d Journal of Drug Education 36:297\u2013315.",
        "Nardi, Peter M. 1999. Gay Men\u2019s Friendships: Invincible Communities. Chicago: University of Chicago Press.",
        "O\u2019Donnell, Lydia, Agronick, Gail, San Doval, Alexi, Duran, Richard, Myint-U, Athi, Stueve, Ann. 2002. \u201cEthnic and Gay Community Attachments and Sexual Risk Behaviors among Urban Latino Young Men Who Have Sex with Men.\u201d AIDS Education and Prevention 14(6):457\u201371.",
        "Portes, Alejandro. 1998. \u201cSocial Capital: Its Origins and Applications in Modern Sociology.\u201d Annual Review of Sociology 24:1\u201324.",
        "Raudenbush, Stephen W., Bryk, Anthony, Fai Cheong, Yuk, Congdon, Richard. 2004. HLM 6: Hierarchical Linear and Nonlinear Modeling. Lincolnwood, IL: Scientific Software International.",
        "Raudenbush, Stephen W., Sampson, Robert J. 1999. \u201cEcometrics: Toward a Science of Assessing Ecological Settings, with Application to the Systematic Social Observations of Neighborhoods.\u201d Sociological Methodology 29:1\u201341.",
        "Robert, Stephanie A. 1999. \u201cSocioeconomic Position and Health: The Independent Contribution of Community Socioeconomic Context.\u201d Annual Review of Sociology 25:489\u2013516.",
        "Rosser, B. R. Simon, West, William, Reinmeyer, Richard. 2008. \u201cAre Gay Communities Dying or Just in Transition? Results from an International Consultation Examining Possible Structural Change in Gay Communities.\u201d AIDS Care 20:588\u201395.",
        "Skinner, William F., Otis, Melanie D. 1996. \u201cDrug and Alcohol Use among Lesbian and Gay People in a Southern U.S. Sample: Epidemiological, Comparative, and Methodological Findings from the Trilogy Project.\u201d Journal of Homosexuality 30:59\u201392.",
        "Small, Mario L. 2007. \u201cRacial Differences in Networks: Do Neighborhood Conditions Matter?\u201d Social Science Quarterly 88:320\u201343.",
        "Snijders, Tom A. B., Bosker, Roel J. 1999. Multilevel Analysis. Thousand Oaks, CA: Sage.",
        "Stall, Ron, Paul, Jay P., Greenwood, Greg, Pollack, Lance M., Bein, Edward, Crosby, G. Michael, Mills, Thomas C., Binson, Diane, Coates, Thomas J., Catania, Joseph A. 2001. \u201cAlcohol Use, Drug Use and Alcohol-Related Problems among Men Who Have Sex with Men: The Urban Men\u2019s Health Study.\u201d Addiction 96:1589\u20131601.",
        "Susser, Ida. 2002. The Castells Reader on Cities and Social Theory. Oxford, England: Blackwell.",
        "Sutherland, Edwin H., Cressey, Donald H. 1994. \u201cThe Theory of Differential Association.\u201d Pp. 188\u201395 in Theories of Deviance, 4th ed., edited by Traub, S. H., Little, C. B. Itasca, IL: F. E. Peacock.",
        "US Census Bureau. (2010). \u201cUS Census Bureau\u201d Website. Retrieved February 14, 2011 (http://www.census.gov).",
        "Weden, Margaret M., Carpiano, Richard M., Robert, Stephanie A. 2008. \u201cSubjective and Objective Neighborhood Characteristics and Adult Health.\u201d Social Science and Medicine 66:1256\u201370.",
        "Woolwine, David. 2000. \u201cCommunity in Gay Male Experience and Moral Discourse.\u201d Journal of Homosexuality 38(4):5\u201337."
    ],
    "title": "Community and Drug Use among Gay Men",
    "issue": "1",
    "volume": "52",
    "year": 2011,
    "issn": "0022-1465",
    "journal": "Journal of Health and Social Behavior",
    "authors": [
        "Richard M. Carpiano",
        " Brian C. Kelly",
        " Adam Easterbrook",
        " Jeffrey T. Parsons"
    ]
}