{
    "doi": "http://dx.doi.org/10.1177/0022146518757198",
    "abstract": "The literature on immigrant health has by and large focused on the relationship between acculturation (often measured by a shift in language use) and health outcomes, paying less attention to network processes and the implications of interethnic integration for long-term health. This study frames English-language use among immigrants in the United States as a reflection of bridging social capital that is indicative of social network diversity. Using longitudinal data on self-rated health and the incidence of chronic conditions from the New Immigrant Survey (2003, 2007), I examine the contemporaneous and longitudinal associations between interethnic social capital and health. The results show evidence for a positive long-term effect of linguistic integration on health status, but no cross-sectional associations were observed. Overall, these results highlight the possible role of network processes in linking English-language use with immigrant health and the time-dependent nature of the relationship between linguistic integration and health status.",
    "sections": [
        {
            "title": "Introduction",
            "subsections": [
                {
                    "title": null,
                    "paragraphs": [
                        "As the demographic significance of immigration continues in the United States, immigrant health has received increasing scholarly attention. Prior research has examined various health outcomes for the immigrant population, such as self-rated health (e.g., Chiswick, Lee, and Miller 2008), healthcare utilization (Akresh 2009), obesity (e.g., Cawley, Han, and Norton 2009), cancer and coronary heart disease (e.g., Kasl and Berkman 1983), and the incidence of chronic health conditions (e.g., McDonald and Kennedy 2004). This literature suggests a healthy-immigrant effect and a postmigration decline in health that has mainly been attributed to acculturation, which is often measured using proxy indicators, such as length of residence in the United States and English-language use. Being the most widely used measure of acculturation, language acculturation in particular has received a lot of attention. However, the mechanisms that link acculturation, and in particular English-language use, and health outcomes are poorly understood.",
                        "While prior studies of the relationship between English-language use and health outcomes largely attribute this association to acculturative processes (Amaro et al. 1990; Deyo et al. 1985; Salinas and Sheffield 2011; Shelley et al. 2004; Trinidad et al. 2006), some suggest the possible role of social networks in mediating the link between English-language use and health behaviors (e.g., Unger et al. 2000). However, it is still unclear to what extent the association between English-language use and health outcomes can be attributed to social network mechanisms and language-based social capital, particularly the role of interethnic connectedness. In addition, most studies focus on English-language use in one social setting, namely English-language use at home, and restrict their analyses to subgroups within the immigrant population, which raises methodological and generalizability concerns. This study develops a comprehensive index of English-language use among immigrants in the United States and examines the implications of linguistic integration for immigrants' health trajectories, arguing that English-language use is a source of social capital that is indicative of the composition of immigrants' social networks. That is, among immigrants, English-language use with friends, colleagues, and family represents the extent of embeddedness in coethnic and interethnic social capital.",
                        "Despite the documented, multifaceted functions of social networks for new immigrants, very little is known about how they influence immigrant health and health behaviors. While ties to coethnics have generally been associated with the promotion of immigrants' economic and social well-being (e.g., Bankston and Zhou 1995), the empirical implications of interethnic connectedness for immigrants' outcomes, and particularly immigrant health, remain unclear. Migration research suggests that immigrants' social capital extends beyond coethnic networks and increasingly distinguishes between the bonding and bridging roles of immigrants' social networks (e.g., Lancee 2012), a typology that is important in identifying the various implications of social ties for immigrant health. While migration research also suggests that immigrants' coethnic ties, including family and kinship ties, provide social capital that is protective against acculturative stress (Finch and Vega 2003), the role of ethnicity-bridging social capital is not well understood. The literature is also silent on whether or not the social capital of new immigrants has any implications for their long-term health outcomes.",
                        "This study uses panel data from the first (2003) and second (2007) waves of the New Immigrant Survey (NIS) to examine the short-term and long-term health consequences of new immigrants' interethnic social capital. The NIS provides longitudinal data on various health outcomes, including self-rated health status and the incidence of diagnosed chronic health conditions. I construct a proxy indicator of interethnic connectedness (linguistic integration), based on English-language use at home, with friends, with colleagues, and with spouse, and examine its cross-sectional and lagged associations with health outcomes. In doing so, this study makes a threefold contribution to the immigrant health literature. First, it examines the implications of bridging social capital for immigrants' health outcomes, and it extends this analysis beyond the global measure of self-rated health by examining changes in both self-rated health and the number of chronic conditions. Second, whereas prior studies focus on the health outcomes of Hispanic and Asian immigrants, this study uses national data of new legal immigrants to examine the health implications of network composition. Third, it contributes to our understanding of the language acculturation-health link by examining the long-term health effects of immigrants' interethnic social capital and sheds light on the extent to which interethnic integration influences immigrants' health trajectories."
                    ]
                }
            ]
        },
        {
            "title": "Background",
            "subsections": [
                {
                    "title": "The Significance of Interethnic Network Diversity",
                    "paragraphs": [
                        "Several competing mechanisms could be identified that link social network ethnic diversity with immigrant health. One is acculturative stress, which refers to the social and psychological strain that results from intercultural contact (Berry 2006). At least in the short run, diverse networks may be associated with higher levels of stressors that result from the process of adaptation to a new social and cultural environment. Typologies of acculturative stress suggest that it may have different sources or components (Rodriguez et al. 2002; Salas-Wright et al. 2015). Acculturative stressors include the lack of English-language proficiency, discrimination, family disruptions, pressure from the host culture to adapt, and pressure from the home culture to retain one's ethnic identity (Rodriguez et al. 2002). To the extent that higher levels of contact with nonimmigrants increases the social and psychological pressures to adapt to the host culture, acculturative stress provides an important link between interethnic social networks and immigrant health outcomes. Particularly, acculturative stress has been linked to poor physical and mental health (Finch et al. 2001; Finch and Vega 2003; Mulvaney-Day, Alegria, and Sribney 2007; Noh and Kaspar 2003). Moreover, ties to nonimmigrants could be associated with faster or higher degrees of acculturation, which may have negative effects on health and health behaviors independent of the effects of acculturative stress.",
                        "On the other hand, interethnic social contact could indicate a higher level of social integration and a smaller \"social distance\" with the native population, which may have its own psychosocial benefits. Diverse social networks, in general, have been linked to positive health outcomes through their effects on the diffusion of health-related information (Erickson 2003), promotion of healthy norms and behaviors (Kawachi et al. 1999; Weitzman and Kawachi 2000), social influence, and social support (Berkman and Glass 2000). Social support is a multidimensional concept (House 1981) that includes not only instrumental (e.g., time and resources) and emotional (e.g., empathy and concern) support but also informational (e.g., advice and referral) and appraisal support (e.g., praise, feedback and affirmation). Interethnic networks could, therefore, play an important role in the provision of not only emotional and instrumental social support but also informational and appraisal social support, which is often less emphasized in the migration literature. Better social integration with members of the host society not only lessens the alienating and isolating effects of migration and the disruption in immigrants' premigration networks but also provides the social capital that is requisite for successful interaction with the various social institutions of the host society. Nonimmigrant ties could also serve as conduits of useful health-related information, such as information about healthcare access, which may be unavailable in coethnic networks. Ethnicity- and nativity-bridging social capital may, therefore, have a positive implication for immigrant health in that they could add to immigrants' stock of knowledge about the healthcare system and enhance their abilities to make better health decisions. Social ties with nonimmigrants may also influence and facilitate the adoption of health-related norms and behaviors in the host culture. While these may include negative health behaviors, such as smoking, drinking, and unhealthy dietary changes, they could also apply to salubrious behaviors, such as smoking cessation or involvement in sports and physical-fitness activities."
                    ]
                },
                {
                    "title": "The Significance of Interethnic Network Diversity",
                    "paragraphs": [
                        "Migration scholars have increasingly recognized the significance of \"linguistic social capital\" for the economic integration of immigrants (e.g., Chiswick 1991), but it is only recently that its noneconomic and social significance has received attention (Nawyn et al. 2012). Even though research on acculturation and linguistic isolation has focused on English-language use at home, the use of English language in different social settings is often a key source of language-based social capital. For instance, immigrants' ability to form nativity- and ethnicity-bridging social ties, which are often an important source of information that is instrumental in the economic and social adjustment process, is dependent upon both language proficiency and use. English-language proficiency is, in fact, often a necessary but not sufficient condition (Akresh, Massey, and Frank 2014) for English-language use in social interactions, and living in a community of coethnics reduces the odds of English-language use in various social settings.",
                        "Prior research on the determinants of English-language use has established that individual, demographic, and community characteristics are responsible for variations in patterns of language use (Stevens 1992). At the individual level, human capital, language proficiency, years in the United States, and age at migration determine patterns of English-language use. Country of origin is also an important determinant of English-language use, given the widespread use of the language around the world. In addition, immigrants' social environments, particularly linguistic homogamy and residential segregation, are important demographic predictors of language-use patterns, highlighting the close link between immigrants' social network characteristics and linguistic integration. As Stevens (1992:181) highlights, immigrants' frequency of English-language use is dependent upon both \"the resources and incentives encouraging or allowing them to use English [and] the demographic context that underlies the opportunities for [immigrants] to participate in social situations in which their minority language is a possible means of communication.\"",
                        "Immigrants' English-language use, therefore, constitutes a type of social capital because it is not only an indicator of the level of language and cultural assimilation (Alba 1990) but also a key indicator of whom immigrants interact with and the type of social network in which they are embedded (Akresh 2007). English-language use represents bridging (interethnic) social capital since host-language usage among immigrants is influenced more by contacts with natives and coethnics than it is by language proficiency itself (Vervoort, Dagevos, and Flap 2012), and social network composition might actually explain the link between language use and health outcomes (Allen et al. 2008). Therefore, the degree to which immigrants use their native language indicates the extent to which they are connected to their respective ethnic community (Alba 1990). That is, given similar levels of proficiency, immigrants who indicate that they do not speak English at home or with their friends and/or colleagues are more likely to have personal and professional networks composed primarily of coethnic contacts than immigrants who say they do speak English in these social settings. Holding language proficiency constant, therefore, variations in the extent of English-language use in social interactions capture network ethnic diversity."
                    ]
                },
                {
                    "title": "The Significance of Interethnic Network Diversity",
                    "paragraphs": [
                        "This study uses a longitudinal approach to examine the relationship between immigrants' interethnic social capital--as reflected by the extent of linguistic integration--and measures of health status. I employ a lagged dependent variable (LDV) approach, which addresses several methodological concerns in the aforementioned literatures. First, an important concern in migration research is the extent to which variations in immigrant outcomes are determined by variations in unmeasured premigration characteristics. Second, a criticism of social-capital research on health has to do with the issue of causality (Kawachi, Subramanian and Kim 2008), and some have generally questioned the causal status of social capital, indicating its potential endogeneity in statistical models (e.g., Chen 2011; Mouw 2003, 2006). Third, while self-rated health has been used extensively in the literature (e.g., Kawachi et al. 1999), primarily because studies have shown it to be a reliable predictor of mortality (Idler and Benyamini 1997), its predictive ability among immigrants and its efficacy in cross-ethnic comparisons of health status have been questioned (Finch et al. 2002). Recent studies have suggested that change in self-rated health is a better indicator of general health status than self-rated health measured at one point (Ferraro and Kelley-Moore 2001; Han et al. 2005).",
                        "The lagged model controls for baseline characteristics and allows me to measure differences in health outcomes between two time points after migration. The lagged dependent variable, therefore, serves as a control for pre-immigration confounders that may be associated with both linguistic integration and health outcomes. It also allows me to rule out reverse causality, which is a concern in health research generally. Looking at the relationship between baseline interethnic social capital and health outcomes in both 2003 and 2007, the LDV model allows me to establish the appropriate temporal order between the two variables. While temporal ordering alone does not allow me to make a causal connection between linguistic integration and health outcomes, it does address concerns about reverse causality between social capital and health."
                    ]
                }
            ]
        },
        {
            "title": "Data and Measures",
            "subsections": [
                {
                    "title": "Data",
                    "paragraphs": [
                        "Panel data from the adult sample of the NIS were used to analyze the effects of social capital on various health outcomes. The NIS is a longitudinal survey of recent immigrants age 18 or older who obtained legal permanent residency between May and November 2003 (i.e., as soon as the immigrant was granted permanent residency). The sample includes both new arrivals and adjustees--immigrants who changed their visa status after some time in the United States. The sample, however, does not include undocumented immigrants and immigrants who may be in the process of status adjustment. A sample of 12,500 new adult immigrants was selected from this sampling frame, and a total of 8,573 interviews were completed for a response rate of 69% in the first wave. The second round of interviews was conducted with 8,456 respondents from the first round between 2007 and 2009 and includes 4,363 (3,902 fully completed and 461 partially completed) adult interviews, yielding a response rate of 46.1%. That is, from the 8,456 adult respondents in the first round, only 4,363 completed round 2 interviews (48.4% attrition rate). The survey also provides probability weights to correct for the oversampling of migrants with employment visas. Respondents with missing data on the dependent variables, self-rated health and the number of chronic conditions, were excluded from the analysis. However, one limitation of using these data is the high attrition rate and other missing data on key covariates, particularly household income. Multiple imputation by chained equations (with M = 50 imputations) was used to impute missing data on all covariates, which provided an analytic sample size of 3,885."
                    ]
                },
                {
                    "title": "Data",
                    "paragraphs": [
                        "The dependent variables were two measures of health status: self-rated health and the number of chronic diseases. Below is a description of each of the outcome variables. See Table 1 for descriptive statistics on these variables.",
                        "The NIS includes a measure of self-reported health with five response options (\"excellent,\" \"very good,\" \"good,\" \"fair,\" or \"poor\"). Respondents were specifically asked, \"Would you say your health is excellent, very good, good, fair, or poor?\" The variable was dichotomized into fair or poor health (1) versus good, very good, or excellent (0).",
                        "For chronic diseases, respondents were asked if they were ever diagnosed with each of the following conditions: high blood pressure, diabetes or high blood sugar, cancer, heart disease, chronic lung disease, heart attack, angina, stroke, psychiatric problems, arthritis, asthma, poor eyesight, poor hearing, trouble with pain, and depression. For each respondent, the total number of diagnosed chronic diseases was calculated."
                    ]
                },
                {
                    "title": "Data",
                    "paragraphs": [
                        "While language usage has been widely used as an indicator of cultural assimilation, it also reflects the kinds of personal and professional networks in which immigrants are embedded (Akresh 2007). In this study, an index of interethnic connectedness was constructed as an ordinal measure from questions about language usage with friends, at work, and at home. Specifically, respondents were asked to check from a list (\"check all that apply\") the languages they use at home, at work, with friends, and with spouse. Four variables were constructed for English-language usage with friends, at work, at home, and with spouse. Each of those items were coded into three possible responses: \"no English\" (0), \"some English\" (1), and \"English only\" (2). The final interethnic connectedness index is the row total of English-language usage with friends, at work, at home, and with spouse, and it ranges from 0 to 8. These values represent increasing levels of linguistic integration. Therefore, holding English-language proficiency constant, higher levels of linguistic integration as measured by English-language usage indicate increasing levels of interethnic social interaction in the immigrant's social network, and nonusage is highly indicative that his or her social network is composed primarily of coethnics."
                    ]
                },
                {
                    "title": "Data",
                    "paragraphs": [
                        "The analyses controlled for other predictors of health, such as human capital, sociodemographic characteristics, and household income. Human-capital measures included both education in years and the level of English-language proficiency. Respondents self-rated their English-language ability on a scale of 1 to 4 (1 being \"not at all\" and 4 being \"very well\"). Controls for sociodemographic characteristics included age (in years), gender (1 = female), race, and marital status. Marital status was dichotomized to distinguish between the married and no-married (i.e., single, cohabiting, divorced, or widowed). Since the linguistic integration/interethnic connectedness index included speaking English at work, and speaking English at work is dependent upon employment, the models controlled for employment status (a dummy variable indicating whether or not the respondent was currently employed). Similarly, since those married to someone who does not speak their native language would be more likely to speak English with their spouse and/or at home, the models also controlled for whether or not the respondent had a native-born spouse (i.e., spouse born in the United States).",
                        "Being married to a native-born person is also an important control because intermarriage is considered to be an indicator of high level of acculturation. In addition, the models included years since arrival in the United States, commonly used as a proxy measure of acculturation. This was calculated as time since migration (or years in the United States). Finally, given the widespread use of the English language around the world, country of origin influences language use and preference. Therefore, the analyses controlled for whether or not the respondent was from an English-speaking country.1 Binary indicators of church membership and attendance were used as controls for religious involvement, which is an important source of social networks for new immigrants (Bankston 2014). Finally, the models also controlled for household income and household size. Household income was coded as four categories: less than $25,000 (reference category), $25,000 to $49,000, $50,000 to $75,000, and more than $75,000. See Table 2 for summary statistics on the full set of covariates, which were all measured in 2003.",
                        "In addition, the models accounted for acculturative stress and changes in health behaviors. Unfortunately, the NIS did not include direct measures of acculturative stress. It is important to note, however, that acculturative stress is often conceptualized in terms of experiences of discrimination, negative reception in the host country, and lack of language and cultural competences (e.g., Orjiako and So 2014). The models already included key correlates of acculturative stress, particularly language proficiency, English-speaking country of origin, and race-ethnicity, which are often the basis of discrimination against immigrants and contribute to group differences in the context of reception (Portes and Rumbaut 2014). To adequately control for cultural adoption, the models also included indicators of lifestyle changes related to health behaviors, which may be confounders. Health behaviors included cigarette smoking, alcohol drinking, diet, and the level of physical activity. Smoking frequency and drinking frequency measured the number of cigarettes the respondent smoked per day (0 for nonsmokers) and the number of days the respondent consumed alcohol in the last three months (0 for nondrinkers), respectively. In addition, respondents were asked to rate the degree (on a scale of 1 to 10) to which their current diet was different from their diet in their home country. A physical activity measure was constructed based on how many times per week respondents engaged in light and vigorous physical activities."
                    ]
                },
                {
                    "title": "Data",
                    "paragraphs": [
                        "Data from the first (2003) and second (2007) waves of the NIS were used to estimate three separate models for each health outcome. The first model (Model 1) was a cross-sectional model using data from the first wave of the NIS and estimated the cross-sectional associations between linguistic integration and health outcomes. The second model (Model 2) included the same set of independent variables and covariates to estimate their effects on Time 2 health outcomes (i.e., lagged independent variables and covariates). The final model (Model 3) included the lagged dependent variable to estimate the effect of including the lagged variable on the association between social network composition and health.2 Whereas Model 1 allowed me to examine if immigrants with higher network diversity had better health outcomes upon migration, Models 2 and 3 enabled me to estimate the consequence of this network diversity for their health outcomes several years later. A comparison of Model 2 with Model 3 allowed me to examine the statistical effect of including the LDV. The lagged model controlled for potential spuriousness and reciprocal effects (Kawachi et al. 2008) and also reduced omitted variable bias due to unobserved characteristics, such as premigration determinants of health status in the United States. Logistic regression models were used for the analysis of the dichotomous self-rated health measure. Negative binomial regression models were used for the incidence of chronic diseases, which was a count variable."
                    ]
                }
            ]
        },
        {
            "title": "Results",
            "subsections": [
                {
                    "title": "Sensitivity Analysis",
                    "paragraphs": [
                        "It should be noted that English-language use and linguistic integration are often highly correlated. Therefore, an auxiliary analysis (available upon request) was conducted, where English-language use and linguistic integration were included in these models separately in order to assess the extent to which the findings on linguistic integration may have been influenced by collinearity. The only substantive difference with regard to the relationship between linguistic integration and health was that the effect of linguistic integration on self-rated health in 2003 was negative and marginally significant (i.e., lower odds of reporting poor/fair health). The statistical significance of the lagged coefficient for interethnic connectedness also improves in these models. However, I caution against interpreting the effects of English-language use without controlling for English-language proficiency, as such models may be reflecting the effects of English-language proficiency and not linguistic integration. While some use a combined index of language proficiency and language use given their correlation, others have cautioned that a combined index may be conflating different mechanisms (Gee et al. 2010). Further, it should also be noted that the variance inflation factors were low across these models, indicating that multicollinearity did not inflate the estimated coefficients.",
                        "The analysis also examined whether or not English-language use in different domains has the same effect on health outcomes. Regression models of self-rated health and chronic conditions were estimated, where each of the language-use variables (domains) were included as separate variables (instead of as one composite index). Table 5 shows the results from this analysis, which further highlights the potential importance of network mechanisms vis-a-vis acculturative processes. The results for the cross-sectional models are as one would expect based on the analysis of the linguistic integration index (that is, none of the language-use variables are associated with self-rated health or the number of chronic conditions). The results from the lagged models highlight the particular importance of English-language use with friends and English-language use at work. Particularly, English-language use with friends and English-language use at work are negatively associated with the odds of fair/poor health and the number of chronic conditions, respectively. None of the other language-use variables were individually associated with health outcomes.",
                        "These results suggest that, holding English-language proficiency and English-language use at home constant, English-language use outside the home has positive implications for immigrant health. While linguistic integration in general might be important because it indicates social network diversity, language use at home and outside the home may be related to network processes to varying degrees. This is an important finding because English-language use at home is commonly used as an indicator of acculturation and has been negatively associated with health and health behaviors (e.g., Unger et al. 2000). This study finds no such effect of language use at home on immigrant health. The particular importance of language use outside the home, on the other hand, is better understood as the effect of social networks, as opposed to the effects of acculturation, on immigrant health. To the extent that language use outside the home corresponds to access to weak ties and better social integration in the host society, this is further evidence that social network processes might be particularly important in the link between English-language use and immigrant health.3",
                        "Unfortunately, the NIS does not include direct measures of social network characteristics that would allow cross-validation of the interethnic connectedness index. However, I was able to examine the correlations between the index and other proxy indicators of social network characteristics found in the NIS (results available on request). One such indicator is whether or not the respondent found employment with the help of a relative, which may be an indicator of reliance on coethnic networks (Sanders, Nee, and Sernau 2002; Tegegne 2015). A second indicator is the percentage coethnic and percentage native-born at the religious organization for respondents who reported religious involvement. This analysis shows that the interethnic connectedness proxy index is negatively correlated with percentage coethnic at the religious organization (-.25) and reliance on relatives in the job market (-.19) and positively correlated with percentage native-born at the religious organization (.24). While these measures are only proxy indicators and the correlations are, therefore, relatively weak, they are statistically significant at all levels (p < .001) and are consistent with the argument that linguistic integration is associated with social network ethnic diversity.",
                        "A few other robustness checks were conducted. First, given that the lagged models are estimating the effects of covariates on change in health status, I examined if the findings were sensitive to extreme cases of change in health status. Regression diagnostics were conducted to identify potentially influential cases, and the lagged models were rerun excluding \"extreme\" cases of change in health status. The results are unchanged and confirm that the findings are not due to extreme cases of illness in some respondents between 2003 and 2007. Second, I considered the possibility of bias in the results due to attrition (for instance, due to declining health between the two waves), particularly because there is a relatively high rate of attrition in the NIS panel data. I examined differences on baseline characteristics between attrited and panel respondents. Controlling for sociodemographic characteristics, there was no association between any of the health outcomes and the probability of attrition, indicating no systematic differences between attrited and panel respondents in health status and health behaviors. That is, there is no relationship between Time 1 health status (both self-rated health and chronic conditions) and the likelihood of attrition, and there is no evidence in the data to suggest that attrited individuals may have been those whose health is more likely to have deteriorated between 2003 and 2007."
                    ]
                }
            ]
        },
        {
            "title": "Discussion",
            "subsections": [
                {
                    "title": null,
                    "paragraphs": [
                        "This study focused on the role of language-based social capital in immigrants' health status. Using longitudinal data, it examined the implications of language-based social capital on long-term health trajectories. The focus was on the potentially ethnicity-bridging role of English-language use among immigrants and the implications of this kind of social capital for self-rated health and the incidence of chronic conditions. The results highlight the time-contingent relationship between of language-based social capital and health status. Overall, whereas interethnic connectedness is not associated with current health status, it appears that immigrants who were embedded in a more ethnically diverse network in 2003 experienced less of a decline in self-rated health and lower levels of incidence in chronic diseases over time.",
                        "These results have implications for how the significance of linguistic integration among immigrants is understood. To the extent that one understands English-language proficiency and linguistic integration to largely indicate acculturative processes, then it means that acculturation has a negligible effect on health status in the short term. However, the results would also imply that acculturative processes lead to long-term improvements in self-rated health and lower rates of incidence of chronic health conditions, which is contrary to extant findings in the migration literature--particularly studies that have attributed the healthy immigrant effect to acculturation (e.g., House, Kessler, and Herzog 1990; Stephen et al. 1994). I argue that linguistic integration is better understood as bridging social capital that represents the presence of cross-cutting ties, which is to say a higher level of social interaction with the nonimmigrant population. While social influence through bridging ties may possibly lead to increases in negative health behaviors among immigrants, the long-term effect of interethnic connectedness on health status may very well be protective due to the benefits associated with better social integration with the native population.",
                        "Overall, the findings cast doubt on interpretations of immigrants' English-language use as primarily representing acculturative processes. Prior literature suggests that the acculturation-health link is primarily driven by changes in immigrants' lifestyle that have negative consequences for health, particularly changes in smoking (Unger et al. 2000), drinking (Hahm et al. 2003), and diet (Akresh 2007). However, this study suggests that there are no associations between linguistic integration and health status in the short term and that the effects of English-language use in the long term may very well be positive. Moreover, this relationship between linguistic integration and health status does not seem to be influenced by changes in health behaviors, as controlling for health behaviors did not influence the association between linguistic integration and health status. Instead, the results lend support for a social capital interpretation of linguistic integration among immigrants, which suggests that English-language use represents structural integration among immigrants that may provide social and psychological resources that are beneficial for health.",
                        "A few considerations and limitations should be noted with regard to the data and methodology used in this study. First, a comparison of the cross-sectional and lagged models highlights important methodological concerns in cross-sectional research on immigrant health. These models highlight the presence of lagged effects of interethnic social capital, in the absence of cross-sectional associations. This suggests that longitudinal designs may be required to identify the potentially lagged effects of immigrant integration on health status. Second, in the absence of direct measures of interethnic network diversity, linguistic integration potentially serves as a proxy measure. However, given that language use has been used as a proxy for acculturation in the literature, it is impossible to empirically distinguish the effects of acculturation from the effects of interethnic network integration. Third, the NIS sampling frame includes only newly admitted legal immigrants, and it does not include undocumented immigrants and other legal immigrants who may be in the process of status adjustment. Therefore, these findings do not say much about the health implications of linguistic integration for these groups of immigrants, particularly for undocumented immigrants, who may be very different in terms of their human capital, social capital, and sociodemographic characteristics. Undocumented immigrants, for instance, may have lower levels of linguistic or interethnic integration than other immigrant groups, and additional research would be required to identify the short-term and long-term health implications of linguistic isolation. Finally, since chronic disease status is self-reported and is dependent upon the level of access to quality healthcare prior to and after migration, it is unclear to what extent this may bias the findings. It should be noted, however, that the models control for socioeconomic status, which would be a correlate of access to healthcare or quality of healthcare, and that the findings with regard to linguistic integration are consistent across the two health measures.",
                        "To conclude, to the best of the author's knowledge, this is the first study that uses a longitudinal design to examine the lagged effects of linguistic integration on immigrant health. In doing so, it provides important empirical insight into the time-dependent implications of linguistic integration and highlights important methodological concerns for future research on immigrant health. While one of the strengths of this study is that it uses data from the NIS, which provides a large data set that exclusively sampled new immigrants in the United States and includes data on various measures of health and health behaviors, it also relies on proxy measures of social capital due to the lack of direct social network measures. Future research on immigrant health would benefit from further examining the role of linguistic integration as an important form of social capital by using more direct measures of immigrants' network characteristics, such as the size, quality, and ethnic diversity of immigrants' networks (e.g., percentage coethnic in one's friendship network), to identify the extent to which the effects of linguistic integration are driven by structural changes in immigrants' social networks."
                    ]
                }
            ]
        }
    ],
    "references": [
        "Abra\u00eddo-Lanza, Ana F., Chao, Maria T., Fl\u00f3rez, Karen R. 2005. \u201cDo Healthy Behaviors Decline with Greater Acculturation? Implications for the Latino Mortality Paradox.\u201d Social Science & Medicine 61(6):1243\u201355.",
        "Akresh, Ilana Redstone. 2007. \u201cDietary Assimilation and Health among Hispanic Immigrants to the United States.\u201d Journal of Health and Social Behavior 48(4):404\u201317.",
        "Akresh, Ilana Redstone. 2008. \u201cOverweight and Obesity among Foreign-born and U.S.-born Hispanics.\u201d Biodemography and Social Biology 54(2):183\u201399.",
        "Akresh, Ilana Redstone. 2009. \u201cHealth Service Utilization among Immigrants to the United States.\u201d Population Research and Policy Review 28(6):795\u2013815.",
        "Akresh, Ilana Redstone, Frank, Reanne. 2008. \u201cHealth Selection among New Immigrants.\u201d American Journal of Public Health 98(11):2058\u201364.",
        "Akresh, Ilana Redstone, Massey, Douglas S., Frank, Reanne. 2014. \u201cBeyond English Proficiency: Rethinking Immigrant Integration.\u201d Social Science Research 45(1):200\u201310.",
        "Alba, Richard D. 1990. Ethnic Identity: The Transformation of White America. New Haven, CT: Yale University Press.",
        "Allen, Michele L., Elliot, Marc N., Fuligni, Andrew J., Morales, Leo S., Hambarsoomian, Katrin, Schuster, Mark A. 2008. \u201cThe Relationship between Spanish Language Use and Substance Use Behaviors among Latino Youth: A Social Network Approach.\u201d Journal of Adolescent Health 43(4):372\u201379.",
        "Amaro, Hortensia, Whitaker, Rupert, Coffman, Gerald, Heeren, Timothy. 1990. \u201cAcculturation and Marijuana and Cocaine Use: Findings from HHANES 1982\u201384.\u201d American Journal of Public Health 80(Suppl.):54\u201360.",
        "Antecol, Heather, Bedard, Kelly. 2006. \u201cUnhealthy Assimilation: Why Do Immigrants Converge to American Health Status Levels?\u201d Demography 43(2):337\u201360.",
        "Bankston, Carl L. 2014. Immigrant Networks and Social Capital. Cambridge, UK: Polity Press.",
        "Bankston, Carl L., Zhou, Min, Bankston, Carl L. 1995. \u201cReligious Participation, Ethnic Identification, and Adaptation of Vietnamese Adolescents in an Immigrant Community.\u201d Sociological Quarterly 36(3):523\u201334.",
        "Berkman, Lisa F., Glass, Thomas. 2000. \u201cSocial Integration, Social Networks, Social Support, and Health.\u201d Pp. 137\u201373 in Social Epidemiology, edited by Berkman, L. F., Kawachi, I. Oxford, UK: Oxford University Press.",
        "Berry, John W. 2006. \u201cAcculturative Stress.\u201d Pp. 287\u201398 in Handbook of Multicultural Perspectives on Stress and Coping.",
        "Cawley, John, Han, Euna, Norton, Edward C. 2009. \u201cObesity and Labor Market Outcomes among Legal Immigrants to the United States from Developing Countries.\u201d Economics and Human Biology 7(2):153\u201364.",
        "Chen, Yunsong. 2011. \u201cThe Causal Effect of Social Capital in the Labor Market.\u201d Chinese Sociological Review 44(2):76\u2013100.",
        "Chiswick, Barry R. 1991. \u201cSpeaking, Reading, and Earnings among Low-skilled Immigrants.\u201d Journal of Labor Economics 9(2):149\u201370.",
        "Chiswick, Barry R., Lee, Yew Liang, Miller, Paul W. 2008. \u201cImmigrant Selection Systems and Immigrant Health.\u201d Contemporary Economic Policy 26(4):555\u201378.",
        "Cunningham, Solveig, Ruben, Julia D., Venkat Narayan, K. M. 2008. \u201cHealth of Foreign-born People in the United States: A Review.\u201d Health and Place 14(4):623\u201335.",
        "Derose, Kathryn Pitkin, Escarce, Jos\u00e9 J., Lurie, Nicole. 2007. \u201cImmigrants and Health Care: Sources of Vulnerability.\u201d Health Affairs 26(5):1258\u201368.",
        "Deyo, Richard A., Diehl, Andrew K., Hazuda, Helen, Stern, Michael P. 1985. \u201cA Simple Language-based Acculturation Scale for Mexican Americans: Validation and Application to Health Care Research.\u201d American Journal of Public Health 75(1):51\u201355.",
        "Erickson, Bonnie. 2003. \u201cSocial Networks: The Value of Variety.\u201d Contexts 2(1):25\u201331.",
        "Escarce, Jos\u00e9 J., Morales, Leo S., Rumbaut, Rub\u00e9n G. 2006. \u201cHealth Status and Health Behaviors of Hispanics.\u201d Pp. 362\u2013409 in Multiple Origins, Common Destinies: Hispanics and the American Future, edited by Tienda, M., Mitchell, F. Washington, DC: National Research Council.",
        "Eve, Michael. 2010. \u201cIntegrating via Networks: Foreigners and Others.\u201d Ethnic and Racial Studies 33(7):1231\u201348.",
        "Ferraro, Kenneth. F., Kelley-Moore, Jessica A. 2001. \u201cSelf-rated Health and Mortality among Black and White Adults: Examining the Dynamic Evaluation Thesis.\u201d Journals of Gerontology: Series B, Psychological Sciences and Social Sciences 56(4):S195\u2013205.",
        "Finch, Brian Karl, Hummer, Robert A., Kolody, Bohdan, Vega, William A. 2001. \u201cThe Role of Discrimination and Acculturative Stress in the Physical Health of Mexican-origin Adults.\u201d Hispanic Journal of Behavioral Sciences 23(4):399\u2013429.",
        "Finch, Brian Karl, Hummer, Robert A., Reindl, Maureen, Vega, William A. 2002. \u201cValidity of Self-rated Health among Latino(a)s.\u201d American Journal of Epidemiology 155(8):755\u201359.",
        "Finch, Brian Karl, Vega, William A. 2003. \u201cAcculturation Stress, Social Support, and Self-rated Health among Latinos in California.\u201d Journal of Immigrant Health 5(3):109\u201317.",
        "Gee, Gilbert C., Walsemann, Katrina M., Takeuchi, David T. 2010. \u201cEnglish Proficiency and Language Preference: Testing the Equivalence of Two Measures.\u201d American Journal of Public Health 100(3):563\u201369.",
        "Gordon, Tavia. 1957. \u201cMortality Experience among the Japanese in the United States, Hawaii, and Japan.\u201d Public Health Reports 72(6):543\u201353.",
        "Hahm, Hyeouk C., Lahiff, Maureen, Guterman, Neil B. 2003. \u201cAcculturation and Parental Attachment in Asian-American Adolescents\u2019 Alcohol Use.\u201d Journal of Adolescent Health 33(3):119\u201329.",
        "Han, Beth, Phillips, Caroline, Bandeen-Roche, Karen, Jylha, Marja, Kasper, Judith, Guralnik, Jack M. 2005. \u201cChange in Self-rated Health and Mortality among Community-dwelling Disabled Older Women.\u201d Gerontologist 45(2):216\u201321.",
        "House, James S. 1981. Work Stress and Social Support. Reading, MA: Addison-Wesley.",
        "House, James S., Kessler, Ronald C., Herzog, A. Regula. 1990. \u201cAge, Socioeconomic Status, and Health.\u201d Milbank Quarterly 68(3):383\u2013411.",
        "House, James S., Williams, David R. 2000. \u201cUnderstanding and Reducing Socioeconomic and Racial/Ethnic Disparities in Health.\u201d Pp. 81\u2013124 in Promoting Health: Intervention Strategies from Social and Behavioral Research, edited by Smedley, B. D., Syme, S. L. Washington, DC: National Academy Press.",
        "Idler, Ellen, Benyamini, Yael. 1997. \u201cSelf-rated Health and Mortality: A Review of Twenty-seven Community Studies.\u201d Journal of Health and Social Behavior 38(1):21\u201337.",
        "Jasso, Guillermina, Massey, Douglas S., Rosenzweig, Mark R., Smith, James P. 2004. \u201cImmigrant Health: Selectivity and Acculturation.\u201d Pp. 227\u201368 in Critical Perspectives on Racial and Ethnic Differences in Health in Later Life, edited by Anderson, N. B., Bulatao, R. A., Cohen, B. Washington, DC: National Academies Press.",
        "Johnson, D. R. 1995. \u201cAlternative Methods for the Quantitative Analysis of Panel Data in Family Research: Pooled Time-series Models.\u201d Journal of Marriage and Family 57(4):1065\u20131077.",
        "Kasl, Stanislav V., Berkman, Lisa. 1983. \u201cHealth Consequences of the Experience of Migration.\u201d Annual Review of Public Health 4:69\u201390.",
        "Kawachi, Ichiro, Kennedy, Bruce P., Glass, Roberta. 1999. \u201cSocial Capital and Self-rated Health: A Contextual Analysis.\u201d American Journal of Public Health 89(8):1187\u201393.",
        "Kawachi, Ichiro, Subramanian, S. V., Kim, Daniel eds. 2008. Social Capital and Health. New York: Springer.",
        "Lancee, Bram. 2012. \u201cThe Economic Returns of Bonding and Bridging Social Capital for Immigrant Men in Germany.\u201d Ethnic and Racial Studies 35(4):664\u201383.",
        "Lara, Marielena, Gamboa, Cristina, Kahramanian, M. Iya, Morales, Leo S., Hayes Bautista, David E. 2005. \u201cAcculturation and Latino Health in the United States: A Review of the Literature and Its Sociopolitical Context.\u201d Annual Review of Public Health 26:367\u201397.",
        "McDonald, James Ted, Kennedy, Steven. 2004. \u201cInsights into the \u2018Healthy Immigrant Effect\u2019: Health Status and Health Service Use of Immigrants to Canada.\u201d Social Science & Medicine 59(8):1613\u201327.",
        "Mouw, Ted. 2003. \u201cSocial Capital and Finding a Job: Do Contacts Matter?\u201d American Sociological Review 68(6):868\u201398.",
        "Mouw, Ted. 2006. \u201cEstimating the Causal Effect of Social Capital: A Review of Recent Research.\u201d Annual Review of Sociology 32:79\u2013102.",
        "Mulvaney-Day, Norah E., Alegr\u0131\u00e1, Margarita, Sribney, William. 2007. \u201cSocial Cohesion, Social Support, and Health among Latinos in the United States.\u201d Social Science & Medicine 64(2):477\u201395.",
        "Nawyn, Stephanie J., Gjokaj, Linda, Agb\u00e9nyiga, DeBrenna L., Grace, Breanne. 2012. \u201cLinguistic Isolation, Social Capital, and Immigrant Belonging.\u201d Journal of Contemporary Ethnography 41(3):255\u201382.",
        "Noh, Samuel, Kaspar, Violet. 2003. \u201cPerceived Discrimination and Depression: Moderating Effects of Coping, Acculturation, and Ethnic Support.\u201d American Journal of Public Health 93(2):232\u201338.",
        "Orjiako, Ola-Edo Yvonne, So, Dominicus. 2014. \u201cThe Role of Acculturative Stress Factors on Mental Health and Help-seeking Behavior of Sub-Saharan African Immigrants.\u201d International Journal of Culture and Mental Health 7(3):315\u201325.",
        "Portes, Alejandro, Rumbaut, Rub\u00e9n G. 2014. Immigrant America: A Portrait, 4th ed. Oakland: University of California Press.",
        "Putnam, Robert D. 2000. Bowling Alone. New York: Simon & Schuster.",
        "Rodriguez, Norma, Myers, Hector F., Mira, Consuelo Bingham, Flores, Thomas, Garcia-Hernandez, Loretta. 2002. \u201cDevelopment of the Multidimensional Acculturative Stress Inventory for Adults of Mexican Origin.\u201d Psychological Assessment 14(4):451\u201361.",
        "Salas-Wright, Christopher P., Robles, Eden H., Vaughn, Michael G., Cordova, David, Perez-Figueroa, Rafael E. 2015. \u201cToward a Typology of Acculturative Stress: Results among Hispanic Immigrants in the United States.\u201d Hispanic Journal of Behavioral Sciences 37(2):223\u201342.",
        "Salinas, Jennifer J., Sheffield, Kristin M. 2011. \u201cEnglish Language Use, Health and Mortality in Older Mexican Americans.\u201d Journal of Immigrant and Minority Health/Center for Minority Public Health 13(2):232\u201338.",
        "Sanders, Jimy, Nee, Victor, Sernau, Scott. 2002. \u201cAsian Immigrants\u2019 Reliance on Social Ties in a Multiethnic Labor Market.\u201d Social Forces 81(1):281\u2013314.",
        "Shelley, Donna, Fahs, Marianne, Scheinmann, Roberta, Swain, Susan, Qu, Jiaojie, Burton, Dee. 2004. \u201cAcculturation and Tobacco Use among Chinese Americans.\u201d American Journal of Public Health 94(2):300\u2013307.",
        "Stephen, Elizabeth H., Foote, Kelly D., Hendershot, Gerry E., Schoenborn, Charlotte A. 1994. \u201cHealth of the Foreign-born Population: United States, 1989\u201390.\u201d Advance Data 14(241):1\u201312.",
        "Stevens, Gillian. 1992. \u201cThe Social and Demographic Context of Language Use in the United States.\u201d American Sociological Review 57(2):171\u201385.",
        "Tegegne, Mesay A. 2015. \u201cImmigrants\u2019 Social Capital and Labor Market Performance: The Effect of Social Ties on Earnings and Occupational Prestige.\u201d Social Science Quarterly 96(5):1396\u2013410.",
        "Trinidad, Dennis R., Gilpin, Elizabeth A., Messer, Karen, White, Martha M., Pierce, John P. 2006. \u201cTrends in Smoking among Hispanic Women in California: Relationship to English Language Use.\u201d American Journal of Preventive Medicine 31(3):257\u201360.",
        "Unger, Jennifer B., Cruz, Tess B., Rohrbach, Louise Ann, Ribisl, Kurt M., Baezconde-Garbanati, Lourdes, Chen, Xinguang, Trinidad, Dennis R., Johnson, C. Anderson. 2000. \u201cEnglish Language Use as a Risk Factor for Smoking Initiation among Hispanic and Asian American Adolescents: Evidence for Mediation by Tobacco-related Beliefs and Social Norms.\u201d Health Psychology 19(5):403\u201310.",
        "Vervoort, Miranda, Dagevos, Jaco, Flap, Henk. 2012. \u201cEthnic Concentration in the Neighbourhood and Majority and Minority Language: A Study of First and Second-generation Immigrants.\u201d Social Science Research 41(3):555\u201369.",
        "Weitzman, Elissa R., Kawachi, Ichiro. 2000. \u201cGiving Means Receiving: The Protective Effect of Social Capital on Binge Drinking on College Campuses.\u201d American Journal of Public Health 90(12):1936\u201339."
    ],
    "title": "Linguistic Integration and Immigrant Health: The Longitudinal Effects of Interethnic Social Capital",
    "issue": "2",
    "volume": "59",
    "year": 2018,
    "issn": "0022-1465",
    "journal": "Journal of Health and Social Behavior",
    "authors": [
        "Mesay A. Tegegne"
    ]
}