{
    "doi": "http://dx.doi.org/10.1177/0022146516675306",
    "abstract": "",
    "sections": [
        {
            "title": "Introduction",
            "subsections": [
                {
                    "title": null,
                    "paragraphs": []
                }
            ]
        }
    ],
    "references": [],
    "title": "The Stratified Legitimacy of Abortions",
    "issue": "4",
    "volume": "57",
    "year": 2016,
    "issn": "0022-1465",
    "journal": "Journal of Health and Social Behavior",
    "authors": [
        "Katrina Kimport",
        " Tracy A. Weitz",
        " Lori Freedman"
    ]
}