{
    "doi": "http://dx.doi.org/10.1177/0022146513497034",
    "abstract": "As nonmarital childbearing becomes a dominant pathway to family formation, understanding its long-term consequences for children\u2019s well-being is increasingly important. Analysis of linked mother-child data from the 1979 National Longitudinal Survey of Youth indicates a negative association of having been born to a never-married mother with adolescent self-assessed health but not with depressive symptoms. We also consider the role of mothers\u2019 subsequent union histories in shaping the adolescent health outcomes of youth born to unmarried mothers. With two exceptions, unmarried mothers\u2019 subsequent unions appear to have little consequence for the health of their offspring during adolescence. Adolescents whose mothers subsequently married and remained with their biological fathers reported better health, yet adolescents whose mothers continuously cohabited with their biological fathers without subsequent marriage reported worse adolescent mental health compared with adolescents whose mothers remained continually unpartnered.",
    "sections": [
        {
            "title": "Introduction",
            "subsections": [
                {
                    "title": null,
                    "paragraphs": [
                        "Forty-one percent of all births in the United States now occur to unmarried mothers (Martin et al. 2011), and fewer than half of all unmarried mothers marry within five years of their nonmarital birth (McLanahan 2011). Thus, substantial numbers of children spend their earliest years, a critical period of development, in unmarried-parent households. The rapid growth in nonmarital childbearing has been accompanied by concerns about \"family decline\" and predictions of negative consequences for U.S. society at large (Brooks 2002), and a growing body of literature documents negative consequences of nonmarital fertility for offspring in early childhood (see McLanahan 2011). Whether there are mental and physical health consequences of nonmarital fertility that endure beyond early childhood is less clear, however, because conclusions about the importance of the two-parent family for young adults have been based primarily on studies of children of divorce (see Amato 2010). That a sizable cohort of children born to unmarried mothers is now reaching young adulthood allows an examination of longer term consequences of nonmarital childbearing for the health and well-being of offspring whose mothers were at the forefront of substantial demographic change in family formation patterns.",
                        "Growing rates of nonmarital fertility, accompanied by high rates of poverty in single-parent homes, have fueled debate about the most effective ways to improve the lives of children born to unmarried mothers. Public discourse and policy have focused on promoting marriage among low-income single mothers, building on evidence that children raised by two biological parents fare better on many outcomes than children born to unmarried mothers. But such findings may have limited relevance for children born to unmarried mothers because most unions formed after nonmarital childbearing involve partners who are not the biological fathers (Cancian, Meyer, and Cook 2011; Guzzo and Furstenberg 2007; Osborne and McLanahan 2007). Determining the impact of nonmarital fertility and subsequent union formation for adolescent health and well-being requires a specific focus on children born to unmarried mothers and attention to the subsequent union status of their mothers plus the paternity status of the mother's partner. Attention to potential health differences for black versus white youth is also important given stark racial disparities in nonmarital childbearing and subsequent union formation (Osborne, Manning, and Smock 2007; Qian, Lichter, and Mellott 2005).",
                        "We address these questions using data from the 1979 National Longitudinal Survey of Youth (NLSY79) mother-child files. First, we compare the mental and physical health of adolescents born to never-married cohabiting or unpartnered mothers with that of their counterparts born to married mothers, paying attention to variations between black and white youth and controlling for numerous maternal background characteristics. Second, among adolescents born to never-married mothers, we compare the health of those whose mothers subsequently cohabited or married with that of their counterparts whose mothers remained unpartnered. We distinguish mothers' union histories by marital vs. cohabitation status, marital stability, and paternity status of the partner and, where possible, consider differences by race."
                    ]
                }
            ]
        },
        {
            "title": "Background",
            "subsections": [
                {
                    "title": "Nonmarital Fertility and the Health of Offspring in Adolescence",
                    "paragraphs": [
                        "Rising nonmarital childbearing rates in the United States have raised concerns among both policy makers and the general public about implications for the long-term well-being of children. Research on children of divorce shows that spending time in a single-parent home is associated with negative cognitive, psychosocial, and behavioral outcomes across the life course (for reviews, see Amato 2010; Brown 2010). Much less is known about the long-term well-being of children born to unmarried mothers, however, and what empirical knowledge exists skews heavily toward a focus on early childhood outcomes. Also unknown is whether unmarried mothers' cohabitation status at birth has long-term consequences for children's health in adolescence, a question of growing importance as approximately 58 percent of nonmarital fertility now occurs within cohabiting unions (Martinez, Daniels, and Chandra 2012).",
                        "Research and theory provide strong support for our hypothesis that maternal marital and cohabitation status at the time of a birth are associated with offspring mental and physical health years later during adolescence. Although identifying mechanisms is beyond the scope of this study, it is well established, for example, that nonmarital fertility is often followed by substantial economic strain and exposure to chronic stressors linked to family and residential instability. Children born to never-married mothers are more likely to live in poverty than those born to married parents, even those whose parents later divorce (Huang, Mincey, and Garfinkel 2005), and early economic deprivation is strongly associated with adverse mental and physical health outcomes across the life course (Conley and Bennett 2001; Duncan and Brooks-Gunn 1997). Furthermore, children born to unmarried mothers have smaller networks of social support (Harknett and Hartnett 2011) and are at especially high risk for experiencing potentially stressful conditions, including multiple residential moves (Murphey, Bandy, and Moore 2012) and mothers' partnership instability (Osborne and McLanahan 2007). Chronic stress exposure, in turn, has cumulative negative effects on health through numerous biological and psychosocial pathways (Pearlin et al. 2005). It is important to note that although any impact of early-life factors on adolescent outcomes likely operates through multiple pathways, it is critical to first document these basic associations and potential heterogeneity by race and other factors. Our analyses, therefore, do not control for potential intervening variables (e.g., mother's socioeconomic attainment after the child's birth, later family instability) that may mediate between mothers' union status or history and adolescent outcomes, because doing so would underestimate the true association of interest (Lieberson 1985).",
                        "The Fragile Families and Wellbeing Study has provided mounting evidence of negative cognitive, behavioral, and health outcomes for children born to unmarried women (Bzostek and Beck 2011; Carlson and Corcoran 2001; Waldfogel, Craigie, and Brooks-Gunn 2010). However, because these data currently extend only to nine years of age, relatively little is known about the consequences of being born to an unmarried mother for adolescent health. The few studies that have examined a broader age range have not focused specifically on adolescent mental and physical health. This research indicates, however, that adolescents and young adults born to unmarried mothers have more behavior problems in school (Hofferth, West, and Kaufman 1994), have younger ages at sexual debut (Cavanagh, Crissey, and Raley 2008), are at greater risk for teen and premarital births (Francesconi 2008; Wu 1996), and are more likely to divorce (Teachman 2002) than those raised with both biological parents. However, none of these studies specifically distinguish youth born to cohabiting mothers or specify whether such youth are grouped with those born to married biological parents or with those born to unpartnered mothers.",
                        "Finally, prior research on the link between maternal union status at birth and adolescent well-being does not differentiate youth born to never-married mothers from those born to divorced mothers. Between 1995 and 2008, only 14.4 percent of all nonmarital births occurred to divorced women, and this figure is likely even smaller for the nonmarital first births on which we focus (Wu 2008). Given lower rates of marriage among disadvantaged and minority women, nonmarital fertility following divorce is less likely to occur in the same context of disadvantage as it does among the never married and therefore may have substantially different consequences for child health. For this reason, youth born to previously divorced unmarried mothers should be kept analytically distinct from those born to never-married mothers. Unfortunately, we do not have enough postdivorce cases to constitute a separate category, and we therefore exclude them from our analyses. We argue that this is an improvement over prior research that combined youth born to divorced and never-married mothers.",
                        "The life course epidemiology framework emphasizes that the cumulative effects of early-life factors on health and well-being often take decades to emerge (Ben-Shlomo and Kuh 2002; Hayward and Gorman 2004) and guides our focus on exploring long-term consequences of nonmarital fertility for offspring health in adolescence. A key tenet of this paradigm is that a short-term perspective whereby health is measured contemporaneously with influential life events can underestimate true long-term effects (Ben-Shlomo and Kuh 2002). Furthermore, from both policy and public health perspectives, it is important to identify events and conditions with enduring health consequences."
                    ]
                },
                {
                    "title": "Nonmarital Fertility and the Health of Offspring in Adolescence",
                    "paragraphs": [
                        "An equally important question is whether an unmarried mother's subsequent marriage might improve health outcomes for her children, as suggested by proponents of marriage promotion initiatives. However, one cannot assume that two-parent homes experienced by children born to two married parents necessarily have the same impact on health and well-being as those experienced by children born to unmarried mothers who later marry. Women who marry after nonmarital births report more conflict, less companionship (Timmer and Orbuch 2001), and less perceived stability (Williams, Sassler, and Nicholson 2008) in their marriages than women who have children within marriages. Women who marry after nonmarital births are also more likely to marry men who already have children or who have low levels of income and education (Lichter, Graefe, and Brown 2003). Consequently, few unmarried mothers appear to receive economic (Edin and Kefalas 2005; Graefe and Lichter 2007) or health (Williams et al. 2011) benefits from marriage. Given the importance of economic and family stability to child well-being (Bzostek and Beck 2011; Heard 2007; Wu 1996), evidence that unmarried mothers face barriers to forming stable, high-quality, and economically beneficial marriages challenges the assumption that unmarried mothers' later marriages will necessarily promote the health and well-being of their children.",
                        "In fact, several recent studies concluded that there is little evidence that maternal marriage benefits children born to unmarried mothers (Acs 2007; Bachman, Coley, and Chase-Lansdale 2009), although none have focused specifically on the mental and physical health of adolescents. Prior research has focused on short-term processes, examining child well-being as a function of mother's current union status or recent union transitions (Acs 2007; Heard 2007). As Wagmiller et al. (2010) noted, \"Failure to consider how the effects of parental marriage change over time is likely to understate the long-term benefits of marriage, especially if the effects of marriage on children are examined . . . immediately after a parent's transition to marriage\" (p. 202). We address this issue and further consider how union type, marital stability and the paternity status of the mother's partner shape the health of adolescents born to unmarried women."
                    ]
                },
                {
                    "title": "Nonmarital Fertility and the Health of Offspring in Adolescence",
                    "paragraphs": [
                        "Marriages that unmarried mothers enter are especially vulnerable to dissolution, partly because of the relative lack of \"marriageable men\" available (Harknett and McLanahan 2004; Qian et al. 2005). Unions may introduce instability into children's lives by increasing exposure to alcohol, drugs, violence, and union dissolution (McLanahan 2006), with negative consequences for child well-being. Although some research suggests that family instability is more predictive of children's outcomes than is family structure, per se (Heard 2007; Wu 1996), other research indicates that much of the instability effect (but not the effect of mother's union status at birth) is explained by mother's antecedent characteristics (Fomby and Cherlin 2007). Furthermore, mothers' cohabiting and marital unions can provide financial and emotional benefits for households (Cavanagh et al. 2008; Fomby and Cherlin 2007), making it important to clarify the relationships between union status at birth, subsequent union change, and offspring well-being. We distinguish mothers whose later marriages dissolve from those whose marriages endure.",
                        "Paternity status of the spouse is also relevant. Data from the Fragile Families and Wellbeing Study suggest that only a minority of never-married mothers marry the fathers of their children (Carlson, McLanahan, and England 2004). Furthermore, all fathering statuses are not equivalent in their ramifications for children (Aquilino 1996; Brown 2004; Hofferth 2006; Morrison and Ritualo 2000) or in the perceptions of mothers, whose assessments of fathers' parenting practices are contingent on both paternity status and union status (Berger et al. 2008). For example, biological fathers are more trusted than nonbiological residential \"social fathers,\" but social fathers are seen as more cooperative, particularly in marital unions (Berger et al. 2008). Although drawn largely from studies of children of divorce, the benefits of a two-parent home for child well-being appear diminished for children living with stepfathers compared with children living both with biological fathers (Chase-Lansdale 1994; Hofferth 2006) and those whose mothers remain unmarried (Aquilino 1996; Brown 2006; Fomby and Cherlin 2007). We focus on children born to never-married mothers and differentiate those whose mothers subsequently married their biological fathers from those whose mothers formed unions with others. Unmarried mothers' cohabitation experiences (at birth or later) may also shape offspring mental and physical health. Mounting evidence suggests that the benefits of having a father in the household are limited to marital unions, in part because paternal investment in offspring is weaker in cohabiting unions (Berger et al. 2008; Brown 2004; Hofferth 2006). Cohabitations are also less stable and shorter lived than marital unions, particularly for the less educated and when children are present: over 80 percent of cohabiting unions last fewer than five years (Qian et al. 2005). Thus, for offspring of unmarried mothers, a mother's cohabitation, even with the child's father, will likely be associated with fewer favorable outcomes than marriage, but its expected effect compared with mothers remaining unpartnered is less clear."
                    ]
                },
                {
                    "title": "Nonmarital Fertility and the Health of Offspring in Adolescence",
                    "paragraphs": [
                        "Black youth are especially likely to be born to unmarried mothers and to spend much or all of their childhood years in unmarried-parent homes. In 2009, nonmarital births accounted for 29 percent and 72.8 percent of all births to white and black women, respectively (Martin et al. 2011). White women are also significantly more likely to marry after the birth of children than are black women. Among women who experienced nonmarital births between 1982 and 2004, 71.4 percent of white women but only 36.3 percent of black women had wed within the next 10 years (Gibson-Davis 2011, Table 2). Black children born to cohabiting parents are also significantly more likely to witness their parents' union dissolve than are white children (Osborne et al. 2007). It is therefore important to consider variation by race in the consequences of nonmarital childbearing for adolescent health and well-being.",
                        "Several studies suggest that family structure and family instability matter more for the well-being of white than black children (Dunifon and Kowaleski-Jones 2002; Fomby and Cherlin 2007; Fomby, Mollborn, and Sennott 2010; Manning and Brown 2006). Scholars speculate that differences in the normative status of nonmarital parenthood and in the familial and community support provided to unmarried parents may be relatively protective for black children (Fomby and Cherlin 2007; Gerstel 2011), and some even suggest that an emphasis on marriage and nuclear family life disregards the very social resources and community ties crucial to the survival strategies of low-income populations (Gerstel 2011). Additional evidence indicates that unmarried African American fathers have more frequent contact and involvement in their children's lives than their white counterparts (King, Harris, and Heard 2013; Stier and Tienda 1993). Whether these differences are associated with the health of adolescent offspring remains unexplored, however. We consider race differences in the association of adolescent health with mother's marital status at birth and, when our data allow, with mother's subsequent union history."
                    ]
                }
            ]
        },
        {
            "title": "Data and Methods",
            "subsections": [
                {
                    "title": "Measures",
                    "paragraphs": [
                        "Our models predict self-assessed health and depressive symptoms. Self-assessed health is strongly predictive of morbidity and mortality (Idler and Benyamini 1997) and is recognized as a valid and reliable indicator of health status in general populations (Ferraro and Farmer 1999). We construct two measures of self-assessed health from responses to the following question: \"In general, would you say your health is excellent, very good, good, fair, or poor?\" Fair or poor self-assessed health is a dichotomous measure in which 1 = fair or poor health and 0 = excellent, very good, or good health. We use the full five-category indicator of self-assessed health. Depressive symptoms are assessed using a summed seven-item version of the Center for Epidemiologic Studies Depression Scale (CES-D; range = 0-21). Respondents assess the frequency of seven somatic and emotional symptoms of depression over the past week on a scale ranging from 0 to 3. We use the natural logarithm of the CES-D score to reduce the positive skew in the untransformed variable. The CES-D is highly correlated with other depression scales and is a common indicator of mental health status in community populations.",
                        "We measure the dependent variables when young adults are aged 14 or 15 years for about 71 percent of the analytic sample. If data are missing at these ages, we take information from young adults at progressively older ages: 16 (20 percent), 17 (5 percent), and 18 (4 percent) years, controlling for age at measurement. Descriptive statistics for all variables are presented by both mother's marital status at the child's birth and race in Table 1.",
                        "The primary independent variable in the first stage of our analysis is mother's marital status at birth. Dummy variables distinguish those born to (a) never-married noncohabiting mothers (n = 421), (b) never-married cohabiting mothers (n = 283), and (c) married mothers, the reference category (n = 1,299). We exclude 57 youth whose mothers' cohabitation status at birth was unknown.",
                        "The second stage of our analysis is limited to 761 youth born to never-married (cohabiting or noncohabiting) mothers. Seven mutually exclusive dummy variables distinguish mothers' subsequent union histories, using a hierarchy that first identifies those who eventually entered into marital unions, followed by those who cohabited without marrying. The categories are as follows: (1) entered an enduring1 marriage with the biological father (n = 150), (2) entered an enduring marriage with someone other than the biological father (n = 136), (3) entered and exited a marriage with the biological father (n = 63), (4) entered and exited a marriage with a new partner (n = 68), (5) never married but cohabited with the biological father (n = 88), and (6) never married but cohabited with a new partner (n = 47). The reference category (7) consists of young adults born to mothers who never married and never cohabited at birth or later (n = 209).",
                        "Although all youth in analysis 2 were born to never-married mothers, some mothers were cohabiting at birth. Although sample sizes did not allow us to separately analyze youth born to cohabiting versus unpartnered mothers, we control for mother's cohabitation status at birth and incorporate it into the union history categories as follows: categories 1 through 4, representing youth born to never-married mothers who subsequently married include those whose mothers who were, at the time of the children's birth, already cohabiting with the partners they later married. Categories 5 and 6, representing youth whose mothers never married but cohabited, include those whose mothers were cohabiting with those partners (the children's biological fathers or new partners) when the children were born. We also include in this analysis (in categories 1-5) 57 youth whose mothers' cohabitation status at birth was unknown and include an \"unknown\" category in the cohabitation status control variable. Category 7 (the reference category) is limited to youth whose mothers never married and never cohabited at birth or later. Alternative specifications, including those in which youth whose mothers cohabited at birth were included in the reference category, did not alter the pattern of results. The distribution of mother's union history by race among adolescents born to never-married mothers is presented in Table 2.",
                        "To minimize the probability that observed associations of mother's union status with adolescent health are spurious, we control for a range of variables that prior research and theory suggest are predictive of both mother's union history and later child health. Background variables that occur prior to or contemporaneously with a child's birth include the following characteristics of the adolescent's mother: race (1 = non-Hispanic black, 0 = non-Hispanic white), age, cohabitation status (cohabiting, not cohabiting, or unknown) at the child's birth, cognitive ability (1980 Armed Forces Qualification Test score), family composition at age 14 years (1 = lived with both biological parents), poverty status at baseline (1 = in poverty, on the basis of whether the family income was below the federal poverty income guidelines for the particular family size in 1978), and her mother's (i.e., the adolescent's maternal grandmother's) years of education. Controlling for characteristics of the adolescent or mother measured after the adolescent's birth would underestimate the gross effect of our primary independent variables because many such characteristics are likely mechanisms through which the consequences of mother's union status at birth for adolescent health are produced. We control for only two adolescent characteristics, neither of which are influenced by mother's union status: sex (1 = female, 0 = male) and the age at which the dependent variable is measured (16, 17, 18, or 14 or 15 [reference])."
                    ]
                },
                {
                    "title": "Measures",
                    "paragraphs": [
                        "We use ordinary least squares regression to predict logged depressive symptoms, logistic regression models to predict the probability of reporting fair or poor health, and ordered probit models when using the five-category measure of self-assessed health. We imputed missing data using the chained equations program for STATA (Royston 2005), and the cases imputed in each analysis are detailed below.",
                        "We first examine the long-term consequences of being born to a never-married mother compared with a married mother for adolescent health and well-being. Although the NLSY79 includes data on all children born to female respondents, we limit all analyses to first-born children because many children from higher order births have not yet aged into the young adult sample (i.e., reached age 14 or 15 years by 2010; born by 1996) and those who have were disproportionately born to younger mothers. As of 2010, the NLSY79 had interviewed 2,870 young adults who were the first-born children of NLSY79 mothers and were born between 1977 and 1994. We exclude 612 youth born to Hispanic mothers because there were too few cases in each union history category to analyze separately in Analysis 2. Of the 2,258 offspring eligible for inclusion, 7.3 percent were excluded because of missing data on one of the dependent variables (n = 168) or on mother's union status at birth (n = 57), leaving a total sample size of 2,033 for the first part of our analysis (Tables 3 and 4). We imputed missing data on the following measures of the adolescent's mother's background: cognitive ability (3.6 percent [n = 74]), 1979 poverty status (6.3 percent [n = 128]), and her mother's educational attainment (5.4 percent [n = 110]).",
                        "Models estimating the health of adolescents born to never-married mothers as a function of mothers' subsequent union histories are limited to the 761 (589 black and 172 white) young adults born to never-married black or white mothers. This analysis includes youth who were born to never-married cohabiting mothers, although we control for mother's cohabitation status at birth. We imputed missing data on the following measures of the adolescent respondent's mother's background: cognitive ability (3.4 percent [n = 26]), 1979 poverty status (5.7 percent [n = 43]), and her mother's (i.e., the youth's maternal grandmother's) educational attainment (7.9 percent [n = 60]). As shown in Table 2, small sample sizes in some categories among white unmarried mothers prohibit us from directly comparing children born to black versus white unmarried mothers, so we explore whether the general patterns observed in the total sample differ for black adolescents."
                    ]
                }
            ]
        },
        {
            "title": "Results",
            "subsections": [
                {
                    "title": null,
                    "paragraphs": [
                        "The results in Model 1 in Table 3 indicate that youth born to never-married mothers, regardless of cohabitation status at birth, do not have significantly higher levels of depressive symptoms in adolescence than youth born to married mothers, after controlling for a wide range of maternal background characteristics. Tests of the interaction of mother's union status with race in Model 2 and other supplementary analyses (available on request) indicate that these patterns do not differ by race, baseline poverty status of the mother, or sex of the adolescent.",
                        "Ordered probit models predicting the five-category indicator of self-assessed health (Models 3 and 4) and logistic regression models estimating the probability of reporting fair or poor adolescent self-assessed health (Models 5 and 6) are estimated next. Although the specific pattern of results differs depending on the way the dependent variable is measured, the general pattern of findings indicates that youth born to both cohabiting and noncohabiting unmarried mothers have worse self-assessed health in adolescence than youth born to married mothers. For example, Model 3 indicates that, even when controlling for an extensive array of maternal background characteristics, youth born to never-married cohabiting mothers report lower levels of health in adolescence than those born to married mothers. This same pattern is found in the logistic regression models predicting the dichotomous indicator of fair or poor health (Model 5), although this coefficient reaches only a marginal level of significance. Model 5 also indicates that compared with youth born to married mothers, youth born to noncohabiting never-married mothers are more likely to report low levels of health (fair or poor) in adolescence than are youth born to married mothers. Supplementary analyses using \"mother never married and never cohabited\" as the reference category indicated no significant differences between youth born to never-married mothers who cohabited at birth and those who were unpartnered at birth in the coefficients predicting either measure of self-assessed health, suggesting that the health of youth born to cohabiting mothers is more similar to that of youth born to unpartnered mothers than to the health of youth born to married mothers. Analyses in Model 4, Model 6, and supplementary analyses (available on request) indicate that none of the associations in Table 3 differ by race, sex, or the baseline poverty status of the mother.",
                        "Our second aim is to identify the association of mother's subsequent union histories with the health of adolescents who were born to unmarried mothers, with attention to marital stability and paternity status of mothers' partners. In other words, whereas the focus of the analysis in Table 3 was on estimating the consequences of maternal union status at birth, this analysis focuses on maternal union history after the child's birth among those born to never-married mothers. Because sample sizes prohibited us from differentiating youth by mother's cohabitation status both before and after the birth, our analysis is limited to black and white adolescents who were born to never-married cohabiting or noncohabiting mothers, and models control for mother's cohabitations status at birth. Results of ordinary least squares models predicting logged depressive symptoms (Models 1 and 2), ordered probit regression models predicting the ordered five-category measure of self-assessed health (Models 3 and 4), and logistic regression models predicting the probability of reporting fair or poor health (Models 5 and 6) are presented in Table 4. Models control for the same set of background characteristics as shown in Table 3 plus the cohabitation status of the mother at the adolescent's birth. Odd-numbered models pertain to black and white youth combined and even-numbered models to the black subsample.",
                        "The general conclusion from Table 4 is that, with two exceptions, mothers' subsequent union histories have little consequence for the mental and physical health of black or white adolescents born to unmarried mothers. Those whose mothers remained unpartnered throughout their youth report similar levels of depressive symptoms (Models 1 and 2) and probabilities of reporting fair or poor health (Models 5 and 6) than those whose mothers married their biological fathers or new partners, regardless of whether the marriage endured, and these patterns persist in the black subsample. However, youth born to unmarried mothers who cohabited with their biological fathers reported more depressive symptoms in adolescence than their counterparts whose mothers remained unpartnered and did not enter new cohabiting unions (Model 1; combined black and white sample) and this association persists in the black subsample (Model 2).",
                        "The second exception is shown in Model 3, which suggests some benefits of unmarried mothers' subsequent marriages for their offspring when the five-category indicator of self-assessed health is used. The analysis in Model 4 replicates Model 3 among black adolescents and produces similar results. Black youth born to unmarried mothers who subsequently entered enduring unions with their biological fathers report better self-assessed health than those whose mothers remained unpartnered. Determining whether this association persists for white youth is difficult given the small sample sizes in union history categories, although supplementary analyses (not shown) limited to whites suggests a smaller coefficient. Thus, the apparent benefits of mother's subsequent enduring marriage to the biological father for adolescent self-assessed health (five-category) in the combined sample may be limited to black youth, although further testing of this hypothesis must await future data with a larger sample of white unmarried mothers. Still, it is important to note that these apparent benefits are limited to youth whose mothers married their biological fathers and remained married to him throughout their childhood and as shown in Models 5 and 6, potential benefits of the mother entering and remaining in a marriage with the biological father do not appear to differentiate youth with the most extreme levels of poor health."
                    ]
                }
            ]
        },
        {
            "title": "Discussion",
            "subsections": [
                {
                    "title": null,
                    "paragraphs": [
                        "High rates of nonmarital fertility in the United States led us to investigate two research questions: Does nonmarital fertility have long-term negative health consequences for offspring in adolescence? Do mothers' subsequent union experiences, including marriage, improve the health outcomes in adolescence of children born to unmarried mothers? Our first conclusion is that compared with youth born to married mothers, black and white adolescents who were born to unmarried mothers have worse self-assessed health but similar levels of depressive symptoms compared with youth born to married mothers. Although the association with adolescent health of being born to a cohabiting or unpartnered versus a married mother differs depending on how self-assessed health is measured, the general pattern of findings is one of health disadvantage associated with mother's unmarried status, regardless of whether she was cohabiting. That is, youth born to cohabiting mothers appear to have adolescent health assessments that are more similar to those of youth born to unpartnered mothers than to those of youth born to married mothers. Our findings extend the vast body of research showing that growing up in a single-parent home poses substantial risks to the well-being of children across a range of behavioral, educational, and psychosocial outcomes throughout the life course (see Amato 2010; Cherlin, Chase-Lansdale, and McRae 1998; McLanahan and Sandefur 1994). Our study is the first to demonstrate that this pattern extends into adolescence for children born to unmarried mothers, at least in terms of their self-assessed health.",
                        "That we find few race differences in the consequences of having been born to an unmarried mother is somewhat inconsistent with studies that indicate that living in a single-parent home has fewer negative consequences for the well-being of black compared with white children (Dunifon and Kowaleski-Jones 2002). However, our study differs from most past research because we examine differences in adolescent self-assessed health and focus specifically on children born to never-married mothers as opposed to children living in single-parent homes after divorce. Our findings suggest that being born to an unmarried mother, even an unmarried cohabiting mother, may have negative consequences for adolescent health regardless of race.",
                        "In contrast to the findings for self-assessed health, we find no evidence of enduring negative consequences of being born to an unmarried mother for adolescent mental health, at least as measured by depressive symptoms, after controlling for a range of maternal background characteristics. These findings may be seen as a caveat to decades of research, based largely on children of divorce (Dunifon 2009; Sweeney, Wang, and Videon 2009), which has found that growing up without both biological parents is associated with a range of negative outcomes throughout the life course (Amato 2010). Our analyses suggest that negative mental health outcomes in adolescence do not extend specifically to children born to unmarried mothers. Still, psychological distress in adolescence may be expressed in multiple ways, including behavioral outcomes such as alcohol and drug use and other forms of risk-taking behavior. Future research should consider whether our findings for depressive symptoms extend to other indicators of psychological well-being, achievement, and externalizing behavior.",
                        "Our second central finding is that, on average, mothers' subsequent unions have few consequences, positive or negative, for any of our measures of the mental or physical health of adolescents born to unmarried mothers. One notable exception is when mothers subsequently marry and remain married to biological fathers, which is associated with better adolescent self-assessed health than when mothers remain unpartnered. Even here, however, the estimated effects are small and do not significantly differentiate youth with the worst (i.e., fair or poor) self-assessed health from others. Adolescents whose mothers marry and divorce their biological fathers, marry new partners, or cohabit without marrying have levels of self-assessed health that are no different from those whose mothers remain unpartnered.",
                        "It is telling that any physical health benefits of a mother's marriage accrue only to adolescents whose mothers marry their biological fathers and remain in the union. It is well known that children in stepfamilies have more negative developmental, educational, and behavioral outcomes than children with two continuously married parents but do not differ on average from children of single parents (Acs 2007; Cavanagh 2008; Deleire and Kalil 2002; Sweeney et al. 2009). Our study indicates that this pattern applies specifically to adolescents born to never-married mothers and suggests that for these youth, the introduction of a stepfather in the home offers no greater benefits to adolescent health than living with a continually unpartnered mother. In addition, consistent with research indicating that mothers' relationship instability undermines the well-being of children born to unmarried mothers (Osborne and McLanahan 2007), we find that their mothers' subsequent marriages to their biological fathers only benefit adolescents' health if the marriages endure.",
                        "The observed benefits to children's self-assessed health associated with their mothers' marrying their biological fathers, but not new partners, may partially reflect the timing of the marriage. Bzostek, McLanahan, and Carlson (2012) found that only 21.6 percent of unmarried mothers in the Fragile Families and Wellbeing Study entered coresidential relationships (either cohabitation or marriage) with new partners within 5 years of the children's birth, whereas 37.6 percent were cohabiting with or married to the biological fathers. Although comparable data on the timing of marriage to the child's biological father are not available, it is likely that such marriages occur sooner after the child's birth than marriages to new partners. Thus, children in these households (particularly those whose parents remain married) likely spend less time in single-parent homes than children whose mothers marry stepfathers, thereby reducing their exposure to family instability, a primary mechanism through which nonmarital fertility likely undermines child health in the first place (Bzostek and Beck 2011). As Gibson-Davis (2011) surmised, \"From the child's perspective, the timing of marriage may be just as important as the event of marriage\" (p. 267). An important avenue for future research is to consider the influence of time spent in a single-parent home and in various other household structures for the well-being of offspring across the life course.",
                        "Our third central finding is that, among youth born to unmarried mothers, mother's cohabitation with the biological father (either at birth or later) is linked to more depressive symptoms in adolescence than living with a continually unpartnered mother. It is likely that children whose mothers cohabited experienced substantial instability throughout their lives including the dissolution of their mothers' cohabiting unions to their fathers (Lichter, Qian, and Mellott 2006; Manlove et al. 2012; McLanahan 2011) and multiple subsequent cohabiting unions. Because of small group sizes, we were unable to distinguish children whose mothers cohabited with one versus multiple partners or children whose mothers had one versus multiple divorces. Given the rising prevalence of serial cohabitation (Cohen and Manning 2010; Lichter, Turner, and Sassler 2010), particularly among the disadvantaged, future research should focus specifically on its consequences for the long-term well-being of offspring. Still, it is unclear why mother's cohabitation (without marriage) with the biological father would be associated with more depressive symptoms, whereas mother's cohabitation with a new partner or marriage followed by divorce is not. It may be that mothers who repartner have higher standards for new partners (Bzostek et al. 2012; Edin and Kefalas 2005), perhaps leading to a lower degree of conflict within the household than within a continuously cohabiting two-biological parent household. The cross-sectional evidence suggests that unmarried mothers' new partners are often highly involved with their stepchildren and that children reap benefits from this social fathering (Berger et al. 2008).",
                        "It is important to note that our focus on examining longer term outcomes for youth in adolescence required us to limit our analysis to youth born no later than 1996. Demographic changes in family formation patterns may affect the extent to which our findings can be reliably generalized to more recent cohorts. For example, cohabiting at the time of the birth was far less prevalent in the 1980s, when the majority of youth in our sample were born (Musick 2002; Raley 2001), particularly among black women, who make up the largest share of nonmarital births in our sample (Raley 1996). As of the first decade of the twenty-first century, however, nearly 60 percent of nonmarital births occur to women in cohabiting unions (Martinez et al. 2012). The more normative status of births in cohabiting unions may mean that being born to an unmarried cohabiting mother has fewer negative long-term consequences for adolescent health than we observe. On the other hand, there is some evidence that cohabitation disruption rates are higher among more recent cohorts (Lichter et al. 2006) who are more likely to end their relationship with the baby's father than to marry him (Lichter et al. 2006; Manlove et al. 2012; McLanahan 2011). Furthermore, black cohabiting parents have the lowest relative risk for transitioning to marriage (Manlove et al. 2012). In summary, we might see more negative consequences were we to focus on more recent cohorts and specifically on those who experienced multiple cohabiting unions (Williams et al. 2008)."
                    ]
                }
            ]
        },
        {
            "title": "Conclusion",
            "subsections": [
                {
                    "title": null,
                    "paragraphs": [
                        "Our results suggest that being born to an unmarried compared with a married mother may have some negative long-term consequences for adolescent self-assessed physical health, but not adolescent depressive symptoms. However, with one exception, mothers' subsequent marriages or cohabiting unions offer few advantages over stability in an unpartnered state for the health of adolescents born to unmarried mothers. Our findings suggest that although healthy, enduring marriages between biological parents of children born to unmarried mothers may have some limited positive consequences for the self-assessed health of offspring in adolescence, they do not appear to protect such adolescents from the most extreme health problems. Even here, however, selection remains a concern: Although the NLSY79 data allow us to control for a wide range of mothers' background characteristics, it remains possible that unobserved characteristics that both select unmarried mothers into marriage with biological fathers and shape child health explain these patterns. However, even if healthy and enduring marriages between biological parents after a nonmarital birth have positive causal effects on the health of children born to unmarried mothers, such unions are increasingly rare, and the likelihood of successfully facilitating such unions in the future remains an open question. If, as we conclude here, nonmarital fertility poses some risks to the long-term health of offspring, and mother's subsequent marriage, even to the biological father, offers only limited benefits, it is vitally important for future studies to identify factors with greater promise to improve the health of the growing numbers of youth born to unmarried mothers."
                    ]
                }
            ]
        }
    ],
    "references": [
        "Acs, Gregory. 2007. \u201cCan We Promote Child Well-being by Promoting Marriage?\u201d Journal of Marriage and Family 69(5):1326\u201344.",
        "Amato, Paul R. 2010. \u201cResearch on Divorce: Continuing Trends and New Developments.\u201d Journal of Marriage and Family 72(3):650\u201366.",
        "Aquilino, William S. 1996. \u201cThe Life Course of Children Born to Unmarried Mothers: Childhood Living Arrangements and Young Adult Outcomes.\u201d Journal of Marriage and Family 58(2):293\u2013310.",
        "Bachman, Heather J., Coley, Rebekah Levine, Chase-Lansdale, P. Lindsay. 2009. \u201cIs Maternal Marriage Beneficial for Low-income Adolescents?\u201d Applied Developmental Science 13(4):153\u201371.",
        "Ben-Shlomo, Yoav, Kuh, Diana. 2002. \u201cA Life Course Approach to Chronic Disease Epidemiology: Conceptual Models, Empirical Challenges, and Interdisciplinary Perspectives.\u201d International Journal of Epidemiology 31(2):285\u201393.",
        "Berger, Lawrence M., Carlson, Marcia J., Bzostek, Sharon H., Osborne, Cynthia. 2008. \u201cParenting Practices of Resident Fathers: The Role of Marital and Biological Ties.\u201d Journal of Marriage and Family 70(3):625\u201339.",
        "Brooks, Clem. 2002. \u201cReligious Influence and the Politics of Family Decline Concern: Trends, Sources, and U.S. Political Behavior.\u201d American Sociological Review 67(2):191\u2013211.",
        "Brown, Susan L. 2004. \u201cFamily Structure and Child Well-being: The Significance of Parental Cohabitation.\u201d Journal of Marriage and Family 66(2):351\u201367.",
        "Brown, Susan L. 2006. \u201cFamily Structure Transitions and Adolescent Well-being.\u201d Demography 43(3):447\u201361.",
        "Brown, Susan L. 2010. \u201cMarriage and Child Well-being: Research and Policy Perspectives.\u201d Journal of Marriage and Family 72(5):1059\u201377.",
        "Bzostek, Sharon H., Beck., Audrey N. 2011. \u201cFamilial Instability and Young Children\u2019s Physical Health.\u201d Social Science & Medicine 73(2):282\u201392.",
        "Bzostek, Sharon H., McLanahan, Sara S., Carlson, Marcia J. 2012. \u201cMothers\u2019 Repartnering after a Nonmarital Birth.\u201d Social Forces 90(3):817\u201341.",
        "Cancian, Maria, Meyer, Daniel R., Cook, Steven T. 2011. \u201cThe Evolution of Family Complexity from the Perspective of Nonmarital Children.\u201d Demography 48:957\u201382.",
        "Carlson, Marcia J., Corcoran, Mary E. 2001. \u201cFamily Structure and Children\u2019s Behavioral and Cognitive Outcomes.\u201d Journal of Marriage and Family 63(3):779\u201392.",
        "Carlson, Marcia J, McLanahan, Sara S., England, Paula. 2004. \u201cUnion Formation in Fragile Families.\u201d Demography 41(2):237\u201361.",
        "Cavanagh, Shannon E. 2008. \u201cFamily Structure History and Adolescent Adjustment.\u201d Journal of Family Issues 29(7):944\u201380.",
        "Cavanagh, Shannon E., Crissey, Sarah R., Raley, R. Kelly. 2008. \u201cFamily Structure History and Adolescent Romance.\u201d Journal of Marriage and Family 70(3):698\u2013714.",
        "Chase-Lansdale, P. Lindsay. 1994. \u201cPolicies for Stepfamilies: Crosswalking Private and Public Domains.\u201d Pp. 205\u201316 in Stepfamilies: Who Benefits? Who Does Not?, edited by Booth, A., Dunn., J. F. London: Routledge.",
        "Cherlin, Andrew J., Chase-Lansdale, P. Lindsay, McRae, Christine. 1998. \u201cEffects of Parental Divorce on Mental Health throughout the Life Course.\u201d American Sociological Review 63(2):239\u201349.",
        "Cohen, Jessica, Manning, Wendy L. 2010. \u201cThe Relationship Context of Premarital Serial Cohabitation.\u201d Social Science Research 39(5):766\u201376.",
        "Conley, Dalton, Bennett, Neil G. 2001. \u201cBirth Weight and Income: Interactions across Generations.\u201d Journal of Health and Social Behavior 42(4):450\u201365.",
        "Deleire, Thomas, Kalil, Ariel. 2002. \u201cGood Things Come in Threes: Single-parent Multigenerational Family Structure and Adolescent Adjustment.\u201d Demography 39(2):393\u2013413.",
        "Duncan, Greg J., Brooks-Gunn, Jeanne. 1997. Consequences of Growing Up Poor. New York: Russell Sage.",
        "Dunifon, Rachel. 2009. \u201cSingle-Parenthood and Child Well-Being: Trends, Theories and Evidence.\u201d Pp. 93\u2013114 in Marriage and Family: Complexities and Perspectives, edited by Peters, H. E., Dush, C. M. Kamp New York: Columbia University Press.",
        "Dunifon, Rachel, Kowaleski-Jones, Lori. 2002. \u201cWho\u2019s in the House? Race Differences in Cohabitation, Single Parenthood, and Child Development.\u201d Child Development 73(4):1249\u201364.",
        "Edin, Kathryn, Kefalas, Maria. 2005. Promises I Can Keep: Why Poor Women Put Motherhood before Marriage. Berkeley, CA: University of California Press.",
        "Ferraro, Kenneth F., Farmer, Melissa M. 1999. \u201cUtility of Health Data from Social Surveys: Is There a Gold Standard for Measuring Morbidity?\u201d American Sociological Review 64(2):303\u201315.",
        "Fomby, Paula, Cherlin, Andrew J. 2007. \u201cFamily Instability and Child Well-being.\u201d American Sociological Review 72(2):181\u2013204.",
        "Fomby, Paula, Mollborn, Stefanie, Sennott., Christie A. 2010. \u201cRace/Ethnic Differences in Effects of Family Instability on Adolescents\u2019 Risk Behavior.\u201d Journal of Marriage and Family 72(2):234\u201353.",
        "Francesconi, Marco. 2008. \u201cAdult Outcomes for Children of Teenage Mothers.\u201d Scandinavian Journal of Economics 110(1):93\u2013117.",
        "Gerstel, Naomi. 2011. \u201cRethinking Families and Community: The Color, Class, and Centrality of Extended Kin Ties.\u201d Sociological Forum 26(1):1\u201320.",
        "Gibson-Davis, Christina M. 2011. \u201cMothers but Not Wives: The Increasing Lag Between Nonmarital Births and Marriage.\u201d Journal of Marriage and Family 73(1):264\u201378.",
        "Graefe, Deborah R., Lichter., Daniel T. 2007. \u201cWhen Unwed Mothers Marry: The Marital and Cohabiting Partners of Midlife Women.\u201d Journal of Family Issues 28(5):595\u2013622.",
        "Guzzo, Karen Benjamin, Furstenberg., Frank F. 2007. \u201cMultipartnered Fertility among American Men.\u201d Demography 44(3):583\u2013601.",
        "Harknett, Kristin, Hartnett, Carolyn Sten. 2011. \u201cWho Lacks Support and Why? An Examination of Mothers\u2019 Personal Safety Nets.\u201d Journal of Marriage and Family 73(4):861\u201375.",
        "Harknett, Kristin, McLanahan, Sara S. 2004. \u201cRacial and Ethnic Differences in Marriage after the Birth of a Child.\u201d American Sociological Review 69(6):790\u2013811.",
        "Hayward, Mark D., Gorman, Bridget K. 2004. \u201cThe Long Arm of Childhood: The Influence of Early-life Social Conditions on Men\u2019s Mortality.\u201d Demography 41(1):87\u2013107.",
        "Heard, Holly E. 2007. \u201cFathers, Mothers, and Family Structure: Family Trajectories, Parent Gender, and Adolescent Schooling.\u201d Journal of Marriage and Family 69(2):435\u201350.",
        "Hofferth, Sandra L. 2006. \u201cResidential Father Family Type and Child Well-being: Investment Versus Selection.\u201d Demography 43(1):53\u201377.",
        "Hofferth, Sandra L., West, Jerry, Kaufman, Phillip. 1994. Access to Early Childhood Programs for Children at Risk. Washington, DC: U.S. Department of Education.",
        "Huang, Chien-Chun, Mincey, Ronald B., Garfinkel, Irwin. 2005. \u201cChild Support Obligations and Low-income Fathers.\u201d Journal of Marriage and Family 67(5):1213\u201325.",
        "Idler, Ellen, Benyamini, Yael. 1997. \u201cSelf-rated Health and Mortality: A Review of Twenty-seven Community Studies.\u201d Journal of Health and Social Behavior 38(1):21\u201337.",
        "King, Valarie, Harris, Kathleen Mullan, Heard, Holly E. 2004. \u201cRacial and Ethnic Diversity in Nonresident Father Involvement.\u201d Journal of Marriage and Family 66(1):1\u201321.",
        "Lichter, Daniel T., Graefe, Deborah R., Brown, J. Brian. 2003. \u201cIs Marriage a Panacea? Union Formation among Economically Disadvantaged Unwed Mothers.\u201d Social Problems 50(1):60\u201386.",
        "Lichter, Daniel T., Qian, Zhenchao, Mellott, Leanna M. 2006. \u201cMarriage or Dissolution? Union Transitions among Poor Cohabiting Women.\u201d Demography 43(2):223\u201340.",
        "Lichter, Daniel T., Turner, Richard N., Sassler, Sharon. 2010. \u201cNational Estimates of the Rise in Serial Cohabitation.\u201d Social Science Research 39(5):754\u201365.",
        "Lieberson, Stanley. 1985. Making It Count: The Improvement of Social Research and Theory. Berkeley, CA: University of California Press.",
        "Manlove, Jennifer, Wildsmith, Elizabeth, Ikramullah, Erum, Ryan, Suzanne, Holcombe, Emily, Scott, Mindy, Peterson, Kristen. 2012. \u201cUnion Transitions Following the Birth of a Child to Cohabiting Parents.\u201d Population Research and Policy Review 31(3):361\u201386.",
        "Manning, Wendy D., Brown., Susan L. 2006. \u201cChildren\u2019s Economic Well-being in Married and Cohabiting Parent Families.\u201d Journal of Marriage and Family 68(2):345\u201362.",
        "Martin, Joyce A., Hamilton, Brady E., Ventura, Stephanie J., Osterman, Michelle J. K., Kirmeyer, Sharon, Mathews, T. J., Wilson, Elizabeth C. 2011. \u201cBirths: Final Data for 2009.\u201d National Vital Statistics Reports No. 60. Hyattsville, MD: National Center for Health Statistics.",
        "Martinez, Gladys, Daniels, Kimberly, Chandra, Anjani. 2012. \u201cFertility of Men and Women Aged 15-44 Years in the United States: National Survey of Family Growth, 2006-2010\u201d National Health Statistics Reports No. 51. Hyattsville, MD: National Center for Health Statistics.",
        "McLanahan, Sara S. 2006. \u201cFragile Families and the Marriage Agenda.\u201d Pp. 1\u201321 in Fragile Families and the Marriage Agenda, edited byKowaleski-Jones, L., Wolfinger., N. H. New York: Springer.",
        "McLanahan, Sara S. 2011. \u201cFamily Instability and Complexity after a Nonmarital Birth: Outcomes for Children in Fragile Families.\u201d Pp. 108\u201333 in Social Class and Changing Families in an Unequal America, edited by Carlson, M., England., P. Stanford, CA: Stanford University Press.",
        "McLanahan, Sara S., Sandefur, Gary. 1994. Growing Up with a Single Parent: What Hurts, What Helps? Cambridge, MA: Harvard University Press.",
        "Morrison, Donna R., Ritualo, Amy. 2000. \u201cRoutes to Children\u2019s Economic Recovery after Divorce: Are Cohabitation and Remarriage Equivalent?\u201d American Sociological Review 65(4):560\u201380.",
        "Murphey, David, Bandy, Tawana, Moore, Kristin A. 2012. \u201cFrequent Residential Mobility and Young Children\u2019s Well-being.\u201d Child Trends Research Brief 2012-02. Retrieved June 28, 2013 (http://www.childtrends.org/wp-content/uploads/2012/01/Child_Trends-2012_02_14_RB_Mobility.pdf).",
        "Musick, Kelly. 2002. \u201cPlanned and Unplanned Childbearing among Unmarried Women.\u201d Journal of Marriage and Family 64(4):915\u201329.",
        "Osborne, Cynthia, Manning, Wendy D., Smock, Pamela J. 2007. \u201cMarried and Cohabiting Parents\u2019 Relationship Stability: A Focus on Race and Ethnicity.\u201d Journal of Marriage and Family 69(5):1345\u201366.",
        "Osborne, Cynthia, McLanahan, Sara S. 2007. \u201cPartnership Instability and Child Well-being.\u201d Journal of Marriage and Family 69(4):1065\u201383.",
        "Pearlin, Leonard I., Schieman, Scott, Fazio, Elena M., Meersman, Stephen C. 2005. \u201cStress, Health, and the Life Course: Some Conceptual Perspectives.\u201d Journal of Health and Social Behavior 46(2):205\u201319.",
        "Qian, Zhenchao, Lichter, Daniel T., Mellott, Leanna. 2005. \u201cOut of Wedlock Childbearing, Marital Prospects and Mate Selection.\u201d Social Forces 84(1):467\u201385.",
        "Raley, R. Kelly. 1996. \u201cA Shortage of Marriageable Men? A Note on the Role of Cohabitation in Black-White Differences in Marriage Rates.\u201d American Sociological Review 61(6):973\u201383.",
        "Raley, R. Kelly. 2001. \u201cIncreasing Fertility in Cohabiting Unions: Evidence for the Second Demographic Transition in the United States?\u201d Demography 38(1):59\u201366.",
        "Royston, Patrick. 2005. \u201cMultiple Imputation of Missing Values: Update.\u201d Stata Journal 5(2):1\u201314.",
        "Stier, Haya, Tienda, Marta. 1993. \u201cAre Men Marginal to the Family? Insights from Chicago\u2019s Inner City.\u201d Pp. 107\u201318 in Understanding Inequality: The Intersection of Race/Ethnicity, Class, and Gender, edited byArrighi, B. A. Oxford, UK: Rowman & Littlefield.",
        "Sweeney, Megan M., Wang, Hongbo, Videon, Tami M. 2009. \u201cReconsidering the Association between Stepfather Families and Adolescent Well-being.\u201d Pp. 177\u2013225 in Marriage and Family: Perspectives and Complexities, edited by Peters, E., Kamp-Dush, C. New York: Columbia University Press.",
        "Teachman, Jay D. 2002. \u201cChildhood Living Arrangements and the Intergenerational Transmission of Divorce.\u201d Journal of Marriage and Family 64(3):717\u201329.",
        "Timmer, Susan G., Orbuch, Terri I. 2001. \u201cThe Links between Premarital Parenthood, Meanings of Marriage, and Marital Outcomes.\u201d Family Relations 50(2):178\u201385.",
        "Wagmiller, Robert L., Gershoff, Elizabeth, Veliz, Philip, Clements, Margaret. 2010. \u201cDoes Children\u2019s Academic Achievement Improve When Single Mothers Marry?\u201d Sociology of Education 83(3):201\u201326.",
        "Waldfogel, Jane, Craigie, Terry-Ann, Brooks-Gunn, Jeanne. 2010. \u201cFragile Families and Child Wellbeing.\u201d The Future of Children 20(2):87\u2013112.",
        "Williams, Kristi, Sassler, Sharon, Frech, Adrianne, Addo, Fenaba, Cooksey, Elizabeth. 2011. \u201cNonmarital Childbearing, Union History, and Women\u2019s Health at Midlife.\u201d American Sociological Review 76(3):465\u201386.",
        "Williams, Kristi, Sassler, Sharon, Nicholson, Lisa M. 2008. \u201cFor Better or for Worse? The Consequences of Marriage and Cohabitation for Single Mothers.\u201d Social Forces 86(4):1481\u20131511.",
        "Wu, Lawrence L. 1996. \u201cEffects of Family Instability, Income, and Income Instability on the Risk of a Premarital Birth.\u201d American Sociological Review 61(3):386\u2013406.",
        "Wu, Lawrence L. 2008. \u201cCohort Estimates of Nonmarital Fertility for U.S. Women.\u201d Demography 45(1):193\u2013207."
    ],
    "title": "Mothers' Union Histories and the Mental and Physical Health of Adolescents Born to Unmarried Mothers",
    "issue": "3",
    "volume": "54",
    "year": 2013,
    "issn": "0022-1465",
    "journal": "Journal of Health and Social Behavior",
    "authors": [
        "Kristi Williams",
        " Sharon Sassler",
        " Adrianne Frech",
        " Fenaba Addo",
        " Elizabeth Cooksey"
    ]
}