{
    "doi": "http://dx.doi.org/10.1093/esr/jct016",
    "abstract": "Based on the analysis of the European Social Survey (2002), this study explores the nature of civic engagement and identifies three main dimensions: political activism (such as political party or political action group involvement or demonstrations), involvement in voluntary associations and political consumerism (boycotting, \u2018buycotting\u2019, and signing petitions). While political activism and associational involvement accords well with traditional studies of civic engagement, political consumerism points to a new pattern of political behaviour that has become popular in Europe in the past decade. Moreover, modelling the three dimensions of civic engagement demonstrates that the socio-demographic profile of these activists differ from each other. Particularly, political consumerism appeals more to people who have been traditionally regarded as less active, such as women, the young, and those living in urban areas. These findings suggest that political consumerism reduces the participation gap between different social groups and might carry important lessons for participative democracy.",
    "sections": [
        {
            "title": "Introduction",
            "paragraphs": [
                "Understanding the nature of participation and its importance for the stability of democracy has been crucial for studies on civic engagement. Declining trends have raised questions about the capacity of today's citizens to nurture the social and political fabric of our societies in advanced democracies. Low levels of participation are thus seen as an indication of alienated citizens who withdraw their support not only from the government and its representative bodies but also from community initiatives and civil society groups (Putnam, 2000). Moreover, the unequal distribution of civic engagement further increases the gap between different social classes and between those who have the means, networks, competencies and incentives to make their voices heard and those who fail to make an impact and are not being heard (Parry et al., 1992). This study examines patterns of civic engagement in Europe as well as the characteristics of people involved and suggests that different dimensions of civic engagement appeals to different sections of society. While more traditional forms of civic engagement is typically high among the socially well integrated, middle-aged men from higher social classes, 'emerging forms of participation' (Stolle and Hooghe, 2011) such as political consumerism appeals more to women, younger people and people living in urban areas.",
                "In 2002 the European Social Survey (ESS) asked respondents in several European countries whether they have bought deliberately any products for environmental, political, or ethical reasons, whether they have boycotted products, and whether they have signed a petition in the past 12 months. On average, around one-fifth of the European population stated that they have done so.1 This is a relatively high percentage given that being active in political groups and/or political parties is on average 7 per cent in Europe (Table 1). Examining the patterns of civic engagement in 19 European countries has pointed to differences in levels of civic engagement, with the Nordic countries displaying relatively high levels of involvement and the southern and eastern European countries having comparatively low levels of involvement. Yet, in terms of patterns of involvement, the commonalities are striking. Notwithstanding the differences in modes of participation between countries, a broad clustering of three main dimensions of civic engagement has been identified: political activism, associational involvement and political consumerism. While the former two dimensions have been at the centre of civic engagement studies since Almond and Verba's ([1963] 1989) classical study on political culture, political consumerism emerges as a distinct form of participation, bringing in the market as a venue for political contestation. Thus, this article argues that political consumerism has become an important aspect of civic engagement not only because of its high frequency rates but also because of its capacity to reduce the participation gap, appealing thus to a wider section of the society. ",
                "This article discusses first the stratification problem in participation and the conceptualization of civic engagement. The following sections are empirical in nature. First, the relationship between various civic engagement indicators are analysed in Multiple Correspondence Analysis (MCA) to establish common patterns of participation in Europe. In the second empirical section, the characteristics of people engaged in the three dimensions of civic engagement are explored. The article concludes by drawing attention to political consumerism as an emerging form of participation."
            ]
        },
        {
            "title": "Civic Engagement and Participatory Inequality",
            "paragraphs": [
                "The socio-economic stratification of civic engagement has been widely observed in advanced democracies and has remained fairly stable over the decades (Almond and Verba, [1963] 1989; van Deth, 1997; Putnam, 2000; Miller, 2010). One of the most prominent and basic explanations for these inequalities are offered by the socio-economic status (SES) model (Verba and Nie, 1972) and the civic voluntarism model (Verba et al., 2001). The SES model establishes a strong link between education, SES, and participation. It postulates that high levels of formal education provide individuals with the knowledge and the conceptual abilities to understand complex political issues, thus enabling them to take part in politics. Individuals from higher SES are more likely to have the resources--in terms of skills, money, and interest--to be involved. The civic voluntarism model argues that in addition to this, the capacity and motivation to take part in political activities has roots in non-political institutions. The acquisition of civic skills begins early in childhood at home and at school, and it continues in the non-political institutions of adult life like the workplace or voluntary associations and churches. The opportunities to practice civic skills in these institutions are partly determined by the SES, but also by the nature of these institutions. These institutions can mitigate the effect of SES by using group resources. Individuals from lower socio-economic backgrounds can increase their chances of active involvement and articulate their interests through group-based resources and networks such as trade unions and working class associations than by relying on their comparatively disadvantaged individual resources (i.e. money and skills). Thus, although inequality between the lower and higher status groups is not eliminated, using group networks and associations can reduce it considerably (Verba et al., 1978; Putnam, 2000). Being excluded from these resources further increases their inequality. In other words, unequal participation spells unequal representation, as the interests of those who remain withdrawn from the affairs of public life are also likely to be ignored or to remain unheard.",
                "The inequalities in participation continue to be visible not only between socio-economic groups but other socio-demographic factors have also remained relatively stable such as gender and age. Although, the participation gap among women and men in Western Europe has narrowed during the past decade, in particular with respect to voting turnout and cause-oriented political activism, men are still the dominant actors in political parties and voluntary organizations. A comprehensive study on gender and political participation in Britain prepared by Norris et al. (2004) suggests that women often have fewer resources of time, money, and civic skills, combined with a lower psychological engagement in politics.",
                "Age has a curvilinear relationship with political and civic participation and has also been of central importance in explaining differences in participation. Young and older people are less likely to be active than middle-aged people. This is often attributed either to life-cycle effects (Dalton, 2002) or generational effects (Putnam, 2000), or both (Parry et al., 1992). The life-cycle effect is attributed to variations in social integration. Young people are less socially integrated, more mobile and less interested in politics. In contrast to them, older people tend to withdraw from the active workforce, are more likely to be widowed and can be removed from close family ties. Their circle of friends might also shrink, as they get older. Middle aged people on the other hand are socially better integrated, which gives them more incentives to participate. They are thus the most active age group.",
                "Notwithstanding differences in age, gender, and SES status, several studies have argued that the size of locality where one lives also have an effect on people's propensity to become active (Oliver, 2000). Civic participation is higher in rural areas and small towns, as these areas often offer tight networks of social contacts (Putnam, 2000). Where an individual's social contacts are not as dense, they might have less social control, and be less likely to be asked to participate. On the other hand, bigger localities might offer more opportunities to participate. This might be related to the type of social capital they offer. In big cities, networks might be more of a bridging nature and less of a bonding type (van Deth and Martin, 2007). Thus, big cities might be more conducive to tertiary organizations than face-to-face organizations, drawing in people who prefer membership of multiple organizations and loose networks.",
                "These inequalities in participation remain most stable for traditional forms of participation. Emerging forms of participation on the other hand are indicative of a 'distinctive civic taste of post-Boomer cohort' (Scholzman et al., 2010: p. 498). This includes a preference for participation in the extra-parliamentary realm, in non-hierarchical and informal networks and in a variety of sporadic campaigns that are not institutionalized (Dalton, 2002; Norris, 2002; Dalton, 2009). They are more popular among young people and women, and bear therefore the potential to be less biased at least towards a group that have come to be relatively disengaged compared with their counterparts (Stolle and Hooghe, 2011).",
                "A particular focus has been on political consumerism which is primarily oriented towards the market, suggesting perhaps that 'citizens have out-sourced their politics from the voting booths to the supermarkets' (Simon, 2011: p. 147). This shift seemed to have been facilitated by globalization (Koos, 2012), the widespread use of the internet, and, as some scholars argue, by lifestyle politics or a sense of moral obligation (Ward and de Vreese, 2011). Following Micheletti's (2003) preliminary work on political consumers, in recent years many case studies emerged, demonstrating the political power of boycott and buycott targeting many different power holders beyond national governments (Stolle et al., 2005; Balsiger, 2010; Sandovici and Terri, 2010; Barnett et al., 2011). The social movement literature has long acknowledged the role political consumerism plays in new social movements such as the World Trade Organization protests, fair trade advocacy, and anti-sweatshop activism (Micheletti et al., 2004; Harrision, 2005; Forno and Ceccarini, 2006). The political behaviour literature on the other hand has been more cautious about this non-institutionalized form of participation. Critics have highlighted the individual and sporadic nature of political consumerism, and questioned the capacity of political consumerism to produce collective actions (van Deth, 2009; Devinney et al., 2010). Yet, others have argued that political consumerism reflects the existence and operation of community nets, which is similar to voluntary organization, a valuable proxy for social capital (Welzel et al., 2005). Moreover, Balsiger (2010) argues that political consumerism depends much more on collective forms of mobilization than the literature suggests. He shows how the Swiss political consumerist campaign--the Clean Clothes Campaign--used campaigns to frame consumption as a political issue and opened up opportunities for consumers to behave as political consumers.",
                "'The specific ways in which consumption becomes a public issue and a venue for individual political action depends on the activities of political claimsmakers who load consumption with political content' Balsiger (2010: p. 312).",
                "It appears that these emerging forms of participation are contested as they redefine the divide between the public and private spheres and challenge current definitions of political participation. However, they reflect today's citizen's preference for political actions and need to be considered along conventional forms of civic engagement."
            ]
        },
        {
            "title": "Operationalizing Civic Engagment",
            "paragraphs": [
                "Civic engagement is a latent construct, which cannot be observed or measured directly. However, a set of questions that are asked directly about political activities and involvement in voluntary organizations enables us to capture civic engagement. Most studies locate civic engagement within the public domain, while activities situated outside this sphere are placed in the private confinement of individuals and thus are seen as having little relevance for community life and participative democracy (Almond and Verba, [1963] 1989; Kaase and Marsh, 1979; Putnam, 2000; Dalton, 2002). Thus, studies differ in how far to spin the web and what to count as political and social activities relevant for civic engagement and participatory democracy. Some research, for example, has included cognitive engagement such as discussing politics and reading newspapers as indicators of civic engagement (Norris, 2002; Scholzman et al., 2010). Others have included informal voluntary activities such as helping neighbours (Li et al., 2005) or changing things in one's children's school and complaining about treatment at work (Pattie et al., 2004). Creating a civic engagement variable for analysis has therefore been a challenge and there is no consensus on how to operationalize civic engagement.",
                "Most studies, however, have created typologies of political activities and/or typologies of voluntary organizations to understand patterns of civic engagement. For political participation, the most common distinction has been between 'conventional' and 'unconventional' forms of participation (Barnes and Kaase, 1979). However, this classification is now considered less meaningful for today's analysis of political activities (Brady, 1999). Attempts have been made to distinguish between collective activities, individual activities, and contact activities (Pattie et al., 2003). Yet, arguably the most popular classification has been to distinguish between four types of political participation: voting, campaign activity, contacting officials, and protest activity (Dalton, 2002). In addition to this classification, more recent studies have added a fifth dimension to it and identified several forms of activities that have become more prominent in the past two decades under the name of 'consumer participation' (signing a petition, donating money, boycotting, and buycotting) as a distinct form of political activity (Teorell et al., 2007).",
                "Similarly, studies have also created typologies of voluntary organizations differentiating between the nature of involvement as well as the intensity of involvement (Alexander et al., 2012). Studies following the former tradition have classified voluntary organizations by their explicit social or political aim (Wollebaek and Selle, 2003), or as political, recreational, communal, educational, and occupational organizations (Moyser and Parry, 1997) or simply as socio-tropic, utilitarian (i.e. professional organizations) and religious organizations (Welzel et al., 2005). Studies looking at the intensity of involvement have differentiated between active and passive involvement (Dalton, 2006) and single and multiple membership (Teorell, 2003).",
                "Given the diverse approaches to making sense of citizens' involvement, this article will take an inductive approach and explore the various indicators of the civic engagement variable in a two-dimensional MCA map. The innovative application of this method allows us to explore the data without any theoretical presumptions on what the groups of activities are that citizens tend to get involved with. It acknowledges that there are diverse ways through which citizens express their interest in societal issues and that it can become a normative decision to decide on the meaningfulness or relevance of certain types of activities. Instead, it takes on a broad approach to civic engagement by including questions on involvement in formal voluntary associations and political activities whether passive or active as indications of citizen's involvement in the public sphere."
            ]
        },
        {
            "title": "Methods and Data",
            "paragraphs": [
                "This article is based on the analysis of the first wave of the ESS 2002, which included the rotating module on Citizenship, Involvement, and Democracy. It therefore offers a unique and rich resource for the measurement of civic engagement in Europe. The survey covers 19 countries with 36,460 individuals.2 There are two sets of civic engagement indicators in the ESS 2002, capturing political participation3 as well as involvement in voluntary organizations.4 Both sets of questions are crucial for civic engagement as they represent various forms in which citizens across Europe get involved and by doing so might influence the socio-political landscape of their societies.",
                "This study aims to identify common trends in Europe, which has been done by pooling all the countries together. Without doubt, differences between countries exist as each country has its own socio-political context that shapes a citizen's behaviour (Neilson and Paxton, 2010; Whiteley, 2011; Koos, 2012). This article, however, focuses on common trends of the European countries, which reveals trends in civic engagement that are otherwise not apparent if attention is paid to the differences between them.",
                "This study takes an inductive approach and explores empirically how these different types of activities relate to each other and whether--as argued by many political scientists, a clustering of activism can be observed (Verba et al., 2001; Dalton, 2002). MCA has been applied to identify the underlying latent dimensions of the various civic engagement indicators.5 This is a method that is particularly suitable for our data which is binary (Le Roux and Rouanet, 2010). It is also more suitable for the inductive approach taken here. MCA is mainly an exploratory technique that helps to reveal the structure of complex data that are categorical. In its essence, MCA transforms a contingency table with many rows and columns into a geometric representation. Similar to Principle Component Analysis (PCA), it also serves as a data reduction technique by identifying dimensions or clustering in the data. However, in comparison with PCA, which assumes the data to be ordinal or continuous, MCA is applicable for categorical or binary variables only. It works by representing the categories of the variables as points in a low-dimensional space. In practice, a two-dimensional space is often used to make interpretations easier. The results are interpreted on the basis of the relative positions of the points and their distribution along the dimensions. Categories with a similar distribution are represented as points that are close in space and categories that have different distributions are positioned far apart. Thus, interpretation consists mainly of looking for groups of variables as well as their location on the axis.6"
            ]
        },
        {
            "title": "Patterns of Civic Engagement",
            "paragraphs": [
                "The analysis starts by exploring the multidimensionality of civic engagement through MCA. Table 1 presents a summary of all the variables that will be used in the MCA solution. The middle column describes the variables. The weighted frequency of those who reported having carried out that particular activity is in the right-hand column. On the left is the name of the variables, as they will appear on the MCA graphs.",
                "The table shows that being engaged in a political party or action group and donating money to such groups represents the least common type of activity, while signing petitions and buycotting are the most frequent forms of political activity. Within the typologies of voluntary organization, the utilitarian organizations appear to be the most widespread type of organizations.",
                "Figure 1 shows all the indictors of civic engagement on a two-dimensional map. The two-dimensional MCA map shows a clear distinction between activist and non-activist along the main dimension 1, the horizontal axis. Along dimension 2, the vertical axis, the upper part of the axis is occupied by those who have carried out political activities such as being involved in a political party or action group7, donating money, taking part in demonstrations, wearing a campaign badge or displaying a banner, contacting politicians, and being involved in community organizations.8 The lower part of dimension 2 is occupied by those who have been involved in socio-tropic organizations, utilitarian organizations, and/or New Social Movement Organizations (NSMO). Thus the map clearly differentiates between the traditional forms of political activism and involvement in voluntary organizations. The differentiation between these two forms of civic engagement suggests that involvement in voluntary organizations is relatively different from involvement with political activities. ",
                "Two political activities items, however, (buycott, boycott) do not appear among the political activity variable, but rather on the opposite axis to them. To be more precise, relative to all other forms of involvement, the buy- and boycotters are closer to those involved in NSMO than to other forms of political activities. Moreover, compared with utilitarian and socio-tropic associations, there is a relatively strong relationship of religious organizations with NSMO and buy- and boycotters. This is not a surprise, as many fair-trade movements, for example, have emerged from church-based organizations such as Trade Craft in the United Kingdom (Barnett, 2011).",
                "Petition is the only item that has not been differentiated well in the two-dimensional map. This indicates that it tends to be carried out by those who are politically active, including those involved in buy- and boycotting, as well as by those who tend to be involved in voluntary organizations. This ambivalent position might reflect the nature of this activity. They can be collected in more traditional ways, such as at demonstrations or within various political or community action groups or voluntary organizations. In more recent years online petitions have also become popular (Strange, 2011). The speed and ease of collecting online petition makes it, similar to buycott and boycott, an individualized and low intensity participation. To explore the ambivalent position of petitions, two further MCA analyses were run, one with typologies of voluntary organizations (Figure 2) and one without it (Figure 3) to see how petitions, buycott, and boycott would cluster. ",
                "The maps (Figures 2 and 3) differentiate petitions clearly from both, the political activism items as well as from the voluntary organization items and locate them in both instances to the same group as buy- and boycotters. The clustering of petitions with consumer-oriented items is not a surprise and confirms other studies. Teorell et al. (2007) for example has observed similar trends and classified petitions into the group of 'consumer' oriented activities. The clustering of buy- and boycotters and petition can therefore be labelled as political consumerism in a wider sense.",
                "Plotting all indicators of civic engagement indicators on a two-dimensional map allowed us to explore the relative proximity of the various civic engagement indicators and how they relate to each other. It revealed a strong relationship between buy- and boycotters with NSMO. This relationship becomes weaker if we explore the data further. Plotting typologies of voluntary organizations with political consumerism has allowed us to see the differences between these items. This is not a contradiction but shows different levels of analysis and is dependent on how much we want to zoom in. To determine what the sufficient level of detail is to differentiate between the main dimensions of the data, the analysis with all civic engagement indicators has been extended by a third dimension. Table 2 shows the summary statistics of a three-dimensional MCA solution. Expanding the analysis by a third dimension has increased the total variance accounted for in the data by almost 10 per cent. All dimensions with eigenvalues >1 were retained, and by expanding it to three dimensions the goodness-of-fit of the data or the total inertia has increased to 45.1 per cent. As seen on the two-dimensional map plotting political activism versus political consumerism (Figure 3) and typologies of voluntary organizations versus political consumerism (Figure 2), the additional third dimension separated signing petitions, buycott, and boycotters from the other forms of political activities and from voluntary organizations. In other words, in this analysis, three dimensions were sufficient to capture the underlying dimensions of the civic engagement, which are political activism, associational involvement and political consumerism. ",
                "The MCA analysis has shown that most people tend to have a preference for certain types of activities as was evident by the clustering of activities. Yet, there is also an overlap between them. Some forms of involvement are more likely to emerge from particular types of involvement. For example, if a respondent is a member of a professional body, s/he is also more likely to be a member of a socio-tropic organizations such as a sports or cultural club. Similarly, if s/he takes part at a demonstration, perhaps as part of the organization s/he is involved with, s/he is more likely to wear or display a campaign banner or sticker. These overlaps can be seen on the MCA maps along dimension 2 where the activists are located, while the main distinction is between those who are involved in one type of activity and not necessarily in another type of activity. This is also supported by a tetrachoric correlation analysis of the three dimensions of civic engagement. The results pointed towards a mild correlation: political activism had a correlation coefficient of 0.53 with political consumerism and 0.50 with associational involvement. Similarly, the correlation between political consumerism and associational involvement was 0.54. In other words, although there are some overlaps between the three dimensions of active citizens, they do nevertheless constitute different trends of engagement.9"
            ]
        },
        {
            "title": "Narrowing the Participation Gap",
            "paragraphs": [
                "Applying MCA to explore civic engagement indicators has allowed us to confirm on the one hand the clustering of political activities and a clustering of involvement in voluntary organizations. This resonates well with Dahl (1961) who famously remarked that active citizens can be divided broadly into homo politicus and homo civicus, who are either driven by the motivation to influence politics or by the motivation to fulfil civic duties. The analysis, however, also identified political consumerism as a separate dimension, which reflects emerging forms of participation. As noted earlier, scholars have argued that these forms of participation appeal to a wider socio-demographic group and particularly to young people and women. Having identified the three dimensions of civic engagement, this article tests whether political consumerism indeed appeals to a different section of the society or whether it is merely a reflection of the same privileged groups extending their repertoire or actions.",
                "To understand the profile of individuals who are engaged and how this differs for the three dimensions of civic engagement, a two-level random intercept logistics regression model was carried out. Given that individuals in this sample were clustered into countries, a multilevel analysis was the most appropriate technique.10 Yet, in this article only individual level predictors are presented and discussed. The aim is to predict and compare political consumerism, political activities, and associational involvement given a set of socio-demographic indictors such as age, gender, social class, education, marital status, employment status, domicile, and ethnicity.",
                "The next figure shows the distribution of the dependent variable that will be used in the analysis. These three dependent variables have been coded as single binary variables where political activities, political consumerism, or associational involvement takes the value 0 for activities undertaken and 1 for not having undertaken any form of activities within that particular dimension.11 The individual level predictors are all categorical variables and include 8 variables that generated 16 dummy variables.12",
                "Figure 4 shows the overall frequency of political activism, political consumerism, and associational involvement. Only around one-third of the population in the 19 European countries have carried out political activities or acts of political consumerism, while the proportion of the population who have been involved in voluntary organizations is much larger. However, it is worth remembering that the question tapping involvement in voluntary organizations does not differentiate between passive or active involvement or intensity and scope of involvement. It therefore includes a much wider pool of people than political consumerism or political activities. ",
                "Table 3 shows the estimates for all three dimensions of civic engagement. Education and social class showed clearly a strong and significant relationship with political activities, political consumerism, and associational involvement. Controlling for all the other factors, compared with those who have secondary education, people with little or primary education are significantly less likely to be active across all three dimensions, while those with post-secondary education are significantly more likely to be active. This also resonates with social class. Belonging to the service class increases the likelihood of participation and decreases it for members of the working class or those who never worked as opposed to those who are members of the intermediate class. These results support the SES model of participation. ",
                "Economic status also determines the propensity of civic engagement, yet the patterns are not as persistent across all three dimensions as is evident for education and class. Common to all three dimensions of civic engagement is the significant negative relationship of being unemployed and of the strong positive relationship of being in full-time education. In other words, unemployed people face higher barriers in taking part in any three dimensions of civic engagement, while students13 are significantly more likely to be active compared with those who are in employment. Similarly, those who are economically inactive14 are significantly more likely to be involved in political activism and political consumerism, while they seem to face higher barriers to being engaged in voluntary organizations. For retired people on the other hand there is no significant difference between those involved in political activism compared with those who are employed, yet, they are significantly less likely to be involved in political consumerism and voluntary organizations. These mixed results point to the differences between the three dimensions of civic engagement. Joining voluntary organizations requires skills, money, and time as argued by the civic voluntarism model. Although, full-time employment may reduce the time available to get active, it also provides more opportunities and incentives for involvement in associations. Those who might arguably have the time, such as those who are retired, economically inactive, and unemployed, lack on the other hand the incentives and resources to get involved in voluntary organizations, while this barrier does not seem to be high for political activism, which relative to joining associations does not require more financial resources.",
                "Age group also emerges as a crucial factor in predicting civic engagement. Middle-aged people (aged 30-59 years) tend to be more active than the younger (aged 15-29 years) and elderly generation (aged 60+ years), indicating a life-cycle effect. Although the propensity of activism is high for middle-aged people, and low for young and older people, there is a difference between elderly people's and young people's repertoire of actions, suggesting also a generational effect. Comparing the younger generation with the older generation, the younger generation is more likely to adopt acts of political consumerism and less likely to be active in associations than the elderly generation and vice versa. Thus, more traditional forms of engagement seems to appeal more to the older generation, while the individual, network-based, and global connection that characterizes political consumerism seems to appeal more to the younger generation.",
                "The gender effect is significant for all three dimensions of civic engagement. However, while women are less likely than men to be involved in political activism and voluntary organizations, they are significantly more likely to be involved in political consumerism. The dominance of men in political activities and associational involvement might still be due to prevalent gender roles that confine women to the 'home' and may therefore integrate them less in a social or professional context. This leaves them having fewer resources of time, money, and civic skills to participate as well as a lower (psychological) engagement with politics (Norris et al., 2004; Badescu and Neller, 2007). Yet, their dominance in political consumerism might be due to women's role as primary shoppers in their families, which makes them by default more likely to be ethical shoppers (Micheletti, 2003). Alternatively, it could be that women are more attracted by decentralized and non-hierarchical forms of participation as suggested by Stromsnes (2005).",
                "As with gender and age, political consumerism shows different effects for single people as compared with those who are married. For political participation and associational involvement, the results are in line with other studies and show that married people are significantly more likely than non-married people (single, divorced, widowed) to be active. Being married and having a family life might give rise to more opportunities, resources, and incentives for civic engagement (Li et al., 2005). For political consumerism, however, this positive effect is not observable. Non-married people are as likely as married people to carry out acts of political consumerism.",
                "The size of the area where one lives also makes a difference. Compared with people living in the countryside, big cities and towns seem to discourage political activism and associational involvement and encourage political consumerism. Living in the countryside has a positive effect on conventional forms of participation. Perhaps they offer bonding types of networks encouraging political activities and involvement in associations (Putnam, 2000; Martin and van Deth, 2007). Political consumerism on the other hand is higher in urban areas, where the supply of ethical and environmentally friendly products might be better and therefore the opportunities to shop ethically are greater than in smaller communities, where this might be restricted (Micheletti, 2003; Stromsnes, 2005). Finally, ethnic minorities are less likely to be active across all models in comparison with the autochthonous population. This underrepresentation might have been triggered by many factors such as the specific migration history, citizenship rights, and integration policies of the host country (Jacobs and Tillie, 2004)."
            ]
        },
        {
            "title": "Conclusions",
            "paragraphs": [
                "This article set out to identify common patterns of civic engagement in Europe and whether these patterns reflect traditional stratification in participation. The innovative application of MCA to a wide range of items has identified three broad dimensions of civic engagement. The first two dimensions, political activism and associational involvement, accord well with traditional approaches to civic engagement. The third dimension, political consumerism, confirms more recent trends in citizens' repertoire of action. All three dimensions of civic engagement overlap, as active citizens tend to use the opportunities available to them. Yet, they nevertheless constitute separate dimensions as the MCA graphs and the correlation analysis demonstrated. More importantly, modelling the characteristics of individuals involved in these three forms of participation further confirmed differences in the profile of people engaged in these activities.",
                "The regression analysis confirmed that the class cleavage, as expressed in education and social class, continues to be the main division between those who are involved and those who are not, regardless of the type of engagement. Yet, differences between the three dimensions are also visible. Associational involvement is more favoured by people who have the means, skills, and knowledge to participate, while for political activities and political consumerism this is less the case, as has been demonstrated for the economic activity variable. As suggested, this might be related to the low-cost participation requirements of political consumerism and political activities, while involvement in voluntary associations requires more financial resources and greater civic skills.",
                "Overall, however, political consumers display a profile that is different from the characteristics of people engaged in political activism and in voluntary organizations. A unique feature of political consumerism is that it attracts women, young people, and people living in urban areas. Although political consumerism does not eliminate the stratification problem in participation, it has nevertheless opened up new ways for these groups to be engaged. Political consumerism reflects clearly a different understanding of politics and does not fall within the classical definition of an activity that aims at influencing the government or policy makers (Barnes and Kaase, 1979). Moreover, the actual act of buycotting, boycotting, or signing a petition is a relatively passive and individualized form of involvement. They are embedded in everyday activities and do not require great commitment and continuity. Yet, as argued by Balsiger (2010) and others, political consumers often operate within the wider context of campaigns and networks (Micheletti, 2003; Harrison et al., 2005; Forno and Ceccarini, 2006; Barnett et al., 2011). The MCA analysis demonstrated this most strikingly by showing how relative to all other indicators of civic engagement, the buy- and boycotters tend to also be involved in NSMO organizations. Similar to political consumerism, critiques highlight the lack of face-to-face interactions of these tertiary organizations, which is often based on passive membership and donations. They are therefore regarded as less beneficial for networking and developing civic skills and its relevance for participative democracy is still contested (Putnam, 2000; Devinney et al., 2010). However, as this study demonstrated, political consumerism has the capacity to reduce the bias in participation, at least for certain groups that tend to be less attracted to traditional forms of participation. More research is needed to explore the nature of political consumerism and how it fosters democracy. This would also shed more light on the changing nature of citizens' involvement in the context of globalization, consumerism, and individualization."
            ]
        }
    ],
    "references": [
        "http://dx.doi.org/10.1093/esr/jcq047",
        "http://dx.doi.org/10.1080/14742837.2010.493672",
        "http://dx.doi.org/10.1111/j.1467-954X.2008.00775.x",
        "http://dx.doi.org/10.1080/13608740600645501",
        "http://dx.doi.org/10.1080/13691830410001682016",
        "http://dx.doi.org/10.1177/0001699311431594",
        "http://dx.doi.org/10.1093/esr/jci007",
        "http://dx.doi.org/10.1177/1065912908328782",
        "http://dx.doi.org/10.1525/sp.2010.57.1.5",
        "http://dx.doi.org/10.2307/2586017",
        "http://dx.doi.org/10.1111/1467-9248.00435",
        "http://dx.doi.org/10.1163/156913209X12499527665468",
        "http://dx.doi.org/10.1017/S1537592710001210",
        "http://dx.doi.org/10.1177/1469540511402448",
        "http://dx.doi.org/10.1080/14616696.2010.523476",
        "http://dx.doi.org/10.1177/0192512105053784",
        "http://dx.doi.org/10.1177/0163443711422461",
        "http://dx.doi.org/10.1111/scps.2003.26.issue-1",
        "http://dx.doi.org/10.1177/0163443710394900",
        "http://dx.doi.org/10.1080/17448680500337475",
        "http://dx.doi.org/10.1177/1354068810365505"
    ],
    "title": "Reducing the participation gap in civic engagement: Political consumerism in Europe",
    "issue": "6",
    "volume": "29",
    "year": 2013,
    "issn": "0266-7215",
    "journal": "European Sociological Review",
    "authors": [
        "Necla Acik"
    ]
}