{
    "doi": "http://dx.doi.org/10.1177/0022146520961363",
    "abstract": "Existing research on the life course origins of adult health has extensively examined the influence of childhood socioeconomic conditions, family structure, and exposure to trauma. Left unexplored are the potential long-term health effects of sociocultural exposures, such as religiosity at earlier phases of the life course. Integrating life course models of health with literature on the health-protective effects of adult religiosity, we consider how adolescent and midlife religiosity combine to structure the physical health profiles of adults past age 50. Using more than 35 years of representative data from the National Longitudinal Survey of Youth 79 (NLSY79), we found that the stability of frequent religious practice over time was associated with better health composite scores and lower disease burden. Causal mediation analyses revealed that part of this association is driven by a lower risk of smoking for consistent, frequent attenders. Adulthood religiosity also mediated the relationship between frequent early-life religious attendance and health.",
    "sections": [
        {
            "title": "Introduction",
            "subsections": [
                {
                    "title": null,
                    "paragraphs": [
                        "One of the most widely replicated findings over the past several decades in the sociology of health is that frequent religious attendance is linked to a vast array of favorable outcomes, including self-reported physical health, low chronic disease burden, and delayed mortality (Hummer et al. 2010; VanderWeele 2017). The association between attendance and health has been documented in regional and nationally representative samples from the United States and beyond (Hummer et al. 2010; Nicholson, Rose, and Bobak 2009), in studies representative of general communities (Oman et al. 2002), and among ethnic-specific samples (Hill et al. 2005). It has likewise been found among diverse age groups, including adolescents and young adults (Kirk and Lewis 2013), the middle-aged (Hummer et al. 2010), and the oldest-old (Lawler-Row and Elliott 2009). Yet despite comprehensive attention to each of these separate age categories, studies of religion and health have largely ignored the process of aging and how religious attendance from different stages of life matter over the long term.",
                        "Although a comprehensive life course understanding of religion and health is not yet established, literature on the \"long arm of childhood\"--particularly the long-term effects of early socioeconomic disadvantage, family structure, and trauma--has been a topic of great interest (Ferraro, Schafer, and Wilkinson 2016). Indeed, events or conditions affecting social, cognitive, and emotional development during early years of life are now known to have profound implications on later-life health. To some extent, this may operate directly through physiological developmental mechanisms (Berens, Jensen, and Nelson 2017). However, there is also compelling evidence that childhood exposures sort individuals into distinctive life course pathways that carry their own risks and resources and ultimately affect adult health (Pudrovska and Anikputa 2014; Willson and Shuey 2016). The bottom line of research on the long arm of childhood is that \"people are never completely separated from the imprint of their origins\" (Pearlin 2010:212). Although this is well understood in the context of conditions such as socioeconomic advantage or disadvantage, surprisingly few studies have investigated the role of early sociocultural exposures such as religious participation.",
                        "The goal of this study is to apply life course models of health, particularly pathway and mobility perspectives, to the case of religious attendance as an early-life exposure. Religious attendance shows a strong connection to good health in cross-sectional or short-term longitudinal designs, but does an early dose have long-term consequences? We also consider whether distinct patterns of religious mobility from adolescence to early middle-age are linked to health, paying special attention to health behaviors as a life course pathway to explain the potential benefits of consistently high and/or increasing religiosity. Using more than 35 years of data from the National Longitudinal Survey of Youth (NLSY79), this is the first study to prospectively document how adolescent and midlife religiosity combine to structure the physical health profiles of adults past age 50."
                    ]
                }
            ]
        },
        {
            "title": "Background",
            "subsections": [
                {
                    "title": "Life Course Models of Health",
                    "paragraphs": [
                        "The life course perspective provides an analytic framework to undertake this more expansive analysis of religion and health. This perspective emphasizes the importance of early life for later health outcomes while drawing attention to the modifiability of life experiences through transitions (Pudrovska and Anikputa 2014; Willson and Shuey 2016). Most research exploring the connections between early life and later life outcomes focuses on socioeconomic exposures and mobility while ignoring patterns of religious continuity and change (Willson, Shuey, and Elder 2007).",
                        "Life course models of health tend to emphasize either the role of direct, enduring effects from childhood or the ways in which childhood conditions affect health through--or in combination with--intervening adulthood circumstances (Pudrovska and Anikputa 2014; Willson and Shuey 2016). We focus on the pathway and mobility processes in the life course because religion is acknowledged to have indirect effects on health (Koenig, King, and Carson 2012)."
                    ]
                },
                {
                    "title": "Life Course Models of Health",
                    "paragraphs": [
                        "Viewing religiosity through the respective lenses of the life course pathway and social mobility models involves assessing how individuals gain, lose, or hold steady in their religious behaviors over time. Children raised in religious households tend to remain religiously involved into adulthood (Upenieks, Schafer, and Mogosanu 2019). In early childhood and adolescence, parents influence the religious orientations of their children by attending religious services with them and stressing religious values in the home (Min, Silverstein, and Gruenewald 2018). Recent evidence suggests that almost two thirds of children who grow up attending church at least weekly go on to be regular attenders as adults (Bengtson 2013).",
                        "Despite these strong rates of intergenerational religious transmission, religious pathways are far from deterministic (Hardie, Pearce, and Denton 2016). Typically, decreases in religiosity occur as individuals progress from adolescence into adulthood (Uecker, Regnerus, and Vaaler 2007). This overall pattern of decline is more strongly pronounced for religious service attendance than for other dimensions of religiosity, such as religious salience (Uecker et al. 2007). Reasons for declines in religiosity are no doubt complex. One explanation is that many young people fail to fully embrace the faith of their forebears. Once they have left the parental home, these adults may lose interest in attending church (Pearce and Haynie 2004). Another explanation relates to health behaviors. Young adults engaging in behaviors that are stigmatized by their religious group (e.g., sexual activity or alcohol or tobacco use) may be socially disqualified or rejected (Adamczyk 2009).",
                        "Meanwhile, increases in religious attendance over the life course are often documented among those who transition into marriage and parenting roles (Schleifer and Chaves 2017; Uecker, Mayrl, and Stroope 2016). Married couples may return to religious communities to seek religious teachings that could strengthen their marriage by giving it a spiritual purpose (Mahoney 2010). New parents, for their part, may want their child to receive religious training and often increase their own religiosity in the process. Furthermore, individuals that intensify their religiosity over time often do so to gain meaning in life and to have a resource for coping with loss or stress (Silverstein and Bengtson 2018).",
                        "The extensive body of literature on religious attendance and health has thus far not assessed when religious exposure matters for mid- and later-life health: Does early religiosity still matter even for those who fall away from formal participation? Likewise, we have limited knowledge about how continued exposure to religious participation is connected to health."
                    ]
                },
                {
                    "title": "Life Course Models of Health",
                    "paragraphs": [
                        "Multiple mechanisms have been suggested to explain the well-established connection between adult religious attendance and better health (Koenig et al. 2012). These include the availability of social support from members of religious congregations (Krause 2006), better health behaviors (Hummer et al. 2010), and greater meaning in life (Park 2005). Given the multifarious benefits linked to adult religious attendance, we argue that adult attendance mediates the effects of early religious exposure on health. Pathway models \"emphasize that the effects of earlier exposures are mediated by later exposures\" (Pudrovska and Anikputa 2014:452). Therefore, benefits of early-life religious exposure may become manifest later in the life course by increasing the likelihood of continued religious practice. In other words, we argue that early religiosity is the more fundamental cause of good health, whereas adult religiosity operates as a downstream, intervening variable. To our knowledge, this mediation framework, although a mainstay in research on socioeconomic conditions, has yet to be tested with respect to religiosity.",
                        "Hypothesis 1: Childhood religiosity affects midlife health through adult religiosity."
                    ]
                },
                {
                    "title": "Life Course Models of Health",
                    "paragraphs": [
                        "The social mobility model recognizes the importance of conditions early in the life course for promoting access to resources and avoidance of risks but also acknowledges that the effects of early conditions on health can be altered, reversed, or exacerbated by future circumstances (Pudrovska and Anikputa 2014; Willson and Shuey 2016). The religious mobility model thus argues that it is the unique patterning of adolescent and midlife religiosity that matters for health. We see this as a complementary--not contradictory--model to the life course pathway model because effects of religious transitions and/or stability could themselves be mediated by subsequent intervening mechanisms.",
                        "Existing literature suggests that high, stable religious attendance is optimal for midlife health. First, people's health behavioral habits are often solidified in their late adolescence and early adult years. Children learn norms about health behavior during the early stages of life (Kim-Spoon et al. 2014) but typically come to fully own these habits once they leave the parental home (Guo and Metcalfe 2019). Accordingly, religious attendance appears to have a cumulative effect throughout adolescence and young adulthood such that stable, frequent attendance during this period reduces the risk of negative health behaviors, including smoking and heavy drinking (Chen and VanderWeele 2018; Desmond, Morgan, and Kikuchi 2010; Guo and Metcalfe 2019). Consistent participation in formal religious activities connects individuals to a community of believers who may encourage less risky coping mechanisms to deal with stress and who may impose sanctions on those who violate health norms (Koenig et al. 2012). Comparisons of the influence of religiosity on substance use across the transition to adulthood suggest that the protective effect of religiosity is stronger in early adulthood than adolescence (Freeman 2019). By early adulthood, religious individuals appear to have fully understood and internalized religious requirements to treat the body as a \"sacred\" instrument to be used in service to God. These attitudes have been linked to healthier behavior (see Mahoney et al. 2003).",
                        "The developmental importance of young adulthood also implies that increasing levels of religious attendance are linked to health behaviors and long-term health. Past research found that increased religious attendance was also associated with nonuse (Desmond, Ulmer, and Bader 2013) as well as desisted and nonpersistent use of substances such as alcohol (Guo and Metcalfe 2019; Ulmer et al. 2012). In this scenario, health behaviors may play a key role in how individuals negotiate their religious identities. A deliberate increase in religious attendance may signify an acceptance of religious directives, such as to \"treat one's body as a temple,\" and promote abstinence from, or lower usage of, risky substances.",
                        "The corollary to the anticipated benefits of stable or increasing religious attendance is that individuals decreasing their religious attendance will experience relatively worse health behaviors, precipitating worse later-life health. Health behaviors likely inform individuals' decision to leave organized religion. For instance, adolescents who decrease their religious involvement over time, relative to stable attenders, are more likely to initiate alcohol and other forms of substance use (Guo and Metcalfe 2019; Ulmer et al. 2012). One implication of these findings is that early-life religious exposure is not sufficient to directly shape health behaviors throughout the life course. We might therefore expect the health of those who decline in religious attendance to be on par with those who are stably nonattenders.",
                        "Although informative, this past research on changes in religious participation and health behaviors over time has been plagued by a few limitations. First, most studies have been conducted on nonrepresentative samples, such as predominantly white and highly educated women in the Nurses' Health Study (Chen and VanderWeele 2018; Li, Stampfer, et al. 2016). Second, existing work has only captured religious attendance and health behaviors at a very limited window of time, usually during the period from adolescence to young adulthood (Desmond, Morgan, and Kikuchi 2010; Guo and Metcalfe 2019), thus limiting the knowledge of how changes in religious attendance affect health behaviors during midlife and beyond.",
                        "Hypothesis 2: Consistently high and/or increasing religiosity from adolescence to early middle age is associated with better adult health behaviors (smoking and drinking) than is consistently low and/or decreasing religiosity.",
                        "Hypothesis 3: Effects of consistently high and/or increasing religiosity are mediated through health behaviors (smoking and drinking) ensuing throughout adulthood.",
                        "These hypotheses are novel because, to our knowledge, no prior study has used nationally representative data to track individuals' religious lives from adolescence to midlife and measured health once respondents were age 50 or older. This is an important oversight because health behaviors may coevolve with religious behavior over time. Thus, there is a crucial need for research spanning a greater portion of the life course. Figure 1 displays a visual representation of our conceptual model and hypotheses."
                    ]
                }
            ]
        },
        {
            "title": "Data and Methods",
            "subsections": [
                {
                    "title": "Sample",
                    "paragraphs": [
                        "Data came from the National Longitudinal Survey of Youth. The NLSY79 originally comprised a sample of 12,686 men and women born between 1957 and 1964 who were living in the United States when the survey began. Interviews were conducted either face-to-face or by telephone. When first interviewed in 1979, respondents were between 14 and 22 years old. In this study, we restricted the sample to those respondents who were between the ages of 14 and 18 in 1979.1 This age range captured only those who were adolescents and presumably remained in the parental home rather than those past the age of legal adulthood who had likely transitioned to college or into the labor force. We assume that young people's religious attendance is relatively less voluntary at this stage of life, and so imposing this sample restriction provided the most accurate depiction of religiosity in the household of origin. Survey respondents were interviewed every year between 1979 and 1994 and every other year since 1994. The 2014-2015 wave marked the 26th round of data collection, with respondents ages 50 to 58."
                    ]
                },
                {
                    "title": "Sample",
                    "paragraphs": [
                        "This study used two measures of health as outcome variables. First, we employed a subscale of the SF-12 Health Composite Score (Ware, Kosinski, and Keller 1998). This was measured in the 2014-2015 wave of the NLSY79 when respondents were between 50 and 58 years of age. We used the Physical Component Summary subscale of the SF-12. Respondents were asked questions about their physical functioning (e.g., the ability to perform moderate activities), limitations due to physical problems, physical pain (e.g., interfering with work), and general health perception (poor, fair, good, very good, or excellent). Appendix A in the online version of the article contains a list of items that comprise this measure. Scores were normed with a mean of 50, ranged from 0 to 75, and had a standard deviation of 10 (Ware et al. 1998). Higher scores on this scale indicated better health.",
                        "As a second measure of health, we included a count of self-reported chronic health conditions. This information was also collected in 2014-2015. At this survey wave, respondents were asked whether a medical professional had ever diagnosed them with the following six health conditions: high blood pressure, diabetes, cancer, lung problems, heart problems, and stroke. We created a count variable ranging from zero (no chronic conditions) to six (all chronic conditions)."
                    ]
                },
                {
                    "title": "Sample",
                    "paragraphs": [
                        "Religious attendance was measured at two time points in the NLSY79: in 1979 (baseline), when the study respondents in our sample were between 14 and 18 years old, and again in 2000, when study respondents were between 35 and 39 years old. Respondents were asked, \"In this past year, about how often have you attended religious services?\" To ensure reasonably large categories, we modeled religious service attendance as a three-category variable: low/no religious attendance (not at all and several times a year or less), moderate religious attendance (once per month and two to three times per month), and high attendance (once per week and more than once per week).",
                        "To measure religious mobility, we created a nine-category variable that captured all possible transitions from one attendance category in 1979 to another attendance category in 2000. This span of 21 years was long enough to encompass the full transition to adulthood and caught participants at the onset of middle age."
                    ]
                },
                {
                    "title": "Sample",
                    "paragraphs": [
                        "We included two measures of health behaviors in our analysis. Recall that health behaviors were posited as potential mechanisms to explain the effects of religious practice stability/transitions on later-life health. The first was a cumulative measure of smoking. At four time points in the NLSY79 study (2008, 2010, 2012, and 2014), respondents were asked about the frequency with which they smoked over the last year (0 = none, 1 = fewer than 10 cigarettes per day, 2 = more than 10 but fewer than 20 cigarettes per day, 3 = more than 20 but fewer than 30 cigarettes per day, 4 = more than 30 but fewer than 40 cigarettes per day, 5 = more than 40 but fewer than 50 cigarettes per day, and 6 = more than 60 cigarettes per day). Across these four measurement years, we took the average score for respondents on this variable to create a cumulative measure of smoking (M = 2.70, SD = 2.54, a = .93).2",
                        "In a similar fashion, we also created a cumulative measure of heavy drinking. This was measured at five time points during the NLSY79 study (2006, 2008, 2010, 2012, and 2014). Respondents were asked, \"How often have you had 6 or more drinks on one occasion during the last 30 days?\" (0 = never in the last 30 days, 1 = less often than once a week, 2 = 1 or 2 times per week, 3 = 3 or 4 times per week, 4 = 5 or 6 times per week, 5 = every day).3 As with smoking, we created a cumulative measure of drinking by taking an average of the scores for each respondent across the five time points (M = .46, SD = .77, a = .86).",
                        "All available measures of smoking and drinking in the NLSY79 come after 1979 and 2000. Because smoking and drinking are proposed mechanisms for why consistently high religious attendance may promote better health later in the life course, it was crucial that they be measured after both measurements of religion (2000) but before the measurement of health (2014-2015)."
                    ]
                },
                {
                    "title": "Sample",
                    "paragraphs": [
                        "Several additional covariates are included in the analyses, grouped into three categories.",
                        "Gender was coded as 1 = female, 0 = male. Race was coded as white (reference), black, and Hispanic. Age was captured in 2014-2015, when respondents were between 50 and 54 years of age.",
                        "Childhood socioeconomic status (SES) was measured at the 1979 survey by education level (reference = less than high school) and work status of the household head (1 = working for pay, 0 = not working). Additional analyses also considered childhood family income in 1979. Results were robust to the inclusion of this variable, but we ultimately removed it from final models because of high amounts of missing data and because it was highly correlated with parental education and work status. Parental abuse and affection were both retrospectively measured in 2014-2015, when respondents were asked how often a parent or adult in your home \"ever hit, beat, kick, or physically harm you in any way\" (0 = never, 1 = once, 2 = more than once). Parental affection was coded from 0 = no parental affection to 3 = a great deal. We also include a retrospective measure of childhood health, measured in 2014 (1 = poor, 5 = excellent). A variable for parental family structure contrasted those in two-parent homes with those with at least one stepparent, a single parent, or another type of family arrangement. We also adjusted for the number of siblings a respondent had, whether the respondent was born in the United States (1 = yes, 0 = no), and child residence type (town or city [reference], in country, not on farm, and on farm or ranch). We also considered whether the respondent lived in the American South (1 = yes, 0 = no) because religious norms tend to be stronger in this region of the country.",
                        "Analyses also featured a measure of respondents' religious affiliation early in the life course (1979). We contrasted those reporting no religious affiliation with nondenominational Protestant, Baptist, Methodist, Presbyterian, Roman Catholic, Jewish, and conservative Protestant religious affiliations.",
                        "Finally, selected analyses also adjusted for several achieved adulthood characteristics. These included the respondent's education, measured in 2000, at the same time point as the second measure of religious attendance (0 = less than high school, 1 = high school, 2 = some college, 3 = college degree, 4 = more than a college degree). At the 2014-2015 interview, respondents were asked for a complete marital history up to that point. We created a variable that contrasted those who had been stably married throughout their lives (reference group) with those who had been married twice, those who had been married more than two times, and those who have never married in their lives. For descriptive statistics for all study variables, see Appendix B in the online version of the article.",
                        "In the interest of a parsimonious presentation of results, we do not show the results pertaining to these controls in our main tables. However, these can be found in Appendix C in the online version of the article (for models pertaining to SF-12 health composite scores) and Appendix D in the online version of the article (for models relevant to health conditions)."
                    ]
                },
                {
                    "title": "Sample",
                    "paragraphs": [
                        "Ordinary least squares regression analysis with robust standard errors was conducted to assess the impact of religiosity on health composite scores. Because chronic health conditions formed a count variable (with 64% of the sample reporting no chronic conditions), a series of different count models was used. Likelihood ratio tests showed that negative binomial regression models fit the data best compared with both Poisson regression and a zero-inflated regression model. Multiple imputation with chained equations was used (m = 20) to deal with missing data in all regression analyses. To produce consistent samples across the two dependent variables, we did not impute values for those missing on either of the dependent variables (SF-12 health composite score and chronic health conditions; see Von Hippel 2007). This yielded a final analytic sample of 3,609 cases. Results were also consistent using the listwise deletion method for addressing missing data.",
                        "Mediation analyses were conducted using parametric mediation (using the paramed command in Stata 14; Emsley and Liu 2013). Parametric mediation extends the traditional Baron and Kenny (1986) mediation procedure and uses counterfactual definitions of direct and indirect effects. Estimates from two parametric regression models were used to construct the controlled direct effect, the natural direct effect, and the natural indirect effect, the latter of which is the focus of typical mediation analyses. The natural indirect effect is calculated with respect to each mediator, conditional on the measured covariates (see Valeri and VanderWeele 2013). The natural indirect effect assumes that exposure is set to some level a and then compares what would have happened if the mediator were set to an alternative value a*. Moreover, 95% confidence intervals were calculated using the default delta method after verification that results using bootstrapped intervals were essentially identical. According to Valeri and VanderWeele (2013), the estimates will take a causal interpretation only in the absence of any residual confounding.",
                        "We also applied inverse-probability-of-attrition weights to all analyses to adjust for sample attrition. Following a previous study using identical waves of the NLSY79 (Kerr et al. 2018), we included the following predictors to construct the weights: age, gender, ethnicity, whether the respondent was a U.S. citizen, the region of the country the respondent was raised in, parent's education, parental work status, childhood family structure, and childhood parental abuse. We also note here that all parametric mediation analyses were performed on unweighted NLSY79 data. Currently, survey weights are not supported within the paramed command in Stata. As a result of this difference, the coefficients representing the total effects differ slightly from our main analyses compared with our mediation analyses."
                    ]
                }
            ]
        },
        {
            "title": "Results",
            "subsections": [
                {
                    "title": "Supplementary Analyses",
                    "paragraphs": [
                        "Ancillary analyses considered whether there were any denominational differences in adulthood smoking and drinking behavior. For the cumulative smoking and drinking scores by religious denomination, see Appendix E in the online version of the article. A two-way analysis of variance revealed that cumulative smoking scores (F = 8.27, p < .0001) and drinking scores (F = 2.71, p < .01) varied significantly across childhood religious denominations.",
                        "On the whole, Catholic and Jewish respondents appear to have much lower average smoking and drinking scores compared with almost all Protestant groups (also see Garcia et al. 2013; Whooley et al. 2002). We did not find that any of our main results were moderated by religious denomination. Mediation pathways documented in our main analysis were supported across every religious denomination, with the exception of individuals that reported no religious denomination in childhood."
                    ]
                }
            ]
        },
        {
            "title": "Discussion",
            "subsections": [
                {
                    "title": "Limitations and Future Directions",
                    "paragraphs": [
                        "This study is subject to a number of limitations. First, we could not address whether the benefits of stable attendance over the life course were derived from continuous practice in one faith community or whether switching religious affiliation and faith communities offered similar health benefits. Although a thorough list of religious traditions was measured in 1979 in the NLSY79, only a very condensed list of religious traditions was available at 2000. Thus, we were unable to document changes in religious affiliation. It may be that under usual circumstances, it is beneficial to remain within the same faith tradition to maintain consistency of belief and facilitate sustained interactions with co-congregants. But there may be factors that push individuals to change their affiliation, even within cognate denominations, to gain a more positive religious experience (see Hoge, Johnson, and Luidens 1994). The complexities of religious switching and their implications for health should be pursued in future work.",
                        "Second, there are other potential pathways connecting frequent religious attendance to adulthood health that we were unable to test with the NLSY79. One important mechanism that should be tested in future research is access to social support over time. Involvement in a congregation holds out the promise of developing long-term, supportive relationships that may potentially span the better part of the life course (Ellison and Levin 1998). Taken together, the social and tangible resources housed within religious congregations should be health promoting over the life course and could be a mechanism accounting for the effects of sustained attendance.",
                        "Third, it is important to recognize that our indicator of early-life religious exposure was not measured until respondents were adolescents. Parental religiosity could matter even earlier in the life course. For instance, maternal religious attendance may influence a child's health in utero by reducing the likelihood of the mother smoking (Burdette et al. 2012). Future research should continue to consider how religiosity across generations shapes health over the long term.",
                        "Despite these limitations, our study suggests that religion is an important sociocultural exposure that can be integrated into existing life course models of health. Consequences of childhood socioeconomic exposures and experiences of trauma have become well understood (Ferraro et al. 2016; Willson, Elder, and Shuey 2007; Wilson and Shuey 2016), justifiably commanding continued attention from scholars of health and the life course. We hope this trend endures but believe that salient sociocultural issues--including religiosity--also deserve a place at the table. Understanding pathways and patterns of religious engagement throughout human lives will ultimately help us achieve a better understanding of how childhood contexts shape adult health."
                    ]
                }
            ]
        }
    ],
    "references": [
        "Adamczyk, Amy. 2009. \u201cSocialization and Selection in the Link between Friends\u2019 Religiosity and the Transition to Sexual Intercourse.\u201d Sociology of Religion 70(1):5\u201327.",
        "Baron, Reuben M., Kenny, David A. 1986. \u201cThe Moderator\u2013Mediator Variable Distinction in Social Psychological Research: Conceptual, Strategic, and Statistical Considerations.\u201d Journal of Personality and Social Psychology 51(6):1173\u201382.",
        "Bengtson, Vern. L. 2013. Families and Faith: How Religion Is Passed Down across Generations. New York: Oxford University Press.",
        "Berens, Anne E., Jensen, Sarah K. G., Nelson, Charles A. 2017. \u201cBiological Embedding of Childhood Adversity: From Physiological Mechanisms to Clinical Implications.\u201d BMC Medicine 15(1):135.",
        "Burdette, Amy M., Weeks, Janet, Hill, Terrence D., Eberstein, Isaac W. 2012. \u201cMaternal Religious Attendance and Low Birth Weight.\u201d Social Science & Medicine 74(12):1961\u201367.",
        "Chen, Ying, VanderWeele, Tyler J. 2018. \u201cAssociations of Religious Upbringing with Subsequent Health and Well-Being from Adolescence to Young Adulthood: An Outcome-Wide Analysis.\u201d American Journal of Epidemiology 187(11):2355\u201364.",
        "Desmond, Scott A., Kikuchi, George, Budd, Kristen. 2010. \u201cDoes Change in Teenage Religiosity Predict Change in Marijuana Use over Time?\u201d Interdisciplinary Journal of Research on Religion 6(5):1\u201330.",
        "Desmond, Scott A., Morgan, Kristopher H., Kikuchi, George. 2010. \u201cReligious Development: How (and Why) Does Religiosity Change from Adolescence to Young Adulthood?\u201d Sociological Perspectives 53(2):247\u201370.",
        "Desmond, Scott A., Ulmer, Jeffery T., Bader, Christopher D. 2013. \u201cReligion, Self-Control, and Substance Use.\u201d Deviant Behavior 34(5):384\u2013406.",
        "Ellison, Christopher G., Levin, Jeffrey S. 1998. \u201cThe Religion-Health Connection: Evidence, Theory, and Future Directions.\u201d Health Education & Behavior 25(6):700\u201320.",
        "Emsley, Richard, Liu, Hanhua. 2013. \u201cPARAMED: Stata Module to Perform Causal Mediation Analysis Using Parametric Regression Models.\u201d https://ideas.repec.org/c/boc/bocode/s457581.html",
        "Fenelon, Andrew, Danielsen, Sabrina. 2016. \u201cLeaving My Religion: Understanding the Relationship between Religious Disaffiliation, Health, and Well-Being.\u201d Social Science Research 57:49\u2013 62.",
        "Ferraro, Kenneth F., Schafer, Markus H., Wilkinson, Lindsay R. 2016. \u201cChildhood Disadvantage and Health Problems in Middle and Later Life: Early Imprints on Physical Health?\u201d American Sociological Review 81(1):107\u201333.",
        "Freeman, Jason A. 2019. \u201cDoes the Association between Religiosity and Substance Use Vary between Adolescence and Early Adulthood?\u201d Sociological Inquiry. doi:10.1111/soin.12331",
        "Garcia, Ginny, Ellison, Christopher G., Sunil, Thankam S., Hill, Terrence D. 2013. \u201cReligion and Selected Health Behaviors among Latinos in Texas.\u201d Journal of Religion and Health 52(1):18\u201331.",
        "Guo, Siying, Metcalfe, Christi. 2019. \u201cReligion as a Social Control: A Longitudinal Study of Religious Involvement and Substance Use.\u201d Crime & Delinquency 65(8):1149\u201381.",
        "Hardie, Jessica Halliday, Pearce, Lisa D., Denton, Melinda Lundquist. 2016. \u201cThe Dynamics and Correlates of Religious Service Attendance in Adolescence.\u201d Youth & Society 48(2):151\u201375.",
        "Harris, J. Irene, Erbes, Christopher R., Engdahl, Brian E., Ogden, Henry, Olson, Raymond H. A., Winskowski, Ann Marie M., Campion, Kelsey, Mataas, Saari. 2012. \u201cReligious Distress and Coping with Stressful Life Events: A Longitudinal Study.\u201d Journal of Clinical Psychology 68(12):1276\u201386.",
        "Hart, Carole L., Smith, George Davey, Gruer, Laurence, Watt, Graham C. M. 2010. \u201cThe Combined Effect of Smoking Tobacco and Drinking Alcohol on Cause-Specific Mortality: A 30 Year Cohort Study.\u201d BMC Public Health 10(1):789.",
        "Hayward, R. David, Elliott, Marta. 2011. \u201cSubjective and Objective Fit in Religious Congregations: Implications for Well-Being.\u201d Group Processes & Intergroup Relations 14(1):127\u201339.",
        "Hill, Terrence D., Angel, Jacqueline L., Ellison, Christopher G., Angel, Ronald J. 2005. \u201cReligious Attendance and Mortality: An 8-year Follow-Up of Older Mexican Americans.\u201d The Journals of Gerontology Series B: Psychological Sciences and Social Sciences 60(2):S102\u2013109.",
        "Hill, Terrence D., Bradley, Christopher S., Dowd-Arrow, Benjamin, Burdette, Amy M. 2019. \u201cReligious Attendance and the Social Support Trajectories of Older Mexican Americans.\u201d Journal of Cross-Cultural Gerontology 34(4):403\u201316.",
        "Hoge, Dean R., Johnson, Benton, Luidens, David A. 1994. Vanishing Boundaries. The Religion of Mainline Protestant Baby Boomers. Louisville, KY: Westminster Press",
        "Hummer, Robert A., Benjamins, Maureen R., Ellison, Christopher G., Rogers, Richard G. 2010. \u201cReligious Involvement and Mortality Risk among Pre-retirement Aged US Adults.\u201d Pp. 273\u201391 in Religion, Families, and Health: Population-Based Research in the United States, edited by Ellison, C. G., Hummer, R. A. New Brunswick, NJ: Rutgers University Press.",
        "Iannaccone, Laurence R. 1990. \u201cReligious Practice: A Human Capital Approach.\u201d Journal for the Scientific Study of Religion 29(3):297\u2013314.",
        "Kerr, William C., Williams, Edwina, Li, Libo, Lui, Camillia K., Ye, Yu, Greenfield, Thomas K., Lown, E. Anne. 2018. \u201cAlcohol Use Patterns and Risk of Diabetes Onset in the 1979 National Longitudinal Survey of Youth Cohort.\u201d Preventive Medicine 109:22\u201327.",
        "Kim-Spoon, Jungmeen, Farley, Julee P., Holmes, Christopher, Longo, Gregory S., McCullough, Michael E. 2014. \u201cProcesses Linking Parents\u2019 and Adolescents\u2019 Religiousness and Adolescent Substance Use: Monitoring and Self-Control.\u201d Journal of Youth and Adolescence 43(5):745\u201356.",
        "Kirk, Chris Michael, Lewis, Rhonda K. 2013. \u201cThe Impact of Religious Behaviours on the Health and Well-Being of Emerging Adults.\u201d Mental Health, Religion & Culture 16(10):1030\u201343.",
        "Koenig, Harold, King, Dana, Carson, Verna B. 2012. Handbook of Religion and Health. New York: Oxford University Press.",
        "Krause, Neal. 2006. \u201cExploring the Stress-Buffering Effects of Church-Based and Secular Social Support on Self-Rated Health in Late Life.\u201d The Journals of Gerontology Series B: Psychological Sciences and Social Sciences 61(1):S35\u201343.",
        "Lawler-Row, Kathleen A., Elliott, Jeff. 2009. \u201cThe Role of Religious Activity and Spirituality in the Health and Well-Being of Older Adults.\u201d Journal of Health Psychology 14(1):43\u201352.",
        "Li, Shanshan, Okereke, Olivia I., Chang, Shun-Chiao, Kawachi, Ichiro, VanderWeele, Tyler J. 2016. \u201cReligious Service Attendance and Lower Depression Among Women\u2014A Prospective Cohort Study.\u201d Annals of Behavioral Medicine 50(6):876\u201384.",
        "Li, Shanshan, Stampfer, Meir J., Williams, David R., VanderWeele, Tyler J. 2016. \u201cAssociation of Religious Service Attendance with Mortality among Women.\u201d JAMA Internal Medicine 176(6):777\u201385.",
        "Mahoney, Annette. 2010. \u201cReligion in Families, 1999\u20132009: A Relational Spirituality Framework.\u201d Journal of Marriage and Family 72(4):805\u201327.",
        "Mahoney, Annette, Pargament, Kenneth I., Murray-Swank, Aaron, Murray-Swank, Nichole. 2003. \u201cReligion and the Sanctification of Family Relationships.\u201d Review of Religious Research 44(3):220\u201336.",
        "Min, Joohong, Silverstein, Merril, Gruenewald, Tara L. 2018. \u201cIntergenerational Similarity of Religiosity over the Family Life Course.\u201d Research on Aging 40(6):580\u201396.",
        "Mossakowski, Krysia N. 2008. \u201cIs the Duration of Poverty and Unemployment a Risk Factor for Heavy Drinking?\u201d Social Science & Medicine 67(6):947\u201355.",
        "Nicholson, Amanda, Rose, Richard, Bobak, Martin. 2009. \u201cAssociation between Attendance at Religious Services and Self-Reported Health in 22 European Countries.\u201d Social Science & Medicine 69(4):519\u201328.",
        "Obisesan, Thomas, Livingston, Ivor, Trulear, Harold Dean, Gillum, Frank. 2006. \u201cFrequency of Attendance at Religious Services, Cardiovascular Disease, Metabolic Risk Factors and Dietary Intake in Americans: An Age-Stratified Exploratory Analysis.\u201d The International Journal of Psychiatry in Medicine 36(4):435\u201348.",
        "Oman, Doug, Kurata, John H., Strawbridge, William J., Cohen, Richard D. 2002. \u201cReligious Attendance and Cause of Death over 31 years.\u201d The International Journal of Psychiatry in Medicine 32(1):69\u201389.",
        "Park, Crystal L. 2005. \u201cReligion as a Meaning-Making Framework in Coping with Life Stress.\u201d Journal of Social Issues 61(4):707\u201329.",
        "Pearce, Lisa D., Haynie, Dana L. 2004. \u201cIntergenerational Religious Dynamics and Adolescent Delinquency.\u201d Social Forces 82(4):1553\u201372.",
        "Pearlin, Leonard I. 2010. \u201cThe Life Course and the Stress Process: Some Conceptual Comparisons.\u201d Journals of Gerontology Series B: Psychological Sciences and Social Sciences 65(2):207\u201315.",
        "Pudrovska, Tetyana, Anikputa, Benedicta. 2014. \u201cEarly-Life Socioeconomic Status and Mortality in Later Life: An Integration of Four Life-Course Mechanisms.\u201d The Journals of Gerontology Series B: Psychological Sciences and Social Sciences 69(3):451\u201360.",
        "Schleifer, Cyrus, Chaves, Mark. 2017. \u201cFamily Formation and Religious Service Attendance: Untangling Marital and Parental Effects.\u201d Sociological Methods & Research 46(1):125\u201352.",
        "Silverstein, Merril, Bengtson, Vern L. 2018. \u201cReturn to Religion? Predictors of Religious Change among Baby-Boomers in their Transition to Later Life.\u201d Journal of Population Ageing 11(1):7\u201321.",
        "Stockwell, Tim, Zhao, Jinhui, Panwar, Sapna, Roemer, Audra, Naimi, Timothy, Chikritzhs, Tanya. 2016. \u201cDo \u2018Moderate\u2019 Drinkers Have Reduced Mortality Risk? A Systematic Review and Meta-analysis of Alcohol Consumption and All-Cause Mortality.\u201d Journal of Studies on Alcohol and Drugs 77(2):185\u201398.",
        "Uecker, Jeremy E., Mayrl, Damon, Stroope, Samuel. 2016. \u201cFamily Formation and Returning to Institutional Religion in Young Adulthood.\u201d Journal for the Scientific Study of Religion 55(2):384\u2013406.",
        "Uecker, Jeremy E., Regnerus, Mark D., Vaaler, Margaret L. 2007. \u201cLosing My Religion: The Social Sources of Religious Decline in Early Adulthood.\u201d Social Forces 85(4):1667\u201392.",
        "Ulmer, Jeffery T., Desmond, Scott A., Jang, Sung Joon, Johnson, Byron R. 2012. \u201cReligious Involvement and Dynamics of Marijuana Use: Initiation, Persistence, and Desistence.\u201d Deviant Behavior 33(6):448\u201368.",
        "Upenieks, Laura, Schafer, Markus H., Mogosanu, Andreea. 2019. \u201cDoes Childhood Religiosity Delay Death?\u201d Journal of Religion and Health. doi:10.1007/s10943-019-00936-1",
        "Valeri, Linda, VanderWeele, Tyler J. 2013. \u201cMediation Analysis Allowing for Exposure\u2013Mediator Interactions and Causal Interpretation: Theoretical Assumptions and Implementation with SAS and SPSS Macros.\u201d Psychological Methods 18(2):137\u201350.",
        "VanderWeele, Tyler J. 2017. \u201cCausal Effects of Religious Service Attendance?\u201d Social Psychiatry and Psychiatric Epidemiology 52(11):1331\u201336.",
        "Von Hippel, Paul T. 2007. \u201cRegression with Missing Ys: An Improved Strategy for Analyzing Multiply Imputed Data.\u201d Sociological Methodology 37(1):83\u2013117.",
        "Ware, John E., Kosinski, Mark, Keller, Susan D. 1998. SF-12\u00ae: How to Score the SF-12\u00ae Physical and Mental Health Summary Scales. 3rd ed. Lincoln, RI: Quality Metric Incorporated.",
        "Whooley, Mary A., Boyd, Alisa L., Gardin, Julius M., Williams, David R. 2002. \u201cReligious Involvement and Cigarette Smoking in Young Adults: The CARDIA Study.\u201d Archives of Internal Medicine 162(14):1604\u201310.",
        "Williams, Monica M., Kemp, Blakelee R., Ferraro, Kenneth F., Mustillo, Sarah A. 2018. \u201cAvoiding the Major Causes of Death: Does Childhood Misfortune Reduce the Likelihood of Being Disease Free in Later Life?\u201d The Journals of Gerontology, Series B: Psychological and Social Sciences 74(1):170\u201380.",
        "Willson, Andrea E., Shuey, Kim M., Elder, Glen H. 2007. \u201cCumulative Advantage Processes as Mechanisms of Inequality in Life Course Health.\u201d American Journal of Sociology 112(6):1886\u20131924.",
        "Willson, Andrea E., Shuey, Kim M. 2016.\u201dLife Course Pathways of Economic Hardship and Mobility and Midlife Trajectories of Health.\u201d Journal of Health and Social Behavior 57(3):407\u201322.",
        "Willson, Andrea E., Shuey, Kim, Elder, Glen H. 2007. \u201cCumulative Advantage Processes as Mechanisms of Inequality in Life Course Health.\u201d American Journal of Sociology 112(6):1886\u2013924."
    ],
    "title": "Religious Attendance and Physical Health in Later Life: A Life Course Approach",
    "issue": "4",
    "volume": "61",
    "year": 2020,
    "issn": "0022-1465",
    "journal": "Journal of Health and Social Behavior",
    "authors": [
        "Laura Upenieks",
        " Markus H. Schafer"
    ]
}