{
    "doi": "http://dx.doi.org/10.1177/0003122414568649",
    "abstract": "Transitions from state socialism created a startling range of initial economic outcomes, from renewed growth to deep economic crises. Debates about the causes have largely ignored the political disruptions due to regime change that coincided with sudden initial recessions, and they have defined the problem as relative growth rates over time rather than abrupt short-run collapse. Political disruptions were severe when states broke apart into newly independent units, leading to hyperinflation, armed warfare, or both. Even absent these disruptions, the disintegration of communist parties inherently undermined economic activity by creating uncertainty about the ownership of state assets. The protracted deterioration of the party-state prior to the breakup of the Soviet Union generated widespread conflict over control of assets, which crippled economic activity across the Soviet successor states. A more rapid path to regime change was less disruptive in other post-communist states, and the problem was absent in surviving communist regimes. Comparative accounts of regime change frame an analysis of panel data from 31 countries after 1989 that distinguishes the early 1990s from subsequent years. A wide range of variables associated with alternative explanations have little evident impact in accounting for the onset and severity of the early 1990s recessions.",
    "sections": [
        {
            "title": "Introduction",
            "subsections": [
                {
                    "title": null,
                    "paragraphs": [
                        "The worldwide transformation of state socialism during the 1990s yielded a series of surprises, generating widespread controversy and an enduring intellectual puzzle. The distortions typical of Soviet-style economies led most analysts to expect short-run hardship as manufacturing was restructured to correct decades of overinvestment in heavy industry, and as a shift to market pricing in economies of shortage led to price inflation and lowered living standards (Clague 1992; Kornai 1994; Leitzel 1995; Winiecki 1991). All but one of 28 post-communist nations suffered immediate economic downturns, but the severity and depth of these recessions usually went far beyond prior expectations (Ericson 1998; Hanson 1998). Sharp recessions in the first states to emerge from the revolutions of 1989 were followed by much deeper economic crises in new states that emerged from the breakup of the Soviet Union. In contrast, the few surviving communist autocracies that restructured their economies avoided recessions and grew more rapidly, despite once being considered the least promising setting for market reform.",
                        "Among more than 30 transitional economies there are two groups of outliers. The first is the three surviving communist auto-cracies (China, Laos, and Vietnam), which doubled their real per capita gross domestic product (GDP) from 1990 to 2007. The second group is the 15 successor states of the former Soviet Union, whose economies collapsed in the early 1990s, finally regaining prior levels of GDP per capita in 2005. Between these two extremes is a diverse group of post-communist states that suffered shorter and less severe recessions, regaining 1990 levels of GDP per capita by 1999 (World Bank 2012).",
                        "An extensive literature has reached little consensus about why these three groups diverged so dramatically (Orenstein 2009). There are three competing explanations. The first is policy choice--the extent, timing, and pace of foreign trade, and price liberalization, financial deregulation, and privatization--and there are strong disagreements about the impact of different approaches. A second concerns initial economic circumstances: basic economic endowments, regional location, initial levels of urbanization and industrialization, and accumulated distortions due to socialist development. A third centers on political institutions: the evolving features of new governments and their capacities to formulate and enforce effective economic policies.",
                        "We propose a new explanation that draws a sharp distinction--rarely made in the literature--between the causes of higher or lower growth over time and the causes of early recessions. Most explanations for post-socialist economic performance are about conditions favorable to higher growth rates over time, or recovery from initial recessions, rather than explanations for initial economic crises. In many cases--particularly policy choice and new political institutions--the proposed causes occurred after the worst recessions had already passed.",
                        "We argue that initial recessions are a direct expression of the political disruption that accompanies regime change, and that state socialist economies were particularly vulnerable to the collapse of communist parties. The most obvious disruptions occur when a national state breaks up into newly independent units--often leading to hyperinflation and at times to civil war or armed conflict over national borders. Our primary interest, however, is in a feature of state socialism whose implications are less obvious. The political organization of state socialism made its economies unusually vulnerable to regime change. Communist parties played a central role in defining and enforcing the state's property rights over assets--especially important because almost all assets were the property of the state. When a communist party's capacity to perform this role declined for a prolonged period before its eventual collapse, economic activity was undermined by economy-wide uncertainty over ownership claims. This was a problem in all communist regimes that collapsed shortly after 1988, but the political decline of the Soviet Union in its final years was far more protracted and severe than in other communist regimes, where regime change was much more abrupt.",
                        "Our explanation reorients efforts to understand these initial outcomes in several ways. It shifts attention from the course of market reform to developments in the immediately prior period; from initial economic conditions to prior political developments; and from questions about the speed and extent of privatization to the more fundamental question of a state's capacity to enforce property rights of any kind."
                    ]
                }
            ]
        },
        {
            "title": "Specifying the Problem",
            "subsections": [
                {
                    "title": null,
                    "paragraphs": [
                        "To appreciate the importance of distinguishing the determinants of growth over time from the causes of immediate and sharp economic downturns, we make clear the timing and magnitude of initial recessions. Figure 1 displays the annual change in real GDP per capita in these three groups of countries. Growth rates in surviving communist states dipped on two occasions but they never went into recession. Almost all of the post-communist states, by contrast, experienced sharp contractions that coincided closely with regime change.1 The decline began in 1990 in the Soviet Union and worsened in its successor states until 1992, when the economies of the entire group shrank by over 20 percent in a single year. These economies finally began to grow again in 1996, but not before their output had shrunk by an average of 50.3 percent (World Bank 2012). Economic crises in the other post-communist states began at the same time and reached their low point two years earlier. By 1994, these states were growing once again, but not before their economies had contracted by an average of 20.1 percent (World Bank 2012). After 1996, growth rates rapidly converged, and after 2000 the highest growth rates were in the former Soviet republics. The large differences in cumulative trends are almost exclusively due to the magnitude of the pre-1996 recessions. Efforts to explain the differences across these three groups should therefore focus on understanding the causes of these recessions."
                    ]
                }
            ]
        },
        {
            "title": "Three Political Trajectories",
            "subsections": [
                {
                    "title": null,
                    "paragraphs": [
                        "The fact that steep economic declines coincided closely with regime change suggests one should look for their causes in events that coincided closely in time with the onset of regime change. Retrospective histories of the decline of the Soviet Union highlight two features of that state's deterioration that stand in marked contrast with all other states that experienced regime change. The first feature is a set of ill-conceived economic reforms that undermined the communist party's control over state assets several years before the regime's collapse. A reform decree in early 1988, designed to overcome bureaucratic resistance, withdrew party organizations from oversight of state enterprises and their managers. Retrospective analyses mark this decision as the turning point that threw the Soviet economy onto a sharp downward trajectory (Ellman and Kontorovich 1998; Gregory 2004). This is reflected in Figure 1, which shows that the Soviet economy began its rapid decline two years before the end of the Soviet Union.",
                        "The second distinctive feature is the prolonged and severe deterioration of the Soviet party-state. By 1989 the party was already disintegrating, as competitive elections were held, regional republics declared sovereignty over their assets and populations, and separatist movements gained momentum in the Baltics and the Caucasus (Beissinger 2002; Brown 1996:155-211, 2007:197-206; Gill 1994:78-173). During this period, ownership claims over state assets became unclear, contract enforcement and related expectations suffered, de facto control over state assets was seized by a range of new actors, and the capacity to collect taxes declined.",
                        "The Soviet decline was far more prolonged and pronounced than in all of the other states where communist parties eventually surrendered power. On the surface, this highly diverse group--ranging from Poland and Albania in the west to Mongolia and Cambodia in the east--seem to share little in common. Their political transformations took a variety of forms. But their varied paths to regime change shared two crucial characteristics that distinguished them from the Soviet Union. Their communist parties all maintained their cohesion until the eve of regime change, which took place much more abruptly than in the Soviet Union. Moreover, none of these states experienced a prior attempt to pull apart the planned economy analogous to Gorbachev's post-1986 reforms in the Soviet Union. These regimes all approached regime change with party structures and party control over state assets still largely intact.",
                        "This was true despite wide differences in the way regime change occurred. Some new governments were formed through negotiations that involved cooperation between incumbents and challengers. In Poland, Czechoslovakia, and Hungary, the transfer of power was negotiated beforehand and power passed quickly through elections (Bruszt 1990; Bruszt and Stark 1992; Gross 1992; Judt 1992). In Romania and Bulgaria, internal party factions ousted entrenched leaders and held multiparty elections in less than a year (Bell 1997; Tismaneanu 1997; Verdery and Kligman 1992). In Albania and Mongolia, large street protests led rapidly to regime capitulation and multiparty elections (Biberaj 1992; Pano 1997; Rossabi 2005). In Yugoslavia, the heads of the Slovenian and Croatian parties abruptly withdrew from federal institutions, precipitating a rapid breakup into separate states that held competitive elections and declared independence (Banac 1992; Miller 1997). In Cambodia, the Vietnamese-installed communist party negotiated an international agreement to subject itself to internationally supervised elections, placing its government under United Nations authority during the transitional period and receiving massive financial subsidies (Chandler 2008; Gottesman 2002). In none of these cases did new governments form more than one year from the point when it became clear that the party's dictatorship would soon end.2 With ownership claims, contract enforcement, and fiscal capacity intact until shortly before the handover to a post-communist government, these regimes did not enter their period of post-communist reform with economies and taxation systems as severely disrupted as in the Soviet Union.",
                        "The surviving communist states that embarked on market reform did so with their party structures intact, relinquishing their economic role gradually. Initial concessions to household farming, small-scale private enterprise, and modest price and profit incentives for state firms yielded positive results. More radical reforms followed in the 1990s; state firms were rapidly restructured or closed and the vast majority were privatized (Naughton 2008, 2012). None experienced recessions; all experienced gradually rising rates of growth, with the exception of two years of much slower growth in China in 1989 and 1990, the result of nationwide protests during the spring of 1989 that led to a draconian military crackdown and the imposition of martial law."
                    ]
                }
            ]
        },
        {
            "title": "Alternative Explanations",
            "subsections": [
                {
                    "title": "Policy Choice",
                    "paragraphs": [
                        "The long debate about reform policy reflects a conviction that the impact of policy choice was large. One early view held that rapid and coordinated changes--price liberalization, deregulation of foreign trade, market entry by private enterprise, and privatization of state assets--would be painful in the short run but was essential for sustained recovery (Sachs 1993, 1994; Summers 1994). Other scholars objected strongly, arguing that such policies were unnecessarily radical (Murrell 1991, 1995; Stark 1991). As economic crises in the region deepened, they were frequently attributed to these policies (Amsden, Kochanowicz, and Taylor 1994; Burawoy 2001; Cohen 1998; Nolan 1995; Reddaway and Glinski 2001). Burawoy (1996, 2001) argued that Russia's neoliberal economic policies destroyed state capacity to regulate the economy and led to its downward economic spiral, whereas China's gradual reforms and continued reliance on state direction led to rapid growth. Hamm, King, and Stuckler (2012) further developed this argument in a cross-national analysis of 25 post-communist economies during the 1990s that found a negative impact of mass privatization and rapid liberalization on state capacity, corporate restructuring, and long-run growth rates. They argued that these policies deeply eroded the state capacity that sociological accounts emphasize as an important foundation of economic development (Block and Evans 2005; Campbell 1993; Campbell and Lindberg 1990; Carruthers and Ariovich 2004; Evans 1995; Evans and Rauch 1999).",
                        "The main problem with this explanation is timing. Whatever the merits or flaws of neoliberal policies, post-communist governments began to carry them out only after severe recessions were already well underway. This was particularly true for mass privatization, a controversial approach that was often carried out haltingly after an additional period of delay and resistance. Hamm and colleagues (2012) found that the 11 countries that carried out mass privatization during the 1990s had significantly lower growth rates. Nine of them were in the former Soviet Union. Only one (Russia) began to implement mass privatization by the end of 1992, two began in 1993, five in 1994, and one in 1995. By the time these countries initiated mass privatization, virtually all of them were already in deep recession, in most cases at or near the bottom. Russia's economy had already shrunk by almost 30 percent, and other countries had suffered prior declines ranging from 25 to 70 percent (see Table 1). Given the timing of implementation, the only real question is whether these policies slowed recovery. Not surprisingly, the econometric literature has found it difficult to demonstrate any clear positive or negative impact of different policy packages, sparking debate about whether policies mattered at all (Babecky and Campos 2011; Campos and Coricelli 2002; de Melo et al. 2001; Falcetti, Lysenko, and Sanfey 2006)."
                    ]
                },
                {
                    "title": "Policy Choice",
                    "paragraphs": [
                        "Other scholars argue that initial economic circumstances, such as prior levels of industrial development, were decisive. More agrarian economies--especially China, Laos, and Vietnam--generated growth more easily by moving labor from agriculture to industry. Standard theory predicts higher growth rates at lower levels of industrialization (Barro 1998; Kuznets 1973). It follows that these states should have higher growth rates, ceteris paribus (Sachs and Woo 1994; Woo 1994). More industrialized socialist economies also faced a heavier burden of readjustment. These economies had larger welfare states and more extensive subsidies to unproductive enterprises that were propped up to maintain employment and deliver social services. This implies a more painful process of restructuring (Aslund 1989; de Melo et al. 2001; Popov 2000; Sachs and Woo 1994). Sachs and Woo (1994) argue that the structure of advanced socialist economies in Russia and Poland made them more difficult to reform than an agrarian economy like China's, requiring a different policy approach.",
                        "Whatever the merits of this argument, it does not address the magnitude of the collapse of the Russian economy, which shrank by 44 percent before beginning to recover in 1998, nor does it address the reasons why Poland's similarly advanced economy suffered only a mild and very brief initial recession. A more plausible comparative argument would introduce counterfactuals that do not focus solely on economic structure. From our perspective, more relevant ceteris paribus conditions would be a Soviet Union that remained politically stable and did not experience a downward spiral toward collapse and dismemberment, or a Chinese regime that was battered by nationwide protests, leading eventually to the dismemberment of the state into newly independent units. After nationwide protests in the spring of 1989 and the subsequent military crackdown and imposition of martial law, China's growth rate dropped from 9.5 percent to an average of 2.4 percent in 1989 and 1990 (World Bank 2012). Had the Chinese regime collapsed like the USSR, China would likely have experienced a severe and prolonged recession, whatever the reputed advantages of a large agrarian sector.",
                        "Geographic location is also a factor. Countries that bordered the European Union had clear advantages in market access, investment, credit, and technical assistance from prosperous market economies; they also had historical legacies favorable to the revival of stable democracy and the rule of law (Borocz 2012; Fish 1997; Kopstein and Reilly 2000; Pop-Eleches 2007). Similarly, reform regimes in East Asia reaped advantages from their location in a rapidly developing region that provided export markets, foreign investment, and alternative models of regulation, corporate governance, and state-led industrial policy. With the exception of the Baltic region, former Soviet republics lacked these advantages (de Melo et al. 2001; Popov 2007). These circumstances could plausibly have helped shorten initial recessions, but arguments about geographic location appear to take recessions largely as given."
                    ]
                },
                {
                    "title": "Policy Choice",
                    "paragraphs": [
                        "A third explanation focuses on political processes during the course of reform and the evolving features of the governments that carry them out. The analysis hinges on a political system's capacity to formulate a consensus about reform measures and to overcome resistance by powerful vested interests and large social constituencies (Murphy, Shleifer, and Vishny 1992; Roland 2002). Much of this work focuses on the features of post-communist electoral systems, which face the problem of implementing socially unpopular policies. This research emphasizes the impact of early elections, dynamics of reform coalitions, barriers presented by vested interests, and the perils of political polarization (Fish 1997; Frye 2002; Hellman 1998; Orenstein 2001; Przeworski 1991). These issues are relevant in altered form in non-electoral systems (Lau, Qian, and Roland 2000; Shirk 1993). The sociological branch of this literature emphasizes the relative strength of communist-era elites versus technocrats and dissident outsiders in formulating post-communist economic policy. One argument is that the lingering power of old regime elites steered a country toward policies that diverted assets into their hands and blocked beneficial restructuring, whereas states where this path was blocked by coalitions of technocrats and dissident challengers fared better (King 2002; King and Szelenyi 2005; King and Sznajder 2006). Whatever their merits as explanations for recovery from initial recessions and prospects for future growth, the processes at the core of these explanations occur too late to explain recessions that began in 1989 and 1990."
                    ]
                }
            ]
        },
        {
            "title": "Political Origins of Initial Recessions",
            "subsections": [
                {
                    "title": null,
                    "paragraphs": [
                        "The role of communist parties in integrating economic activity under state socialism is widely recognized. Most analysts view this as the feature that needs to change during a shift toward market mechanisms and private property. Microeconomic theories about enterprise reform place the definition and enforcement of property rights at the center of attention, but their focus is on incentives for managers and firms (e.g., Shleifer and Vishny 1998). A focus on the incentive features of property rights leads to a preoccupation with institutional design, and inevitably to questions about the speed of privatization and safeguards against government predation (Brown, Earle, and Gehlbach 2009; Shleifer and Vishny 1998). Such an analysis rests on the assumption that a state has the capacity to define and enforce property rights. Our analysis relaxes this assumption and considers the consequences of an erosion of this capacity that coincides with or precedes an attempt at economic transformation.",
                        "It seems counter-intuitive that a reform that involves a reduction in communist party control could be undermined by that party's disintegration, but this is precisely the point. Under state socialism, communist parties enforced state property rights and ensured compliance with contracts. In so doing, they ensured the delivery of tax revenues that funded the state. When the party's capacity to perform this function deteriorated for a prolonged period before its eventual collapse, asset ownership became unclear throughout the economy, with a range of actors competing for control over them. Under these circumstances, successor states faced a more protracted struggle to rebuild their capacity to define and enforce property rights and collect taxes.",
                        "Much-analyzed experiments with internal subcontracting within firms (Stark 1986, 1989), the spread of \"second economies\" (Rona-Tas 1995), and forms of decentralization that granted significant control to employees (Rusinow 1977) represent partial departures from standard socialist property forms, but they do not represent the loss of party control over assets. This occurs only when the communist party disintegrates as a coherent political organization, or through political events that raise the likelihood that the party will soon be out of power. Under such circumstances, ownership claims become uncertain, because it is no longer clear that the party has the ability or will to enforce its claims. This prompts enterprise managers, local officials, and other actors to advance new claims--ranging from novel rearrangement of firm boundaries by incumbent managers (Stark 1991, 1996); to de facto insider privatization (Aslund 2007; Blasi, Kroumova, and Kruse 1997); competition among local, regional, and central governments to assert ownership claims and the associated rights to tax revenues (Barnes 2006; Gehlbach 2008; Treisman 1999); and moves by violent entrepreneurs to seize control through organized coercion (Varese 2005; Volkov 2002). Post-communist governments that proceed with economic reforms after a prolonged decline and a large window of opportunity for asset appropriation by various actors face a more difficult task of clarifying, codifying, and enforcing ownership under new circumstances (Walder 2003). Where communist parties fall from power relatively rapidly, especially when this occurs through orderly negotiations with an opposition, the window of opportunity for asset appropriation and related actions is shorter, and conflicts over the control of assets much less severe.",
                        "A large literature explores the impact of state breakdown, civil strife, and transitions to and from authoritarian rule on economic growth (Alesina et al. 1996; Przeworski and Limongi 1993; Rodrik and Wacziarg 2005). Most post-communist states experienced some form of state breakdown, and all represent transitions from a certain kind of authoritarian rule. Moreover, one-third of the new states that emerged from the breakup of Yugoslavia and the Soviet Union went through interstate warfare or civil war as national boundaries were redrawn. Even if all the countries we are examining already had well-established market economies and did not break apart, we would still expect large economic costs due to political disruption. Disruptive political change in established market economies creates economic uncertainty, negatively affecting business environments and undermining foreign investment and the purchasing and investment decisions of firms and households.",
                        "Regime change in communist states, however, was more deeply disruptive, because communist parties integrated economic activity. These states claimed ownership over almost all productive assets and enterprises--and decided which alternative forms to tolerate--and the primary instrument for enforcing these rights was the communist party hierarchy, which linked central and regional governments directly with local governments and economic enterprises. State enterprises were directly integrated into the fiscal structure of the socialist state (Ellman 1989; Kornai 1992; Walder 1992). Tax collection occurred through mandated transfers out of enterprise accounts in the state banking system. Party committees were organized in every office and enterprise. Their superiors at the next higher level appointed and fired managers, controlled budgets and bank transfers, and prevented the private expropriation of state assets. Party officials enforced state plans, guaranteed product deliveries and payments, and ensured the transfer of revenues to state coffers. These arrangements stripped enterprise managers of autonomy and incentives and undermined firm performance. But these parties did effectively exercise control over managers, enterprises, and assets, ensuring the flow of revenue to the state. As communist states began to unravel, what mattered was how long the party's capacity to perform its economic role was disrupted. This implies there were sources of severe short-run economic disruption in these states, in addition to the costs associated with the breakup of national states in established market economies."
                    ]
                }
            ]
        },
        {
            "title": "Economic Consequences of Protracted Political Decline",
            "subsections": [
                {
                    "title": null,
                    "paragraphs": [
                        "The impact of the prolonged Soviet decline is extensively documented in the retrospective literature on Russia. When the Soviet Union finally disintegrated at the end of 1991, enterprise managers had been freed of party supervision and control for several years, exercising widespread if insecure control over their firms. A form of \"spontaneous privatization\" occurred through much of the Soviet Union in the late 1980s, setting the stage for later rounds of asset stripping, diversion of company resources to related private entities owned by managers, and capital flight (Aslund 2007; Blasi et al. 1997; Stoner-Weiss 2006; Varese 2005; Woodruff 1999).",
                        "The Russian mass privatization program of the early 1990s was an attempt by a badly crippled state to provide a clear legal basis for the de facto insider privatization that had already occurred. The intention was to prevent further asset stripping and capital flight by reducing uncertainty over ownership (Shleifer and Treisman 2001; Stoner-Weiss 2006). The program failed to achieve its objectives, and instead spurred a new round of struggle over assets, pitting incumbent managers and employees against former bureaucrats in ministries (who wanted to consolidate firms into holding companies or corporations that they controlled), local governments, foreign investors, private bankers, and mafia-connected entrepreneurs in a contest for control (Barnes 2006; Blasi et al. 1997). Mass privatization permitted greater extraction of income at the expense of minority shareholders (Stoner-Weiss 2006). The law granted majority shares to employees, enabling managers, in the absence of effective unions, to reinforce insider control and prevent the restructurings and layoffs that outside investors would require (Blasi et al. 1997; Varese 2005). This blocked restructuring, limited layoffs (Brown, Earle, and Telegdy 2010; Brown, Earle, and Vakhitov 2006), and created wage arrears (Gerber 2006; Gustafson 1999).",
                        "The barter trade that originated in the last years of the Soviet Union became more widespread, growing from 10 percent of all payments in 1991 to an estimated 50 percent in 1997 (Burawoy and Krotov 1992; Gustafson 1999; Woodruff 1999:146-76). Payments in kind did not go through bank accounts, hampering tax assessments. Local governments helped firms evade taxes to the central government. Enterprises provided many of the social services and infrastructure for local residents. Toleration of tax evasion kept firms in operation, permitting them to pay at least some of the salaries owed workers, and helping to maintain the sewage systems, water supplies, and heating for homes and offices (Woodruff 1999). The competition between government jurisdictions over taxation led to arbitrary and punitive approaches to tax assessment, overlapping tax jurisdictions, and confiscatory approaches to recouping back taxes (Gustafson 1999; Shleifer and Treisman 2001). Under these circumstances, the state's role as an impartial protector of property rights was undermined and it became \"an erratic, predatory, and non-impartial supplier of protection\" (Varese 2005:7). Among the symptoms were an increased demand for private protection services (Frye 2000; Varese 2005; Volkov 2002) and a wave of assassinations of leading business executives (Blasi et al. 1997; Volkov 2002). The legacy in former Soviet republics was tax systems that relied on large firms, whereas states in Eastern Europe created new tax systems that focused more on individual income (Easter 2012; Gehlbach 2008).",
                        "The weakened capacity of former Soviet republics to enforce property rights--in contrast to other post-communist states--was documented in surveys of enterprise managers in 1,500 firms across five states in 1997. Enterprise managers were asked to report whether they found it necessary to make extralegal payments for licensing, protection, business registration, tax inspections, or safety inspections--measures of the extent to which property rights are secure from predation. The contrast between the post-Soviet states of Russia and Ukraine and the others--Poland, Romania, and Slovakia--were extreme. The average across the five items ranged from 6.2 to 15.2 percent in Poland, Slovakia, and Romania; it ranged from 81.6 to 85.9 percent in Russia and Ukraine (Johnson, McMillan, and Woodruff 2002)."
                    ]
                }
            ]
        },
        {
            "title": "Cross-National Evidence",
            "subsections": [
                {
                    "title": "Measures of Political Disruption",
                    "paragraphs": [
                        "Our three groups of countries essentially represent different levels of a treatment--political disruption--immediately prior to the period of observation. Surviving regimes did not receive the treatment; the former Soviet republics experienced high levels of disruption (a long period of deep political decline); and the other post-communist states experienced low levels (an abrupt political transition). Two dimensions of political disruption are correlated with these categories and can be measured directly. Hyperinflation is one product of state breakdown; many of these economies experienced hyperinflation in the early 1990s. Most of the former Soviet republics maintained the ruble as a common currency, leading to the issuance of ruble credits by 15 new central banks, 12 of which continued to use the ruble until mid-1993. The long delay in establishing separate currencies led to hyperinflation in 10 of the 12 states still in the ruble zone during 1993 (Aslund 2007). Average annual inflation in the Soviet zone from 1991 to 1996 was 873 % in 13 other post-communist states it was 277 % and in the surviving communist states it was 23 percent. Hyperinflation is indicated by a variable coded 1 for a year the inflation rate exceeded 1,000 percent, a total of 32 country-years prior to 1997.6 Armed warfare is another byproduct of the division of a national state. Five of the 15 Soviet successor states experienced interstate warfare or civil war during the early 1990s, as did Croatia and Serbia. The variable armed conflict is coded 1 for any year in which a country experienced a major interstate or civil war, and 0 otherwise.7"
                    ]
                },
                {
                    "title": "Measures of Political Disruption",
                    "paragraphs": [
                        "Three variables represent the initial structure of the economy. Because our dependent variable is the deviation from an initial baseline growth rate, these variables are not needed as controls for the tendency for growth rates to be higher at lower levels of industrialization. Instead, they account for the argument that more industrialized socialist economies faced a more difficult process of restructuring. The first measure is initial GDP per capita; the second, highly correlated with the first, is the initial percentage of GDP derived from agriculture.8 An index for over-industrialization, developed by the World Bank, gauges deviation from the expected industry share of GDP based on total population, per capita GDP, and level of urbanization (de Melo, Denizer, and Gelb 1996; de Melo et al. 2001). Higher values represent prior distortions due to socialist industrialization. Cambodia and Vietnam had the lowest values (-7); Bulgaria and Slovakia had the highest (+23). All three measures are fixed constants.",
                        "Geographic advantages are indicated by a dummy variable coded 1 for states that had ready access to the European Union or were located in East Asia. We adopt the coding in de Melo and colleagues (2001), except for Russia (see Table A1 in the Appendix for details). Five Soviet successor states--Azerbaijan, Kazakhstan, Russia, Turkmenistan, and Uzbekistan--had major petroleum reserves that strongly influenced their economies; China, Romania, and Vietnam had more modest domestic oil industries. To control for the influence of oil revenues on the exporting economies, we include the annual per capita value of oil production in our equations."
                    ]
                },
                {
                    "title": "Measures of Political Disruption",
                    "paragraphs": [
                        "Policy choices are typically defined along two dimensions. Liberalization refers to the freeing of price and foreign exchange controls, openings to external markets, ease of private sector entry, and the curtailment of subsidies to state enterprise. Liberalization indices vary according to the weight assigned to different dimensions. We use an index adapted from Popov (2000), which ranges from 0 to 5 and scores the reform communist economies as relatively liberalized compared to former Soviet republics. A second index, derived from de Melo and colleagues (2001), is more heavily weighted toward liberalization of domestic prices, foreign trade, and foreign exchange, and gives surviving reform communist states low scores (see Table A2 in the Appendix).9 We report the results for the Popov index (the de Melo index did not alter the findings). These indexes are fixed averages that indicate the cumulative stock of liberalization carried out prior to 1996. Some scholars are understandably skeptical about the subjective judgments on which these indices are based (Stubbs, King, and Stuckler 2014). Hamm and colleagues (2012) constructed a less ambiguous measure that is directly relevant to our emphasis on property rights--the speed with which state enterprises were privatized. We adopt this measure, which defines mass privatization as covering at least 25 percent of large enterprises. This is a dummy variable, constant through time.10"
                    ]
                },
                {
                    "title": "Measures of Political Disruption",
                    "paragraphs": [
                        "Other indices quantify levels of political and economic freedom, procedural democracy, and rule of law. We use two common measures that are available through websites or published studies. The first is a scale for democracy-autocracy adapted from the Polity IV database. The index combines qualitative judgments about institutions through which citizens can express preferences about alternative policies and leaders; institutionalized constraints on executive power; and the guarantee of civil liberties to all citizens (Marshall et al. 2010). The variable Polity 2 is a combined index that ranges from +10 (full democracy) to -9 (full autocracy), which we transform into a 100-point democracy scale. We treat democracy as a fixed variable, an average score over the first four years after the transition to a post-communist government, or the four years after 1988 for the surviving communist regimes.11",
                        "A separate index for rule of law is adapted from Popov (2000). This is a subjective measure of the predictability and stability of procedures that govern property and contracts.12 It is a fixed average for the period before 1997, on a 100-point scale, with a high of 88 for Slovenia and a low of 30 for Armenia. One feature is that the average score for reform communist states is higher on average than that for the former Soviet republics and close to the score for other post-communist states. This fits with our understanding that property rights enforcement was more stable and predictable in surviving communist regimes than in severely disrupted states in the early years of reform. Table A1 in the Appendix contains variable definitions and their sources; Table A2 displays mean values across country categories."
                    ]
                }
            ]
        },
        {
            "title": "Analytic Strategy",
            "subsections": [
                {
                    "title": null,
                    "paragraphs": [
                        "Our interest is in the determinants of initial recessions--not higher or lower growth rates over time--so we focus on the early 1990s. We expect that levels of political disruption corresponding to our dummy variables will sharply differentiate economies during the early 1990s, but not afterward. The effect should be large even after taking into account the large impact of armed warfare and hyperinflation. Alternative explanations all imply that differences across country categories are a spurious expression of unobserved heterogeneity in initial economic circumstances, policy choices, and reform-era political economies. Our strategy, therefore, is to include in our equations as many plausible measures for these features as possible in an effort to reduce or eliminate the effect of our country group dummies in the early period.",
                        "We generate period-specific estimates of annual deviations from baseline GDP per capita. We report estimates for the early period during which recessions took place and the subsequent period of recovery. Random-effects models are inappropriate: Hausman tests conducted on random-effects models with this set of variables indicate serious violations of the model assumptions. An additional concern is that random-effects models do not properly control for time-varying covariates. A variety of estimation techniques incorporate information for time-invariant variables alongside a fixed-effects component in the model (Halaby 2004). To obtain more confident estimates of coefficients, we use a hybrid method proposed by Allison (2009) that centers values of time-varying covariates by their means, and then estimates the impact of deviations from their means. We estimate the models with a multilevel mixed-effects linear regression, which is implemented in Stata as the xtmixed command. The equation for the mixed-effects model is as follows: y = Xb + Zu + e, where y is a vector of dependent outcomes; b is a vector of fixed effects; u is a vector of random effects; e is the error term, a vector of white noise with mean 0; and X and Z are matrices of regressors (constant or stochastic) associated with b and u, respectively. We use group mean centering (by country) to transform the time-varying covariates included in the fixed-effects part of the model as recommended by Allison (2009), so that Xb=X-g+DXd, where X- is the mean of regressors in matrix Kh, and DX is the deviation from the mean for each regressor value. In Table 2, we are mainly interested in interpreting the effects of deviations from the mean (i.e., d), because the mean is a constant whereas the deviation is a random variable.",
                        "In Table 2, the full model in column 3 is as follows:",
                        "",
                        "Where Iyear >1994 is an indicator function that takes the value 1 if a given year is greater than 1994 and 0 otherwise. Isurviving regime and Iformer USSR are indicator functions for surviving communist regimes and former Soviet republics, and Isurviving regime Iyear >1994 and Iformer USSR Iyear >1994 are interaction terms between the year and country-type indicators. Note that the variables for military conflict and hyperinflation are demeaned following the method recommend by Allison (2009), for example, DXhyperinflation = Xhyperinflation - X-hyperinflation. The term for controls is a vector of variables that represent initial economic conditions, policy choice, and political institutions in the early 1990s. All time-varying control variables are expressed as deviations from country means. The vector of controls also includes coefficients for the country mean of the time-varying covariates. They have no substantive interpretation and are not reported."
                    ]
                }
            ]
        },
        {
            "title": "Findings",
            "subsections": [
                {
                    "title": null,
                    "paragraphs": [
                        "Table 2 reports estimates for nested mixed models in columns 1 through 3, and a trimmed model in column 4 that eliminates the severe multicollinearity in Model 3. The first block of variables is designed to capture the period-specific effects of political disruption; the estimates for the other covariates are an averaged overall effect for both periods. The coefficients for surviving regimes and former USSR are estimated differences from the excluded category (other post-communist states) in the average annual deviation from the baseline growth rate in GDP per capita for the initial period, 1989 to 1994. The year >1994 indicator captures the contrast in main and interaction effects for estimated deviation from baseline growth rates for 1995 to 2007 compared to the earlier period.",
                        "Estimates in all models are consistent with our expectations. The effects for the surviving regimes are positive across all models and unaffected by the inclusion of any of the control variables. In the early period, the estimated gap between the surviving regimes and other post-communist states ranged from 2.7 to 4.8 percent annually. The negative coefficients for the interaction term between surviving regime and year >1994 indicate that this gap reversed almost completely, and in this latter period the other post-communist economies performed considerably better relative to their baseline than did the surviving regimes (although, as seen in Figure 1, their growth rates were still somewhat lower). The negative coefficients for former USSR indicate that in the initial period these economies declined at an annual average rate ranging from 3.7 to 4.9 percent more than other post-communist states. The large and positive coefficients for the interaction term with year >1994 indicate that the contrast with the other post-communist states was erased and perhaps reversed. The coefficients are all positive and equal to or larger than the negative coefficients for the USSR dummy in the initial period.",
                        "The other measures of political disruption also had large negative effects. The impact of armed conflict was very large and hovered around an annual economic contraction of some 9 percent during a year in which it occurred. Hyperinflation also had a strong negative impact across all models.13",
                        "Column 3 in Table 2 represents the most challenging test of our argument about the impact of political disruption because it includes a long list of controls that represent alternative explanations and are also correlated with our country dummies. These controls, however, are highly correlated with one another, and the model estimated in column 3 suffers from severe multicollinearity.14 The model estimated in column 4 eliminates the variables that are the source of the problem in column 3.15 This trimmed model yields a positive estimate for the impact of petroleum exports, as expected, and a positive impact for over-industrialization, the reverse of what explanations based on initial economic circumstances would expect. Interestingly, mass privatization has the same negative and statistically significant coefficient as in Model 3--a country that carried out mass privatization grew over the entire period of observation at an annual rate 1.5 percent lower than countries that did not carry out mass privatization. This is similar to Hamm and colleagues' (2012) main finding, and it suggests their argument about the negative impact of that policy may have some merit, even if it does not account for the large initial recessions (given the timing of implementation relative to the onset of recession--recall Table 1).",
                        "One striking feature of these models is that the long list of control variables has virtually no impact on the large period-specific estimates for our country categories. The Bayesian information criterion (BIC) statistics indicate that the model estimated in column 1, which includes only indicators for regime change and period interactions, is the best fit with the data (the BIC statistic penalizes the number of parameters included in a model). Considerations of model fit are distinctly secondary to the fact that the estimates for the country categories in the early period appear to be completely unaffected by the inclusion of all manner of controls.",
                        "Figure 2 is a visual representation of the period-specific estimates in column 3 of Table 2. The figure displays the average predicted deviation from the baseline growth rate, by country category, for each of the two time periods. The differences across the three groups are large in the early period, with a much larger predicted decline in the former USSR than in the other post-communist states. In the second period, these differences are reversed, with much higher growth relative to the initial baseline in the former Soviet and other post-communist states relative to the surviving regimes. The apparent impact of political disruption, in other words, is massive, and limited to the initial period. The net group differences are highly robust across different model specifications. These results are not sensitive to different starting dates, ending dates, or the year that divides the two periods, or by the exclusion of any one country from the sample.16"
                    ]
                }
            ]
        },
        {
            "title": "Conclusions",
            "subsections": [
                {
                    "title": null,
                    "paragraphs": [
                        "Our theory about the political origins of post-communist recessions alters the definition of the problem in three ways. First, we note that the large group differences in average growth rates are almost exclusively an expression of the relative magnitude of early-1990s recessions. To define the question as one of growth rates over time is to obscure the nature of the problem. Second, we shift attention from institutional design and institution building in the post-communist period to the short-run institutional collapse in the immediately prior period. Finally, we identified a key institution whose collapse inherently disrupts economic activity--paradoxically, the communist party--and identified the prolonged decay in this institution that made the subsequent economic problems in the former USSR so much more severe.",
                        "We argued that explanations for post-communist economic outcomes that ignore the political shocks due to regime change are myopic, as are econometric models that treat the entire post-communist period as a continuous time series and do not differentiate the early 1990s from subsequent years. The causes of initial recessions are not the same as the causes of recovery and subsequent growth. Most alternative explanations are actually about recovery from recession or long-run growth. Arguments based on policy choice or post-communist political economy usually designate causes that occurred only after these initial recessions were well advanced. Further efforts to gauge the relative roles of policy choice and initial economic circumstances would be well advised to distinguish the early years from subsequent ones, and to explicitly take into account the legacies of countries' varied paths to regime change.",
                        "From the standpoint of econometric practice, a model based on three time-invariant dummy variables is far from satisfactory. Despite our effort to include measures for the most plausible alternative arguments in our models, there may still be unobserved heterogeneity across these three groups of countries that is captured by dummy variables that correspond to different levels of political disruption. The evidence for our argument is indirect, based primarily on qualitative case comparisons. The fact that large group differences are unaffected by controls derived from a range of alternative explanations suggests our explanation should be taken as seriously as the proposed alternatives. It is entirely possible, however, that there are other consequences of political disruption--besides hyperinflation and armed conflict--that are driving the group differences that we attribute to uncertainty about property rights. If so, there are alternate mechanisms, or perhaps additional ones, that serve to link political disruption with transitional recessions.",
                        "One of the strongest pieces of evidence in favor of our analysis comes from the close correspondence in time between regime change and the onset of recessions. Recessions only occurred where there was regime change, and they began immediately on the heels of regime change or, in the Soviet Union, two years prior. To be relevant to the problem at hand, any unobserved heterogeneity would have to be of a nature that could plausibly explain the onset of recessions at the time they occurred. These recessions began before post-communist governments were consolidated, and they were already near bottom when post-communist governments began to implement new economic policies. After 1996, there are no significant cross-group differences in growth rates to explain. The search for unobserved heterogeneity that might drive differences across these three groups of countries must be for variables that would have a similarly sudden impact confined to the early 1990s. This would be a much smaller set of plausible alternative causes than those taken seriously in the past.",
                        "We concur with sociologists' emphasis on the key role of states in regulating market economies and enforcing property rights, and in particular the importance of strong state capacity in the course of a market transition. However, the relevant decline in state capacity began well before post-communist economic policies that are so often blamed for this decline. Reform policies were adopted too late to have created the recessions, which began across the region, including the USSR, in 1989. We attribute the collapse of state capacity--and the unusually deep crises observed across the former Soviet Union--to a prior deterioration of the communist party. This decline was much more severe and prolonged in the Soviet Union than elsewhere. Policy choices made by new governments during the 1990s may have promoted or hindered subsequent recovery at the margins. But the ultimate causes of the severe recessions that plagued so many post-communist economies, we argue, were prior trajectories of political change. The surviving communist regimes avoided recessions by avoiding regime change, in some cases through the application of brutal repression. The lesson for these survivors is that any future transition from single-party dictatorship will be less economically damaging if it is rapid, especially if it occurs through negotiations initiated by communist parties themselves."
                    ]
                }
            ]
        }
    ],
    "references": [
        "Alesina, Alberto, \u00d6zler, Sule, Roubini, Nouriel, Swagel, Phillip. 1996. \u201cPolitical Instability and Economic Growth.\u201d Journal of Economic Growth 1(2):189\u2013211.",
        "Allison, Paul D. 2009. Fixed Effects Regression Models. Los Angeles: Sage.",
        "Amsden, Alice, Kochanowicz, Jacek, Taylor, Lance. 1994. The Market Meets Its Match: Restructuring the Economies of Eastern Europe. Cambridge, MA: Harvard University Press.",
        "\u00c5slund, Anders. 1989. \u201cSoviet and Chinese Reforms: Why They Must be Different.\u201d The World Today 45(11):188\u201391.",
        "\u00c5slund, Anders. 2007. How Capitalism Was Built: The Transformation of Central and Eastern Europe, Russia, and Central Asia. Cambridge, UK: Cambridge University Press.",
        "Atkin, Muriel. 1997. \u201cTajikistan: Reform, Reaction, and Civil War.\u201d Pp. 602\u2013627 in New States, New Politics: Building the Post-Soviet Nations, edited by Bremmer, I., Taras, R. Cambridge, UK: Cambridge University Press.",
        "Babecky, Jan, Campos, Nauro F. 2011. \u201cDoes Reform Work? An Econometric Survey of the Reform-Growth Puzzle.\u201d Journal of Comparative Economics 39(2):140\u201358.",
        "Banac, Ivo. 1992. \u201cPost-Communism as Post-Yugoslavism: The Yugoslav Non-revolutions of 1989\u20131990.\u201d Pp. 168\u201387 in Eastern Europe in Revolution, edited by Banac, I. Ithaca, NY: Cornell University Press.",
        "Barnes, Andrew. 2006. Owning Russia: The Struggle over Factories, Farms, and Power. Ithaca, NY: Cornell University Press.",
        "Barro, Robert J. 1998. Determinants of Economic Growth: A Cross-Country Empirical Study. Cambridge, MA: MIT Press.",
        "Beissinger, Mark R. 2002. Nationalist Mobilization and the Collapse of the Soviet State. New York: Cambridge University Press.",
        "Bell, John D. 1997. \u201cDemocratization and Political Participation in \u2018Postcommunist\u2019 Bulgaria.\u201d Pp. 353\u2013402 in Politics, Power, and the Struggle for Democracy in South-East Europe, edited by Dawisha, K., Parrott, B. Cambridge, UK: Cambridge University Press.",
        "Biberaj, Elez. 1992. \u201cAlbania: The Last Domino.\u201d Pp. 188\u2013206 in Eastern Europe in Revolution, edited by Banac, I. Ithaca, NY: Cornell University Press.",
        "Blasi, Joseph R., Kroumova, Maya, Kruse, Douglas. 1997. Kremlin Capitalism: The Privatization of the Russian Economy. Ithaca, NY: Cornell University Press.",
        "Block, Fred, Evans, Peter. 2005. \u201cThe State and the Economy.\u201d Pp. 505\u2013526 in The Handbook of Economic Sociology, 2nd ed., edited by Smelser, N. J., Swedberg, R. Princeton, NJ: Princeton University Press.",
        "B\u00f6r\u00f6cz, J\u00f3zsef. 2012. \u201cNotes on the Geopolitical Economy of Post-State Socialism.\u201d Pp. 103\u2013124 in Socialism Vanquished, Socialism Challenged: Eastern Europe and China, 1989\u20132009, edited by Bandelj, N., Solinger, D. J. Oxford, UK: Oxford University Press.",
        "Brown, Archie. 1996. The Gorbachev Factor. Oxford, UK: Oxford University Press.",
        "Brown, Archie. 2007. Seven Years That Changed the World: Perestroika in Perspective. Oxford, UK: Oxford University Press.",
        "Brown, J. David, Earle, John S., Gehlbach, Scott. 2009. \u201cHelping Hand or Grabbing Hand? State Bureaucracy and Privatization Effectiveness.\u201d American Political Science Review 103(2):264\u201383.",
        "Brown, J. David, Earle, John S., Telegdy, \u00c1lmos. 2010. \u201cEmployment and Wage Effects of Privatization: Evidence from Hungary, Romania, Russia, and Ukraine.\u201d Economic Journal 120(545):638\u2013708.",
        "Brown, J. David, Earle, John S., Vakhitov, Volodymyr. 2006. \u201cWages, Layoffs, and Privatization: Evidence from Ukraine.\u201d Journal of Comparative Economics 34(2):272\u201394.",
        "Bruszt, L\u00e1szl\u00f3. 1990. \u201c1989: The Negotiated Revolution in Hungary.\u201d Social Research 57(2):365\u201387.",
        "Bruszt, L\u00e1szl\u00f3, Stark, David. 1992. \u201cRemaking the Political Field in Hungary: From the Politics of Confrontation to the Politics of Competition.\u201d Pp. 13\u201355 in Eastern Europe in Revolution, edited by Banac, I. Ithaca, NY: Cornell University Press.",
        "Burawoy, Michael. 1996. \u201cThe State and Economic Involution: Russia through a China Lens.\u201d World Development 24(6):1105\u20131117.",
        "Burawoy, Michael. 2001. \u201cTransition without Transformation: Russia\u2019s Involutionary Road to Capitalism.\u201d East European Politics and Societies 15(2):269\u201392.",
        "Burawoy, Michael, Krotov, Pavel. 1992. \u201cThe Soviet Transition from Socialism to Capitalism: Worker Control and Economic Bargaining in the Wood Industry.\u201d American Sociological Review 57(1):16\u201338.",
        "Campbell, John L. 1993. \u201cThe State and Fiscal Sociology.\u201d Annual Review of Sociology 19:163\u201385.",
        "Campbell, John L., Lindberg, Leon N. 1990. \u201cProperty Rights and the Organization of Economic Activity by the State.\u201d American Sociological Review 55(5):634\u201347.",
        "Campos, Nauro F., Coricelli, Fabrizio. 2002. \u201cGrowth in Transition: What We Know, What We Don\u2019t, and What We Should.\u201d Journal of Economic Literature 40(3):793\u2013836.",
        "Carruthers, Bruce G., Ariovich, Laura. 2004. \u201cThe Sociology of Property Rights.\u201d Annual Review of Sociology 30:23\u201346.",
        "Chandler, David. 2008. A History of Cambodia, 4th ed. Boulder, CO: Westview.",
        "Clague, Christopher. 1992. \u201cIntroduction: The Journey to a Market Economy.\u201d Pp. 1\u201322 in The Emergence of Market Economies in Eastern Europe, edited by Clague, C., Rausser, G. C. Cambridge, MA: Blackwell.",
        "Cohen, Lenard J. 1997. \u201cEmbattled Democracy: Postcommunist Croatia in Transition.\u201d Pp. 69\u2013121 in Politics, Power, and the Struggle for Democracy in South-East Europe, edited by Dawisha, K., Parrott, B. Cambridge, UK: Cambridge University Press.",
        "Cohen, Stephen F. 1998. Failed Crusade: America and the Tragedy of Post-Communist Russia. New York: Norton.",
        "Crowther, William. 1997. \u201cThe Politics of Democratization in Postcommunist Moldova.\u201d Pp. 282\u2013329 in Democratic Changes and Authoritarian Reactions in Russia, Ukraine, Belarus, and Moldova, edited by Dawisha, K., Parrott, B. Cambridge, UK: Cambridge University Press.",
        "de Melo, Martha, Denizer, Cevdet, Gelb, Alan. 1996. \u201cPatterns of Transition from Plan to Market.\u201d World Bank Economic Review 10(3):397\u2013424.",
        "de Melo, Martha, Denizer, Cevdet, Gelb, Alan, Tenev, Stoyan. 2001. \u201cCircumstance and Choice: The Role of Initial Conditions and Policies in Transitional Economies.\u201d World Bank Economic Review 15(1):1\u201331.",
        "Dollar, David. 1999. \u201cThe Transformation of Vietnam\u2019s Economy: Sustaining Growth in the 21st Century.\u201d Pp. 31\u201346 in Market Reform in Vietnam, edited by Litvack, J. I., Rondinelli, D. A. Westport, CT: Quorum.",
        "Dudwick, Nora. 1997. \u201cArmenia: Paradise Regained or Lost?\u201d Pp. 471\u2013504 in New States, New Politics: Building the Post-Soviet Nations, edited by Bremmer, I., Taras, R. Cambridge, UK: Cambridge University Press.",
        "Easter, Gerald M. 2012. Capital, Coercion, and Postcommunist States. Ithaca, NY: Cornell University Press.",
        "Ellman, Michael. 1989. Socialist Planning. Cambridge, UK: Cambridge University Press.",
        "Ellman, Michael, Kontorovich, Vladimir, eds. 1998. The Destruction of the Soviet Economic System: An Insiders\u2019 History. Armonk, NY: M.E. Sharpe.",
        "Ericson, Richard E. 1998. \u201cEconomics and the Russian Transition.\u201d Slavic Review 57(3):609\u2013625.",
        "European Bank. 1999. Transition Report 1999: Ten Years of Transition. London: European Bank for Reconstruction and Development.",
        "Evans, Peter. 1995. Embedded Autonomy: States and Industrial Transformations. Princeton, NJ: Princeton University Press.",
        "Evans, Peter, Rauch, James E. 1999. \u201cBureaucracy and Growth: A Cross-National Analysis of the Effects of \u2018Weberian\u2019 State Structures on Economic Growth.\u201d American Sociological Review 64(5):748\u201365.",
        "Falcetti, Elisabetta, Lysenko, Tatiana, Sanfey, Peter. 2006. \u201cReforms and Growth in Transition: Re-examining the Evidence.\u201d Journal of Comparative Economics 34(3):421\u201345.",
        "Fish, M. Steven. 1997. \u201cThe Determinants of Economic Reform in the Post-Communist World.\u201d East European Politics and Societies 12(1):31\u201378.",
        "Frye, Timothy. 2000. Brokers and Bureaucrats: Building Market Institutions in Russia. Ann Arbor: University of Michigan Press.",
        "Frye, Timothy. 2002. \u201cThe Perils of Polarization: Economic Performance in the Postcommunist World.\u201d World Politics 54(3):308\u2013337.",
        "Gehlbach, Scott. 2008. Representation through Taxation: Revenue, Politics, and Development in Postcommunist States. Cambridge, UK: Cambridge University Press.",
        "Gerber, Theodore P. 2006. \u201cGetting Paid: Wage Arrears and Stratification in Russia.\u201d American Journal of Sociology 111(6):1816\u201370.",
        "Gill, Graeme. 1994. The Collapse of a Single-Party System: The Disintegration of the Communist Party of the Soviet Union. Cambridge, UK: Cambridge University Press.",
        "Gottesman, Evan. 2002. Cambodia after the Khmer Rouge: Inside the Politics of Nation Building. New Haven, CT: Yale University Press.",
        "Gregory, Paul R. 2004. The Political Economy of Stalinism. Cambridge, UK: Cambridge University Press.",
        "Gross, Jan T. 1992. \u201cPoland: From Civil Society to Political Nation.\u201d Pp. 56\u201371 in Eastern Europe in Revolution, edited by Banac, I. Ithaca, NY: Cornell University Press.",
        "Gustafson, Thane. 1999. Capitalism, Russian-Style. New York: Cambridge University Press.",
        "Halaby, Charles. 2004. \u201cPanel Models in Sociological Research: Theory into Practice.\u201d Annual Review of Sociology 30:507\u2013544.",
        "Hamm, Patrick, King, Lawrence P., Stuckler, David. 2012. \u201cMass Privatization, State Capacity, and Economic Growth in Post-Communist Countries.\u201d American Sociological Review 77(2):295\u2013324.",
        "Hanson, Stephen E. 1998. \u201cAnalyzing Post-Communist Economic Change: A Review Essay.\u201d East European Politics and Societies 12(1):145\u201370.",
        "Hellman, Joel S. 1998. \u201cWinners Take All: The Politics of Partial Reform in Postcommunist Transition.\u201d World Politics 50(2):203\u2013234.",
        "Hughes, Caroline. 2003. The Political Economy of Cambodia\u2019s Transition, 1991\u20132001. London: RoutledgeCurzon.",
        "Hunter, Shireen T. 1997. \u201cAzerbaijan: Searching for New Neighbors.\u201d Pp. 437\u201370 in New States, New Politics: Building the Post-Soviet Nations, edited by Bremmer, I., Taras, R. Cambridge, UK: Cambridge University Press.",
        "Johnson, Simon, McMillan, John, Woodruff, Christopher. 2002. \u201cProperty Rights and Finance.\u201d American Economic Review 92(5):1335\u201356.",
        "Jones, Stephen F. 1997. \u201cGeorgia: The Trauma of Statehood.\u201d Pp. 505\u2013543 in New States, New Politics: Building the Post-Soviet Nations, edited by Bremmer, I., Taras, R. Cambridge, UK: Cambridge University Press.",
        "Judt, Tony R. 1992. \u201cMetamorphosis: The Democratic Revolution in Czechoslovakia.\u201d Pp. 96\u2013116 in Eastern Europe in Revolution, edited by Banac, I. Ithaca, NY: Cornell University Press.",
        "King, Lawrence P. 2002. \u201cPostcommunist Divergence: A Comparative Analysis of the Transition to Capitalism in Poland and Russia.\u201d Studies in Comparative International Development 37(3):3\u201335.",
        "King, Lawrence P., Szel\u00e9nyi, Iv\u00e1n. 2005. \u201cPost-Communist Economic Systems.\u201d Pp. 205\u2013229 in The Handbook of Economic Sociology, 2nd ed., edited by Smelser, N. J., Swedberg, R. Princeton, NJ: Princeton University Press.",
        "King, Lawrence P., Sznajder, Aleksandra. 2006. \u201cThe State-Led Transition to Liberal Capitalism: Neoliberal, Organizational, World-Systems, and Social Structural Explanations of Poland\u2019s Economic Success.\u201d American Journal of Sociology 112(3):751\u2013801.",
        "Kopstein, Jeffrey S., Reilly, David A. 2000. \u201cGeographic Diffusion and the Transformation of the Postcommunist World.\u201d World Politics 53(1):1\u201337.",
        "Kornai, J\u00e1nos. 1992. The Socialist System: The Political Economy of Communism. Princeton, NJ: Princeton University Press.",
        "Kornai, J\u00e1nos. 1994. \u201cTransformational Recession: The Main Causes.\u201d Journal of Comparative Economics 19(1):39\u201364.",
        "Kuznets, Simon. 1973. \u201cModern Economic Growth: Findings and Reflections.\u201d American Economic Review 63(3):247\u201358.",
        "Lau, Lawrence J., Qian, Yingyi, Roland, G\u00e9rard. 2000. \u201cReform without Losers: An Interpretation of China\u2019s Dual-Track Approach to Transition.\u201d Journal of Political Economy 108(1):120\u201343.",
        "Leitzel, Jim. 1995. Russian Economic Reform. London: Routledge.",
        "Lieberman, Ira W., Nestor, Stilpon S., Desai, Raj M. 1997. Between State and Market: Mass Privatization in Transition Economies. Washington, DC: Work Bank.",
        "Marshall, Monty G., Gurr, Ted Robert, Jaggers, Keith. 2010. Polity IV Project: Political Regime Characteristics and Transitions, 1800\u20132009, Data User\u2019s Manual. Center for Systemic Peace, George Mason University, Fairfax, VA.",
        "Miller, Nicholas. 1997. \u201cA Failed Transition: The Case of Serbia.\u201d Pp. 146\u201388 in Politics, Power, and the Struggle for Democracy in South-East Europe, edited by Dawisha, K., Parrott, B. Cambridge, UK: Cambridge University Press.",
        "Murphy, Kevin M., Shleifer, Andrei, Vishny, Robert W. 1992. \u201cThe Transition to a Market Economy: Pitfalls of Partial Reform.\u201d Quarterly Journal of Economics 107(3):889\u2013906.",
        "Murrell, Peter. 1991. \u201cCan Neoclassical Economics Underpin the Reform of Centrally Planned Economies?\u201d Journal of Economic Perspectives 5(4):59\u201376.",
        "Murrell, Peter. 1995. \u201cThe Transition According to Cambridge, Mass.\u201d Journal of Economic Literature 33(1):164\u201378.",
        "Naughton, Barry. 2008. \u201cA Political Economy of China\u2019s Economic Transition.\u201d Pp. 91\u2013135 in China\u2019s Great Economic Transformation, edited by Brandt, L., Rawski, T. G. Cambridge, UK: Cambridge University Press.",
        "Naughton, Barry. 2012. \u201cThe 1989 Watershed in China: How the Dynamics of Economic Transition Changed.\u201d Pp. 125\u201346 in Socialism Vanquished, Socialism Challenged: Eastern Europe and China, 1989\u20132009, edited by Bandelj, N., Solinger, D. J. Oxford, UK: Oxford University Press.",
        "Nolan, Peter. 1995. China\u2019s Rise, Russia\u2019s Fall: Politics, Economics and Planning in the Transition from Stalinism. New York: St. Martin\u2019s Press.",
        "Orenstein, Mitchell A. 2001. Out of the Red: Building Capitalism and Democracy in Postcommunist Europe. Ann Arbor: University of Michigan Press.",
        "Orenstein, Mitchell A. 2009. \u201cWhat Happened in East European (Political) Economies? A Balance Sheet for Neoliberal Reform.\u201d East European Politics and Societies 23(4):479\u201390.",
        "Pano, Nicholas. 1997. \u201cThe Process of Democratization in Albania.\u201d Pp. 285\u2013352 in Politics, Power, and the Struggle for Democracy in South-East Europe, edited by Dawisha, K., Parrott, B. Cambridge, UK: Cambridge University Press.",
        "Polity IV. 2013. Polity IV Database. Retrieved February 12, 2013 (http://www.systemicpeace.org/polity/polity4.htm).",
        "Pop-Eleches, Grigore. 2007. \u201cHistorical Legacies and Post-Communist Regime Change.\u201d Journal of Politics 69(4):908\u2013926.",
        "Popov, Vladimir. 2000. \u201cShock Therapy Versus Gradualism: The End of the Debate (Explaining the Magnitude of Transformational Recession).\u201d Comparative Economic Studies 42(1):1\u201357.",
        "Popov, Vladimir. 2007. \u201cShock Therapy versus Gradualism Reconsidered: Lessons from Transition Economies after 15 Years.\u201d Comparative Economic Studies 49(1):1\u201331.",
        "Przeworski, Adam. 1991. Democracy and the Market: Political and Economic Reforms in Eastern Europe and Latin America. New York: Cambridge University Press.",
        "Przeworski, Adam, Limongi, Fernando. 1993. \u201cPolitical Regimes and Economic Growth.\u201d Journal of Economic Perspectives 7(3):51\u201369.",
        "Reddaway, Peter, Glinski, Dimitri. 2001. The Tragedy of Russia\u2019s Reforms: Market Bolshevism against Democracy. Washington, DC: United States Institute of Peace Press.",
        "Rodrik, Dani, Wacziarg, Romain. 2005. \u201cDo Democratic Transitions Produce Bad Economic Outcomes?\u201d American Economic Review 95(2):50\u201355.",
        "Roland, G\u00e9rard. 2002. \u201cThe Political Economy of Transition.\u201d Journal of Economic Perspectives 16(1):29\u201350.",
        "R\u00f3na-Tas, \u00c1kos. 1995. \u201cThe Second Economy as a Subversive Force: The Erosion of Party Power in Hungary.\u201d Pp. 61\u201384 in The Waning of the Communist State, edited by Walder, A. G. Berkeley: University of California Press.",
        "Rossabi, Morris. 2005. Modern Mongolia: From Khans to Commissars to Capitalists. Berkeley: University of California Press.",
        "Rusinow, Dennison. 1977. The Yugoslav Experiment, 1948\u20131974. Berkeley: University of California Press.",
        "Sachs, Jeffrey D. 1993. Poland\u2019s Jump to the Market Economy. Cambridge, MA: MIT Press.",
        "Sachs, Jeffrey D. 1994. \u201cLife in the Economic Emergency Room.\u201d Pp. 501\u2013523 in The Political Economy of Policy Reform, edited by Williamson, J. Washington, DC: Institute for International Economics.",
        "Sachs, Jeffrey D., Woo, Wing Thye. 1994. \u201cStructural Factors in the Economic Reforms of China, Eastern Europe, and the Former Soviet Union.\u201d Economic Policy 9(18):102\u2013145.",
        "Shirk, Susan L. 1993. The Political Logic of Economic Reform in China. Berkeley: University of California Press.",
        "Shleifer, Andrei, Treisman, Daniel. 2001. Without a Map: Political Tactics and Economic Reform in Russia. Cambridge, MA: MIT Press.",
        "Shleifer, Andrei, Vishny, Robert W. 1998. The Grabbing Hand: Government Pathologies and Their Cures. Cambridge, MA: Harvard University Press.",
        "Stark, David. 1986. \u201cRethinking Internal Labor Markets: New Insights from a Comparative Perspective.\u201d American Sociological Review 51(4):492\u2013504.",
        "Stark, David. 1989. \u201cCoexisting Organizational Forms in Hungary\u2019s Emerging Mixed Economy.\u201d Pp. 137\u201368 in Remaking the Economic Institutions of Socialism: China and Eastern Europe, edited by Nee, V., Stark, D. Stanford, CA: Stanford University Press.",
        "Stark, David. 1991. \u201cPath Dependence and Privatization Strategies in Eastern Europe.\u201d East European Politics and Societies 6(1):17\u201354.",
        "Stark, David. 1996. \u201cRecombinant Property in East European Capitalism.\u201d American Journal of Sociology 101(4):993\u20131027.",
        "Stoner-Weiss, Kathryn. 2006. Resisting the State: Reform and Retrenchment in Post-Soviet Russia. Cambridge, UK: Cambridge University Press.",
        "Stuart-Fox, Martin. 2005. \u201cPolitics and Reform in the Lao People\u2019s Democratic Republic.\u201d Asia Research Centre Working Paper No. 126, University of Queensland, Brisbane, Australia.",
        "Stubbs, Thomas, King, Lawrence, Stuckler, David. 2014. \u201cEconomic Growth, Financial Crisis, and Property Rights: Observer Bias in Perception-Based Measures.\u201d International Review of Applied Economics 28(3):401\u2013418.",
        "Summers, Lawrence. 1994. \u201cComment.\u201d Pp. 252\u201355 in The Transition in Eastern Europe, edited by Blanchard, O. J., Froot, K. A., Sachs, J. D. Chicago: University of Chicago Press.",
        "Tismaneanu, Vladimir. 1997. \u201cRomanian Exceptionalism? Democracy, Ethnocracy, and Uncertain Pluralism in Romania.\u201d Pp. 403\u2013451 in Politics, Power, and the Struggle for Democracy in South-East Europe, edited by Dawisha, K., Parrott, B. Cambridge, UK: Cambridge University Press.",
        "Treisman, Daniel. 1999. After the Deluge: Regional Crises and Political Consolidation in Russia. Ann Arbor: University of Michigan Press.",
        "Uvalic, Milica. 2010. Serbia\u2019s Transition: Toward a Better Future. New York: Palgrave Macmillan.",
        "Varese, Federico. 2005. The Russian Mafia: Private Protection in a New Market Economy. Oxford, UK: Oxford University Press.",
        "Verdery, Katherine, Kligman, Gail. 1992. \u201cRomania after Ceausescu: Post-Communist Communism?\u201d Pp. 117\u201347 in Eastern Europe in Revolution, edited by Banac, I. Ithaca, NY: Cornell University Press.",
        "Volkov, Vadim. 2002. Violent Entrepreneurs: The Use of Force in the Making of Russian Capitalism. Ithaca, NY: Cornell University Press.",
        "Vuja\u010di\u0107, Ivan, Vuja\u010di\u0107, Jelica Petrovic. 2011. \u201cPrivatization in Serbia: Results and Institutional Failures.\u201d Economic Annals 56(191):89\u2013105.",
        "Walder, Andrew G. 1992. \u201cProperty Rights and Stratification in Socialist Redistributive Economies.\u201d American Sociological Review 57(4):524\u201339.",
        "Walder, Andrew G. 2003. \u201cElite Opportunity in Transitional Economies.\u201d American Sociological Review 68(6):899\u2013916.",
        "Winiecki, Jan. 1991. \u201cThe Inevitability of a Fall in Output in the Early Stages of the Transition to the Market: Theoretical Underpinnings.\u201d Soviet Studies 43(4):669\u201376.",
        "Woo, Wing Thye. 1994. \u201cThe Art of Reforming Centrally Planned Economies: Comparing China, Poland, and Russia.\u201d Journal of Comparative Economics 18(3):276\u2013308.",
        "Woodruff, David. 1999. Money Unmade: Barter and the Fate of Russian Capitalism. Ithaca, NY: Cornell University Press.",
        "World Bank. 2012. World Development Indicators Database. Washington, DC: International Bank for Reconstruction and Development (http://databank.worldbank.org)."
    ],
    "title": "After State Socialism",
    "issue": "2",
    "volume": "80",
    "year": 2015,
    "issn": "0003-1224",
    "journal": "American Sociological Review",
    "authors": [
        "Andrew G. Walder",
        " Andrew Isaacson",
        " Qinglian Lu"
    ]
}