{
    "doi": "http://dx.doi.org/10.1093/esr/jcm029",
    "abstract": "The article addresses the question of whether the impact of economic resources on educational attainment has changed over time. According to the rational action perspective, variations in parental economic resources should be an important source of inequality in educational attainment, because richer families most easily can pay for their children's education. Moreover, inequalities should increase in periods with increasing economic inequality and insecurity. There is no large body of systematic empirical knowledge supporting these assumptions. The data used here is a large sample consisting of the total cohorts of Norwegians born between 1955 and 1984, thus covering the thirty-year period up to the most recent years. Parental economic resources are measured as the mean earnings of father and mother the five years before leaving compulsory school. The analyses indicate that the impact of economic resources has varied in a curvilinear fashion, with decreasing inequality among the older cohorts and increasing inequality among the younger cohorts. This pattern fits well with expectations based on economic developments in Norway in the period as economic inequality and unemployment increased in the period with increasing inequality in educational attainment.",
    "sections": [
        {
            "title": "Introduction",
            "paragraphs": [
                "To what extent has the impact of social origin on educational attainment changed over time? The prevailing answers to this question have varied somewhat in different periods. In the mid-twentieth century a widely held opinion was that inequality would decline, in line with increasing rates of educational participation. This is part of the liberal theory of industrialism, according to which the impact of ascribed characteristics would decline and be replaced by achievement values (e.g. Parsons, 1949, 1977; Blau and Duncan, 1967). The school is a main arena for achievement values, and the selection to the higher educational levels should be determined by ability and effort rather than by social origin. Subsequent research did not support the view of declining inequality however. A major comparative work from the beginning of the 1990s, emphasized that the impact of social origin on educational attainment tends to be stable, a conclusion reflected in the title 'Persisting inequality' (Shavit and Blossfeld, 1993). Two countries, Sweden and the Netherlands, were perceived as exceptions, displaying tendencies towards equalization at the lower educational levels. Researchers behind more recent analyses have maintained that equalization has occurred in countries such as Germany, Britain, Italy, France, and Norway (e.g. Jonsson et al., 1996; Lindbekk, 1998; Shavit and Westerbeck, 1998; Raaum, 2003; Vallet, 2004). These results have thus led to the conclusion that the countries that display persisting patterns of educational inequality stand out as exceptions (cf. Breen and Jonsson, 2005).",
                "The results of empirical studies on inequality of educational attainment so far should not be considered as sufficient evidence of a general trend towards equalization in educational attainment. For one thing, the development during the most recent years has not been uncovered, as the studies pointing towards equalization typically end with the cohorts born in the 1950s, or sometimes the beginning of the 1960s. This excludes the cohorts entering secondary education in during the 1980s, when many countries experienced economic recession. Increasing economic insecurity may be expected to influence educational inequality, and might well be evident in increasing inequality in educational attainment. This is a reasonable assumption, at least on the basis of explanations of educational inequality based on a rational action perspective (e.g. Boudon, 1974; Erikson and Jonsson, 1996; Breen and Goldthorpe, 1997; Goldthorpe, 2000a). According to this perspective variation in the costs and benefits of higher education by social origin is an important cause of social inequalities in educational attainment. Richer families can more easily pay for their children's education, including the income loss when the children spend time on education rather than work. Parental economic resources influence children's educational attainment, even if other types of resources, most notably cultural resources, also are essential.",
                "The question raised in this article is whether the impact of parental economic resources on educational attainment has changed over time. Furthermore, to what extent do such changes seem related to economic trends? Because of the importance of economic resources in the rational action perspective the answers will contribute to assessments of the validity of explanations of educational inequality within this perspective.",
                "There is no large body of empirical knowledge about the research question addressed here. Within economics, there is some recent evidence from Great Britain pointing in the direction of rising correlations between parental income and educational attainment (Blanden and Gregg, 2004; Blanden and Machin, 2004). Sociological studies of change over time usually rely on a classification of social class, parental education or both. It is not obvious that the impact of changes in economic inequality would manifest themselves in analyses measuring the impact of social class or parental education, even if there were a change in the impact of parental economic resources. One reason is inflation in the value of occupational titles or higher education degrees. The higher class categories, such as the service class in the widely used Erikson-Goldthorpe scheme, have increased considerably in size. Belonging to such a class would clearly indicate a more 'elite' position in the mid-twentieth century, for example, than around 2000. Similar arguments can be made for parental education: after massive expansion in the educational system, having parents with university level education is not necessarily a sign of the same elevated position as it would be some decades ago. A further complicating factor for conclusions about developments in social inequality is the growing number of people that are outside the labour force in many countries, and who therefore usually are omitted in analyses applying class classifications. If it is the case that the most dispossessed increasingly are omitted from analyses of educational inequality, this could also influence conclusions about change over time.",
                "The first sections below sketch out main points in the rational action perspective for then to discuss consequences for expectations about change over time. This perspective includes a number of positions that will not be discussed (cf. Goldthorpe, 2000b); the exposition is limited to main ideas in rational action explanations of inequality in educational attainment. The data set consists of the total Norwegian cohorts born between 1955 and 1987, thus covering the thirty-year period up to the most recent years. The data include measures of parental earnings on an annual basis from 1967 and onwards. Among the advantages of using these data is that they allow the construction of more direct and precise measures of income than usually has been available in studies of changes over time in educational inequality."
            ]
        },
        {
            "title": "Economic Resources and Rational Action Theory",
            "paragraphs": [
                "The view that educational choice involves the assessment of costs and benefits of specific routes of education was established within sociology by Boudon's book Education, Opportunity and Social Inequality (1974). More specifically, the educational career was seen as a number of branching points at which the students, in collaboration with their parents, have to decide whether to continue to the next step or to opt out of the educational system. Mare (1980, 1981) developed and formalized the model of the educational career as sequence of binary choices. The sequential binary model has been criticized for being unrealistic, however, because most educational systems involve parallel branches and therefore multiple as well as binary choices (Hansen, 1997; Breen and Jonsson, 2000). Continuing one's educational career clearly involves economic costs, but Boudon emphasizes the importance of social costs as well, for example, those that arise when students from lower class origins have to leave their social environment in order to pursue educational goals. He also assumes that the great interest in children's education in the higher classes to some extent is supported by social norms. Gambetta (1987) also calls attention to the influence of economic resources on educational choice, and as Boudon he includes non-rational elements in his model of choice. More specifically Gambetta argues that those originating in the lower classes tend to over-adapt to their circumstances, and exaggerate the costs and underrate the benefits of further education, and vice versa in the higher classes.",
                "In the most recent years, the perhaps most vigorous attempt within sociology to establish the importance of economic resources for educational choice is that by Goldthorpe and his collaborators (cf. Goldthorpe, 2000a). Goldthorpe relates his contribution to the sociology of social class and education to the tradition of Boudon and Gambetta, but opposes their inclusions of normative and non-rational elements in models of educational choice and questions the idea of the importance of social costs. Among other things, he argues that the potential costs of leaving one's social environment diminish in line with the disappearance of working class communities, and that higher education should be considered a consumption value in the service class rather than as having normative value. According to him, economic resources have vital importance, even if direct economic costs of education are much reduced in societies in which education is cheap or even free, and there is growing affluence and rising family income (Goldthorpe, 2000a). The concept of 'relative risk aversion' points to one important cause (Breen and Goldthorpe, 1997): families tend to want to ensure that their children avoid downward mobility. The strategy of the higher classes, or the service class, will therefore be to choose the educational paths which lead them to that class, whereas working class parents do not have to do this to secure their children's social position. Because education will be expensive in the working classes, many able and talented members of these classes will not obtain higher education.",
                "Not only current economic situation will affect educational choice, but also future economic prospects (Goldthorpe, 2000a). The economic situation of the working class will in general be more insecure than that of the service class, because they face a greater threat of unemployment. Moreover, at the age when the children make decisive educational choices, the earnings curve still tends to rise in service class families. Their choice situation thus is one in which they may expect increasing prosperity in the future whereas the earnings curve will typically have flattened out in the working class. This means that the impact of economic resources may well lead to greater inequalities than one might expect merely on the basis of income in the choice situation.",
                "The rational action perspective leads to the expectation that changes in the level of economic inequality and in economic insecurity should be reflected in the level of inequality in educational attainment. On the one hand, inequality of educational attainment should be reduced in periods diminishing economic inequality. Diminishing class differences in economic security has been put forward as the main reason for reduced inequality in educational attainment in a long-term perspective. For example, Robert Erikson (1996: 105) argues that this is the main, though not only, explanation for the reduction of inequality in educational attainment in Sweden from the 1920s and onwards.",
                "In periods of increasing economic inequality, on the other hand, the impact of economic resources should be expected to increase. One reason may be that educational investments become harder especially among the poorest families. Another is that economic downturns lead to greater insecurity and pessimism with respect to future prospects, and especially so among those who are relatively poor. Even if economic recession affects the financial situation or expectations about the future of the more affluent families, the effects on educational investments should be least adverse among them. Their children have to attain higher education in order to avoid social degradation, as emphasized by Boudon and Goldthorpe. They are therefore likely to opt for higher education, even if their economic situation changes for the worse. Changes in economic inequality may also be the result of increasing wealth among the richest part of the population, something that primarily may lead to changes in the educational investments of these groups. Recent evidence from the UK points in this direction, as the expansion of the higher education system disproportionately benefited the children from relatively rich families (Blanden and Machin, 2004).",
                "The effect of economic downturns and changes in economic inequality may be modified if the risks linked to educational investments are minimized by public support systems in the form of educational grants or cheap loans for students (cf. Erikson, 1996)."
            ]
        },
        {
            "title": "Expectations about Changes in Inequality of Educational Attainment",
            "paragraphs": [
                "If there is an association between economic circumstances and the level of inequality in educational attainment, what developments would we expect in the case of Norway? Here the situation at the age of 16 will be used to describe the economic circumstances of specific birth cohorts. This choice is not unproblematic, as it involves a simplification of complex processes of decision-making. The consequences of specific economic circumstances such as an economic setback would for example depend on whether it is experienced as long term or temporary and on beliefs about developments in specific parts of the labour market, for example, the impact of economic recession in the labour market for higher education graduates.",
                "It is also doubted whether parental economic resources in fact influence educational choice at a young because alternative branches of study hardly vary with respect to economic costs among students still living with their parents (Eriksson and Jonsson, 1996: 2-22). The focus on short-term costs and benefits of educational choice has been criticized for being 'myopic', as those making the choices do not take into consideration long-term consequences (Cameron and Heckmann, 1998). When early educational choices are made youth, and at least their parents, should have ideas about the level of education they want to attain and the costs and benefits of attaining this level. Changes in the economy should thus be evident in changes in inequality in educational choice also at the lower levels, because people tend to estimate the costs of the total career.",
                "The view that people are aware of long-term consequences of educational choices at the lower level does seem reasonable, especially as the early choices tends to have consequences for their possibilities of entering higher level education. In Norway, for example, this requires an exam from the academic track of secondary level education. The main value of this degree is that it serves as an entering qualification for tertiary level education; those who complete the academic track have not attained qualifications that are attractive for employers. Moreover, there are good reasons to focus on economic circumstances at the age of 16, because it is the age at which the first educational transition in the Norwegian school system is made upon completing compulsory schooling. People have to choose between the vocational or academic track of secondary education, or possibly leaving, the latter alternative chosen only by a very small minority (Figure 1). The research on educational transitions, also from Norway, has documented that inequality in educational attainment tends to be greatest at the earliest transitions. For example, only 20 per cent of the sons and daughters of unskilled workers in the 1960-1964 cohorts moved one to the general branch of secondary education, opening up the road to higher education (Hansen, 1997: Table 2; cf. also Ringdal and Birkelund, 2003). In contrast nearly 80 per cent of children of higher grade professionals and administrators made the same choice. Because inequality in educational attainment established after the first choice has consequences for inequality at later stages, the level of inequality at the first transition has a large impact on inequality during the whole educational career. This implies that the economic situation when people are around 16 years old may be especially important for their educational choices and thus for the level of inequality of educational attainment at the end of the educational career, even if social class and parental income also affects the later transitions. ",
                "Two measures are used to give an impression of inequality at the age of 16. Figure 2 shows first, the ratio of parental earnings in the 90th and the 10th percentile, based on parental earnings in the five years preceding the first educational choice, i.e. at the age of 12-16. The estimate for the year 1955, for example, represents the specified ratio among the parents of the members of this cohort in the years 1967-1971. This is a direct measure of economic inequality in the years prior to making the first educational choice. It may be added that using parental income over a number of years implies that one comes closer to a measure of permanent earnings than when only using income at one point of time (cf. Solon, 1992; Zimmerman, 1992; Mazumder, 2005). The correlation between parental income at this age and income 5-6 years later is likely to be high. ",
                "The second measure is the unemployment rate measured at age 16. According to the argument above, the unemployment rate may influence the sense of economic insecurity, and especially so among the poorer parts of the population.",
                "If we first consider the development of economic inequality, the pattern in Figure 2 leads to the expectation of a curvilinear tendency in the development of inequality in educational attainment. Inequality first increases somewhat for then to decrease from the 1960 to 1967 cohorts, for then to increase. From the cohorts born from around 1980, inequality remains on a stable but high level compared to the mid-1960 cohorts.",
                "The expectations that would be made on the basis of the unemployment rate are in agreement with those based on the development of inequality with respect to the cohorts born between 1970 and 1980. In the period in which these cohorts were 16, there was a growth in both inequality and unemployment. For the oldest cohorts, among whom inequality decreased, unemployment was stable and even increased. It might be added that unemployment still is low when the oldest cohorts were around 16. Some fluctuations may not have so serious consequences for feelings of insecurity at that time, especially in a period with reductions in inequality. The expectations concerning the youngest cohorts are more uncertain, as there is a dramatic fall in unemployment whereas inequality remains high compared to level for the mid-1960 cohorts.",
                "The hypothesis based on the developments of both economic inequality and unemployment would be that the impact of economic resources on educational attainment should vary in a curvilinear fashion with a decrease from the cohorts from the end of the 1950s to the mid 1960s and an increase among the cohorts born after that and up to approximately 1980. The later development is more uncertain."
            ]
        },
        {
            "title": "Changes in the Educational System",
            "paragraphs": [
                "Can changes in the school system have contributed to alterations in the impact of parental educational resources? The argument raised here is that the changes expected on the basis of the economic developments described in the above section are unlikely to be the result of changes in the school system.",
                "First, the educational structure remained largely unchanged in the period studied here, with exception for the final cohorts. Secondary level schooling was reformed in 1994, the so-called 'Reform 94', which affected the birth cohorts born 1978 and later. Among other things, a wider range of branches were introduced in secondary level schooling and the access to university level education was opened for students with some kinds of vocational degrees or who filled certain requirements with respect to additional general courses. A main aim of this reform was to make vocational secondary level education more attractive, and so to reduce the traditionally important division between vocational and general education. Previous research does not indicate that it was successful with respect to this goal (Skjersli and Aamodt, 1997; Hansen, 2005). This research has not especially focused on the impact of economic resources however, and it cannot be ruled out that the reform influenced the impact of economic resources among the cohorts born after 1978.",
                "Secondly, it was argued above that availability of financial support for students could modify the impact of parental economic resources (cf. Erikson, 1996). Changes in the quality of the support could lead to changes in the impact of the parent's economic situation. The aim of the Norwegian public financial support system is to eradicate the influence of social and economic origin on educational attainment. It works on a universal basis; all students are entitled to the same support irrespective of the economic situation of their family. Students receive grants, but this accounts for a much smaller proportion of the public funding than loans, for which students start paying back after completing their education or dropping out. It may be added that the costs in Norway are low compared to countries in which universities are dependent on large student fees, as there usually are no tuition fees in higher education. An extended educational career still involves large costs, though, in terms of forgone earnings and usually the accumulation of large loans. The interest rate on these loans has varied greatly in the last decades and it is possible that the financial aid system will have more difficulties with reaching its aims of equalization the more expensive the loans. Variations in the interest rate should be expected to have only moderate effects, however. For one thing, the first choice with great consequences for inequality of educational attainment is made at the stage of the educational career at which there is usually no public financial aid available. At that stage the conditions of the financial aid system should be rather unclear for most people, and especially those without student experience.",
                "There is also considerable uncertainty about the future financial burden of the loan even if the interest rate when students acquire their loans may be low.1 Students, or potential students, with relatively poor parents are likely to be most concerned, especially as the burden of the loan depends not only on the development of the interest rate but on the general economic situation as well as on their educational success, about which they may be unsure. This concern is among other things evident in the tendency that the lower the parental income of the students the lower is the size of the loans they obtain (Sodeland, 2006). This means that students from the poorer families say yes to the grants but seek to avoid accumulating maximum loans and instead try to cover the costs of their education by doing extensive paid work.",
                "Finally, it is not evident which cohorts would be affected by changes in the conditions of the loans, but a main impression is that these changes would lead to an opposite tendency of that expected on the basis of developments of inequality and unemployment. Seen from the vantage point of 16 year olds, the loans were most expensive when economic inequality was at its lowest level and decreased when economic inequality increased (Figure 2). The interest rate increased sharply from a level below 6 per cent in the early 1970s to nearly 12 per cent during the major part of the 1980s and the early years of the 1990s. From 1993, the interest rate started to fall and in 1997 it reached the level of the early 1970s. The conclusions about a mismatch between the interest rate and on the one hand, and inequality and unemployment on the other, would hold even if we assume that the impact of the interest rate age comes later, for example three years later at age 19 upon choosing higher education."
            ]
        },
        {
            "title": "Data, Classification, and Method",
            "paragraphs": [
                "The data set consists of the full cohorts born between 1955 and 1984, both native born and those who immigrated before the age of 10. This data set is constructed through the linkage of public registers. Among these is the National Database for Education (NUDB) and the register of earnings used to measure pension rights. The focus is on the educational attainment of the members of these cohorts at two ages--the age of 20 and 28.2 The first observation is in 1978 and the latest is 2004, which gives a maximum time span of 26 years. The proportion for which there is no information on education is very low, varying between 2 and 5 per cent among the cohorts. These figures must be considered especially low because they include people for which there is no information about education because they have died or emigrated.",
                "The dependent variables measure the level of education one actually has attained. An alternative would be to study the level on which one has started. The focus on attainment rather than educational transitions seems preferable, however, as the aim is to study the impact of parental resources on educational attainment and not the transitions per se. The value of education must to a greater extent depend on whether one attains a degree than whether one embarks on an education. The focus on attainment is not the least an advantage in the Norwegian educational system, with high dropout rates and extensive shifts between educational careers. In the period studied here as many as 40-50 per cent, varying somewhat over time, of those who started lower level university studies dropped out without completing the degree their education was aimed at (Mastekaasa and Hansen, 2005, Figure 1).3 To focus primarily on the transition to higher education thus would give a distorted image of what those who commence on university studies actually attain. Because there is an association between social origin and dropout, the results on the impact of social origin on educational attainment would also be distorted.",
                "Educational attainment at age 28 is divided into five levels. The highest level is a higher level university degree, which is estimated to 17-18 years of study (Figure 1). This means that a higher level degree should be completed at the age of 25, given an educational career from the age of 7 with no breaks. This is unusual however, among other things because of extended educational careers, study breaks, and military service for the men. The point of registration is therefore postponed until the age of 28. The second level is a lower level university degree, either completion of shorter studies or a full bachelor degree, which requires 14-16 years of education. The third category is attainment of a secondary level degree from the academic track. Those whose highest education is the short introductory courses at university are included in this category. The fourth is a secondary level vocational degree and the fifth and final category is no educational degree above primary level.",
                "Educational attainment at age 20 is divided into three levels, no secondary degree, vocational secondary degree, and academic secondary degree. Those who have embarked on university studies, something that requires a general secondary level degree, are included in this category, irrespective of their later attainments. The cohorts born between 1955 and 1957 are omitted in the analyses of educational attainment at the age of 20, due to a larger proportion of missing data in the mid 1970s. The advantages of studying attainment at the age of 20 are that they reveal the development at a younger age and in the younger cohorts who have not reached the age of 28 at the last point of observation.",
                "The research question concerns the impact of parental resources on educational attainment. The measurement of parental economic resources is based on annual records of mothers' and fathers' earnings back to the 1960s. The measure of parental earnings used in the analyses is the combined mean annual earnings of mothers and fathers during the five year period before the first educational choice is made when leaving the secondary stage of primary school at the age of 16. To construct a measure of relative economic standing, the earnings distribution is divided into deciles. As the analyses focus on relative earnings within each cohort, they provide answers to whether the advantages or disadvantages of being especially rich or poor, for example, changes; changes in the level of affluence in the period is not taken into consideration. The very low proportion of parents with no earnings in the five-year period, usually welfare recipients or disabled, is also included.",
                "The research question is first addressed in two types of analyses focusing only on the impact of parental income. The first shows the proportions reaching specific educational levels by parental income. To get an impression of the development of the impact of parental income in the period studied, the odds ratios between people with different income origins are calculated. The reference category for these calculations consists of those from the lowest income decile. The series of odds ratios for the successive birth cohorts are used to show relative changes between groups independent of the changes in the educational structure.",
                "In the second step of the analysis, multinomial logistic regression is applied in order to estimate the impact of parental economic and educational resources independent of influences such as immigration and poverty among immigrants, family size, women's increasing educational participation rates, and parental education, which may be used as measure of cultural resources. The variables non-western origin, gender, changes in family structure, and parental educational level are thus included in these analyses. Parental education is divided into five levels; the lowest is compulsory education and the highest a higher level university degree. Parental education is recorded when the respondents were 16 years old, and the measure is based on the parent with the highest educational level. Table 1 shows the distributions of the independent variables. ",
                "The choice of multinomial regression is due to the fact that the trends with respect to the effects of social origin, both with respect to parental income and education, varies at different educational levels, and even points in opposite directions. This would not appear if linear models were applied. The model at the age of 28 estimates the likelihood of four alternative educational levels relative to having only a degree from compulsory education, as described above. The effects of the independent variables on the likelihood of having a vocational or secondary level degree at the age of 20 are estimated relative to the reference category of having no secondary degree."
            ]
        },
        {
            "title": "Results",
            "paragraphs": [
                "The development of educational attainment at age 28 is shown in Table 2. The first column in each part of the table shows the proportion of the total cohort on the specific educational level. We see that the change in educational attainment in the period is striking. For example, in the oldest cohorts around 60 per cent had no secondary degree. This proportion has steadily declined and was true for only 20 per cent of those who were 28 years old in 2004, i.e. the members of the 1976 cohort. Again note that completed education is recorded. Most of those who are recorded on the lowest level in the most recent years, for example, will have started secondary level schooling for then to drop out without completing a degree.",
                "The second and third columns in each part of Table 2 show educational attainment among those who have grown up in the richest or poorest 10 per cent of the families. Great changes have evidently occurred for these groups, but it is also clear that social inequality is high in the whole period. If we for example consider completion of the highest educational level, the proportions originating in the poorest part of the population remains below 3 per cent in the whole period. In contrast the proportions increased from around 12 to 22 per cent among the richest part. Large differences are also evident in all cohorts among those receiving lower level tertiary degrees or end up having no secondary level degree.",
                "Figure 3 shows the trends resulting from the calculations of odds ratios of having a tertiary level higher degree versus no secondary education. The odds ratios of four income groups relative to the reference category of those originating among the 10 per cent poorest are shown in logged form. In addition to the 10 per cent richest, these are the ninth, fifth, and second income deciles. The remaining income categories all fall between in an ordered pattern (5 above 4, which is above 3, etc.), but they are excluded to avoid making the figure too disorderly. We see that inequality decreases for then to increase from the cohorts born at the end of the 1960s. This pattern is consistent with the expectations made on the basis of the development of inequality shown in Figure 2. ",
                "Figure 3 also bears evidence of an elite pattern: the distances between those who are on a median level with respect to income and those who belong among the 10th or 20th per cent richest part of the population is far greater than among the poorest 10 per cent and those from the middle income groups. This suggests that the impact of parental income on educational attainment should not be understood as a poverty phenomenon in the sense that it is the poorest part of the population that stands out from the majority. On the contrary, it is the patterns of educational attainment among those originating in the richest parts of the population that differ most strongly from those of the majority.",
                "Figure 3 illustrates the development up to the year 2004, when the members of the 1976 cohort had reached the age of 28. To study the development in the younger cohorts, a similar analysis as that behind Figure 3 is performed among those at the age of 20. The odds ratios of academic secondary level degree versus no secondary degree for the poorest income group are calculated relative to the other income groups, among which the same are shown in Figure 4 as in Figure 3. We see a similar curvilinear tendency as in Figure 3, and increasing inequality from the 1967 cohort. Inequality decreases for cohorts in the late 1970s, however, for then to increase again. The pattern deviates somewhat from what we would expect solely on the basis of the development of the measure of economic inequality shown in Figure 2, which indicates increasing inequality up till the 1980 cohort and then a stable level. The timing of the decrease is consistent with the development of unemployment, however, which dropped after 1993, when the 1977 cohort was 16 years old. It was assumed above that a general sense of economic insecurity, based among other things on the development of unemployment rates may affect educational choice in addition to economic conditions. The pattern in Figure 4 appears to support this assumption. An alternative explanation of the reduction in the impact of economic resources is that it is the result of the school reform in secondary level schooling in 1994, which influenced the cohorts from 1978. The proportions who had attained secondary level academic degrees by the age of 20 sank from the 1978 cohorts and some years ahead, and as we see, also the impact of parental income. If the reform contributed to reduced inequality its effect in that case was no more than temporary. ",
                "To do a more systematic analysis of the relative impact of parental economic and educational resources, multinomial regression analyses were performed. One analysis focused on educational attainment at age 28, the other on attainment at age 20. At a first step the variables non-western origin, gender, and number of siblings and parents age were included, in addition to parental income measured as dummy variables with the 10 per cent poorest as the reference category. This had very little impact on the effect of parental income. A next step introduced parental educational level. This had large consequences; the effects of parental income were roughly reduced to half the size. This is shown in Appendix A and B for the total population.",
                "The results of the final models performed separately for each birth cohort are summarized in Figure 5, focusing on the change in the impact of economic resources.4 The dramatic change in the impact of gender, which might be the topic of a separate paper, is not shown, as it is not the central topic of the present article. It may be added that test have been performed to find out whether the impact of parental income varies by gender, and the results indicate that such differences are small and unsystematic. Figure 5 is simpler than the two preceding figures in the sense that it only shows the impact of having parents in the highest income group relative to the poorest. It is more complex, however, because the impact of income is shown for four educational levels relative to having no secondary level degree, for the analyses for educational attainment at age 28. It also shows the results of the analyses at age 20, contrasting academic secondary level education to no secondary level degree, in order to again follow the development among some of the younger cohorts who had not reached the age of 28 in 2004. ",
                "The main conclusion of the results of the multivariate analyses is that they support the conclusions made earlier on the basis of the simpler analyses summarized in Figures 3 and 4. We see, first, that the impact of parental income varies by educational level. The effects of parental income measured at the age of 28 are clearly stronger the higher the level. We even see evidence of opposite tendencies with respect to change over time. The line illustrating the impact of parental income on attainment of secondary level vocational degree versus no secondary degree indicates a declining effect whereas no such tendency is seen for the lines pertaining to the three other levels. Rather, the curvilinear pattern that was commented on earlier in relation to Figures 3 and 4 remains, and even seems more pronounced, after control for parental education and the other independent variables. This curvilinear tendency is also evident in the line illustrating the development among 20 year olds up till the 1984 birth cohort. In this line, we also see the drop in the effect of parental income among the late 1970 cohorts that above was sought explained by the decline in the unemployment rate when these cohorts were around 16 years old.",
                "In the introduction, it was argued that changes in economic inequality not necessarily would be evident in changes in the impact of other measures of social origin. This is supported by Figure 6, which illustrates the impact of parental education the same way as for parental income in Figure 5. Those having parents with tertiary level higher degree are contrasted with parents with compulsory level education only. Parental education clearly has a strong impact, and more so the higher the level. We also see that the diversity by educational level has increased over time. Whereas the impact of parental education is reduced over time with respect to vocational and academic secondary education (measured at the age of 28), the pattern for tertiary level education shows no consistent reduction. "
            ]
        },
        {
            "title": "Discussion and Conclusion",
            "paragraphs": [
                "The aim of this article has been to address the question of change over time in the impact of social origin on educational attainment, with special emphasis on the impact of parental economic resources. Has the impact of being raised in especially rich or poor families changed over time? To what extent can the changes be related to economic trends? Economic developments were described using two main measures--economic inequality among parents at the age of 16 and the unemployment rate at the same age. On the basis of the development of these measures the impact of parental economic resources was expected to increase in periods with increasing economic inequality and vice versa in periods with reductions in the level of equality. The developments in Norway lead to expectations of a curvilinear pattern--decreasing approximately from the cohorts of the late fifties to the mid 1960s for then to increase approximately to the 1980 cohorts. The results presented above are consistent with these expectations. This supports the general ideas within the rational action perspective that variations in the costs and benefits of higher education is an important reason for inequality in educational attainment and that economic resources are important for educational choice.",
                "The analyses could have been more fine-tuned with respect to the question of the timing of the impact of economic resources in the educational career. More specific assumptions about the relative importance of the economic situation in general, measured by unemployment for example, and economic inequality within specific birth cohorts could also have been developed. However, the findings presented here do provide new knowledge about the development of inequality in educational attainment. There is no large body of systematic studies on the impact of parental economic resources, and especially not with respect to change over time. One reason is that it is hard to find good measures of economic resources, so few of the sociological studies on educational inequality can in fact make good contributions on the question of the impact of the economic situation of the parents. The results can be seen as a support for bringing economic resources back into studies of inequality of educational attainment. Whereas it seems evident that economic resources are important for explaining social inequality in educational attainment in developing countries and in a historical perspective, observers have doubted that economic resources are important in present-day welfare states with free schooling and public economic support for students, such as in the Nordic countries (e.g. Raaum, 2003).",
                "Moreover, there is widespread doubt about whether there in fact is a causal relationship between parental income and children's educational attainment even if a statistical relationship should appear. Alternative explanatory perspectives emphasize the importance of cultural rather than economic resources. A key point in 'culturalist' perspectives within sociology is that there is an association between social origin and educational performance, and that this association is crucial for explanations of inequality in educational attainment. The link between social origin and performance is explained in somewhat different ways. According to Bourdieu's ideas about social reproduction, the link between social origin and educational performance may be considered as discrimination in some sense, because the culture of lower class students is most remote from the 'legitimate' culture that is rewarded at school (Bourdieu, 1986, 1996). Those having educated parents tend to perform especially well in school, another argument goes, because parents transmit cultural resources relevant for their school work, such as educational ambitions, good working habits, and an interest in reading (e.g. Lareau, 1987; De Graaf et al., 2000; Farkas, 2003). In a similar vein economists have argued that the effect of parental income on educational attainment is caused by unobserved individual characteristics: rich people tend to have traits such as ability, drive, reliability, and so forth, which they transfer to their children who therefore tend to do well at school (Mayer, 1997; Cameron and Heckmann, 1998).",
                "It is hard to envision that the changes in the impact of parental economic resources documented here could be explained by cultural resources, for example changes in the association between social origin and level of ambitions, interests in reading or personal traits promoting educational attainment. One possibility might be that educational attainment becomes harder among the poorest part of the population, as they grow poorer. However, a reduction in the educational efforts in the poorest parts of the population is not the cause behind the development we have seen, as educational attainment among those with the poorest parents has steadily increased in the period (Table 2). We have also seen evidence of an elite pattern, in the sense that the richest stand out from those on an average or lower income level, and educational attainment has shown a large increase among those originating in the most affluent homes. The educational attainment of the poorest 10 per cent is not so different from those whose origins are in the second or third income decile, something that suggests that inequality in educational attainment should not be treated as a poverty phenomenon. These findings correspond with the results earlier noted from the British studies, indicating that the children from relatively rich families benefited most from the expansion of higher education.",
                "Why should this be so? Pierre Bourdieu argued that what he designated the 'school mode of reproduction', i.e. the reproduction strategy of attaining higher education, becomes more widespread, also among those having most economic capital (Bourdieu, 1996). An important reason for this development is that educational credentials become more widely used as a basis for legitimating a privileged class position. In the terminology of the rational action perspective, one could say that the benefits of acquiring higher education, for example a degree in business administration, have increased in the business elites. These benefits are not necessarily monetary. In the case of heirs, for example, they would have been able to acquire their wealth even if without a degree, but they would have greater difficulties with legitimating their inheritance. The results presented here are consistent with such developments, but the present article cannot clarify to what extent increasing demand for education in the business environment has influenced changes in the impact of parental economic resources.",
                "That economic resources are important does of course not imply that cultural or educational resources are unimportant. On the contrary, we have seen that the impact of parental educational resources on educational attainment is strong, and especially so with respect to the likelihood of obtaining higher tertiary level degrees. However, when parental economic resources are controlled, the impact of the parents' educational resources on whether or not one obtains secondary level degrees have steadily declined.",
                "A recent overview concludes that the empirical evidence from many countries points to a general trend towards equalization (Breen and Johnson, 2005). The results documented here based on a large data set, including young cohorts, and using very good measures of parental economic resources, do not support this conclusion. True, there has been a reduced impact of parental educational resources on the lower educational levels, but not for higher level degrees. The impact of parental economic resources decreased in the beginning of the period that was studied, for then to increase to a higher level. There hardly is reason to believe that these developments are special for the Norwegian society. On the contrary, features such as relative prosperity and availability of financial support for students would seem to suggest that the impact of economic resources on educational attainment in Norway should be less influenced by economic developments than in many other countries.",
                "I would like to thank Anne Lise Ellingsaeter and the other participants of the research seminar at the Institute for Sociology and Human Geography as well as three anonymous referees for ESR for comments on an earlier version of the article. I am grateful to Oyvind Wiborg for data assistance."
            ]
        }
    ],
    "references": [
        "http://dx.doi.org/10.1093/oxrep/grh014",
        "http://dx.doi.org/10.1111/sjpe.2004.51.issue-2",
        "http://dx.doi.org/10.1177/104346397009003002",
        "http://dx.doi.org/10.2307/2657545",
        "http://dx.doi.org/10.1146/annurev.soc.31.041304.122232",
        "http://dx.doi.org/10.1086/250010",
        "http://dx.doi.org/10.2307/2673239",
        "http://dx.doi.org/10.1146/annurev.soc.29.010202.100023",
        "http://dx.doi.org/10.1093/oxfordjournals.esr.a018220",
        "http://dx.doi.org/10.2307/2112583",
        "http://dx.doi.org/10.1177/000169939804100204",
        "http://dx.doi.org/10.1080/01621459.1980.10477466",
        "http://dx.doi.org/10.1093/oxfordjournals.esr.a018226"
    ],
    "title": "Rational Action Theory and Educational Attainment. Changes in the Impact of Economic Resources",
    "issue": "1",
    "volume": "24",
    "authors": [
        "Marianne Nordli Hansen"
    ]
}