{
    "doi": "http://dx.doi.org/10.1177/0003122414556308",
    "abstract": "An influential literature in criminology has identified indirect \u201ccollateral consequences\u201d of mass imprisonment. We extend this criminological perspective to the context of the U.S. education system, conceptualizing exclusionary discipline practices (i.e., out-of-school suspension) as a manifestation of intensified social control in schools. Similar to patterns of family and community decline associated with mass incarceration, we theorize that exclusionary discipline policies have indirect adverse effects on non-suspended students in punitive schools. Using a large hierarchical and longitudinal dataset consisting of student and school records, we examine the effect of suspension on reading and math achievement. Our findings suggest that higher levels of exclusionary discipline within schools over time generate collateral damage, negatively affecting the academic achievement of non-suspended students in punitive contexts. This effect is strongest in schools with high levels of exclusionary discipline and schools with low levels of violence, although the adverse effect of exclusionary discipline is evident in even the most disorganized and hostile school environments. Our results level a strong argument against excessively punitive school policies and suggest the need for alternative means of establishing a disciplined environment through social integration.",
    "sections": [
        {
            "title": "Introduction",
            "subsections": [
                {
                    "title": null,
                    "paragraphs": [
                        "Over the past 30 years, sociologists have identified a profound shift in U.S. society toward an emphasis on crime, punishment, and social control. This \"culture of control\" has heightened the fear of crime, increased the desire for retribution, and expanded the scope of social exclusion (Garland 2001). Control-oriented approaches to crime are exemplified by policies like the War on Drugs campaign and three-strikes laws. Such policies have contributed to a four-fold increase in U.S. incarceration rates since the 1970s, resulting in the mass incarceration of millions of people (Western 2006). Contrary to the proposed benefits of \"getting tough on crime,\" research in criminology documents devastating consequences for offenders, families, and communities. These \"collateral consequences\" reveal the hidden costs of highly authoritarian approaches to social control (Mauer and Chesney-Lind 2002).",
                        "In this article, we extend this criminological perspective to the context of the U.S. education system, conceptualizing exclusionary discipline practices as a manifestation of the culture of control in schools. Disciplinary policies that remove rule-violating students from the learning environment have become a fixture of public education, with suspension rates doubling since the 1970s (Losen 2011). While school safety is the goal of these policies, a growing body of research challenges their morality and effectiveness, arguing that suspension and expulsion are overused and ineffective (Morris 2012; Noguera 2003; Skiba and Peterson 1999). In January 2014, the U.S. Department of Education issued a set of guiding principles on school discipline, cautioning schools to remove students from classrooms only as a last resort. Despite these concerns, we know surprisingly little about the effects of exclusionary discipline on academic achievement. Moreover, prior research focuses almost exclusively on students who are punished; it is unclear whether the high use of suspension creates a positive learning environment for rule-abiding students or instead inhibits their achievement.",
                        "We argue that excessive use of exclusionary punishment in public schools has collateral consequences for the academic success of all students. Using a large, longitudinal dataset drawn from a metropolitan school district in Kentucky, we examine the effects of school-level suspension on achievement. Our analysis reveals that students who attend schools with high rates of out-of-school suspension exhibit lower achievement, even if they are not personally suspended, reflecting a hidden cost of the emphasis on punishment and social control in education."
                    ]
                }
            ]
        },
        {
            "title": "Background",
            "subsections": [
                {
                    "title": "Collateral Consequences",
                    "paragraphs": [
                        "Criminological research shows that mass imprisonment has substantial negative effects that extend beyond the arrest and the arrested individual. These ancillary effects are referred to as \"collateral consequences\" (Mauer and Chesney-Lind 2002). The work of Wildeman and colleagues (Wakefield and Wildeman 2013; Wildeman 2010; Wildeman, Schnittker, and Turney 2012) demonstrates that mass incarceration contributes to a host of problems among women and children related to imprisoned men. These indirect, negative effects are wide-ranging. Schwartz-Soicher, Geller, and Garfinkel (2011) and Braman (2002) show that fathers' incarceration reduces family income and contributes to financial strains. Comfort (2008) documents the emotional stress and ambivalence experienced by female partners of imprisoned men. Other work identifies harmful effects for children of imprisoned parents across outcomes, including mental health, infant mortality, and academic achievement (Hagan and Foster 2012; Wakefield and Wildeman 2013).",
                        "Research in this area also traces consequences of mass imprisonment for community cohesion. Clear (2007) argues that high rates of incarceration create instability, which unsettles positive social connections within neighborhoods. Goffman's (2009) ethnographic work illustrates how the constant threat of imprisonment destabilizes already fragile communities. In her research, young men who were wanted by authorities fostered unpredictability in their families and neighborhoods by \"ducking in and out\" of people's lives (Goffman 2009:351). Taken as a whole, these studies expose the hidden costs of expanded incarceration, which produces adverse outcomes for the convicted and those connected to them."
                    ]
                },
                {
                    "title": "Collateral Consequences",
                    "paragraphs": [
                        "While the research on collateral consequences is strong and compelling, it has not been extended beyond the risks associated with mass incarceration. Yet, from a culture of control perspective, mass incarceration is just one reflection of a deeper modern emphasis on surveillance, judgment, and punitive exclusion. Beckett and Herbert (2010), for example, argue that physical exclusion from social spaces is a popular method of community regulation in metropolitan areas. What they term \"banishment\" is used by cities to remove people deemed deviant (although not necessarily criminal), such as groups of youth or homeless, from public view. This exclusion proceeds under the rationale that it instills a sense of order and organization in public space. Such practices greatly expand the reach of formal authority into the minute management of space and behavior. Similar to mass incarceration, a semblance of social order is achieved by removing those deemed troublesome or undesirable. Moreover, this action forces authorities to toughen their stance on behaviors that may previously have been seen as minimally offensive or irritating. Hence, banishment is justified by framing problems such as homelessness or mental illness as increasingly criminal and socially menacing.",
                        "Similar criminalized approaches to problems such as juvenile delinquency, poverty, homelessness, substance abuse, and mental illness have proliferated in recent decades. This reflects a tendency to frame problems arising in various social spheres as if they are all issues of law and order, increasing surveillance and the threat of punishment. Similar to Foucault's ([1977] 1995) notion of a \"disciplinary society,\" intensive regulation, monitoring, and correction have spread from the prison and criminal justice system into a wide array of spaces. According to Simon (2007:4), \"the technologies, discourses, and metaphors of crime and criminal justice have become more visible features of all kinds of institutions.\" Children, in particular, have encountered increasing adoption of such policies. Rios (2011:40), for example, argues that urban Black and Latino boys live within a \"youth control complex\" that constitutes \"the combined effect of the web of institutions . . . that collectively punish, stigmatize, monitor, and criminalize young people in an attempt to control them.\" This web of control permeates not only traditional sites of criminal justice, but also institutions with purportedly different social functions and goals, such as education."
                    ]
                },
                {
                    "title": "Collateral Consequences",
                    "paragraphs": [
                        "Current school discipline practices are far more invasive and punitive than in past decades, reflecting a growing crime control approach to student misbehavior (Hirschfield 2008; Kupchik 2010; Welch and Payne 2010). For example, uniformed police stationed in schools demonstrate the direct reach of the criminal justice system into educational contexts. Security cameras and random property searches on school grounds borrow criminal justice techniques of surveillance, and zero tolerance policies mimic rigid legal guidelines, requiring automatic suspension or expulsion for specified offenses (Noguera 2003). Additionally, students are more often remanded to police custody and charged with law violations for school offenses that were handled internally in the past (Hirschfield 2008). These policies increase the likelihood that misbehaving students will be removed from school through suspension, expulsion, alternative school, or juvenile detention (Morris 2012; Skiba 2000). Indeed, in 2010, more than 3 million children were suspended from school (Losen and Gillespie 2012), and suspension rates in U.S. public schools have doubled since the 1970s (Losen 2011). This represents an important change in educational thought and practice. Similar to banishment and incarceration in criminal justice, social control in schools is now primarily achieved by simply removing millions of students from the educational environment.",
                        "Most research conducted in the past decade focuses on documenting the extent of this new criminalization of discipline rather than tracing its effects on students. In addition, the exploration of consequences focuses on punished individuals but does not consider the generalized effects of a punitive environment. On an individual level, suspension exacerbates anger, apathy, and disengagement--psychosocial consequences that increase the likelihood of recidivism (Contenbader and Markson 1998; Davis and Jordan 1994; Jenkins 1997). School suspension is also correlated with poorer grades and performance on cognitive tests in science, math, and history (Davis and Jordan 1994). Arcia (2006) conducted a quasi-experiment in which groups of suspended and non-suspended students matched on similar social characteristics were followed over time. After two years, the suspended group was nearly five grade levels behind the non-suspended group, suggesting a substantial effect of suspension on academic growth.",
                        "Although being suspended likely has negative consequences for students' life chances, exclusionary discipline policies are considered necessary for school safety. One of the key rationales for excluding offending students from the educational environment is to ensure that others can learn without disruption (Noguera 2003), especially in environments where students are deemed behaviorally at-risk or \"out of control\" (Skiba and Peterson 1999). This line of reasoning suggests that suspension instills order, providing an environment conducive to learning for all students. These same arguments regarding benefits of a disciplinary society--tantamount to sacrificing a few for the good of all--are also used to justify mass incarceration. Yet, in parallel to research on mass imprisonment, exclusionary discipline in schools could unintentionally trigger broad adverse consequences."
                    ]
                },
                {
                    "title": "Collateral Consequences",
                    "paragraphs": [
                        "In theorizing risks for non-punished students, we center attention on the broader social environment that punishment produces, rather than punishment as an individual act. In Punishment and Modern Society, Garland (1990) draws from Durkheim to make the case that punishment serves broad symbolic, cultural, and affective functions that extend well beyond the specific act of discipline.1 Punishment communicates meanings surrounding values, norms, and group and place identity. While punishment is useful in communicating these beliefs, Durkheim cautioned that punishment enacted too zealously could undermine social cohesion. In Moral Education, Durkheim ([1925] 1973) argues that school discipline is critical for imparting norms and values in children. However, the moral imperative of school discipline cannot be achieved by punishment per se, but rather by how punishment affirms the legitimacy of just rules. Similarly, Arum (2003) finds that school discipline is most effective when it is moderately strict, consistent, and perceived as fair by students. Overly punitive environments erode a school's moral authority, producing alienation and resistance. In such situations, punishment becomes an end in itself, not an occasional means to an end of normative social order. Such contexts can promote \"legal cynicism,\" a perceptual frame in which community or group members view law enforcement as illegitimate (Kirk and Papachristos 2011). This cynical distrust of formal authority can occur even among group members who hew to rules themselves (Kirk and Matsuda 2011).2",
                        "Ethnographic work in education verifies that a punitive school environment can subvert genuine institutional authority and create student apathy and disconnection (Morris 2005). In such environments, students operate under the same disciplinary regime and are confronted with common symbols and technologies of control. This affects well-behaved and poorly behaved students alike. Ferguson (2000), for example, analyzes two groups of Black boys in her ethnography of school punishment: the \"Troublemakers\" who took on deviant identities, and the \"Schoolboys\" who adhered to school rules. Ferguson shows that the Schoolboys, despite their assiduously good behavior, operated under a constant threat of assessment and redefinition into the Troublemaker category. Nolan (2011) and Kupchik (2010) vividly describe the overarching sense of anxiety for all students in punitive educational contexts. What Nolan (2011:68) calls the \"ubiquity of the threat\" of punishment dominates the school climate and radiates throughout the school community. In such contexts, the goal of social control can overshadow the goal of education. Furthermore, when suspension is used as a predominate form of punishment, the pervasive movement of suspended students in and out of classrooms can create a volatile and socially disorganized environment, similar to the effects of mass incarceration (Clear 2007).",
                        "Drawing from this work in education and criminology, we assert that school discipline conveys important symbolic meanings that students attach to the institution, and it influences important social relationships. When highly punitive, an educational environment can breed anxiety, distrust, and uncertainty, even for students who do nothing wrong. This broader theorization of punishment and implications for the non-punished has not been employed in previous research on suspension; nor has it been addressed in rationales for control-oriented practices of school discipline."
                    ]
                },
                {
                    "title": "Collateral Consequences",
                    "paragraphs": [
                        "Although one of the key rationales for high levels of suspension is that it benefits non-suspended students, this proposition has not been empirically verified. In one of the few assessments, Rausch and Skiba (2004) find that schools with higher suspension rates have lower levels of proficiency on statewide standardized tests. However, because their school-level analysis includes all students, it is possible that the experiences of suspended students are driving their results. Moreover, the confounding influence of unobserved heterogeneity between schools cannot be ruled out using cross-sectional data, leaving open the possibility that school-level differences influence both suspension rates and achievement. To our knowledge, no studies have examined how non-suspended students fare in high-suspension environments, nor have existing studies employed a fixed-effects strategy to reduce threats to causality.",
                        "We predict that non-suspended students in schools with elevated levels of exclusionary discipline will suffer academic declines through the collateral consequences of a punitive environment. Moreover, we hypothesize that increasing use of exclusionary discipline in schools will have adverse effects on non-suspended student achievement above and beyond the overall level of student offending and discipline. This finding would suggest that excessive use of exclusionary discipline creates a culture of control that impedes the success of all students.",
                        "Using multilevel methods that capitalize on the explanatory power of longitudinal and hierarchical data, we focus on the following questions:",
                        "Do changes in the frequency of out-of-school suspension over time affect the academic achievement of students who are not suspended?",
                        "Is the relationship between out-of-school suspension and academic achievement explained by other changes in schools' characteristics?",
                        "Is the relationship between out-of-school suspension and academic achievement explained by changes in schools' levels of violence and disorganization?"
                    ]
                }
            ]
        },
        {
            "title": "Methods",
            "subsections": [
                {
                    "title": "Measures",
                    "paragraphs": [
                        "The dependent variables of interest are academic achievement in reading and math. Between 2008 and 2011 in the school district covered by our dataset, academic achievement was measured using MAP testing across the state. MAP is a computerized adaptive test designed to help schools monitor academic growth in reading and math and make informed decisions about placement and needed services. Scores are numeric and normally distributed. The tests are not timed and are administered three times per year: the beginning of the academic year, the end of the first semester, and the end of the academic year. To reduce concerns about reverse causation (i.e., low academic performance leading to high suspension rates), we use a naturally lagged independent variable. That is, we use suspensions in a given semester to predict scores from tests administered at the end of the semester, ensuring that suspensions occurred prior to or (in rare cases) during the testing date. The analysis uses test scores obtained at the beginning of the year--following the summer break and prior to suspensions occurring--only in a series of placebo regressions for assessing causal inference. In addition, we calculate each student's percentile score relative to other students in the school district in the same grade. This method of standardizing test scores is easily interpretable and accounts for natural increases in performance over time associated with grade advancement.",
                        "We use math and reading test scores as outcomes for several reasons. First, these subjects are foundational to overall educational success: mastery of other subjects depends on math and reading fluency. Test scores, rather than grades, provide more uniform comparative measures of student knowledge and competency because of standardization (Andreasen, Rasmussen, and Ydesen 2013). These assessments also predict other dimensions of educational progress. For example, early achievement test scores are associated with key outcomes such as grade retention, dropping out, and postsecondary success (Hernandez 2011). Second, some research suggests that reading achievement is more influenced by home environment, whereas math achievement is more influenced by school environment (Lee and Bryk 1989). By using both measures, we protect against over-emphasizing home or school influences on achievement. Finally, in the school district we study, results of MAP reading and math tests are used for differentiating instruction. Higher scoring students gain more opportunities to advance through academic trajectories (i.e., tracks or course sequences), which will eventually shape postsecondary outcomes, while lower scoring students may be remediated or retained (Gamoran 1987).",
                        "The key independent variable of interest is school-level exclusionary discipline, measured using out-of-school suspension. This variable is equal to the number of students suspended in each school in each semester; it is coded in tens to facilitate interpretation. We also include number of suspended students squared (i.e., a polynomial term) to model nonlinearity in the relationship between school-level suspensions and achievement. In addition, we performed sensitivity analyses using different methods of coding this variable, including using the suspension rate (i.e., proportion of students with suspensions). These models yield findings identical to those presented here with respect to patterns of significance, but with effects of slightly smaller magnitude. This may indicate that each additional suspension event has an adverse effect on achievement, regardless of a school's size.",
                        "We estimated growth curve models with time coded using academic semester, beginning with 1 at baseline in fall 2008 and ending with 6 in spring 2011. We also calculated time-squared and time-cubed to assess the nonlinearity of the growth or decline in academic achievement over time. Because we employ a fixed-effects modeling approach, all time-invariant characteristics of students, including gender and race/ethnicity, are controlled (Allison 2009). Time-varying controls at the student level include socioeconomic status and receipt of special education services. We measure socioeconomic status using participation in the free or reduced meal program (1 = yes; 0 = no). We measure receipt of special education services using a dichotomous indicator. In addition, each student's own behavior is controlled using a measure of the total number of disciplinary infractions each student receives in a given year.",
                        "School-level control variables include percent racial or ethnic minority, percent qualifying for free or reduced lunch, and percent receiving special education services. All of these variables are positively correlated with out-of-school suspensions. Other potential confounding characteristics of schools for which we control are spending (expenditures per student in $1,000) and school size (in hundreds).",
                        "Our models include a series of variables measuring overall levels of discipline and disorganization to isolate the effects of exclusionary discipline in particular. These variables are number of in-school suspensions, Saturday detentions, and after-school detentions. We combined (summed) Saturday and after-school detentions, because schools used Saturday detentions infrequently during the study period. To adjust for the level of violence and disorganization in schools, which might confound the association between suspension and achievement, we control for three additional variables: the annual number of drug-related infractions (e.g., possession, use, and distribution), violent infractions (e.g., fighting, physical harassment, and assault), and disruptive behavioral incidents (e.g., classroom misbehavior, oppositional behavior, yelling, and roughhousing) in each school."
                    ]
                },
                {
                    "title": "Measures",
                    "paragraphs": [
                        "Analyses focus on identifying the effects of school-level out-of-school suspension on academic achievement. We model multivariate effects with multilevel fixed-effects linear regression models using Stata 13 (Statacorp 2013). These adjust for the hierarchical data structure and the interdependence among observations resulting from having multiple observations over time for each student and multiple students in schools. The models have a three-level structure where level-1 observations (time points) are nested in level-2 individual students, which are nested in level-3 schools.",
                        "Because these models are designed to test causal processes and the effects of contextual variables on individual students, we employ a conservative fixed-effects strategy at the student and school levels. In these models, all time-invariant heterogeneity at the student and school levels is controlled. The level-2 fixed effect is incorporated using Stata's -fe-option, and a level-3 fixed effect is achieved by including dichotomous school indicators. Mechanisms of suspension and achievement for students in a particular semester and school are evaluated relative to their own levels in other waves of the study in the same school. This means every student essentially serves as their own control, permitting less biased estimation of dynamic school-level effects. Student-level factors like gender, race and ethnicity, family structure,3 and other measures that are unlikely to change substantially over a three-year period are controlled. Likewise, school-level variables (e.g., the neighborhood in which a school is located) that are time invariant or that can reasonably be expected to change very little over a three-year period are controlled because all comparisons are between students within the same school.4 The coefficient for out-of-school school-level suspension captures changes in the disciplinary context within a school over time that may affect increases or decreases in student academic achievement; the fixed effects capture all time-invariant between-student and between-school heterogeneity.",
                        "In a series of stepwise models, we estimate a quadratic growth curve model to incorporate longitudinal variation in reading and math achievement scores in this school system. The baseline growth curve model includes only the outcome of interest--out-of-school suspension and its quadratic term. The second model adds student-level time-variant controls, including free/reduced lunch status, receipt of special education services, and disciplinary infractions. The third model includes demographic school-level controls (i.e., spending, size, and racial/ethnic, socioeconomic, and special education composition). A fourth model adds other types of discipline. A fifth model incorporates measures of the overall level of violence and disorganization in schools, including an interaction between violence and suspension at the school level.",
                        "To demonstrate the magnitude of the influence of school-level suspension on academic achievement, we used the -margins- command in Stata to generate a graph of predicted values of reading and math achievement. The figures displaying the effects of school-level suspension on achievement include the interaction by level of violence in the school. Reading and math scores are expressed in percentiles; we added lines indicating the mean and standard deviation of school suspension to facilitate interpretation of the magnitude of effects.",
                        "Although fixed-effects estimates are robust to biases stemming from unobserved stable characteristics of students and schools, omitted time-varying characteristics and reverse causation may still threaten causal inference. To test the spuriousness of the relationship between school-level suspension and students' academic achievement, we performed a set of placebo regressions. This method tests for associations that should not exist if the relationship between two variables is causal in a particular direction (Sharkey et al. 2012; Wildeman 2010). In this analysis, we predict beginning-of-year MAP test scores (measured in August and September) using school suspensions occurring during the following spring semester, ensuring no overlap between test measurement and the occurrence of suspensions. In other words, the dependent variable is measured prior to the independent variable of interest, and we expect to find no association. If we identify a significant relationship, it indicates that a third omitted variable may be driving the association between suspension and achievement, or that the association is due to reverse causation.",
                        "The analysis sample for the placebo regressions is reduced by about 9 percent (n = 1,410) due to missing data on the beginning-of-year MAP test. To assess whether differences in placebo and standard regression results are due to sample differences, we replicated the original set of analyses using this restricted sample. Results using the two samples are substantively identical, suggesting the placebo findings are not simply a function of sample differences or reduced sample size. We fit both a linear and a nonlinear functional form for suspensions, and we ran models without controls and with the full set of covariates.",
                        "A number of school-level variables are correlated and introduce multicollinearity. A large sample like this one is generally more robust to moderate levels of multicollinearity than are smaller samples. However, the estimates and significance of several school-level variables (i.e., percent minority, percent free/reduced lunch, expenditures, and school size) should be interpreted with caution, if at all. Their purpose in these models is to rule out potential confounding effects, not to estimate their true influence. Despite multicollinearity, the out-of-school suspension variable is remarkably robust to the addition and removal of various combinations of covariates. In other words, the stability of the coefficient and p-value for school-level suspension is unaffected by collinearity between control variables and can safely be ignored. We settled on this combination of control variables because they pose the greatest potential threat to our causal argument regarding school disciplinary context and achievement."
                    ]
                }
            ]
        },
        {
            "title": "Results",
            "subsections": [
                {
                    "title": null,
                    "paragraphs": [
                        "Table 2 presents descriptive statistics. The interclass correlations for MAP reading and math percentiles are .84 and .89, respectively, in an empty model, suggesting substantial correlation in academic achievement across time within each student. At the school level, each school has an average of 93.97 out-of-school suspensions per semester, with considerable variability across schools and semesters (s = 61.22).",
                        "Table 3 displays the effects of suspension on academic achievement in reading. As seen in Model 1, the relationship between school-level out-of-school suspension over time and student academic achievement is statistically significant and curvilinear. Increasing school-level suspension is associated with very modest growth in reading achievement, to about the mean level of exclusionary discipline, at which point achievement begins to decline rapidly with increasing suspension (p < .001). This estimate is unaffected by the addition of free/reduced lunch status, special education services, and number of disciplinary infractions, as seen in Model 2. In Model 3, we add school characteristics, but these do not affect the relationship between school-level suspension and reading achievement. This model also includes controls for student expenditures and school size, neither of which confound the adverse effect of out-of-school suspension.",
                        "Models 4 and 5 in Table 3 include additional disciplinary and contextual variables related to the level of disorganization and violence in schools (i.e., the number of drug, violent, and disruptive infractions). We include these controls to examine the possibility that a disruptive and unsafe learning environment confounds the associations between high levels of suspension and lower achievement. When other measures of disciplinary context are included in Model 4, the magnitude of the effect of out-of-school suspension decreases slightly but remains significant (p < .001). In Model 5, after adding levels of disorganization and violence, the relationship between school-level suspension and reading achievement becomes quite strong. Sensitivity analyses reveal that level of violence has a suppressor effect on out-of-school suspension due to an interaction between these two variables.",
                        "The curvilinear relationship between school suspension and reading achievement at different levels of school violence is depicted in a graph of predicted values (see Figure 1). In all schools, we find almost no effect of school suspension below mean levels of this variable. In other words, low levels of school suspension do not affect non-suspended students' reading achievement. However, above the mean, we see an adverse effect of school suspension that becomes especially pronounced at greater-than-one standard deviation above the mean (i.e., the top one-third of schools). Moreover, the degree of harm associated with increasing exclusionary discipline depends on the level of violence in schools. In schools with low levels of violence (one standard deviation below the mean), the negative effect of out-of-school suspension is very strong at high levels of suspension. Under these conditions, the predicted percentile score in reading achievement decreases from about 54th at the mean level of suspension to 28th at very high levels of suspension (two standard deviations above the mean). In very violent environments (one standard deviation above the mean), the predicted change under the same conditions is estimated to be about the 54th percentile at the mean to the 39th percentile at very high levels of suspension. In short, high levels of suspension have a negative effect on reading achievement in all schools, but this effect is less pronounced in disorganized and violent school environments.",
                        "Table 4 presents results from the regression of academic achievement in math on school-level out-of-school suspension. Similar to the results for reading achievement, the relationship between school-level out-of-school suspension over time and students' math test scores is curvilinear. Higher school-level suspension is associated with modest growth in math achievement up to moderate levels of exclusionary discipline. After the mean, achievement begins to decline with increasing suspension (p < .001). As Models 2 and 3 show, this relationship is unaffected by the addition of demographic student- and school-level characteristics.",
                        "According to Models 4 and 5 (see Table 4), high levels of exclusionary discipline are harmful even after controlling for other types of discipline and measures of drug, violent, and disruptive incidents. Similar to the findings on reading achievement, inclusion of the variable measuring the level of school violence has a modest suppressor effect on out-of-school suspension. When an interaction between level of violence and out-of-school suspension is included in Model 5, a nearly identical pattern emerges for math achievement. Namely, as with reading achievement, high levels of exclusionary discipline threaten math achievement in all schools but are particularly problematic in organized and non-violent environments. Figure 2 depicts the magnitude of these effects.",
                        "As noted in the Methods section, the dependent variable is naturally time-ordered, providing initial support for a causal relationship between disciplinary context and academic achievement among non-suspended students. To assess the robustness of our causal argument, we perform a set of placebo regressions to look for spurious relationships between these variables (see Table 5). In this analysis, we predict beginning-of-year percentile scores on achievement tests using school suspensions that occurred during the subsequent spring semester. Without any control variables (see Models 1 and 4), results indicate there is no statistically significant linear relationship between beginning-of-year academic achievement in reading (b = .081, p = .65) or math (b = .124, p = .37) and school-level suspensions that occurred after those test dates, and the coefficients are very small. As Models 2 and 5 show, the quadratic term worsens the fit of the model and is also non-significant. Controlling for all covariates (see Models 3 and 6), the effect of suspensions occurring later in the school year on early reading (b = -.278, p = .36) and math (b = -.206, p = .40) scores is also non-significant with modest effect sizes. A plot of predicted probabilities from this model (not shown) depicts a nearly flat line. We can conclude that the effects of exclusionary discipline on student achievement are probably not attributable to reverse causation or to a spurious relationship, providing additional support for a causal argument.",
                        "In summary, these findings on the relationship between exclusionary discipline and achievement have significant theoretical and policy implications. The fixed-effects models used here are conservative, comparing school environments and individual students to themselves in other time points, and controlling for potential time-varying confounding factors. Increasing levels of exclusionary discipline over time are associated with poorer student achievement on end-of-year reading and math tests, net of the overall disciplinary context and level of violence and disorganization in a school. The adverse impact of exclusionary discipline on achievement is not linear, however. Low and moderate levels of suspension do not affect test scores, while the negative effects of high levels of exclusionary discipline are quite strong, consistent with a culture of control argument. Moreover, as the interaction model demonstrates, high levels of exclusionary discipline are most harmful to non-suspended students in otherwise safe and controlled environments. However, even in the most violent and disorganized schools, exclusionary discipline is an ineffective strategy for creating a positive learning environment and may actually exacerbate hostile conditions that lead to lower academic achievement."
                    ]
                }
            ]
        },
        {
            "title": "Discussion",
            "subsections": [
                {
                    "title": "Limitations",
                    "paragraphs": [
                        "First, because this dataset includes every student in one large school district, findings may not be generalizable to other districts, particularly schools in the western United States with larger Latino and smaller Black populations. Second, because of small cell sizes, we are unable to closely examine the effects of different kinds of exclusionary discipline (e.g., in-school suspension and expulsion), although these most certainly contribute to a school's culture of control. Because we consider only out-of-school suspension, we may have underestimated the effects of school-level exclusionary discipline. Third, while our measures are taken directly from school records and therefore are robust to response bias, we lack information on students' attitudes and self-reported misbehavior. Perceptions of the fairness of discipline might be a key intervening factor, which could indicate which disciplinary practices engender solidarity or alienation in the school context. Likewise, adjusting for self-reported misbehavior rather than student offenses would permit a stronger test of our theory than is possible using these data. Namely, measures of self-reported or student-reported offending would indicate the extent to which the underlying level of deviance drives official rates of offending and academic achievement rather than the punitive context per se.",
                        "This research has a number of important strengths that counterbalance its limitations. For instance, we use longitudinal models that control for all time-invariant heterogeneity at the school level, as well as important time-variant characteristics (e.g., school expenditures and violent and disruptive incidents), addressing common confounding issues related to neighborhood and school quality. In addition, we use data that are naturally time-ordered in conjunction with placebo regressions, providing a stronger test of causality than do previous studies. Also, our dataset consists of school records on every 6th through 10th grade student in the district and are relatively free from non-response and self-report biases that are particularly problematic in criminology and education research. Finally, we apply the theories of culture of control and collateral damage in novel ways to educational contexts, providing the first-ever test of the influence of school suspension on non-suspended students.",
                        "In conclusion, our findings level a strong argument against punitive and control-oriented school policies that result in high suspension rates. Based on our research, these policies threaten the academic success of all students, even students who have never been suspended. Discipline in the public education system is a necessary condition for high achievement, and our findings demonstrate that suspension used in moderation does not have an adverse impact on non-suspended students. However, effective school discipline is not achieved simply through punishment and exclusion. Instead, as Durkheim ([1925] 1973) clarified long ago, the foundation of effective discipline lies in the achievement of \"moral authority\" based in trust, affirmation, and caring relationships (Arum 2003; Noguera 2003). Ironically, these are the very processes threatened by overreliance on exclusionary discipline, resulting in declining achievement in public schools."
                    ]
                }
            ]
        }
    ],
    "references": [
        "Alexander, Karl, Entwisle, Doris R., Thompson, Maxine S. 1987. \u201cSchool Performance, Status Relations, and the Structure of Sentiment: Bringing the Teacher Back In.\u201d American Sociological Review 52(5):665\u201382.",
        "Allison, Paul D. 2009. Fixed Effects Regression Models. Los Angeles: Sage.",
        "Anderson, Elijah. 1999. Code of the Street: Decency, Violence and the Moral Life of the Inner City. New York: Norton.",
        "Andreasen, Karen E., Rasmussen, Annette, Ydesen, Christian. 2013. \u201cStandardized Testing.\u201d Pp. 737\u201340 in Sociology of Education: An A-to-Z Guide, Vol. 19, edited by Ainsworth, J. Thousand Oaks, CA: SAGE Publications. Retrieved January 16, 2014 (http://dx.doi.org/10.4135/9781452276151.n386).",
        "Arcia, Emily. 2006. \u201cAchievement and Enrollment Status of Suspended Students: Outcomes in a Large, Multicultural School District.\u201d Education and Urban Society 38(3):359\u201369.",
        "Arum, Richard. 2003. Judging School Discipline: The Crisis of Moral Authority. Cambridge, MA: Harvard University Press.",
        "Aud, Susan, Fox, Mary Ann, KewalRamani, Angelina. 2010. Status and Trends in the Education of Racial and Ethnic Groups (NCES 2010\u2013015). U.S. Department of Education, National Center for Education Statistics. Washington, DC: U.S. Government Printing Office.",
        "Beckett, Katherine, Herbert, Steve. 2010. Banished: The New Social Control in Urban America. New York: Oxford University Press.",
        "Berends, Mark, Lucas, Samuel R., Penaloza, Roberto V. 2008. \u201cHow Changes in Families and Schools Are Related to Trends in Black-White Test Scores.\u201d Sociology of Education 81(4):313\u201344.",
        "Braman, Donald. 2002. \u201cFamilies and Incarceration.\u201d Pp. 117\u201335 in Invisible Punishment: The Collateral Consequences of Mass Imprisonment, edited by Mauer, M., Chesney-Lind, M. New York: The New Press.",
        "Clear, Todd R. 2007. Imprisoning Communities: How Mass Incarceration Makes Disadvantaged Neighborhoods Worse. New York: Oxford University Press.",
        "Cohen, Stanley. 1985. Visions of Social Control. Cambridge, UK: Polity Press.",
        "Coleman, James S. 1988. \u201cSocial Capital and the Creation of Human Capital.\u201d American Journal of Sociology 94:S95\u2013S120.",
        "Comfort, Megan. 2008. Doing Time Together: Love and Family in the Shadow of the Prison. Chicago: University of Chicago Press.",
        "Contenbader, Virginia, Markson, Samia. 1998. \u201cSchool Suspension: A Study with Secondary School Students.\u201d Journal of School Psychology 36(1):59\u201382.",
        "Davis, James E., Jordan, Will J. 1994. \u201cThe Effects of School Context, Structure, and Experiences on African American Males in Middle and High Schools.\u201d Journal of Negro Education 63(4):570\u201387.",
        "Durkheim, Emile. [1925] 1973. Moral Education. New York: Macmillan.",
        "Ferguson, Ann Arnett. 2000. Bad Boys: Public Schools in the Making of Black Masculinity. Ann Arbor: University of Michigan Press.",
        "Foucault, Michel. [1977] 1995. Discipline and Punish, 2nd ed. Translated by A. Sheridan. New York: Vintage.",
        "Gamoran, Adam. 1987. \u201cThe Stratification of High School Learning Opportunities.\u201d Sociology of Education 60(3):135\u201355.",
        "Garland, David. 1990. Punishment and Modern Society. Chicago: University of Chicago Press.",
        "Garland, David. 2001. The Culture of Control: Crime and Social Order in Contemporary Society. Chicago: University of Chicago Press.",
        "Goffman, Alice. 2009. \u201cOn the Run: Wanted Men in a Philadelphia Ghetto.\u201d American Sociological Review 74(3):339\u201357.",
        "Goffman, Erving. 1963. Stigma: Notes on the Management of a Spoiled Identity. New York: Simon and Schuster.",
        "Hagan, John, Foster, Holly. 2012. \u201cIntergenerational Educational Effects of Mass Imprisonment in America.\u201d Sociology of Education 85(3):259\u201386.",
        "Harris, Alexes, Evans, Heather, Beckett, Katherine. 2011. \u201cCourtesy Stigma and Monetary Sanctions: Toward a Socio-Cultural Theory of Punishment.\u201d American Sociological Review 76(2):234\u201364.",
        "Hernandez, Donald J. 2011. \u201cDouble Jeopardy: How Third Grade Reading Skills and Poverty Influence High School Graduation.\u201d Baltimore, MD: The Annie E. Casey Foundation.",
        "Hirschfield, Paul J. 2008. \u201cPreparing for Prison? The Criminalization of School Discipline in the USA.\u201d Theoretical Criminology 12(1):79\u2013101.",
        "Jenkins, Patricia H. 1997. \u201cSchool Delinquency and the School Social Bond.\u201d Journal of Research in Crime and Delinquency 34(3):337\u201367.",
        "Kirk, David S., Matsuda, Mauri. 2011. \u201cLegal Cynicism, Collective Efficacy, and the Ecology of Arrest.\u201d Criminology 49(2):443\u201372.",
        "Kirk, David S., Papachristos, Andrew V. 2011. \u201cCultural Mechanisms and the Persistence of Neighborhood Violence.\u201d American Journal of Sociology 116(4):1190\u20131233.",
        "Kirk, David S., Sampson, Robert J. 2013. \u201cJuvenile Arrest and Collateral Educational Damage in the Transition to Adulthood.\u201d Sociology of Education 86(1):36\u201362.",
        "Kupchik, Aaron. 2010. Homeroom Security: School Discipline in an Age of Fear. New York: New York University Press.",
        "Lee, Valerie E., Bryk, Anthony S. 1989. \u201cA Multilevel Model of the Social Distribution of High School Achievement.\u201d Sociology of Education 62(3):172\u201392.",
        "Lipton, Douglas S., Martinson, Robert, Wilks, Judith. 1975. The Effectiveness of Correctional Treatment: A Survey of Treatment Evaluation Studies. New York: Praeger.",
        "Losen, Daniel J. 2011. Discipline Policies, Successful Schools, and Racial Justice. Boulder, CO: National Education Policy Center.",
        "Losen, Daniel J., Gillespie, Jonathan. 2012. Opportunities Suspended: The Disparate Impact of Disciplinary Exclusion from School. Los Angeles: The Civil Rights Project.",
        "Mauer, Marc, Chesney-Lind, Meda, eds. 2002. Invisible Punishment: The Collateral Consequences of Mass Imprisonment. New York: The Free Press.",
        "McNeely, Clea A., Nonnemaker, James M., Blum, Robert W. 2002. \u201cPromoting School Connectedness: Evidence from the National Longitudinal Study of Adolescent Health.\u201d Journal of School Health 72(4):138\u201346.",
        "Morris, Edward W. 2005. \u201c\u2018Tuck in that Shirt!\u2019: Race, Class, Gender, and Discipline in an Urban School.\u201d Sociological Perspectives 48(1):25\u201348.",
        "Morris, Monique W. 2012. Race, Gender, and the School to Prison Pipeline: Expanding Our Discussion to Include Black Girls. New York: African American Policy Forum.",
        "National Center for Education Statistics (NCES). 2014. Retrieved June 2, 2014 (http://nces.ed.gov/).",
        "Noguera, Pedro A. 2003. \u201cSchools, Prisons, and Social Implications of Punishment: Rethinking Disciplinary Practices.\u201d Theory into Practice 42(4):341\u201350.",
        "Nolan, Kathleen. 2011. Police in the Hallways: Discipline in an Urban School. Minneapolis: University of Minnesota Press.",
        "Rausch, M. Karega, Skiba, Russell J. 2004. Unplanned Outcomes: Suspensions and Expulsions in Indiana. Bloomington: Indiana University, Center for Evaluation and Education Policy.",
        "Rios, Victor M. 2011. Punished: Policing the Lives of Black and Latino Boys. New York: New York University Press.",
        "Schwartz-Soicher, Ofira, Geller, Amanda, Garfinkel, Irwin. 2011. \u201cThe Effect of Paternal Incarceration on Material Hardship.\u201d Social Service Review 85(3):447\u201373.",
        "Sharkey, Patrick T., Tirado-Strayer, Nicole, Papachristos, Andrew V., Raver, C. Cybele. 2012. \u201cThe Effect of Local Violence on Children\u2019s Attention and Impulse Control.\u201d American Journal of Public Health 102(12):2287\u201393.",
        "Simon, Jonathan. 2007. Governing through Crime: How the War on Crime Transformed American Democracy and Created a Culture of Fear. New York: Oxford University Press.",
        "Skiba, Russell J. 2000. \u201cZero Tolerance, Zero Evidence: An Analysis of School Disciplinary Practice.\u201d Bloomington, IN: Education Policy Center.",
        "Skiba, Russell J., Peterson, Reece L. 1999. \u201cThe Dark Side of Zero Tolerance: Can Punishment Lead to Safe Schools?\u201d Phi Delta Kappan 80(5):372\u201382.",
        "StataCorp. 2013. Stata Statistical Software: Release 13. College Station, TX: StataCorp LP.",
        "Steele, Claude M., Aronson, Joshua. 1995. \u201cStereotype Threat and the Intellectual Test Performance of African Americans.\u201d Journal of Personality and Social Psychology 69(5):797\u2013811.",
        "Tyler, Tom R. 2006. Why People Obey the Law. Princeton, NJ: Princeton University Press.",
        "U.S. Department of Education. 2007. Household Education Surveys Program. National Center for Education Statistics. Retrieved September 2, 2014 (http://nces.ed.gov/nhes/index.asp).",
        "U.S. Department of Education. 2014. Guiding Principles: A Resource Guide for Improving School Climate and Discipline. Washington, DC. Retrieved June 6, 2014 (http://www2.ed.gov/policy/gen/guid/school-discipline/guiding-principles.pdf).",
        "Valenzuela, Angela. 1999. Subtractive Schooling: U.S.-Mexican Youth and the Politics of Caring. Albany: State University of New York Press.",
        "Wakefield, Sara, Wildeman, Christopher. 2013. Children of the Prison Boom. New York: Oxford University Press.",
        "Welch, Kelly, Payne, Allison Ann. 2010. \u201cRacial Threat and Punitive School Discipline.\u201d Social Problems 57(1):25\u201348.",
        "Western, Bruce. 2006. Punishment and Inequality in America. New York: Russell Sage.",
        "Western, Bruce, Pettit, Becky, Guetzkow, Josh. 2002. \u201cBlack Economic Progress in the Era of Mass Imprisonment.\u201d Pp. 165\u201380 in Invisible Punishment: The Collateral Consequences of Mass Imprisonment, edited by Mauer, M., Chesney-Lind, M. New York: The New Press.",
        "Wildeman, Christopher. 2010. \u201cPaternal Incarceration and Children\u2019s Physically Aggressive Behaviors: Evidence from the Fragile Families and Child Wellbeing Study.\u201d Social Forces 89(1):285\u2013309.",
        "Wildeman, Christopher, Schnittker, Jason, Turney, Kristin. 2012. \u201cDespair by Association? The Mental Health of Mothers with Children by Recently Incarcerated Fathers.\u201d American Sociological Review 77(2):216\u201343."
    ],
    "title": "Suspending Progress",
    "issue": "6",
    "volume": "79",
    "year": 2014,
    "issn": "0003-1224",
    "journal": "American Sociological Review",
    "authors": [
        "Brea L. Perry",
        " Edward W. Morris"
    ]
}