{
    "doi": "http://dx.doi.org/10.1093/esr/jcp011",
    "abstract": "It is widely believed that the growth in women's educational attainment and their increasing labour force participation, together with educational homogamy, will lead to greater inequality between households in their earnings. In this article, we use data from the United Kingdom to test that assertion. We use a new method of decomposing the change in household earnings inequality, and this allows us to identify effects associated with women's increasing educational attainment and consequential changes in their propensity to marry, in educational assortative mating and in labour-force participation. We find that changes in women's education and their behavioural consequences account for little if any of the growth in earnings inequality between households in the United Kingdom during the closing decades of the 20th century.",
    "sections": [
        {
            "title": "Introduction",
            "paragraphs": [
                "The growth in inequality over the past 25 years in several advanced economies has stimulated a new wave of sociological research into the distribution of earnings and income (Morris and Western, 1999; DiPrete, 2007; Kenworthy, 2007). Traditionally, supply side explanations of growing earnings and income inequality between-households were restricted to the impact of men's earnings. But the growth in women's educational attainment, and its consequences in higher rates of labour-force participation and educational homogamy, has led several authors to suggest that this might be an important cause of growing inequality. In this paper, we investigate how women's increasing educational attainment has affected the distribution of earnings among households and how much of the change in earnings inequality between-households1 can be attributed to this source. We seek to overcome several of the empirical and methodological limitations of previous studies. On the one hand, in contrast to many studies, we include all women in our analyses and not just wives; on the other hand, we develop a multivariate decomposition method that allows us to examine the effects of changes in women's and men's education, marriage patterns, and labour supply in a more comprehensive way than hitherto.",
                "We apply our approach to the United Kingdom in the period 1979-2000. The United Kingdom has, in common with many other countries, experienced a very notable expansion in upper secondary and higher educational levels and marked increases in the proportion of women in each successive cohort entering them (Shavit and Blossfeld, 1993; Green, Wolf and Leney, 1999). It has also experienced the highest European levels of income and earnings inequality together with the steepest increase, particularly during the 1980s (Atkinson et al., 1995). This combination of high (female) educational expansion and high (and increasing) inequality makes the United Kingdom a substantively important case and a valuable testing ground for our methods.",
                "The next section of the paper reviews recent work on the effects of women's increased education and labour supply on income and earnings inequality. On the basis of this review, we explain the mechanisms that we believe are important in understanding these effects. We next describe our data and methods. These are counterfactual decompositions of change which aim to capture the effects and magnitude of the mechanisms that we have outlined. We present some descriptive statistics, followed by the results of our counterfactuals, and we conclude with an assessment of the relative importance of increasing women's educational attainment for inequality in the United Kingdom in the closing decades of the twentieth century."
            ]
        },
        {
            "title": "Previous Research",
            "paragraphs": [
                "In periods or countries in which women are secondary earners, their effect on the distribution of household income would be an equalizing one if more wives at the bottom part of the distribution entered the labour force. However, as higher proportions of women enter the labour market as equal (or primary) earners, an accumulation of advantages could take place if these women marry men with a similar educational level and earnings potential. These arguments have generated a number of empirical contributions.",
                "Most evidence on the impact of wives' earnings on the distribution of household earnings and income comes from the United States. Treas (1987), in a review of the empirical evidence, found that working wives' increased labour market participation had an equalizing effect on the distribution of income between families.2 Other studies provided similar results; in the United States, among households headed by a couple, the earnings of wives were always found to be equalizing, although to different extents (Danziger, 1980; Gottschalk, 1993; Cancian and Reed, 1998). The same conclusion was reached in studies of the United Kingdom (Machin and Waldfogel, 1994; Harkness, Machin and Meguir, 1996), Sweden (Bjorklund, 1992), Ireland (Callan et al., 1998), Israel (Gronau, 1982), and Malaysia (Amin and DaVanzo, 2004). In one of the few comparative analyses that have used similar measures of inequality across different countries, Cancian and Schoeni (1998) showed that, despite the rise in the proportion of labour supplied by women married to high-earning men, the effect of wives' participation has tended to equalize the distribution of household earnings among couples. Esping-Andersen (2007) obtained mixed results: an equalizing impact in Denmark, Sweden, and the United States and a disequalizing effect in the United Kingdom and in several countries in Continental Europe.",
                "Only a minority of studies have found an unambiguous contribution of wives' earnings to increased inequality. For the United States, Karoly and Burtless (1995) reported that employment and wage gains since the late-1970s were concentrated among those women married to men in the upper part of the distribution of wages. According to further estimates by Burtless (1999), more than a 10th of the growth in income inequality in the United States between 1979 and 1996 was due to increases in spouses' earnings correlations. He concluded that even if male and female wage inequality had remained constant at the earlier level, around two-thirds of the growth in overall inter-household inequality would have been observed, suggesting the strong explanatory power of shifting marriage patterns combined with the varying relative gains in terms of earnings. Low-earning men (precisely those with the largest loss in earnings over time) were the most affected by the fall in marriage rates; higher earning women experienced the smallest drop in marriage rates. Jenkins (1995) found some disequalizing effect of increased wives' labour supply on the distribution of personal income in the United Kingdom in the early 1970s, but not afterwards.",
                "If our interest is in the impact, on inter-household inequality, of increases in women's education or labour market participation, a focus on wives is clearly insufficient. Not only does it ignore the growth in households headed by an unmarried person, it also neglects the relationship between the propensity to marry and labour supply. Some attempts to assess the effects of wives' earnings on the distribution of earnings for all households and to include single women in the explanation of household earnings or income inequality have been made--though most of them provide evidence for the United States only. The results are mixed. Some authors have concluded that changes in marriage patterns and in the proportion of couples with a working woman have substantially contributed to increasing income inequality (Ryscavage, Green and Welniak, 1992). Others have similarly found a disequalizing impact of family composition and of the growing correlation between the earnings of couples (Karoly and Burtless, 1995; Burtless, 1999). In other studies, however, the results point to an equalizing effect of the distribution of wives' earnings explained either by a weak correlation between wives' earnings and other sources of family income (Cancian and Reed, 1999) or by the greater growth of female earnings in families at the bottom part of the distribution (Reed and Cancian, 2001) since the 1970s.",
                "Some of these studies have not succeeded in clearly identifying effects that are due to changes in household composition (caused, for instance, by an increase in the proportion of women who remain unmarried) from those due to changes in women's labour supply. Ryscavage, Green and Welniak (1992), Karoly and Burtless (1995), and Burtless (1999) could not assess the two effects separately, because, as Cancian and Reed (1999) have argued, in their analyses, the non-present partners of single men and non-earning wives are taken to be substitutes. A second group of studies carried out by Cancian and Reed have, in principle, drawn this distinction more accurately by decomposing income inequality between all households according to population subgroup, thus including single persons and couples, and income sources, and also assessing the effects of wives' earnings versus other sources. However, Cancian and Reed's (1999) counterfactual analyses focused on the impact of wives on inequality both in the distribution of the income of couples and of all households, but they failed to quantify the effects of the earnings of unmarried women. Reed and Cancian (2001) overcame this problem by separating the contribution of wives from all women's income. In both studies, however, the issue of the interdependence between marriage and labour participation remained unaddressed."
            ]
        },
        {
            "title": "How Might Changes in Women's Educational Attainment Affect Inequality?",
            "paragraphs": [
                "Inequality between households can be thought of as the product of two processes: the way in which earnings are distributed among individuals, and the way in which earners and non-earners are grouped in households. The former are what we might call economic factors, the latter demographic. Changes in inter-household inequality can correspondingly be thought of as arising from changes in one or both of these. In this paper, we focus on those economic and demographic changes that might be attributed, in whole or part, to change in the distribution of women's education, and we identify three important mechanisms through which this has its effect.",
                "First, increasing educational attainment can be expected to lead to greater labour force participation among women, and thus women's earnings may become more important in explaining total inequality, regardless of whether they have an equalizing or disequalizing effect. Female labour force participation rates have come to equal or approach those of men in all industrialized countries in the last three decades (Callan et al., 1998). In the United Kingdom, there has been a significant rise in female participation rates since the Second World War (Joshi, Layard and Owen, 1985; Gomulka and Stern, 1990). In addition, the share of households in which women contribute substantially to household income through their own earnings has grown rapidly everywhere (for the United Kingdom, see Machin and Waldfogel, 1994). But whether this effect increases or reduces inequality will depend on whether women's participation is greater in low- or high-income households.3",
                "Second, increasing education and labour force participation may change the distribution of household types which may, of itself, affect inequality. In particular, women's educational expansion is likely to increase the proportion of persons who remain single because of the greater feasibility of establishing a household without a male partner.",
                "Third, education not only affects women's propensity to marry, but also who they marry. If members of couples tend to have similar characteristics that allow them to get certain returns in the labour market, and if educational homogamy increases, particularly at higher levels of education (Mare, 1991), then a reinforcement of inequalities could take place (Drobnic and Blossfeld, 2001; Blossfeld and Timm, 2003). Increases in women's educational attainment, to the extent that these equalize the distribution of education between the sexes, can be expected to increase the proportion of educationally homogamous households. On the other hand, if the educational attainments of both sexes are increasing, the effect on the overall level of homogamy will be indeterminate, but it seems likely that we will observe a declining rate of homogamy among couples with low levels of education and an increasing rate among those with high levels."
            ]
        },
        {
            "title": "Data",
            "paragraphs": [
                "The data we use come from the United Kingdom Family Expenditure Survey (FES). The FES is a continuous, nationally representative, cross-sectional study running from 1957 onwards and collecting detailed information on individual and household income and expenditure.4 We use the surveys for 1979, 1991, and 2000: these cover the range of years that witnessed the most marked increase in inequality in the United Kingdom.",
                "Earnings are normal weekly wages and salaries from all (main and subsidiary if applicable) sources of employment (including income from self-employment) for the household head and partner (if any).5 The earnings figures throughout the paper are expressed in constant (1992) pounds sterling. Household earnings have been equivalized using the modified OECD scale, which assigns a weight of 1 to the first adult, 0.5 to each additional adult (15 or older), and 0.3 to each child (under 15).",
                "Because we focus on earnings (and not income), we excluded households whose head and partner of the head are retired or still enrolled in education and so we limit our sample to households in which the head is aged between 20 and 64.6 But we also carried out a parallel set of analyses in which we confined our attention to young households, where the head is between 25 and 34 years old, to discover whether the effects of increasing women's education are more evident in this age group than in the whole working population.7 These results are not reported here (though they are available from the authors on request), because they show no substantive differences from those for the 20-64 age group.",
                "Since the unit of analysis is the household, and because the link that we are trying to establish is between women's education and household earnings, we consider both earnings and educational information only for the head and for the partner of the head of the household (where present).8 This means that the earnings and education of other household members are ignored: thus our analysis deals only with inequality in the earnings of heads of households and their partners.",
                "The FES has two major advantages for the purposes of answering the question we pose. First, it collects by far the most comprehensive and reliable data on earnings and income at the individual and household level of any UK survey in the period covered in this paper. Second, it has been carried out for long enough to enable us to compare inequality prior to and during the period of its growth starting in the late-1970s. However, FES does have one important shortcoming in that it does not provide information on educational levels as such, but on the age at which full-time education ceased. Only for those individuals still in formal education at the moment of the survey (and only for the 1979 cross-section) it is possible to identify the level in which they are enrolled. We therefore use a simple categorization of education comprising three broad levels: Level 1 = left full-time education before age 16.Level 2 = left full-time education between the ages of 16 and 18.Level 3 = left full-time education after the age of 18.",
                "Level 1 is made up of those who, for the most part, had no more than compulsory education, while level 2 contains those with a secondary education qualification (such as O-level or A-level). Level 3 comprises individuals with a post-secondary qualification and thus includes all those with a degree.9",
                "As well as education we also distinguish whether or not the household head and her/his partner is working. The result is, for each of 1979, 1991, and 2000, a four-way table of woman's education (WE) by man's education (ME) by whether or not the woman works (WW) by whether or not the man works (MW). To allow us to take account of households headed by a single person, all four of these variables are augmented by an extra category, indicating that the person in question is not present in the household. The result is shown in Table 1. This is an incomplete cross-classification, because 16 of the possible 64 combinations cannot be observed: furthermore, another 15 cells have zero entries, because we have limited earnings to those of the household head and partner. Except for the 16 cells treated as structural zeroes, each cell of this table then contains three pieces of information: the number of households in it, nijkl, the mean earnings of those households, xijkl, and a measure of earnings inequality among them, Tijkl, where i, j, k, and l index WE, ME, WW, and MW, respectively. By setting up our data in this way, we are able to look at the impact of increasing female education on between-household inequality not only among households which contain a couple, but also among those headed by a single man or woman, and so we can consider the effect of increasing education on the propensity to form a couple (to marry), as well as on the choice of partner. This contrasts with almost all previous research on the link between women's education and inter-household inequality which confines attention to married or cohabiting couples. ",
                "A difficulty with the Theil index, as with many other inequality measures, is that zeroes lead to the index being undefined. In our case, households with zero earnings are found only in cells representing households where neither partner works: here, we set the within-group Theil to zero and this is unproblematic, because there really is no inequality within households of these types using this definition of earnings. We also set their contribution to the between-group Theil index to zero. One effect of adopting this restrictive definition of earners is that for some household types in which neither the head nor the head's partner is working, within-group inequality is very large but it is based on very small numbers. However, when all earners in the household are included (not shown, available on request), the differences between the two approaches are minor, and the major results of our counterfactuals are robust to the choice of either definition.10"
            ]
        },
        {
            "title": "Methods",
            "paragraphs": [
                "Both the counterfactuals and the decomposition tell us the relative importance of changes in the overall distribution of household types (captured by p) for inequality: however, they do not tell us the importance of changes in each of the four variables that define our household types, and for this purposes, we have developed a method through which we decompose the total effect of the changing distribution of household types (i.e. subgroups) into the effects of change in the variables WE, ME, WW, and MW and in the associations between them. Previous attempts to decompose inequality into between- and within-group components have involved a univariate distribution of groups [as in Mookherjee and Shorrocks (1982) where the groups are defined by age]; or a multivariate distribution in which each variable is treated entirely separately [as in Jenkins (1995)]; or a multivariate distribution, which is gradually built up, from an original univariate distribution, by the addition of successive variables [as in Cowell and Jenkins (1995)]. The method we present here is much more flexible than any of these and lets us uncover a more detailed picture of the effects of counterfactual changes in the variables defining the groups.",
                "The main difficulty to be overcome in trying to assess the counterfactual impact of changing the distribution of one variable in a multivariate definition of groups is how to deal with the effect of such a change on the other variables, and this will depend on how we treat the associations between the variables (and there are several possible ways of doing this). If, for example, we capture the relationship between women's WE, and men's education, ME (that is, assortative mating by education), by using the conditional probability of men's education given women's education, then a change in the distribution of WE will cause a change in the distribution of ME. This is undesirable, since there is no reason to suppose that such a dependency exists. Alternatively, if we keep ME constant then the conditional probability will have to change--but this assumes a change in patterns of assortative mating which is something we would like to treat separately from the fact of change in the distribution of WE.",
                "The approach we have developed overcomes these difficulties: so, in our counterfactuals we can allow the univariate distribution of WE to take its t + 1 value, while preserving the distributions of the other variables and all the associations between variables (including those involving WE) at their t values. For this purpose, we use the Deming-Stephan method, which allows us to adjust the univariate or multivariate distributions of the variables to conform to any desired configuration. The method is explained in detail in the appendix but the underlying idea relies on the distinction between the marginal distribution of each of our four variables and the pairwise associations between them, which are captured by odds ratios. The marginal distributions and the odds ratios can be allowed to vary independently of each other; so, for example, we can change the distribution of women's education while keeping the association between women's and men's education, as captured by odds ratios, constant.",
                "Our strategy is (1) to allow the marginal distribution of women's education to take its t + 1 value, holding all else constant at their t values; (2) then to allow the association between women's and men's education to take their t + 1 values; (3) then to allow the association between women's and men's education and whether women are working or not to take their t + 1 values;13 and, (4), to let all variables and their associations take their t + 1 values. The logic of this is that, in step (1) by allowing only the marginal distribution of WE to change, we are showing what 'would' have happened to inequality in earnings had there been only a change in women's education and not in any of the other variables, nor in the behavioural consequences of women's education for household formation or labour force participation. In step (2), we add the possible effects of such behavioural change by letting the pattern of association between men's and women's education change as it is observed to, so capturing changes in educational assortative household formation. In step (3), we add the effects of changing labour supply (whether women are working or not) within each household type. Together, steps (1)-(3) capture the main mechanisms by which, directly and indirectly, changes in women's education influence the distribution of household types in the population, i.e., through changing rates of non-marriage, changing educational homogamy, and changing labour supply. From (3), we move directly to a counterfactual in which we allow the observed distribution of household types, pijkl, to take their observed t + 1 values. The major change that this induces is that we now allow whether or not men are working to take its t + 1 value.",
                "There are two further complications in this procedure. First, in the initial step, our interest is in the effect of a change in the distribution of women's education per se and not in any changes in the distribution of households types that does not follow directly from this. We therefore set the marginal total for the fourth category of WE ('not present') to its value at t (rather than t + 1), and the counterfactuals for the three other categories were adjusted accordingly. This means that we are adjusting the distribution of women's education but not the share of men who have no partner. Thus, step (2) takes account of change in the propensity to marry and in whom women marry. But, second, in step (2) the question arises of whether, as well as allowing the association between women's and men's education to change, we should also allow the distribution of the latter to change. Similarly, in step (3), when we allow the associations between WE, ME, and WW to change, should we also allow the marginal distributions of ME and WW to take their t + 1 values? It would seem that, in (2), we should keep ME at its t value, because change in men's education cannot be viewed as a consequence of change in women's education; on the other hand, whether or not women participate in paid work might be considered such a consequence. In fact, we carried out counterfactuals allowing for all possibilities, and the results did not prove sensitive to our choice. We therefore report the results in which the univariate distribution of WW is allowed to change in (3) and that of ME is allowed to change in both (2) and (3)."
            ]
        },
        {
            "title": "Descriptive Results",
            "paragraphs": [
                "Our sample confirms the already well-established evidence that the United Kingdom is no exception to the general expansion in women's education in most industrialized countries during the recent decades. Table 2 shows a very significant increase in medium and high educational levels in the period that our data cover. Whereas in 1979 more than three of five women had the lowest educational level (i.e. left full-time education at the age of 15 or younger), by 2000 only one of four were at this level. The proportion of those with high education almost tripled during these two decades. ",
                "Table 3 shows that the proportion of households with an unpartnered head has increased since the late-1970s, although there is hardly any change between 1991 and 2000.14",
                "The percentage of couples in which both partners have the same educational level has evolved in the expected manner (Table 4): homogamy at the intermediate and highest levels has steadily increased whereas there are fewer couples in which both the man and the woman have the lowest qualifications. Overall, however, the percentage of educationally homogamous marriages declined from 70 per cent in 1979 to 66 per cent in 2000. Within households in which both partners work, the correlation between their earnings has steadily increased from 0.07 in 1979 to 0.13 in 1991 and to 0.31 in 2000. ",
                "We see in Table 5 the change in women's employment. The proportion of households in which the female head or partner of the head is involved in paid work (either employed or self-employed) follows a U-shaped trend, declining then rising, though by 2000 it remained slightly lower than its 1979 level. This trend reflects the high unemployment of the early 1990s and the subsequent growth in jobs for women during the 1990s. ",
                "Table 6 sheds more light on this trend (which will later prove important in explaining changes in earnings inequality). There has been an overall decline in the proportion of two-earner households and in the proportion of households with one male earner. On the other hand, households with one female earner and, most noticeably, no earners, have increased their proportion of the total. The increase in the share of no earner households was very pronounced between 1979 and 1991, but it continued to rise, albeit less sharply, to 2000. The proportion of one female earner households rose slightly between 1979 and 1991 and then more rapidly afterwards. "
            ]
        },
        {
            "title": "Inequality Decomposition by Household Types",
            "paragraphs": [
                "It is well known that during both the 1980s and less markedly during the 1990s, earnings inequality experienced a dramatic rise in the United Kingdom. The Theil index, reported in Table 7, increased from 0.258 in 1979 to 0.454 in 1991 and 0.542 nine years later.15 Average household earnings increased steadily during the period, too. Table 7 also shows that not only is inequality between-household types (between-group inequality) larger than inequality within them (within-group inequality), but the former has increased more in absolute terms. ",
                "Table 8 shows the results of two approaches to decomposing the change in inequality over the periods 1979-1991 and 1991-2000. Under the first approach, we report the results of a set of counterfactuals in which each of pijkl, xijkl, and Tijkl are allowed to take their t + 1 values. The parallel decompositions using the Mookherjee-Shorrocks (MS) method are then shown in the final three rows,16 where changes in pijkl affect both the between- and within-group inequality. The counterfactuals and the decompositions point to the same conclusions: the change in inequality is mostly driven by the change in the distribution of household types rather than by changes in the differences between household types in their average earnings. In the counterfactuals, allowing only pijkl to change brings the between-group inequality very close to its observed t + 1 value in both the 1979-1991 and 1991-2000 comparisons. Likewise, changing the Theil values for each household type alone almost exactly reproduces the within-group inequality at t + 1. Changes in the mean earnings in each type of household have little effect on either the between- or within-group inequality (not least because all household types experienced growth in their earnings). Similarly, the MS decompositions show that changes in pijkl have a substantial effect on between-group inequality and, indeed, that changes in pijkl are the single largest cause of increasing inequality. ",
                "Because the mechanisms that we earlier listed as possible means by which increased female educational attainment will affect inequality (increased female labour force participation, increased educational homogamy and changes in the distribution of single and dual earner households) all operate through their influence on between-household type, rather than within-household type, inequality,17 our concern is primarily to explain this aspect of inequality. And now we see that the change in between-household type inequality is indeed driven by the changing distribution of household types, rather than the change in their relative mean earnings. Therefore, when we carry out our Deming-Stephan counterfactuals we allow only the distribution of pijkl to change and we keep mean earnings and the within-group Theils fixed at their t values.18",
                "Table 9 contains the results of the Deming-Stephan counterfactuals applied to our data, and they show very clearly that the changing distribution of women's education (counterfactual 1) has little or no effect on the trend towards increased earnings inequality. Furthermore, the direction of its impact has been, if anything, in the direction of ameliorating the growth in inequality. When we also allow for the changing distribution of men's education and the association between men's and women's education (counterfactual 2), there is still no positive effect on increasing inequality. Trends in educational homogamy have not tended to increase inequality: indeed, they too seem to have had a slight tendency to counteract the growth in inequality. When we next allow for the change in women's labour force participation (in counterfactual 3), we see a slightly positive effect on inequality, but this effect is much smaller than that observed in our fourth counterfactual, where we allow men's labour force participation to change. The latter seems to have been the major factor underlying the change in between-household type earnings inequality in both the 1979-1991 and 1991-2000 period. Even if we take the most generous definition of the impact of changing women's education on inequality (i.e. counterfactual 3, which allows for the effects of increasing education on the distribution of household types according to partnership status and on women's employment) we find that it accounted for about 3.5 per cent of the increase in between-household type inequality in the 1979-1991 period. In the 1991-2000 period, its net effect was to reduce inequality. ",
                "This result is robust to the order in which these counterfactuals are performed. If we consider 1979-1991, first changing men's labour force participation increases the between-group inequality from its observed value of 0.152 to 0.270. Adding women's labour force participation leaves it unchanged; adding men's education reduces it to 0.251 while adding women's education takes it to 0.264 (compared with an observed value of 0.275). Similarly, in the 1991-2000 period, first changing whether or not men are working alters the between-group inequality from its observed 1991 value to 0.333. Subsequent additions of whether or not women are working (0.320), men's education (0.320), and women's education (0.313) all have very little further impact.",
                "Recall that phijkl is the inequality in mean earnings between-household types, which we now write explicitly as a function of pijkl.",
                "The effect of changes in the distribution of women's education is to increase levels of women's education, to increase the share of households where the partners have at least a medium level of education, to increase the share of single person households, and to increase female participation rates. Overall, these trends will tend to increase inequality because the household types which are increasing are predominantly those with earnings greater than the overall average and so they have large positive values of phijkl. But the indirect effect offsets this. Because these changes lead to more households with higher earnings, the overall mean level of earnings increases, and so household types with high earnings now contribute less to overall inequality (their phijkl declines). Of course, this means that household types with low earnings are now further below mean earnings, but this effect is minor, partly because there are now fewer of them, but also because, in the Theil measure, household types with mean earnings less than the overall mean make only a small negative contribution to between-group inequality.",
                "To illustrate this, Table 10 focuses on the second counterfactual, which allows the educational distributions of men and women and their association to change, and on the example of households where both partners work. The arrows show which of the types of household increased or decreased their share of the total between 1979 and 1991 (under this counterfactual): so, households in which one or both partners had at least a medium level of education increased, while those with one or more low educated partner either decreased or kept a roughly constant share. Panel B of the table shows the phijkl values for these nine household types in 1979, and it is evident that it is in those types with high values that growth has largely been concentrated. This is a disequalizing trend. However, panel C shows the phijkl values under the counterfactual, taking into account the indirect effect of changes in pijkl. These are generally closer to zero than the values found in panel B, and, furthermore, the largest difference between panels B and C is found in those cells which have upward pointing arrows in panel A: so this change enhances equality. Overall, the two trends approximately cancel each other out, so that changes in education and in educational assortative mating have no effect on inequality. ",
                "As we move through the counterfactuals, the indirect effect causes mean earnings to increase and phijkl values to decline. The exception is the final counterfactual which increases the share of households in which the man is not working. This has the opposite effect to the changes that follow from the counterfactuals that try to capture the consequences of the growth in women's education because it increases the share of low earning households and so reduces the overall mean earnings to approximately the observed 1979 value, and, correspondingly, increases the phijkls. In fact, it is the latter that seems to have the largest impact on between-group inequality."
            ]
        },
        {
            "title": "Conclusions",
            "paragraphs": [
                "Increasing earnings inequality in Britain between 1979 and 1991 was mainly due to growing between-household type inequality, where household types were defined according to the educational level and employment status of the head and his/her partner (if any). Between 1991 and 2000, the much lesser increase was about equally due to between-household type and within-household type change. In its turn, rising inequality between household types was entirely due to change in the distribution of household types and not to changes in the gaps between the average earnings in the different household types.",
                "We suggested three mechanisms by which increasing levels of education attainment among women might lead, ceteris paribus, to a growth in inequality between-households in their earnings: these are changes in female labour force participation; increasing educational homogamy, and thus an overall increase in the correlation of partners' earnings; and a change in household formation behaviour, with more single earner households. These mechanisms all affect between-group inequality by changing the distribution of household types in the population. We have developed a decomposition method that, for the first time, allows one to counterfactually model the impact of changes in particular marginal distributions and in particular associations between variables in a multivariate distribution. Our application of this method showed that these three mechanisms had little impact on changes in inequality: rather, the main cause of growing inequality between household types, and thus of overall inequality, was the growth in the proportion of male household heads (or male partners of household heads) who were not working. This result is in line, for instance, with Atkinson (1993), who also found that the rise in the number of non-working families had a major disequalizing impact on inequality in the United Kingdom.",
                "Our findings lead to doubt, at least for the United Kingdom, about the disequalizing effect of educational homogamy in the context of increasing levels of female educational attainment. Although it is widely believed that increasing educational homogamy--or, more generally, increasing educational assortative marriage--will generate more inequality between households (e.g. Fernandez and Rogerson, 2001; Blossfeld and Timm, 2003), our results show that this need not be so. Much will depend on the specifics of the change in educational sorting, and thus research into, and hypotheses about, the effects of this and other demographic changes on inter-household inequality needs to be wary of generalizations and sensitive to the possibly quite different consequences of the details of such changes.",
                "We thank Sir Tony Atkinson and participants in seminars at the Institute of Education, London, in December 2004, Yale University in October 2005, and Columbia University in November 2007 for comments on earlier drafts of this paper.",
                "The data for our counterfactuals comprise a four-way table of woman's education (WE) by men's education (ME) by whether or not the woman works (WW) by whether or not the man works (MW). The last two of these are dichotomies, but the education variables each have four categories: low, medium, and high education plus, because our units of observation are households, a category of 'not present' for those households where the head of the household does not have a partner. For the same reason, the four-way table is incomplete because 16 out of the possible 64 combinations of the variables can never be observed: these are known as 'structural zeroes'.",
                "To compute the counterfactuals, we use the Deming-Stephan algorithm (sometimes called Iterative Proportional Fitting), which provides a means of adjusting the marginal distributions of a contingency table while preserving the pattern of associations, as captured by odds ratios, among those variables (Deming and Stephan 1940a,b).19",
                "The Deming-Stephan algorithm is very easily implemented on a two-dimensional table and so we carried out our estimations by reshaping the four-way contingency table as the appropriate two-way table. In counterfactual 1, we allow the marginal distribution of women's education to change. So, we reshaped the four-way WE by ME by WW by MW (4 by 4 by 2 by 2) table into a two-way WE by X1 table, where X1 is the 16 category variable capturing all the ME by WW by MW combinations. This 4 by 16 table thus includes the 16 structural zeroes, but this is not a problem because the Deming-Stephan procedure, of necessity, preserves any zero cell values. We thus make counterfactual estimates of the change between t and t + 1 by taking the WE by X1 table observed at t and applying the algorithm using the observed X1 (column) marginal totals and the counterfactual WE (row) margin, which is given by the WE distribution at t + 1. Because the sample sizes vary between t and t + 1 we use the t sample size and thus the counterfactual row totals are given by the t + 1 row proportions applied to the t row total. But in this particular counterfactual our interest is in the effect of a change in the distribution of women's education per se and not in any changes in the distribution of households types that does not follow directly from this. We therefore set the marginal total for the fourth category of WE ('not present') to its value at t, and the counterfactuals for the three other categories were adjusted accordingly.",
                "Counterfactual 2 involved reshaping the four-way table into a two-way X2 by X3 table, where X2 captures all the combinations of WE and ME while X3 captures WW by MW: thus the table has 16 rows and 4 columns. The row variable measures both the educational distributions of men and women and the association between them (including the share of households without a man or without a woman). As before, the t + 1 row distribution is used to form the counterfactual row distribution while the column distribution is left at its observed value. In counterfactual 3, the row variable is then expanded to 32 categories with the addition of the distinction between-households in which the woman is working and those in which she is not."
            ]
        }
    ],
    "references": [
        "http://dx.doi.org/10.1111/ecoj.1997.107.issue-441",
        "http://dx.doi.org/10.2307/145946",
        "http://dx.doi.org/10.1177/000169939203500403",
        "http://dx.doi.org/10.2307/1914138",
        "http://dx.doi.org/10.1016/S0014-2921(98)00099-3",
        "http://dx.doi.org/10.1162/003465398557348",
        "http://dx.doi.org/10.2307/2648106",
        "http://dx.doi.org/10.1016/S0926-6437(99)80003-1",
        "http://dx.doi.org/10.2307/2235501",
        "http://dx.doi.org/10.2307/145294",
        "http://dx.doi.org/10.1111/rssa.1998.161.issue-1",
        "http://dx.doi.org/10.1214/aoms/1177731829",
        "http://dx.doi.org/10.1080/01621459.1940.10502056",
        "http://dx.doi.org/10.1177/0002764206295009",
        "http://dx.doi.org/10.1177/0002764206295011",
        "http://dx.doi.org/10.1162/003355301753265589",
        "http://dx.doi.org/10.2307/2554159",
        "http://dx.doi.org/10.2307/2808109",
        "http://dx.doi.org/10.2307/2554775",
        "http://dx.doi.org/10.1086/298079",
        "http://dx.doi.org/10.2307/2061687",
        "http://dx.doi.org/10.1177/0002764206295008",
        "http://dx.doi.org/10.2307/2095670",
        "http://dx.doi.org/10.2307/2232673",
        "http://dx.doi.org/10.1146/annurev.soc.25.1.623",
        "http://dx.doi.org/10.1111/roiw.2001.47.issue-3",
        "http://dx.doi.org/10.1146/annurev.so.13.080187.001355"
    ],
    "title": "Has Increased Women's Educational Attainment Led to Greater Earnings Inequality in the United Kingdom? A Multivariate Decomposition Analysis",
    "issue": "2",
    "volume": "26",
    "year": 2010,
    "issn": "0266-7215",
    "journal": "European Sociological Review",
    "authors": [
        "Richard Breen",
        "Leire Salazar"
    ]
}