{
    "doi": "http://dx.doi.org/10.1177/0003122417693616",
    "abstract": "A long line of research documents the essential role of social networks in mediating the recruitment and retention of members in organizations. But organizations also comprise a primary context where people form social ties. We investigate how the network structure an organization creates among its members influences its ability to grow and reproduce. In particular, we propose that two dimensions of organizational strategy influence affiliation dynamics: (1) the extent to which an organization induces social interaction among its members (social encapsulation), and (2) the time and energy that an organization demands of its members (time and energy demand). We examine membership dynamics in an ecology where competitor organizations deploying varied strategies vie for the same pool of members. Results show a curvilinear relationship between membership growth and the rate of social encapsulation. Furthermore, we find that time and energy demand mediates the effect of social encapsulation by shaping its members\u2019 opportunities for maintaining external affiliations. Different opportunity structures result in different levels of network turnover, thus either reinforcing or dissolving intra-organizational ties. For most types of organizations, attaining sustained growth requires a balance between open networks (for recruitment) and network closure (for retention).",
    "sections": [
        {
            "title": "Introduction",
            "subsections": [
                {
                    "title": null,
                    "paragraphs": [
                        "Both formal organizations and informal associations face a perplexing question: how to attract and retain members when people have limited time and energy for participation. A substantial amount of research on organizational recruitment suggests that social network ties between members and outsiders play a crucial role in promoting recruitment and facilitating membership growth in churches (Stark and Bainbridge 1980), religious cults (Rochford 1982; Snow, Zurcher, and Ekland-Olson 1980), social movements (McAdam and Paulsen 1993; Walgrave and Wouters 2014), voluntary associations (McPherson and Ranger-Moore 1991), and even terrorist organizations (della Porta 1988). Research consistently shows that network ties are an important factor in organizational recruitment, but less attention has been paid to the role of organizations in shaping those networks (Edwards and McCarthy 2004). As key foci of interaction, organizations mediate the formation and decay of social ties (Feld 1981; McPherson 1983; Putnam 2000), but we know little about how different organizational structures facilitate recruitment and retention.",
                        "Our understanding of recruitment and retention processes has been greatly enhanced by incorporating information about network ties, but existing research has long been criticized for relying on an overly simplistic view of network structure (e.g., Gould 2003; Kitts 2000; McAdam 2003). Network ties to organizational members are generally assumed to have a positive effect on recruitment into an organization (McAdam and Paulsen 1993), and empirical studies tend to use simple counts of such ties to estimate recruitment potential (Gould 1991). However, whether a given tie results in recruitment also depends on the broader organizational context (Han 2016; Kitts 1999; McPherson 1983). Two facets of organizational contexts are particularly important: level of network closure among members, and the distribution of the behaviors and attitudes that are common in the organizations in the population. First, the positive effect of network ties on recruitment could be negated by the effects of ties to competing organizations, which can drain members from an organization (Kitts 2000; McPherson, Popielarz, and Drobnic 1992). As such, networks not only structure an individual's availability for participation (McAdam and Paulsen 1993; Snow et al. 1980), but they also pull existing members out of organizations they had previously joined (McPherson et al. 1992). Without accounting for connections to outsiders, researchers could over- or underestimate the true impact of network ties on recruitment. Second, network ties are more likely to result in recruitment if the potential member is behaviorally or affectively predisposed toward the demands of organizational membership (McAdam 1986, 2003). Conversely, network ties to organizational members may have little impact on individuals who do not share an interest in, or sympathy with, the organization's goals or behaviors. A network tie provides an opportunity, but this opportunity likely will not be realized if the behavioral repertoires of the recruit and the organization differ too substantially (Kitts 2000; Lim 2008; McAdam and Paulsen 1993).",
                        "We argue that a focus on organizational contexts is necessary to an understanding of recruitment and retention. Specifically, we draw on an ecological perspective of organizations (e.g., McPherson 1983) to develop a dynamic model of organizational recruitment and retention in which organizations with different internal structures compete for a common, finite pool of members. We identify two dimensions of organizational structure that influence membership dynamics: (1) the extent to which an organization focuses social interaction among members (social encapsulation), and (2) the amount of time and energy it demands of members (time and energy demand). These two dimensions shape an organization's position in relation to the broader social environment. Higher levels of social encapsulation increase retention by reinforcing commitment among existing members, but this may reduce an organization's potential for recruitment. Higher time and energy demands make it more difficult to recruit new members, but this also limits the number of alternative affiliations that members can hold, thus potentially decreasing competition.",
                        "We formalize these ideas in an agent-based model (ABM) and use it to pursue questions at two levels of analysis. First, at the organizational level, we explore how the interaction of the two strategy dimensions influences an organization's fitness within an ecology of affiliation. Second, at the level of the organizational environment, we explore how adoption of different strategies by competitors influences the overall level of competition and, consequently, the range of successful strategic responses. In other words, the strategies of competitors can significantly alter the strategies an organization can pursue successfully."
                    ]
                }
            ]
        },
        {
            "title": "Recruitment and Retention of Members in Organizations",
            "subsections": [
                {
                    "title": null,
                    "paragraphs": [
                        "Organizations have a variety of goals, but those that do not act to secure their own survival will likely not be around long enough for their other goals to matter. Organizations require many different resources for survival (Pfeffer and Salancik 1978), but contributions by human members are most fundamental. Members not only fulfill essential organizational roles, they also provide the means for obtaining all other resources (McPherson 1983; Scott 1992; Simon 1976). Simply put, without members an organization ceases to exist. Whether an organization sustains sufficient membership depends on two processes: recruitment and retention. Recruitment is the rate at which new members enter the organization, and retention is the rate at which existing members remain within the organization. Membership grows when the number of new recruits outweighs the number of members lost, and it declines when an organization fails to replace members who exit. Regardless of the organizational domain, the existential challenge facing every organization is to maintain recruitment and retention at levels that enable it to grow, or at least not decline in the long run.",
                        "Seminal sociological research on recruitment and retention was done in the context of religious movements, cults, and communes (e.g., Kanter 1972; Lofland and Stark 1965; Rochford 1982; Stark and Bainbridge 1980). This research, consisting largely of qualitative case studies, examined the strategies organizations use to attract new members and secure their long-term commitment to the group. A key sociological insight to emerge from this work is that the structure of social ties--between members and non-members as well as among members--is critical for explaining organizational growth and decline (Snow et al. 1980; Stark and Bainbridge 1980). The concentration of ties among members reinforces commitment and enhances retention (Coser 1974; Kanter 1972), and social ties to non-members shape an organization's recruitment opportunities (Rochford 1982; Snow et al. 1980). For example, in her research on American communes, Kanter (1972) observed that geographically isolated communities were more likely to persist, because they eliminated members' competing social obligations. Communes that did not eliminate opportunities for outside interaction declined much more quickly. Structural cohesion among members promotes retention, but other case studies show that ties between members and non-members can facilitate recruitment (e.g., Rochford 1982; Snow et al. 1980; Stark and Bainbridge 1980).",
                        "The case study literature brings into focus a general tension between an organization's need to enclose existing members in a cohesive structure, on the one hand, and its need to maintain channels for recruitment, on the other hand. It further suggests that the effectiveness of alternative network configurations for recruitment and retention depends on the surrounding social environment. Examining the Hare Krishna religious movement, Rochford (1982) found that the group maintained an exclusive structure during the period of growing skepticism toward cults in the early 1970s. Closing off members from extra-movement ties protected the group from potential defection. The Hare Krishna opened its ranks, however, when local conditions were favorable--for example, in Los Angeles, where devotees' social embeddedness in the local community became an asset for recruitment.",
                        "The case-based literature suggests that the configuration of members' networks influences membership growth, but this work emphasizes the contingency of these network effects on the surrounding social environment. Subsequent research on recruitment and retention integrates lessons from this research only selectively. In particular, it is now widely accepted that social network ties serve as channels for recruitment into every type of organization (e.g., Granovetter 1995; Marsden and Gorman 2001; McAdam 1986; Walgrave and Wouters 2014), but three specific lessons from the case-based literature have largely been ignored. First, network ties can lead to exit as well as recruitment (for critical discussions of this point, see Gould 2003; Kitts 2000; for exceptions, see Kitts 1999; McAdam and Paulsen 1993). Second, organizations have different structures and therefore manage the boundary maintenance problem differently (Coser 1974; Edwards and McCarthy 2004; Rochford 1982). Dense intragroup networks act as mechanisms for retention, but organizations that adopt such structures isolate themselves from the outside social world, limiting recruitment potential. Likewise, organizations that allow members to maintain many ties to non-members facilitate recruitment, but they may lose members due to increased opportunity for exit into competing organizations. Finally, few studies consider that social ties have heterogeneous effects on potential recruits, based on their behavioral and affective disposition toward the organization. A notable exception is McAdam's (1986) analysis of Freedom Summer, in which he finds that students who were not as committed were less likely to join the movement. However, the issue likely applies broadly to many types of organizations and is currently understudied. An ecological perspective (e.g., McPherson 1983) can help integrate these important elements and improve our understanding of key organizational outcomes."
                    ]
                }
            ]
        },
        {
            "title": "An Ecological Perspective on Membership",
            "subsections": [
                {
                    "title": "Social Encapsulation",
                    "paragraphs": [
                        "All organizations facilitate the formation of social ties among their members by providing a common context for interaction (Feld 1981). However, the intensity of interaction varies widely across organizations with different internal structures. We use the term social encapsulation to refer to the rate at which membership in an organization compels members to create social ties within the group.2",
                        "Coser's (1974:4) discussion of \"greedy institutions\" provides a useful illustration of how organizations encourage network closure. Organizations rely on greedy institutions, which consist of formal and informal rules, \"to reduce the claims of competing roles and status positions on those they wish to encompass within their boundaries.\" Greedy institutions take on many forms, but they all serve to strengthen social bonds to the group while eliminating the tension associated with multiple embeddings. For example, Kanter (1972) suggests that the seemingly contradictory practices of free love in the Oneida Community and sexual abstinence among the Shakers both served to discourage members from forming private ties that would channel energy and loyalty away from the group and toward the competing institution of marriage. These are extreme examples, but all organizations engage in some form of social encapsulation. Professional organizations may host a reception to encourage new and existing members to mingle (Ingram and Morris 2007), and bowling leagues create social bonds among players over friendly competition (Putnam 2000). Some organizations promote greater closure, whereas others encourage members to maintain network ties with outsiders, which may increase recruitment. For example, Stark and Bainbridge (1980) attribute the growth of the Mormon Church to its members' maintaining open networks. They offer a revealing quote from a church publication that urges members: \"Don't be exclusive\" (Stark and Bainbridge 1980:1387).",
                        "Besides the specific measures that organizations take to achieve a desired level of closure, a growing body of research finds that different network structures emerge between members unintentionally, as byproducts of organizational activities and organizational contexts (Burger and Buskens 2009; McFarland et al. 2014; Small 2009). For example, Small (2009) examined network formation among adult clients of daycare centers and found that simple organizational rules have unintended consequences for social closure. By enforcing a strict pickup schedule, for instance, some daycare centers unwittingly encouraged parents to develop relationships. By comparison, parents were much less likely to befriend one another if pickup time was not standardized.",
                        "Many different features shape the level of network closure within an organization, not all of which are within the organization's control. We set aside the question of how organizations facilitate the creation of different types of networks and simply observe that organizations induce different levels of network density among their members. Because individuals are often affiliated with multiple organizations, their personal networks are partially a function of the network formation pressures that these memberships impose. Moreover, individuals' capacity for maintaining social ties is limited by the time available for social activity and by the cognitive and emotional effort required for maintaining social ties (Brashears 2013; Dunbar 1992; Stiller and Dunbar 2007). Therefore, an increased connection to one set of associates typically comes at the expense of decreased connection to others (Saramaki et al. 2014)."
                    ]
                },
                {
                    "title": "Social Encapsulation",
                    "paragraphs": [
                        "The second organizational characteristic we consider is the demand for time and energy that an organization places on its members. Organizations prescribe, either formally by instituting schedules or through informal rules, a level of commitment that individuals must meet to attain and preserve membership (Cress, McPherson, and Rotolo 1997; Iannaccone 1994; McAdam 1986). The importance of demand for affiliation dynamics rests on the fact that humans have finite time and energy, thus imposing a constraint on the number and volume of organizational commitments they can maintain (McPherson 1983). This can be treated as a single undifferentiated pool, which is the strategy most research adopts (e.g., Cress et al. 1997; McPherson 1983; McPherson and Rotolo 1996), or it can be divided into blocks that specific organizational types preferentially exploit (Winship 2009). For example, voluntary organizations generally compete for time during non-work hours, which are relatively interchangeable and do not overlap with working hours. In either case, organizations that exploit the same type of people and hours are competing for the same limited pool of time, and those exploiting the same type of people, but in different hours, are not competing (Kitts 1999)."
                    ]
                },
                {
                    "title": "Social Encapsulation",
                    "paragraphs": [
                        "Figure 1 displays the strategy space with time and energy demand on the x-axis and social encapsulation on the y-axis. We can define the corners on the diagonal with the ideal types of a greedy institution (top right) and an organization that minimally engages members (bottom left). Cults are an example of the former; cult activities may take up members' every waking hour, and devoted cult members associate exclusively with fellow members (Coser 1974). In contrast, organizations occupying the bottom-left corner neither demand a lot of time and energy nor compel their members to develop in-group ties. Examples include some contemporary civic organizations that facilitate no face-to-face interaction at all and demand only that members renew their annual dues (Putnam 1995; Skocpol 2003). As Putnam (1995:71) explains, the ties between members of such civic organizations are \"like the bond[s] between any two Red Sox fans (or perhaps any two devoted Honda owners).\" All organizations along the bottom of the strategy space foster little social connection between members; the ones in the bottom-right corner combine this lack of social connection with extreme levels of demand for time and energy. Solitary monasticism is one example of this extreme, although many empirical examples in this region likely rely on coercion (e.g., sweatshops and solitary confinement in prisons and mental hospitals). Finally, the top-left corner includes organizations that achieve high levels of network closure among members while requiring relatively little time and energy. An example is a kids' summer camp, which lasts only a couple of weeks during a year but forges friendships that keep the campers coming back year after year.",
                        "The ideal types represented by these four quadrants reflect an implicit assumption that social encapsulation and energy demand are orthogonal dimensions despite the likelihood of a relationship between them. However, because tie formation requires some investment of time (Marsden and Campbell 1984; Saramaki et al. 2014), in limiting cases, higher social encapsulation will require higher time and energy demand; for example, one must convince members to spend their time in settings that will encourage tie formation with other members. Although we know this relationship is present, existing literature offers little guidance for an exact functional specification. Moreover, the limit that time imposes on tie formation and maintenance is not constant, but reflects changes in available communication technologies (Mayhew and Levinger 1976; Wellman 2001). We therefore define the two dimensions separately to explore the entire strategy space without wedding our model to a link function that may not obtain empirically. Our framework, furthermore, does not imply a difference based on organizational function--that is, regardless of function, organizations can be located along the two dimensions we define. However, organizations with different functions may concentrate in certain parts of the space (e.g., social clubs will tend to have greater social encapsulation rates than will organizations that pursue instrumental goals).3",
                        "What is the optimal strategy for achieving membership growth and survival? Intuitively, we expect that a higher rate of social encapsulation will help an organization retain members, but it will also decrease the organization's recruitment capacity. On the other hand, a low rate of social encapsulation will enable members to maintain more ties to non-members, facilitating recruitment but sacrificing retention capacity. Organizations that balance these countervailing pressures will be best positioned to expand their memberships. A central question, therefore, is where this balance lies, and whether it changes with the types of demands organizations place on members.",
                        "With respect to demand, previous research suggests that it is more difficult to recruit members for activities that require greater commitment (McAdam 1986; Rochford 1982). Research within the ecology of affiliation tradition further finds that greater demand of time and energy is negatively related to membership duration (i.e., retention) (Cress et al. 1997), a result that finds theoretical support in simulation studies (Geard and Bullock 2010; McPherson and Smith-Lovin 2002). We therefore expect that more demanding organizations will struggle to recruit and retain members. However, although high levels of demand impose constraints on survival, we expect that higher rates of social encapsulation might slow decline by improving retention. This expectation follows Coser's (1974) intuition behind greedy institutions. A highly demanding organization will persist longer when its members' social networks present fewer alternatives.",
                        "But time is not entirely fungible: organizations require member participation at specific times, and this scheduling mechanism partitions the resource base into non-interchange-able segments. Although our primary focus is on the interplay between social encapsulation and organizational demand, we take an initial step to investigate this potentially important caveat. Organizations that occupy different parts of the schedule do not directly compete with each other, but they shape their members' network structure and may thereby steer members toward specific affiliations in a non-overlapping segment of the schedule. Consistent with this logic, research in social movements has long observed a mutualistic relationship between churches and social movement organizations (e.g., Morris 1984). The social bonds among congregation members may reinforce commitment to the social movement and vice versa. Thus, allowing for schedule partitioning, we expect that an organization in one segment of the schedule will develop mutualistic relationships with one or more organizations in other segments, and the strength of the relationship will be proportionate to the rate of social encapsulation."
                    ]
                },
                {
                    "title": "Social Encapsulation",
                    "paragraphs": [
                        "The core idea of every ecological perspective is that the local competitive environment constitutes an essential context for organizational growth and survival (Popielarz and Neal 2007). Therefore, a focal organization's membership depends not only on its own strategy, but also on the types of competitor organizations in the local environment. McPherson and colleagues measure competition as the extent of overlap between rival organizations and a focal organization's niche (McPherson and Rotolo 1996; McPherson and Smith-Lovin 2002). The more organizations vying for the same pool of human resources, the greater the competition. This conception, however, ignores the point that organizations respond differently under the same conditions, based on their strategies (Rochford 1982). Therefore, niche overlaps that appear equivalent in cross-section may lead to different levels of constraint on membership growth in the long run, depending on the distribution of strategies among competing organizations.",
                        "We define competitive pressure broadly as the aggregate constraint that competing organizations place on a focal organization's ability to recruit and retain members (i.e., how hard do other organizations make it for your own to gain, and retain, members), and we make two predictions about local competitive dynamics. First, somewhat counter-intuitively, we expect that environments populated by low-demanding organizations will induce greater competitive pressure than will high-demanding organizations. The key mechanism is the level of social integration among potential recruits. In the limiting case of environments characterized by high-demanding organizations, individuals may hold just one, all-encompassing affiliation. This reduces the volume of available members for other organizations, but each highly demanding organization settles in a circumscribed niche and does not induce direct competition between organizations for the same members. In environments populated by low-demanding organizations, by contrast, people can hold multiple affiliations, which provides a basis for direct competition (McAdam and Paulsen 1993). People are also more likely to maintain incipient interests, which makes them candidates for recruitment into new organizations.",
                        "Second, when multiple affiliations are possible, competitive pressure will depend on neighboring organizations' levels of social encapsulation. Niche overlap is essential to inter-organizational competition, but whether such multiple embeddings undermine a focal organization's cohesion further depends on competitors' ability to churn the personal networks of the organization's members. Some moderate level of social encapsulation should impose the greatest pressure on the focal organization. With very low or very high levels of social encapsulation, overlapping competitors are not capable of generating pressure: they are either too apathetic to create cohesive cores of members or too greedy in isolating themselves from competition."
                    ]
                }
            ]
        },
        {
            "title": "Model Framework",
            "subsections": [
                {
                    "title": "General Modeling Approach",
                    "paragraphs": [
                        "We are interested in explaining the effect of two fundamental organizational properties--social encapsulation and time and energy demand--on the growth and persistence of organizations.4 Our modeling approach fits within the ecology of affiliation tradition of organizational analysis (McPherson 1983), and it shares affinities with two previous models that formalized competitive dynamics among organizations. McPherson and Smith-Lovin (2002) exogenously varied the level of competition in a system and observed the influence this had on membership duration. Geard and Bullock (2010) developed a more complex model, in which competition emerges endogenously through interactions between individual agents, and they examined the effect of different organizational demands on several system-level outcomes.",
                        "We build on this work in several important ways. First, we introduce social encapsulation as an organization-specific property, allowing us to examine how different encapsulation strategies influence retention and recruitment in a competitive ecology. Thus, organizations in our model not only place different demands on their members, but they also pursue alternative strategies to either eliminate members' competing obligations, enhance members' ability to recruit, or both. Second, we extend formal approaches to affiliation dynamics by combining existing formal architecture with an explicit model of social influence (DellaPosta, Shi, and Macy 2015). In modeling the spread of organizational behaviors through social networks, we capture the socializing process that typically precedes recruitment (McAdam 1986; Stark and Bainbridge 1980). In previous models of affiliation dynamics (Geard and Bullock 2010; McPherson and Smith-Lovin 2002), by contrast, agents with a tie to a group member are equally likely to join the group, irrespective of an organization's demands.5 Furthermore, with our formalization of social influence, we are able to relax the assumption of resource fungibility and examine the effect on resource partitioning, including the fact that organizations that schedule activities at different times are not direct competitors. Overall, our model moves beyond the prevailing image of organizations in the ecology of affiliation tradition as mere containers of members (e.g., McPherson 2004) to entities that fundamentally change who members know and what members do.",
                        "Figure 2 illustrates a hypothetical social system with two organizations (black and gray) and nine agents (represented by rectangular nodes). Each agent has five time slots, which she fills with different behaviors, including organization-specific behaviors (shaded either black or gray, to match the organization's). We model the spread of membership as a competitive diffusion process, in which network neighbors influence the composition of each other's behavioral profile; agents gain membership when surpassing an organization's minimum demand, and they lose membership when falling below this requirement. In each iteration, members develop ties with co-members at an organization-defined rate (i.e., social encapsulation rate). In the following sections, we formalize this process and describe the simulation algorithm in detail."
                    ]
                },
                {
                    "title": "General Modeling Approach",
                    "paragraphs": [
                        "Individual agents face two constraints on their interactions with others: (1) the limited time and energy allocated to different behaviors, and (2) the limited capacity to form and maintain social ties with others. We model the first ecological constraint, the time and energy budget, as an array of length K, where each cell represents a discrete time slot. An agent can fill the time slots with different organization-specific behaviors, which are considered unique and representative of the type of participation an organization requires. For example, agents in Figure 2 have K = 5 slots for behaviors, with each pattern or shade representing a different organization-specific behavior. The same organizational behavior can be assigned to multiple slots in the array, indicating a greater investment in that behavior.6 In each iteration of the simulation, agents evaluate the behaviors of network neighbors and adopt one behavior based on an urn model (detailed in the next section). The behavior adopted from neighbors is assigned to a randomly chosen time slot, replacing the existing behavior. In successive rounds of the simulation, agents may adopt some behaviors and drop others. Therefore, at any given time, the portion of the total time and energy budget that an agent devotes to a specific organizational behavior signifies her level of participation in that organization.",
                        "Each agent also has a limited sociability budget, T, which constrains the total amount of attention she can invest in social ties. We let tie strength vary by allowing multiple units of attention to be allocated to a tie over subsequent rounds of a simulation. Investment in social ties is reciprocal--that is, when A invests one unit of attention in a relationship with agent B, B also invests a unit of her attention in the tie. Any attention units not currently in use are stored in a reservoir and can be allocated in subsequent interactions. When the sociability budget is used up, the focal agent must reduce the strength of an existing tie.7 By altering the composition and strength of an agent's social ties, we can (stochastically) determine which individuals she is able to influence and the intensity of the influence."
                    ]
                },
                {
                    "title": "General Modeling Approach",
                    "paragraphs": [
                        "The ABM proceeds iteratively, and each round of the simulation has three steps: (1) a step in which membership status is updated, (2) a tie formation step, and (3) an influence step. How these steps are invoked is determined by the specific rates set in different simulation conditions. At the beginning of each round, all agents update their membership statuses based on their current level of investment in each organizational behavior. If their investment meets or exceeds the minimum demanded by the organization, they are considered members. For instance, in Figure 2, if agent i were to adopt a gray behavior from one of her neighbors, she would meet the minimal demand of organization B and be considered a member at the start of the next round. Next, in the tie formation step, the focal agent allocates units of attention to co-members of each of her organizations at the respective organization-specific social encapsulation rates (see the next section).",
                        "Finally, we specify social influence using an urn model (DellaPosta et al. 2015; Johnson and Kotz 1977). When the influence mechanism is invoked, the focal agent takes the behaviors from each of his neighbors' time arrays, multiplies these sets of behaviors by the tie strength of each respective alter, and places them all into a pool or \"urn.\" After the urn is filled, the focal agent randomly chooses one behavior and places it into a random slot of his own array (replacing an existing behavior if necessary). The urn model is similar to continuous social influence models (e.g., Friedkin and Johnsen 1999), in that it specifies influence as an incremental adjustment to the behavior/opinion distribution in a weighted network. An advantage of the urn model is that it allows distinct behaviors to compete for the limited space in the time array, which makes it suitable for modeling social influence in a competitive ecology.8"
                    ]
                },
                {
                    "title": "General Modeling Approach",
                    "paragraphs": [
                        "Organizational strategies are defined by two dimensions: time and energy demand and social encapsulation. The strategies are fixed for the duration of the simulation (Hannan and Freeman 1984). Time and energy demand (D) is defined as the minimum time slots required by the specific organization for membership, and it varies from 1 to K. In Figure 2, organization A demands one slot and organization B demands three slots of behavioral commitment for membership. Only individuals who meet the minimum membership requirement are considered members and subject to the network constraints imposed by the organization's social encapsulation. The social encapsulation rate (rE) defines the organization-specific rate at which members allocate their units of attention to other members. Higher levels of encapsulation indicate a greater tendency for organizational members to allocate attention to other members. For instance, organization B in Figure 2 has a relatively high social encapsulation rate, which means there is a high likelihood that agents j and k will develop a tie over subsequent iterations (the dotted line)."
                    ]
                },
                {
                    "title": "General Modeling Approach",
                    "paragraphs": [
                        "The simulation is set up with a population of 200 agents, each of whom has a time and energy budget of K = 20 units and a sociability budget of T = 100 units. In the initialization routine, 10 organizational behaviors are distributed among agents in a controlled fashion (the details and a robustness analysis of the initialization process can be found in the online supplement [http://asr.sagepub.com/supplemental]). After the initialization routine, the mechanisms defined by organizational strategies are activated at specified rates.",
                        "To summarize, in each iteration, an agent is subject to three distinct processes: (1) membership assignment based on the current behavioral profile; (2) network rewiring based on the rate of social encapsulation for each organizational membership;9 and (3) social influence from network neighbors.10Table 1 provides a step-by-step outline of the algorithm. A Python script of the model is included in the online supplement."
                    ]
                }
            ]
        },
        {
            "title": "Results",
            "subsections": [
                {
                    "title": "Social Encapsulation and Membership Growth",
                    "paragraphs": [
                        "We first present results from a baseline-environment model where competitor organizations are randomly assigned combinations of time demand and encapsulation rate from the entire strategy space. We limit the presentation of results to a strategy space ranging from 1 to 14 for time and energy demand and 0 to 2.0 (on a logarithmic scale) for social encapsulation rate.11 Extension to other areas of the strategy space yields similar outcomes. Of primary interest here is the effect of social encapsulation on the rate of membership growth or decline. We additionally examine how this effect changes for organizations that demand different amounts of time and energy.",
                        "We terminate each simulation after 20,000 iterations.12 We examine two outcomes: membership growth and organizational longevity. Membership growth is reported as the log-transformed rate of membership change over the simulation period. Specifically,",
                        "",
                        "where St is the size of membership at iteration t. Many organizations did not survive the 20,000 iterations of the simulation period; thus, we also report the log-transformed longevity of each organizational strategy. For both measures, we report averages of 1,000 runs of the simulation.",
                        "Figure 3 displays contour plots of strategy outcomes measured as (a) growth and (b) longevity, as an effective way to present complex, three-dimensional data. The map surface corresponds to the strategy space, with social encapsulation rate on the y-axis and time and energy demand on the x-axis. The shading corresponds to the relative outcome (growth or longevity) for an organization occupying that position in the strategy space, with lighter shades indicating higher values. Lines offer an additional guide for the reader. Solid lines circumscribe regions with positive values (growth or longevity) and dashed lines circumscribe negative values (decline). Lines are labeled with their respective growth or longevity values.",
                        "Organizations that did not rewire their members' ties to one another (i.e., rE = 0, bottom of Figure 3a) fared poorly. The contour line distinguishing growth and decline (g = 0) bisects the strategy space at the origin, indicating that all non-rewiring strategies resulted in decline. Therefore, although an increased rate of in-group interaction is often considered a natural byproduct of most social groups (Feld 1981), we find that it is also essential to organizational survival. Organizations that did not compel members to form ties with each other invariably lost members over the course of the simulation. In such cases, members invested in closer ties with non-member associates instead, which led to disengagement from the focal organization.",
                        "The complete absence of social encapsulation is invariably a losing strategy, but in general, the level of encapsulation beneficial for membership growth varies significantly by the amount of time and energy that an organization demands of its members. The concentration of darker shading on the right side of the contour plot in Figure 3a indicates that highly demanding organizations have a difficult time achieving positive growth. Regardless of their social encapsulation rate, organizations demanding more than about 40 percent of members' time and energy lose members over the long run.",
                        "Results from our model support findings from classic case studies of \"greedy\" institutions (Coser 1974; Kanter 1972): highly demanding organizations can maintain members' commitment for a long time by monopolizing their social networks and cutting them off from outside contact. Although all demanding organizations have difficulty attaining growth, Figure 3b shows that demanding organizations with higher rates of social encapsulation persist longer than those with lower rates. This effect is reflected in the lighter shades of gray in the upper-right corner of the plot, compared to darker shades in the bottom-right corner. An important side effect of pursuing a strategy of high social encapsulation, however, is that in cutting itself off from the outside world, the organization leaves itself no means for future growth. Ultimately, the strategy leads to a slow demise, and would be even more likely to do so in a real-world setting where individual members can die, as well as leave the organization.",
                        "Social encapsulation is important for less demanding organizations as well, but it results in markedly different outcomes. Figure 3a shows that encapsulation rate has a curvilinear effect on membership growth for organizations that demand less than 35 percent of members' time. The highest and lowest levels of encapsulation result in membership decline, whereas intermediate levels achieve positive growth. The observed pattern supports the idea that organizations face countervailing pressures from, on the one hand, the need to maintain open networks to enable recruitment and, on the other hand, the need for social encapsulation to enhance retention. Too much investment in either structural property results in decline. Nonetheless, the less demanding organizations can achieve stability and even growth with a relatively wide range of different network encapsulation strategies."
                    ]
                },
                {
                    "title": "Social Encapsulation and Membership Growth",
                    "paragraphs": [
                        "The contour plots (Figure 3) reveal a general pattern of growth and decline for different strategy combinations, but they also mask potentially important differences in membership dynamics. One of our main questions is how different social encapsulation strategies balance recruitment and retention. For example, an organization can maintain a stable membership either by retaining all existing members or by replacing every member they lose with a new recruit. What does this balance look like in organizations that achieve membership growth, and how does it compare to organizations that fail to survive? The question has important substantive implications, because even when they achieve identical growth rates, organizations with high membership turnover (high recruitment relative to retention) will support very different competencies (e.g., employees' psychological status [Mowday, Porter, and Steers 1982] and performance [Labianca and Brass 2006]) than will organizations with low turnover (high retention relative to recruitment).",
                        "We now take a closer look at the effects of the social encapsulation rate by examining the network structures and unique retention and recruitment signatures of four specific strategies in a \"virtual case study\" (Baldassarri and Bearman 2007). To control for effects of time demand, we chose four organizations that each demanded 20 percent (four slots) of their members' time and energy. We also held the initial conditions identical for the four simulations using fixed random seed. Thus, any difference in outcome should be attributed to the simulation parameters. Within the 20 percent time demand stratum, we selected (A) an organization that did not rewire members' ties to one another at all (rE = 0), (B) an organization that induced members to rewire ties to one another at a low rate of .05, (C) an organization with moderate encapsulation rate (rE = .3), and (D) an organization with high encapsulation rate (rE = 2.0). The location of each case within the strategy space is marked with its respective letter in the contour plot of Figure 3a. The four cases represent the range of the curvilinear pattern observed in Figure 3a. Two cases that decline in membership (A and D) represent opposite extremes of social encapsulation, and B and C come from the opposite sides of the region with favorable prospects for membership growth. These two pairs of cases provide useful comparisons. The final outcomes of each pair are similar, but the underlying patterns of growth or decline are qualitatively different.",
                        "Let us first compare the two organizations that lose members in the long run (A and D). Figure 4 presents a time-series graph of membership for organizations A and D. Each bar is decomposed to show how long members have held their membership in the organization (for details, see Figure 4's caption). This decomposition reflects an organization's propensity to recruit and retain. Graphs dominated by light shades of gray indicate organizations with many newcomers and a high level of membership turnover; graphs with darker shades indicate low turnover.",
                        "The time-series graphs indicate that although organizations A and D finish the simulation run with approximately the same number of members, they decline in very different ways. Organization A maintains high membership turnover. Throughout its life-span, the majority of its membership is made up of recent recruits (members with tenure of less than 500 iterations). The growth trend is also highly volatile. Organization A increased its initial size by nearly 50 percent, before declining again to just 18 percent of its initial size by the end of the simulation. Organization D has a very different composition of members. In contrast to A, organization D has many longtime members and fewer new recruits. The core of long-term members, moreover, appears to protect the organization from high levels of volatility.",
                        "To further contrast these two patterns of membership decline, we present three snapshots of the system's networks. The first snapshot (at t = 0) represents the initial conditions for both cases. The other two snapshots are from different stages of the simulation: one from an early state (at 1,000 iterations) and one from a comparatively mature state of the system (at 10,000 iterations). In the network diagrams, the black nodes indicate members of the focal organization. Edges between nodes indicate social ties. The network graph in Figure 4 reveals that organization A, which does not rewire its members' ties, is not differentiated from the rest of the system. The clustering of members at the beginning of the simulation (t = 0) dissipates by iteration 1,000. At iteration 10,000, the E-I index, which defines the proportion of external to internal ties (Krackhardt and Stern 1988), is .69.13 By contrast, members of organization D cluster closely together. By iteration 10,000, they form a close-knit cluster that is completely isolated from the rest of the network (E-I = -1.00).",
                        "The network diagrams help explain the pattern observed in the time-series graph. By aggressively rewiring members' ties to each other, organization D is able to better protect members from out-recruitment. However, in doing so, the organization also inhibits its ability to recruit new members. Organization D slows its decline and survives the simulation period, albeit with a much smaller membership than it started. On the other hand, organization A's members are well connected to non-members in the system. The organization uses these ties to recruit new members, but the ties also make members available for out-recruitment. Because there is no cohesive set of members to serve as a buffer, membership begins to decline.",
                        "We observe similar mechanisms in the two cases of organizational growth (B and C), but these organizations strike a better balance between the structural demands of retention and recruitment. Qualitative differences emerge between these cases as well. Figure 5 presents the membership time-series graphs of the two growing organizations (B and C). The two organizations achieve comparable rates of growth, but whereas the membership of organization B includes many newcomers and few old-timers, organization C's members have much longer tenure, on average. Additionally, whereas organization B's growth comes in bursts, often interrupted by brief periods of decline, we see little volatility for organization C. Members of organization B are mixed with the rest of the population, an observation illustrated by the network diagrams (E-I = .39). On the other hand, organization C grows steadily, integrating its recruits into the organizational core and resulting in a significant cleavage between the older and newer members (E-I = -.80)",
                        "Several insights can be derived from the preceding analysis. First, organizations require different network structures to support different membership demands. On balance, social ties that span boundaries of highly demanding organizations facilitate exit and not recruitment. Consequently, the only effective strategy for the most demanding organizations is the one recommended by Coser (1974): sever members' ties to the outside world. The trade-off between recruitment and retention is most visible in less demanding organizations, which achieve positive growth only when they strike an appropriate balance between in-group cohesion and out-group ties to potential recruits. But even among organizations that achieve positive growth, different strategies imply contrasting membership structures. Organizations that allow members to maintain a significant share of ties to outsiders have very high membership turnover. By contrast, organizations with high in-group cohesion have very low turnover.",
                        "Thus, the level of social encapsulation influences not only growth and survival, but also carries important substantive implications. For example, maintaining a core of committed, long-tenured members makes it easier to preserve institutional memory and maintain a particular organizational culture (Harrison and Carroll 1991). High member turnover, by contrast, is not amenable to reproducing a stable organizational culture. On the other hand, the constant recycling of members may facilitate greater adaptability and avoid the downsides of institutional inertia."
                    ]
                },
                {
                    "title": "Social Encapsulation and Membership Growth",
                    "paragraphs": [
                        "Next, we consider how environments composed of different types of competitors influence the fitness of focal strategies. Figure 6 presents growth contour plots for six environments characterized by different types of competitors. In the top panel, competing organizations are highly demanding of members' time; in the bottom panel, competing organizations demand comparatively little time. Specifically, we define organizations that demand between 40 and 80 percent of members' time and energy as highly demanding, whereas organizations in the low-demanding environment require between 5 and 15 percent of individuals' time and energy. A main contrast between these two environments is that low-demanding organizations make it easier for agents to hold multiple affiliations. We also vary the level of competitors' social encapsulation rates across environmental conditions. In the left panel, competing organizations do not rewire ties (rE = 0), in the next panel the encapsulation rate is kept moderate (.01 - .1), and the right panel is extremely high (10.0).",
                        "Results confirm the expectation that competitive pressure is generally higher in environments with low-demanding competitors. The comparatively larger areas of the strategy space that lie within the solid contour lines (positive growth) in the top panel indicate that a broad range of focal strategies can achieve growth in an environment rich with highly demanding organizations. In contrast, environments characterized by low-demanding organizations (bottom panel of Figure 6) constrain the focal organization's growth strategies to a much smaller area. In other words, when the competition is highly demanding, a focal organization can grow while adopting almost any strategy, but when the competition is less demanding, it can grow only if it keeps to a relatively narrow range of strategies. To examine this pattern directly, we construct a measure of competitive pressure within different environments by counting the number of strategy combinations that decline under different conditions and dividing it by the total number of strategies in the strategy space. For instance, when every possible strategy leads to decline in membership, competitive pressure is highest--every one of the 13 x 14 sampled strategy combinations fails ( 13x1413x14=1 ). When allstrategies survive, competitive pressure is zero ( 013x14=0). We plot this measure ofcompetitive pressure against social encapsulation for high- and low-demanding organizations in Figure 7.",
                        "Across all but one social encapsulation condition, competitive pressure is higher in environments with low-demanding organizations. The only exception is the case where competitors' social encapsulation is set to zero, in which competitive pressure is equal for both low- and high-demanding conditions. Because passing the membership threshold has no influence on tie formation in this case, the exact threshold value makes no difference for affiliation dynamics. The patterns diverge as the rate of social encapsulation among competitors increases. In the condition of highly demanding competitors, competitive pressure generally declines with higher encapsulation rates. At the highest level of social encapsulation, competitive pressure is at its lowest. In the condition with low-demanding competitors, by contrast, competitive pressure increases steeply with higher social encapsulation rates and then decreases again as competitors become too self-isolating.",
                        "To understand the observed effect of competitors' strategies on the focal organization's growth, we need to consider the niche dynamics that emerge in each environmental condition. Multiple affiliations, which are more likely within the low-demanding environment, drastically increase competition. They integrate the social space by creating cross-cutting social ties and enable organizations to compete directly for each other's members.14 In contrast, in environments characterized by high-demanding competitors, each is likely to hold just one affiliation. Direct competition between organizations is lower in this case, as each organization settles into a relatively circumscribed niche.",
                        "Competitors' rate of social encapsulation also has an important effect on niche dynamics. In the high-demand condition, where cross-cutting ties are absent, higher rates of social encapsulation lead to greater fragmentation of the social space. Competitive pressure decreases as organizations isolate their members (Figure 7, dashed line). Social encapsulation has a different relationship with competitive pressure in the low-demand condition, where multiple affiliations are the norm. The focal organization's members are subject to competing network rewiring pressures from their extra affiliations. These affiliations pull them away from the focal organization, with the force of the pull proportionate to the social encapsulation rate of the competing organization. The graph in Figure 7 (solid line) shows that as competitors' rates of social encapsulation increase from zero, competing organizations win these tug-of-war contests more often, thus imposing greater constraint on the focal organization's growth. Competitive pressure declines again, however, when social encapsulation rates reach extremely high levels. In this environment, also presented in the bottom-right contour plot of Figure 6, competing organizations retreat from competition with the focal organization. Extreme values of social encapsulation eliminate the cross-cutting ties and give rise to a fragmented social space--one in which the focal organization can carve out a larger, less competitive niche.",
                        "In general, this analysis reinforces the core idea of ecological approaches to the study of organizations: the fitness of an organizational strategy is always conditional on the local environment. We extend previous ecology of affiliation models (e.g., McPherson 1983) by showing that by adopting different strategies, organizations alter the local network structure, thereby creating more or less competitive niches."
                    ]
                },
                {
                    "title": "Social Encapsulation and Membership Growth",
                    "paragraphs": [
                        "The power of a simple theoretical model is that it allows researchers to relax or modify assumptions and explore a wide array of closely related social dynamics. Here, by offering an extension of our model that relaxes one of the assumptions, we illustrate such a possibility with a seemingly contradictory example to organizational competition. Rather than competing for scarce human resources, organizations sometimes form mutualistic relationships (Kitts 1999; Morris 1984) through which membership in one organization facilitates and reinforces membership in another. Showing that our model accommodates mutualistic relationships would offer an important theoretical extension and also highlight the model's generalizability.",
                        "We examine this possibility by relaxing the assumption that time and energy are fungible and modeling organizational competition in a bifurcated schedule. This can be thought of as accommodating two classes of organizations; one class of organizations that schedules its activities during the daytime and another class that competes exclusively for individuals' evening hours. The interaction and influence dynamics are equivalent to the above model. The only difference is that we divide the 20-slot time array into two classes (e.g., daytime and evening), each represented by a 10-slot array. We designate five of the organizations as competitors within one class (e.g., daytime organizations) and five as competitors within the other class (e.g., evening organizations). Except for the single focal organization under experimental treatment (discussed below), every other organization's strategies are assigned randomly, as in the earlier baseline condition.",
                        "The question we pose is whether and how the social encapsulation of a daytime focal organization influences its members' affiliations in the evening segment. We know from the results presented earlier that a higher rate of social encapsulation tends to increase an organization's longevity, but how does it influence affiliation dynamics among organizations in a non-overlapping part of the schedule? We expect that, holding everything else in the system constant, increasing the social encapsulation rate of the daytime organization should concentrate its members' affiliations among the evening organizations. In other words, more cohesive networks formed with co-members in the daytime will steer them to develop common interests and affiliations in the evening. This result would provide evidence of a mutualistic relationship between the daytime organization and one or more evening organizations. We measure concentration by defining a heterogeneity index of affiliation (H). For the set of members in the focal daytime organization, H is the mean of variances of membership status (1 or 0) in each of the evening organizations, weighted by the size of the overlap.15",
                        "Figure 8 presents the results. The findings support the existence of mutualistic organizational relationships across schedule segments. The x-axis is the encapsulation rate of the daytime focal organization, and the y-axis is the heterogeneity index of evening affiliations at iteration 10,000, averaged over 10,000 replications. As the social encapsulation rate of the focal daytime organization increases, its members' affiliations in the evening become more homogenous. In other words, as daytime social encapsulation becomes more pronounced, members' nighttime activities converge on a limited number of organizations. More generally, the findings illustrate that when the resource base is partitioned, social ties formed in an organization occupying one partition will drive members to share affiliations in a different partition. This result demonstrates that our model generalizes to non-competitive organizational relationships when we relax the assumption of time fungibility. Although we focus exclusively on this effect here, the modified model also suggests new research questions that lie beyond the scope of the current study.16",
                        "We presented the bifurcation as reflecting two non-overlapping time segments, but it could be interpreted as a distinction between different organizational domains, such as religious and non-religious activities (see Chattoe 2006). Our result thus provides theoretical support for studies that identify mutualistic relationships between organizations that occupy alternative domains of social activity. Kitts (1999), for example, observed that members of an environmental organization expressed less commitment if they held affiliations with other environmental groups, but they were more committed if their extra affiliations were with organizations in an unrelated domain. This result also provides an alternative explanation for Feld's (1981) findings that foci are often merged; it may be less that individuals want foci to be connected than that they are simply constrained by their networks to do so."
                    ]
                }
            ]
        },
        {
            "title": "Discussion and Conclusions",
            "subsections": [
                {
                    "title": null,
                    "paragraphs": [
                        "Social network ties are instrumental for recruiting and retaining members in organizations, and organizations themselves act as the primary contexts of network tie formation (Feld 1981; Putnam 2000). Combining these two insights, this article examines how different networks form inside of organizations and influence organizations' ability to recruit and retain members. The results show that basic human constraints--limited time and energy and limited capacity for socialization--induce trade-offs between an organization's abilities to recruit and retain. How organizations manage these trade-offs has important implications for affiliation dynamics and for network processes more generally.",
                        "Our research yields several recommendations for organizational design. The results confirm the prediction of the ecology of affiliation tradition that higher participation requirements lead to member exit (Cress et al. 1997). However, we find that a corresponding increase in the rate of social encapsulation can mitigate the losses from increased demand. This result supports Coser's (1974) idea that \"greedy institutions,\" which sever members' ties to the outside world, help secure commitment in extremely demanding organizations (e.g., cults and communes). Although transforming into a greedy organization offers protection from competitors, it does so by sacrificing the prospect of future recruitment, all but guaranteeing an organization's eventual demise. Thus, if an organization is to grow or survive in the long run, it ultimately must compete, and that competition will force behavioral demands down, limiting the contribution level an organization can expect from each member.",
                        "To attain a large volume of members quickly, organizations should lower the time and energy required for participation. Our results show that in most environments, such organizations can survive and even grow with relatively little network closure. The result helps explain, for example, the documented trend among U.S. civic organizations toward reliance on \"checkbook members\" who contribute little to an organization's day-to-day activities (Putnam 1995; Skocpol 2003). Existing empirical research suggests that lowering the cost of participation is a conscious and popular strategy for increasing public engagement among advocacy organizations (Walker 2014). New Internet-based advocacy organizations, in particular, have grown by making it possible for members to make only token contributions with a click of a mouse (Lewis, Gray, and Meierhenrich 2014).",
                        "Of course, most organizations require members to contribute more than token amounts of participation. The need for balance between open networks (for recruitment) and network closure (for retention) is most clear in these cases. Whereas token contributions can be sustained with relatively little network closure among members, ensuring commitment to a moderate level of participation requires reinforcement from network neighbors. Putnam (2000) famously observed that bowling leagues help sustain social capital (i.e., a high level of network connectedness), but the opposite is true as well: bowling leagues can survive only so long as they develop sufficiently dense networks among their members.",
                        "The level of social encapsulation that would be sufficient for survival depends on the surrounding organizational environment. As a general rule, a rate of social encapsulation that is higher than that of one's competitors provides an ecological advantage. However, among organizations that achieve stability or growth, the degree of social encapsulation accounts for substantive variation. For example, organizations that need to develop and maintain complex organizational routines should favor higher levels of social encapsulation, which produces denser networks and thus supports longer average membership tenure. In contrast, organizations that value adaptability and wish to limit institutional inertia will prefer lower levels of social encapsulation, because it produces a higher rate of membership turnover. Additionally, imposing greater social encapsulation than one's competitors tends to provide an ecological advantage, but there is, for any given level of time and energy demand, a cliff beyond which more social encapsulation leads to a lingering organizational death. Organizations may thus be driven to crowd as close as possible to this point-of-no-return, without quite crossing over.",
                        "Finally, the initial step we took to relax the assumption that time and energy is an undifferentiated resource suggests a new line of inquiry for research in the ecology of affiliation tradition. The small extension described earlier offers a path unifying two seemingly contradictory organizational phenomena, namely competition and cooperation. This has important implications for ecological theory, suggesting that under some circumstances, multiple embeddings are not channels of competition, contrary to previous scholarship (but see Kitts [1999] for a notable exception). This points intriguingly toward an explanation for the symbiosis between sustained political movements and religious groups (e.g., the civil rights movement): high levels of network closure obtained within religious organizations support sustained encapsulation in associated political organizations, even without the need for formal ties (McAdam 1982; Morris 1984). To improve our understanding of these important dynamics, future research should develop conceptions of time and scheduling that better reflect the routines of contemporary organizations (Winship 2009; Young and Lim 2014). Not only do organizations schedule their activities at different times, the flexibility of schedules also differs across organizations. One may expect that more flexible organizations have an ecological advantage due to greater adaptability to competition; yet, flexibility may also degrade the effectiveness of social encapsulation, because members are less likely to come into contact (i.e., the coordination problem).",
                        "Like every model, ours rests on multiple simplifying assumptions. Several specific assumptions are worth elaborating, both to clarify how model results relate to empirical cases and to highlight fruitful directions for future research. First, although there is likely a relationship between social encapsulation and time and energy demand, we model them as independent parameters. This modeling choice serves an analytic purpose, allowing us to explore the entire strategy space without committing to a poorly specified link function between the two dimensions, and thereby enabling us to examine the mechanisms underlying the ecological dynamics of interest. However, although the results cover all theoretically possible outcomes, some of the outcomes are empirically unlikely. A relationship between time demand and maximum social encapsulation constrains the empirical strategy space. We expect this relationship is sublinear, with each additional unit of time yielding decreasing amounts of maximum encapsulation, but additional research is needed to understand the individual and organizational factors that influence this bound. Relatedly, in our model, social encapsulation and time and energy demand are assumed to be independent of other organizational characteristics, such as size and organizational age. Yet, one may reasonably expect, for example, that social encapsulation is more easily achieved in a small group, such as a book club, than a large group, such as a university. Future research should examine the empirical distribution of organizations along the two dimensions and how these relate to key organizational characteristics. Such studies may also provide useful insights into the nature of time use and organizational life under those specific conditions.",
                        "Second, in isolating the variables of interest, our model presents organizations that are more rigid than would be expected in empirical cases. For one, our model fixes organizational strategies for each organization for the duration of the simulation. Although organizations are limited in the extent and pace of their change in important ways (DiMaggio and Powell 1983; Hannan and Freeman 1984), they do adapt to external circumstances (Barnett and Carroll 1995; Rochford 1982) and to concerns raised by members and other stakeholders (Hirschman 1970). Additionally, whereas we model membership as a function of a single commitment threshold, many organizations have multiple types of membership. Oliver (1984), for example, contrasts the contributions of core members with token contributions by the majority of social movement participants. Although our simulation does not model such schemes directly, it makes the need for stratified membership levels clear. A highly demanding organizational core may need to be surrounded by a less demanding layer that serves as a membrane, protecting the core from out-recruitment while simultaneously funneling resources and individuals into the organization. Studies of religious movements, for example, find that groups develop one set of expectations for devotees but present more flexible routines to potential recruits (Rochford 1982; Snow et al. 1980).",
                        "Finally, we present a structural account of organizational membership and deemphasize alternative factors that are also related to group cohesion. Prior research suggests, for example, that organizations generating greater investment of time and energy from their members would produce higher-quality collective goods that make them more attractive to additional members (e.g., Hechter 1987; Iannaccone 1994). Future research may extend the formal architecture we present here to consider this and other factors.",
                        "Before closing, we note that our findings at the organizational level can improve our understanding of outcomes at the level of individuals and at the level of the larger social system. As primary contexts of interaction, organizations form a critical meso-level in society (Feld 1981; McPherson 1983; Putnam 2000). But despite their importance for research on both the composition of personal networks (at the micro-level) and properties of global networks (at the macro-level), organizations' role in network formation remains understudied. For example, previous models of emergent networks consider the role of dyadic mechanisms, such as homophily and reciprocity, as well as neighborhood-based network processes (e.g., Centola 2015; Pattison and Robins 2002), but organizational diversity is either ignored or seen as causally secondary to other network processes (McPherson 2004). Our model shows that basic organizational features can generate substantial variation in global network structure. Thus, we wish to echo recent calls for greater attention to the social contexts of interaction (Entwisle et al. 2007; McFarland et al. 2014). Organizations also influence micro-level outcomes. As Breiger (1974) observed, relationships among organizations and individuals are co-constitutive (see also Neal 2014; Zweig and Kaufmann 2011). Considering organizational dynamics can thus offer new insights into key individual-level outcomes such as social isolation or its converse, integration. Our research suggests, for example, that lower levels of connection among Americans may, in part, be the result of a decline of organizations that, although effective at creating cohesion, could not compete with organizations that offered more flexible routines (Putnam 2000; Skocpol 2003).",
                        "This study is a significant step toward a better understanding of organizational dynamics more generally. Simulation enabled us to identify general mechanisms of organizational growth and survival. We show, specifically, that social encapsulation and time and energy demands form critical elements of organizational strategy. Our study also opens avenues for future research. We demonstrate that the ecological context provides essential context for understanding recruitment and retention processes, but future research should build on our initial foray into examining non-competitive relationships. Finally, although the collection of longitudinal affiliation network data is costly and rarely done, we believe that future theoretical development would benefit from empirical research."
                    ]
                }
            ]
        }
    ],
    "references": [
        "Baldassarri, Delia, Bearman, Peter. 2007. \u201cDynamics of Political Polarization.\u201d American Sociological Review 72(5):784\u2013811.",
        "Barnett, William P., Carroll, Glenn R. 1995. \u201cModeling Internal Organizational Change.\u201d Annual Review of Sociology 21:217\u201336.",
        "Brashears, Matthew E. 2013. \u201cHumans Use Compression Heuristics to Improve the Recall of Social Networks.\u201d Nature Scientific Reports 3:1513.",
        "Breiger, Ronald L. 1974. \u201cThe Duality of Persons and Groups.\u201d Social Forces 53(2):181\u201390.",
        "Burger, Martjin J., Buskens, Vincent. 2009. \u201cSocial Context and Network Formation: An Experimental Study.\u201d Social Networks 31(1):63\u201375.",
        "Centola, Damon. 2015. \u201cThe Social Origins of Networks and Diffusion.\u201d American Journal of Sociology 120(5):1295\u20131338.",
        "Centola, Damon, Macy, Michael W. 2007. \u201cComplex Contagions and the Weakness of Long Ties.\u201d American Journal of Sociology 113(3):702\u2013734.",
        "Chattoe, Edmund. 1998. \u201cJust How (Un)realistic Are Evolutionary Algorithms as Representations of Social Processes?\u201d Journal of Artificial Societies and Social Simulation 1(3) (http://jasss.soc.surrey.ac.uk/1/3/2.html).",
        "Chattoe, Edmund. 2006. \u201cUsing Simulation to Develop Testable Functionalist Explanations: A Case Study of Church Survival.\u201d British Journal of Sociology 57(3):379\u201397.",
        "Coleman, James S. 1990. Foundations of Social Theory. Cambridge, MA: Harvard University Press.",
        "Coser, Lewis. 1974. Greedy Institutions: Patterns of Undivided Commitment. New York: Free Press.",
        "Cress, Daniel M., McPherson, Miller J., Rotolo, Thomas. 1997. \u201cCompetition and Commitment in Voluntary Memberships: The Paradox of Persistence and Participation.\u201d Sociological Perspective 40(1):61\u201379.",
        "della Porta, Donatella. 1988. \u201cRecruitment Processes in Clandestine Political Organizations: Italian Left-Wing Terrorism.\u201d International Social Movement Research 1(1):155\u201369.",
        "DellaPosta, Daniel, Shi, Yongren, Macy, Michael W. 2015. \u201cWhy Do Liberals Drink Lattes?\u201d American Journal of Sociology 120(5):1473\u20131511.",
        "DiMaggio, Paul J., Powell, Walter W. 1983. \u201cThe Iron Cage Revisited: Institutional Isomorphism and Collective Rationality in Organizational Fields.\u201d American Sociological Review 48(2):147\u201360.",
        "Dunbar, R.I.M. 1992. \u201cNeocortex Size as a Constraint on Group Size in Primates.\u201d Journal of Human Evolution 22(6):469\u201393.",
        "Edwards, Bob, McCarthy, John D. 2004. \u201cStrategy Matters: The Contingent Value of Social Capital in the Survival of Local Social Movement Organizations.\u201d Social Forces 83(2):621\u201351.",
        "Entwisle, Barbara, Faust, Katherine, Rindfuss, Ronald R., Kaneda, Toshiko. 2007. \u201cNetworks and Contexts: Variation in the Structure of Social Ties.\u201d American Journal of Sociology 112(5):1495\u20131533.",
        "Feld, Scott L. 1981. \u201cThe Focused Organization of Social Ties.\u201d American Journal of Sociology 86(5):1015\u201335.",
        "Friedkin, Noah E., Johnsen, Eugene C. 1999. \u201cSocial Influence Networks and Opinion Change.\u201d Advances in Group Processes 16:1\u201329.",
        "Geard, Nicholas, Bullock, Seth. 2010. \u201cCompetition and the Dynamics of Group Affiliation.\u201d Advances in Complex Systems 13(4):501\u2013517.",
        "Gould, Roger V. 1991. \u201cMultiple Networks and Mobilization in the Paris Commune, 1871.\u201d American Sociological Review 56(6):716\u201329.",
        "Gould, Roger V. 2003. \u201cWhy Do Networks Matter? Rationalist and Structuralist Interpretations.\u201d Pp. 233\u201357 in Social Movement Networks: Relational Approaches to Collective Action, edited by Diani, M., McAdam, D. New York: Oxford University Press.",
        "Granovetter, Mark. 1995. Getting a Job: A Study of Contacts and Careers. Chicago: The University of Chicago Press.",
        "Guimera, Roger, Uzzi, Brian, Spiro, Jarrett, Nunes Amaral, Luis A. 2005. \u201cTeam Assembly Mechanisms Determine Collaboration Network Structure and Team Performance.\u201d Science 308:697\u2013702.",
        "Han, Hahrie. 2016. \u201cThe Organizational Roots of Political Activism: Field Experiments on Creating a Relational Context.\u201d American Political Science Review 110(2):297\u2013307.",
        "Hannan, Michael T., Freeman, John. 1984. \u201cStructural Inertia and Organizational Change.\u201d American Sociological Review 49(1):149\u201364.",
        "Harrison, J. Richard, Carroll, Glenn R. 1991. \u201cKeeping the Faith: A Model of Cultural Transmission in Formal Organizations.\u201d Administrative Science Quarterly 36(4):552\u201382.",
        "Hechter, Michael. 1987. Principles of Group Solidarity. Berkeley: University of California Press.",
        "Hirschman, Albert O. 1970. Exit, Voice and Loyalty. Cambridge, MA: Harvard University Press.",
        "Iannaccone, Laurence R. 1994. \u201cWhy Strict Churches Are Strong.\u201d American Journal of Sociology 99(5):1180\u20131211.",
        "Ingram, Paul, Morris, Michael W. 2007. \u201cDo People Mix at Mixers? Structure, Homophily, and the \u2018Life of the Party.\u2019\u201d Administrative Science Quarterly 52:558\u201385.",
        "Johnson, Norman L., Kotz, Samuel. 1977. Urn Model and Their Application: An Approach to Modern Discrete Probability Theory. Hoboken, NJ: John Wiley & Sons.",
        "Kanter, Rosabeth Moss. 1972. Commitment and Community: Communes and Utopias in Sociological Perspective. Cambridge, MA: Harvard University Press.",
        "Kitts, James A. 1999. \u201cNot in Our Backyard: Solidarity, Social Networks, and the Ecology of Environmental Mobilization.\u201d Sociological Inquiry 69(4):551\u201374.",
        "Kitts, James A. 2000. \u201cMobilizing in Black Boxes: Social Networks and Participation in Social Movement Organizations.\u201d Mobilization 5(2):241\u201357.",
        "Krackhardt, David, Stern, Robert N. 1988. \u201cInformal Networks and Organizational Crises: An Experimental Simulation.\u201d Social Psychology Quarterly 51(2):123\u201340.",
        "Labianca, Giuseppe, Brass, Daniel J. 2006. \u201cExploring the Social Ledger: Negative Relationships and Negative Asymmetry in Social Networks in Organizations.\u201d Academy of Management Review 31(3):596\u2013614.",
        "Lewis, Kevin, Gray, Kurt, Meierhenrich, Jens. 2014. \u201cThe Structure of Online Activism.\u201d Sociological Science 1:1\u20139.",
        "Lim, Chaeyoon. 2008. \u201cSocial Networks and Political Participation: How Do Networks Matter?\u201d Social Forces 87(2):961\u201382.",
        "Lizardo, Omar. 2006. \u201cHow Cultural Tastes Shape Personal Networks.\u201d American Sociological Review 71(5):778\u2013807.",
        "Lofland, John. 1978. \u201c\u2018Becoming a World-Saver\u2019 Revisited.\u201d Pp. 10\u201323 in Conversion Careers: In and Out of New Religions, edited by Richardson, J. Beverly Hills, CA: Sage.",
        "Lofland, John, Stark, Rodney. 1965. \u201cBecoming a World-Saver: A Theory of Conversion to a Deviant Perspective.\u201d American Sociological Review 30(6):862\u201375.",
        "Macy, Michael, Willer, Robert. 2002. \u201cFrom Factors to Actors: Computational Sociology and Agent-Based Modeling.\u201d Annual Review of Sociology 28:143\u201366.",
        "Mark, Noah. 1998. \u201cBirds of a Feather Sing Together.\u201d Social Forces 77(2):453\u201385.",
        "Marsden, Peter V., Campbell, Karen E. 1984. \u201cMeasuring Tie Strength.\u201d Social Forces 63(2):482\u2013501.",
        "Marsden, Peter V., Gorman, Elizabeth H. 2001. \u201cSocial Networks, Job Changes and Recruitment.\u201d Pp. 467\u2013502 in Sourcebook of Labor Markets: Evolving Structures and Processes, edited by Berg, I., Kalleberg, A. L. New York: Plenum Press.",
        "Mayhew, Bruce H., Levinger, Roger L. 1976. \u201cOn the Emergence of Oligarchy in Human Interaction.\u201d American Journal of Sociology 81(5):1017\u201349.",
        "McAdam, Doug. 1982. Political Process and the Development of Black Insurgency, 1930\u20131970. Chicago: University of Chicago Press.",
        "McAdam, Doug. 1986. \u201cRecruitment to High-Risk Activism: The Case of Freedom Summer.\u201d American Journal of Sociology 92(1):64\u201390.",
        "McAdam, Doug. 2003. \u201cBeyond Structural Analysis: Toward a More Dynamic Understanding of Social Movements.\u201d Pp. 281\u201398 in Social Movement Networks: Relational Approaches to Collective Action, edited by Diani, M., McAdam, D. New York: Oxford University Press.",
        "McAdam, Doug, Paulsen, Ronnelle. 1993. \u201cSpecifying the Relationship between Social Ties and Activism.\u201d American Journal of Sociology 99(3):640\u201367.",
        "McFarland, Daniel A., Moody, James, Diehl, David, Smith, Jeffrey A., Thomas, Reuben J. 2014. \u201cNetwork Ecology and Adolescent Social Structure.\u201d American Sociological Review 79(6):1088\u20131121.",
        "McPherson, J. Miller. 1983. \u201cAn Ecology of Affiliation.\u201d American Sociological Review 48(4):519\u201332.",
        "McPherson, J. Miller. 2004. \u201cA Blau Space Primer: Prolegomenon to an Ecology of Affiliation.\u201d Industrial and Corporate Change 13(1):263\u201380.",
        "McPherson, J. Miller, Popielarz, Pamela A., Drobnic, Sonja. 1992. \u201cSocial Networks and Organizational Dynamics.\u201d American Sociological Review 57(1):153\u201370.",
        "McPherson, J. Miller, Ranger-Moore, James R. 1991. \u201cEvolution on a Dancing Landscape: Organizations and Networks in Dynamic Blau Space.\u201d Social Forces 70(1):19\u201342.",
        "McPherson, J. Miller, Rotolo, Thomas. 1996. \u201cTesting a Dynamic Model of Social Composition: Diversity and Change in Voluntary Groups.\u201d American Sociological Review 61(2):179\u2013202.",
        "McPherson, Miller, Smith-Lovin, Lynn. 2002. \u201cCohesion and Membership Duration: Linking Groups, Relations and Individuals in an Ecology of Affiliation.\u201d Advances in Group Processes 19(1):1\u201336.",
        "McPherson, Miller, Smith-Lovin, Lynn, Cook, James M. 2001. \u201cBirds of a Feather: Homophily in Social Networks.\u201d Annual Review of Sociology 27:415\u201344.",
        "Morris, Aldon. 1984. The Origins of the Civil Rights Movement: Black Communities Organizing for Change. New York: Free Press.",
        "Mowday, Richard T., Porter, Lyman W., Steers, Richard M. 1982. Employee\u2013Organization Linkages: The Psychology of Commitment, Absenteeism, and Turnover. New York: Academic Press.",
        "Neal, Zachary. 2014. \u201cThe Backbone of Bipartite Projections: Inferring Relationships from Co-authorship, Co-sponsorship, Co-attendance and Other Co-behaviors.\u201d Social Networks 39(1):84\u201397.",
        "Oliver, Pamela. 1984. \u201cIf You Don\u2019t Do It, Nobody Else Will: Active and Token Contributors to Local Collective Action.\u201d American Sociological Review 49(5):601\u2013610.",
        "Pattison, Philippa, Robins, Garry. 2002. \u201cNeighborhood-Based Models for Social Networks.\u201d Sociological Methodology 32(1):301\u2013337.",
        "Pfeffer, Jeffrey, Salancik, Gerald R. 1978. The External Control of Organizations: A Resource Dependence Perspective. New York: Harper and Row.",
        "Popielarz, Pamela A., McPherson, Miller J. 1995. \u201cOn the Edge or in Between: Niche Position, Niche Overlap, and the Duration of Voluntary Association Memberships.\u201d American Journal of Sociology 101(3):698\u2013720.",
        "Popielarz, Pamela A., Neal, Zachary P. 2007. \u201cThe Niche as a Theoretical Tool.\u201d Annual Review of Sociology 33:65\u201384.",
        "Putnam, Robert. 1995. \u201cBowling Alone: America\u2019s Declining Social Capital.\u201d Journal of Democracy 6(1):65\u201378.",
        "Putnam, Robert. 2000. Bowling Alone: The Collapse and Revival of American Community. New York: Simon & Schuster.",
        "Rochford, E. Burke 1982. \u201cRecruitment Strategies, Ideology, and Organization in the Hare Krishna Movement.\u201d Social Problems 29(4):399\u2013410.",
        "Rotolo, Thomas, McPherson, J. Miller. 2001. \u201cThe System of Occupations: Modeling Occupations in Sociodemographic Space.\u201d Social Forces 79(3):1095\u20131130.",
        "Saram\u00e4ki, Jari, Leicht, E. A., L\u00f3pez, Eduardo, Roberts, Sam G. B., Reed-Tsochas, Felix, Dunbar, Robin I. M. 2014. \u201cPersistence of Social Signatures in Human Communication.\u201d Proceedings of the National Academy of Sciences 111:942\u201347.",
        "Scott, W. Richard. 1992. Organizations: Rational, Natural, and Open Systems, 3rd ed. Englewood Cliffs, NJ: Prentice Hall.",
        "Simmel, Georg. 1955. Conflict and the Web of Group Affiliations, translated and edited by Wolff, Kurt. Glencoe, IL: Free Press.",
        "Simon, Herbert. 1976. Administrative Behavior. New York: The Free Press.",
        "Skocpol, Theda. 2003. Diminished Democracy: From Membership to Management in American Civic Life. Norman: University of Oklahoma Press.",
        "Small, Mario. 2009. Unanticipated Gains: Origins of Network Inequality in Everyday Life. New York: Oxford University Press.",
        "Snow, David, Zurcher, Louis A., Ekland-Olson, Sheldon. 1980. \u201cSocial Networks and Social Movements: A Micro Structural Approach to Differential Recruitment.\u201d American Sociological Review 45(5):787\u2013801.",
        "Stark, Rodney, Bainbridge, William Sims. 1980. \u201cNetworks of Faith: Interpersonal Bonds and Recruitment to Cults and Sects.\u201d American Journal of Sociology 85(6):1376\u201395.",
        "Stern, Charlotta. 1999. \u201cThe Evolution of Social-Movement Organizations: Niche Competition in Social Space.\u201d European Sociological Review 15(1):91\u2013105.",
        "Stiller, James, Dunbar, R. I. M. 2007. \u201cPerspective-Taking and Memory Capacity Predict Social Network Size.\u201d Social Networks 29(1):93\u2013104.",
        "Walgrave, Stefaan, Wouters, Ruud. 2014. \u201cThe Missing Link in the Diffusion of Protest: Asking Others.\u201d American Journal of Sociology 119(6):1670\u20131709.",
        "Walker, Edward T. 2014. Grassroots for Hire: Public Affairs Consultants in American Democracy. New York: Cambridge University Press.",
        "Wellman, Barry. 2001. \u201cPhysical Place and Cyberplace: The Rise of Personalized Networking.\u201d International Journal of Urban and Regional Research 25(2):227\u201352.",
        "Winship, Christopher. 2009. \u201cSocial Interactions, Groups and Scheduling Constraints.\u201d Pp. 498\u2013520 in The Oxford Handbook of Analytical Sociology, edited by Hedstr\u00f6m, P., Bearman, P. New York: Oxford University Press.",
        "Young, Cristobal, Lim, Chaeyoon. 2014. \u201cTime as a Network Good: Evidence from Unemployment and the Standard Workweek.\u201d Sociological Science 1:10\u201327.",
        "Zweig, Katharina A., Kaufmann, Michael. 2011. \u201cA Systematic Approach to the One-Mode Projection of Bipartite Graphs.\u201d Social Network Analysis and Mining 1(3):187\u2013218."
    ],
    "title": "A Member Saved Is a Member Earned? The Recruitment-Retention Trade-Off and Organizational Strategies for Membership Growth",
    "issue": "2",
    "volume": "82",
    "year": 2017,
    "issn": "0003-1224",
    "journal": "American Sociological Review",
    "authors": [
        "Yongren Shi",
        " Fedor A. Dokshin",
        " Michael Genkin",
        " Matthew E. Brashears"
    ]
}